%!PS-Adobe-3.0 EPSF-3.0
%%BoundingBox: 0 0 17 6
%%HiResBoundingBox: 0.995313 0.100391 16.100000 5.599609
%...............................................
%%Creator: GPL Ghostscript 870 (epswrite)
%%CreationDate: 2018/04/02 09:10:11
%%DocumentData: Clean7Bit
%%LanguageLevel: 2
%%EndComments
%%BeginProlog
% This copyright applies to everything between here and the %%EndProlog:
% Copyright (C) 2009 Artifex Software, Inc.  All rights reserved.
%%BeginResource: procset GS_epswrite_2_0_1001 1.001 0
/GS_epswrite_2_0_1001 80 dict dup begin
/PageSize 2 array def/setpagesize{ PageSize aload pop 3 index eq exch
4 index eq and{ pop pop pop}{ PageSize dup  1
5 -1 roll put 0 4 -1 roll put dup null eq {false} {dup where} ifelse{ exch get exec}
{ pop/setpagedevice where
{ pop 1 dict dup /PageSize PageSize put setpagedevice}
{ /setpage where{ pop PageSize aload pop pageparams 3 {exch pop} repeat
setpage}if}ifelse}ifelse}ifelse} bind def
/!{bind def}bind def/#{load def}!/N/counttomark #
/rG{3{3 -1 roll 255 div}repeat setrgbcolor}!/G{255 div setgray}!/K{0 G}!
/r6{dup 3 -1 roll rG}!/r5{dup 3 1 roll rG}!/r3{dup rG}!
/w/setlinewidth #/J/setlinecap #
/j/setlinejoin #/M/setmiterlimit #/d/setdash #/i/setflat #
/m/moveto #/l/lineto #/c/rcurveto #
/p{N 2 idiv{N -2 roll rlineto}repeat}!
/P{N 0 gt{N -2 roll moveto p}if}!
/h{p closepath}!/H{P closepath}!
/lx{0 rlineto}!/ly{0 exch rlineto}!/v{0 0 6 2 roll c}!/y{2 copy c}!
/re{4 -2 roll m exch dup lx exch ly neg lx h}!
/^{3 index neg 3 index neg}!
/f{P fill}!/f*{P eofill}!/s{H stroke}!/S{P stroke}!
/q/gsave #/Q/grestore #/rf{re fill}!
/Y{P clip newpath}!/Y*{P eoclip newpath}!/rY{re Y}!
/|={pop exch 4 1 roll 1 array astore cvx 3 array astore cvx exch 1 index def exec}!
/|{exch string readstring |=}!
/+{dup type/nametype eq{2 index 7 add -3 bitshift 2 index mul}if}!
/@/currentfile #/${+ @ |}!
/B{{2 copy string{readstring pop}aload pop 4 array astore cvx
3 1 roll}repeat pop pop true}!
/Ix{[1 0 0 1 11 -2 roll exch neg exch neg]exch}!
/,{true exch Ix imagemask}!/If{false exch Ix imagemask}!/I{exch Ix image}!
/Ic{exch Ix false 3 colorimage}!
/F{/Columns counttomark 3 add -2 roll/Rows exch/K -1/BlackIs1 true>>
/CCITTFaxDecode filter}!/FX{<</EndOfBlock false F}!
/X{/ASCII85Decode filter}!/@X{@ X}!/&2{2 index 2 index}!
/@F{@ &2<<F}!/@C{@X &2 FX}!
/$X{+ @X |}!/&4{4 index 4 index}!/$F{+ @ &4<<F |}!/$C{+ @X &4 FX |}!
/IC{3 1 roll 10 dict begin 1{/ImageType/Interpolate/Decode/DataSource
/ImageMatrix/BitsPerComponent/Height/Width}{exch def}forall
currentdict end image}!
/~{@ read {pop} if}!
end def
%%EndResource
/pagesave null def
%%EndProlog
%%Page: 1 1
%%BeginPageSetup
GS_epswrite_2_0_1001 begin
/pagesave save store 197 dict begin
0.1 0.1 scale
%%EndPageSetup
gsave mark
Q q
9.44141 0.371094 160 59.6289 re
Y
0.2 i
K
26.21 54.26 m
-0.71 1.74 -0.95 1.74 -2.79 1.74 c
-13.47 0 0 -2 1.88 0 p
6.02 0 6.18 -0.89 6.18 -3.79 c
0 -40.25 p
0 -2.17 0 -5.96 -8.05 -5.96 c
0 -2 18.65 0 ^ p
-8.6 0 -8.6 3.78 -8.6 5.95 c
0 43.38 19.74 -49.57 p
0.41 -1.04 0.82 -1.75 1.64 -1.75 c
0.9 0 1.15 0.64 1.48 1.52 c
20.15 50.48 0 -46.21 p
0 -2.9 -0.17 -3.79 -6.76 -3.79 c
-2.05 0 0 -2 p
2.95 0.24 8.37 0.24 11.48 0.24 c
3.11 0 8.45 0 11.39 -0.24 c
0 2 -1.88 0 p
-6.02 0 -6.18 0.89 -6.18 3.79 c
0 42.42 p
0 2.9 0.16 3.79 6.18 3.79 c
1.88 0 0 2 -13.47 0 p
-2.07 0 -2.07 -0.08 -2.63 -1.5 c
-17.46 -44.45 h
f
106.58 8.06 m
0.31 -2.96 2.41 -6.06 6.05 -6.06 c
1.63 0 6.36 1.07 6.36 7.27 c
0 4.29 -2 0 0 -4.46 p
0 -4.62 -2.05 -5.1 -2.96 -5.1 c
-2.71 0 -3.04 3.62 -3.04 4.02 c
0 16.07 p
0 3.38 0 6.51 -2.79 9.48 c
-3.01 3.13 -6.86 4.43 -10.57 4.43 c
-6.32 0 -11.65 -3.82 -11.65 -9.18 c
0 -2.44 1.52 -3.82 3.5 -3.82 c
2.13 0 3.5 1.59 3.5 3.66 c
0 0.96 -0.4 3.59 -4.07 3.67 c
2.16 2.79 6.06 3.67 8.62 3.67 c
3.91 0 8.46 -3.07 8.46 -10.09 c
0 -2.91 p
-3.95 -0.25 -9.37 -0.49 -14.25 -2.91 c
-5.81 -2.75 -7.75 -6.96 -7.75 -10.52 c
0 -6.55 7.53 -8.57 12.42 -8.57 c
5.12 0 8.69 3.24 10.16 7.06 c
h
106 21 0 -7.86 P
0 -7.46 -5.91 -10.14 -9.61 -10.14 c
-4.02 0 -7.39 2.75 -7.39 6.68 c
0 4.32 3.45 10.84 17 11.32 c
h
f
142.82 20.58 m
2.38 3.09 5.39 7.07 7.3 9.18 c
2.46 2.93 5.71 4.14 9.44 4.23 c
0 2 -14.12 0 ^ p
1.67 -0.16 2.3 -1.21 2.3 -2.5 c
0 -1.29 -0.79 -2.33 -1.19 -2.82 c
-4.92 -6.28 -6.19 8.13 p
-0.71 0.8 -0.71 0.96 -0.71 1.45 c
0 1.21 1.19 1.93 2.78 2.02 c
0 2 -16.11 0 ^ p
5.55 0 5.63 -0.09 9.36 -4.96 c
7.86 -10.48 p
-3.73 -4.88 -3.73 -5.04 -7.46 -9.68 c
-3.81 -4.71 -8.49 -4.87 -10.16 -4.87 c
0 -2 14.13 0 ^ p
-1.75 0.25 -2.3 1.32 -2.3 2.56 c
0 1.82 2.3 4.55 7.14 10.5 c
2.3 -3.22 2.93 -4.13 6.03 -8.27 c
0.64 -0.91 1.67 -2.23 1.67 -2.73 c
0 -0.74 -0.71 -1.98 -2.86 -2.07 c
0 -2 16.2 0 ^ p
-4.29 0 -5.72 0.16 -7.55 2.52 c
h
f
cleartomark end end pagesave restore
 showpage
%%PageTrailer
%%Trailer
%%Pages: 1
