%!PS-Adobe-3.0 EPSF-3.0
%%BoundingBox: 0 0 15 6
%%HiResBoundingBox: 0.995313 0.100391 14.400000 5.699609
%...............................................
%%Creator: GPL Ghostscript 870 (epswrite)
%%CreationDate: 2018/04/02 09:10:31
%%DocumentData: Clean7Bit
%%LanguageLevel: 2
%%EndComments
%%BeginProlog
% This copyright applies to everything between here and the %%EndProlog:
% Copyright (C) 2009 Artifex Software, Inc.  All rights reserved.
%%BeginResource: procset GS_epswrite_2_0_1001 1.001 0
/GS_epswrite_2_0_1001 80 dict dup begin
/PageSize 2 array def/setpagesize{ PageSize aload pop 3 index eq exch
4 index eq and{ pop pop pop}{ PageSize dup  1
5 -1 roll put 0 4 -1 roll put dup null eq {false} {dup where} ifelse{ exch get exec}
{ pop/setpagedevice where
{ pop 1 dict dup /PageSize PageSize put setpagedevice}
{ /setpage where{ pop PageSize aload pop pageparams 3 {exch pop} repeat
setpage}if}ifelse}ifelse}ifelse} bind def
/!{bind def}bind def/#{load def}!/N/counttomark #
/rG{3{3 -1 roll 255 div}repeat setrgbcolor}!/G{255 div setgray}!/K{0 G}!
/r6{dup 3 -1 roll rG}!/r5{dup 3 1 roll rG}!/r3{dup rG}!
/w/setlinewidth #/J/setlinecap #
/j/setlinejoin #/M/setmiterlimit #/d/setdash #/i/setflat #
/m/moveto #/l/lineto #/c/rcurveto #
/p{N 2 idiv{N -2 roll rlineto}repeat}!
/P{N 0 gt{N -2 roll moveto p}if}!
/h{p closepath}!/H{P closepath}!
/lx{0 rlineto}!/ly{0 exch rlineto}!/v{0 0 6 2 roll c}!/y{2 copy c}!
/re{4 -2 roll m exch dup lx exch ly neg lx h}!
/^{3 index neg 3 index neg}!
/f{P fill}!/f*{P eofill}!/s{H stroke}!/S{P stroke}!
/q/gsave #/Q/grestore #/rf{re fill}!
/Y{P clip newpath}!/Y*{P eoclip newpath}!/rY{re Y}!
/|={pop exch 4 1 roll 1 array astore cvx 3 array astore cvx exch 1 index def exec}!
/|{exch string readstring |=}!
/+{dup type/nametype eq{2 index 7 add -3 bitshift 2 index mul}if}!
/@/currentfile #/${+ @ |}!
/B{{2 copy string{readstring pop}aload pop 4 array astore cvx
3 1 roll}repeat pop pop true}!
/Ix{[1 0 0 1 11 -2 roll exch neg exch neg]exch}!
/,{true exch Ix imagemask}!/If{false exch Ix imagemask}!/I{exch Ix image}!
/Ic{exch Ix false 3 colorimage}!
/F{/Columns counttomark 3 add -2 roll/Rows exch/K -1/BlackIs1 true>>
/CCITTFaxDecode filter}!/FX{<</EndOfBlock false F}!
/X{/ASCII85Decode filter}!/@X{@ X}!/&2{2 index 2 index}!
/@F{@ &2<<F}!/@C{@X &2 FX}!
/$X{+ @X |}!/&4{4 index 4 index}!/$F{+ @ &4<<F |}!/$C{+ @X &4 FX |}!
/IC{3 1 roll 10 dict begin 1{/ImageType/Interpolate/Decode/DataSource
/ImageMatrix/BitsPerComponent/Height/Width}{exch def}forall
currentdict end image}!
/~{@ read {pop} if}!
end def
%%EndResource
/pagesave null def
%%EndProlog
%%Page: 1 1
%%BeginPageSetup
GS_epswrite_2_0_1001 begin
/pagesave save store 197 dict begin
0.1 0.1 scale
%%EndPageSetup
gsave mark
Q q
9.44141 0.371094 140.559 59.6289 re
Y
0.2 i
K
26.21 54.26 m
-0.71 1.74 -0.95 1.74 -2.79 1.74 c
-13.47 0 0 -2 1.88 0 p
6.02 0 6.18 -0.89 6.18 -3.79 c
0 -40.25 p
0 -2.17 0 -5.96 -8.05 -5.96 c
0 -2 18.65 0 ^ p
-8.6 0 -8.6 3.78 -8.6 5.95 c
0 43.38 19.74 -49.57 p
0.41 -1.04 0.82 -1.75 1.64 -1.75 c
0.9 0 1.15 0.64 1.48 1.52 c
20.15 50.48 0 -46.21 p
0 -2.9 -0.17 -3.79 -6.76 -3.79 c
-2.05 0 0 -2 p
2.95 0.24 8.37 0.24 11.48 0.24 c
3.11 0 8.45 0 11.39 -0.24 c
0 2 -1.88 0 p
-6.02 0 -6.18 0.89 -6.18 3.79 c
0 42.42 p
0 2.9 0.16 3.79 6.18 3.79 c
1.88 0 0 2 -13.47 0 p
-2.07 0 -2.07 -0.08 -2.63 -1.5 c
-17.46 -44.45 h
f
94 37 -11.05 -0.79 0 -2.21 P
5.31 0 6.05 -0.49 6.05 -4.47 c
0 -21.87 p
0 -3.66 -0.9 -3.66 -6.37 -3.66 c
0 -2 17.06 0 ^ p
-5.36 0 -5.69 0.4 -5.69 3.53 c
h
94 51 m
0 2.41 -1.89 4 -4 4 c
-2.34 0 -4 -2.04 -4 -4 c
0 -2.04 1.66 -4 4 -4 c
2.11 0 4 1.59 4 4 c
h
f
132.37 6.38 0 -5.38 11.64 0.79 0 2.21 P
-5.39 0 -6 0.56 -6 4.48 c
0 48.52 -11.69 -0.79 0 -2.21 p
6 0 6.69 -0.56 6.69 -4.47 c
0 -17.24 p
-2.33 2.73 -5.78 4.71 -10.11 4.71 c
-9.47 0 -17.89 -7.79 -17.89 -18.04 c
0 -10.09 7.75 -17.96 16.77 -17.96 c
5.06 0 8.62 2.77 10.6 5.38 c
h
132.29 27.41 0 -16.04 P
0 -1.41 0 -1.56 -0.85 -2.89 c
-2.32 -3.75 -5.79 -5.47 -9.1 -5.47 c
-3.47 0 -6.25 2.03 -8.1 5 c
-2 3.21 -2.23 7.67 -2.23 10.88 c
0 2.89 0.15 7.59 2.39 11.11 c
1.62 2.42 4.55 5.01 8.71 5.01 c
2.7 0 5.94 -1.18 8.33 -4.7 c
0.85 -1.33 0.85 -1.49 0.85 -2.89 c
h
f
cleartomark end end pagesave restore
 showpage
%%PageTrailer
%%Trailer
%%Pages: 1
