%!PS-Adobe-3.0 EPSF-3.0
%%BoundingBox: 1 0 20 6
%%HiResBoundingBox: 1.000391 0.000000 19.405469 5.600000
%...............................................
%%Creator: GPL Ghostscript 870 (epswrite)
%%CreationDate: 2018/04/09 11:07:28
%%DocumentData: Clean7Bit
%%LanguageLevel: 2
%%EndComments
%%BeginProlog
% This copyright applies to everything between here and the %%EndProlog:
% Copyright (C) 2009 Artifex Software, Inc.  All rights reserved.
%%BeginResource: procset GS_epswrite_2_0_1001 1.001 0
/GS_epswrite_2_0_1001 80 dict dup begin
/PageSize 2 array def/setpagesize{ PageSize aload pop 3 index eq exch
4 index eq and{ pop pop pop}{ PageSize dup  1
5 -1 roll put 0 4 -1 roll put dup null eq {false} {dup where} ifelse{ exch get exec}
{ pop/setpagedevice where
{ pop 1 dict dup /PageSize PageSize put setpagedevice}
{ /setpage where{ pop PageSize aload pop pageparams 3 {exch pop} repeat
setpage}if}ifelse}ifelse}ifelse} bind def
/!{bind def}bind def/#{load def}!/N/counttomark #
/rG{3{3 -1 roll 255 div}repeat setrgbcolor}!/G{255 div setgray}!/K{0 G}!
/r6{dup 3 -1 roll rG}!/r5{dup 3 1 roll rG}!/r3{dup rG}!
/w/setlinewidth #/J/setlinecap #
/j/setlinejoin #/M/setmiterlimit #/d/setdash #/i/setflat #
/m/moveto #/l/lineto #/c/rcurveto #
/p{N 2 idiv{N -2 roll rlineto}repeat}!
/P{N 0 gt{N -2 roll moveto p}if}!
/h{p closepath}!/H{P closepath}!
/lx{0 rlineto}!/ly{0 exch rlineto}!/v{0 0 6 2 roll c}!/y{2 copy c}!
/re{4 -2 roll m exch dup lx exch ly neg lx h}!
/^{3 index neg 3 index neg}!
/f{P fill}!/f*{P eofill}!/s{H stroke}!/S{P stroke}!
/q/gsave #/Q/grestore #/rf{re fill}!
/Y{P clip newpath}!/Y*{P eoclip newpath}!/rY{re Y}!
/|={pop exch 4 1 roll 1 array astore cvx 3 array astore cvx exch 1 index def exec}!
/|{exch string readstring |=}!
/+{dup type/nametype eq{2 index 7 add -3 bitshift 2 index mul}if}!
/@/currentfile #/${+ @ |}!
/B{{2 copy string{readstring pop}aload pop 4 array astore cvx
3 1 roll}repeat pop pop true}!
/Ix{[1 0 0 1 11 -2 roll exch neg exch neg]exch}!
/,{true exch Ix imagemask}!/If{false exch Ix imagemask}!/I{exch Ix image}!
/Ic{exch Ix false 3 colorimage}!
/F{/Columns counttomark 3 add -2 roll/Rows exch/K -1/BlackIs1 true>>
/CCITTFaxDecode filter}!/FX{<</EndOfBlock false F}!
/X{/ASCII85Decode filter}!/@X{@ X}!/&2{2 index 2 index}!
/@F{@ &2<<F}!/@C{@X &2 FX}!
/$X{+ @X |}!/&4{4 index 4 index}!/$F{+ @ &4<<F |}!/$C{+ @X &4 FX |}!
/IC{3 1 roll 10 dict begin 1{/ImageType/Interpolate/Decode/DataSource
/ImageMatrix/BitsPerComponent/Height/Width}{exch def}forall
currentdict end image}!
/~{@ read {pop} if}!
end def
%%EndResource
/pagesave null def
%%EndProlog
%%Page: 1 1
%%BeginPageSetup
GS_epswrite_2_0_1001 begin
/pagesave save store 197 dict begin
0.1 0.1 scale
%%EndPageSetup
gsave mark
Q q
9.44141 0.371094 190.559 59.6289 re
Y
0.2 i
K
60.47 55.96 -48.95 0 -1.52 -17.96 2 0 P
1.1 12.45 2.27 15 14.12 15 c
1.41 0 3.45 0 4.24 -0.16 c
1.65 -0.32 1.65 -1.2 1.65 -3.03 c
0 -41.98 p
0 -2.71 0 -3.82 -8.24 -3.82 c
-3.14 0 0 -2 p
3.27 0.24 11.4 0.24 15.07 0.24 c
3.66 0 11.88 0 15.14 -0.24 c
0 2 -3.27 0 p
-8.57 0 -8.57 1.12 -8.57 3.82 c
0 41.98 p
0 1.59 0 2.71 1.48 3.03 c
0.91 0.16 3.13 0.16 4.69 0.16 c
12.43 0 13.67 -2.55 14.82 -15 c
2 0 h
f
114.26 48.63 m
1.12 2.96 3.29 5.29 8.74 5.38 c
0 2 -16.92 0 ^ p
4.17 -0.08 5.85 -2.16 5.85 -3.99 c
0 -0.64 -0.24 -1.12 -0.4 -1.6 c
-14.67 -38.45 -15.31 40.28 p
-0.48 1.12 -0.48 1.28 -0.48 1.44 c
0 2.31 4.57 2.31 6.57 2.31 c
0 2 p
-2.89 -0.24 -8.42 -0.24 -11.46 -0.24 c
-3.85 0 -7.3 0.16 -10.18 0.24 c
0 -2 p
5.21 0 6.73 0 7.86 -3.05 c
18.6 -49.19 p
0.56 -1.52 0.96 -1.76 2 -1.76 c
1.36 0 1.52 0.4 1.93 1.52 c
h
f
143.21 54.26 m
-0.71 1.74 -0.95 1.74 -2.79 1.74 c
-13.47 0 0 -2 1.88 0 p
6.02 0 6.18 -0.89 6.18 -3.79 c
0 -40.25 p
0 -2.17 0 -5.96 -8.05 -5.96 c
0 -2 18.65 0 ^ p
-8.6 0 -8.6 3.78 -8.6 5.95 c
0 43.38 19.74 -49.57 p
0.41 -1.04 0.82 -1.75 1.64 -1.75 c
0.9 0 1.15 0.64 1.48 1.52 c
20.15 50.48 0 -46.21 p
0 -2.9 -0.17 -3.79 -6.76 -3.79 c
-2.05 0 0 -2 p
2.95 0.24 8.37 0.24 11.48 0.24 c
3.11 0 8.45 0 11.39 -0.24 c
0 2 -1.88 0 p
-6.02 0 -6.18 0.89 -6.18 3.79 c
0 42.42 p
0 2.9 0.16 3.79 6.18 3.79 c
1.88 0 0 2 -13.47 0 p
-2.07 0 -2.07 -0.08 -2.63 -1.5 c
-17.46 -44.45 h
f
cleartomark end end pagesave restore
 showpage
%%PageTrailer
%%Trailer
%%Pages: 1
