%!PS-Adobe-3.0 EPSF-3.0
%%Creator: cairo 1.14.1 (http://cairographics.org)
%%CreationDate: Wed Feb 07 20:48:01 2018
%%Pages: 1
%%DocumentData: Clean7Bit
%%LanguageLevel: 2
%%BoundingBox: 0 -1 324 35
%%EndComments
%%BeginProlog
save
50 dict begin
/q { gsave } bind def
/Q { grestore } bind def
/cm { 6 array astore concat } bind def
/w { setlinewidth } bind def
/J { setlinecap } bind def
/j { setlinejoin } bind def
/M { setmiterlimit } bind def
/d { setdash } bind def
/m { moveto } bind def
/l { lineto } bind def
/c { curveto } bind def
/h { closepath } bind def
/re { exch dup neg 3 1 roll 5 3 roll moveto 0 rlineto
      0 exch rlineto 0 rlineto closepath } bind def
/S { stroke } bind def
/f { fill } bind def
/f* { eofill } bind def
/n { newpath } bind def
/W { clip } bind def
/W* { eoclip } bind def
/BT { } bind def
/ET { } bind def
/pdfmark where { pop globaldict /?pdfmark /exec load put }
    { globaldict begin /?pdfmark /pop load def /pdfmark
    /cleartomark load def end } ifelse
/BDC { mark 3 1 roll /BDC pdfmark } bind def
/EMC { mark /EMC pdfmark } bind def
/cairo_store_point { /cairo_point_y exch def /cairo_point_x exch def } def
/Tj { show currentpoint cairo_store_point } bind def
/TJ {
  {
    dup
    type /stringtype eq
    { show } { -0.001 mul 0 cairo_font_matrix dtransform rmoveto } ifelse
  } forall
  currentpoint cairo_store_point
} bind def
/cairo_selectfont { cairo_font_matrix aload pop pop pop 0 0 6 array astore
    cairo_font exch selectfont cairo_point_x cairo_point_y moveto } bind def
/Tf { pop /cairo_font exch def /cairo_font_matrix where
      { pop cairo_selectfont } if } bind def
/Td { matrix translate cairo_font_matrix matrix concatmatrix dup
      /cairo_font_matrix exch def dup 4 get exch 5 get cairo_store_point
      /cairo_font where { pop cairo_selectfont } if } bind def
/Tm { 2 copy 8 2 roll 6 array astore /cairo_font_matrix exch def
      cairo_store_point /cairo_font where { pop cairo_selectfont } if } bind def
/g { setgray } bind def
/rg { setrgbcolor } bind def
/d1 { setcachedevice } bind def
%%EndProlog
%%BeginSetup
%%EndSetup
%%Page: 1 1
%%BeginPageSetup
%%PageBoundingBox: 0 -1 324 35
%%EndPageSetup
q 0 -1 324 36 rectclip q
1 g
320.953 17.17 m 320.91 17.682 l 320.789 18.198 l 320.586 18.706 l 320.301
 19.213 l 319.934 19.721 l 319.484 20.225 l 318.961 20.729 l 318.184 21.346
 l 317.285 21.96 l 316.262 22.561 l 315.113 23.159 l 313.836 23.741 l 312.148
 24.424 l 310.281 25.088 l 308.246 25.733 l 306.031 26.358 l 303.648 26.952
 l 301.098 27.526 l 297.914 28.163 l 294.504 28.756 l 290.883 29.311 l 287.039
 29.819 l 282.992 30.292 l 278.738 30.71 l 274.285 31.085 l 269.637 31.409
 l 264.098 31.721 l 258.316 31.963 l 252.313 32.139 l 246.086 32.252 l 239.652
 32.292 l 233.023 32.272 l 226.203 32.182 l 218.328 32.002 l 210.246 31.745
 l 201.977 31.409 l 192.598 30.956 l 183.039 30.42 l 172.355 29.741 l 161.531
 28.987 l 149.613 28.085 l 135.652 26.952 l 117.762 25.428 l 61.77 20.581
 l 48.715 19.557 l 37.574 18.756 l 28.281 18.163 l 20.211 17.71 l 13.066
 17.377 l 7.012 17.167 l 2.367 17.077 l 1.98 17.073 l 2.367 17.069 l 5.926
 17.01 l 11.055 16.85 l 17.648 16.577 l 25.254 16.178 l 34.125 15.639 l 
44.125 14.956 l 55.109 14.131 l 68.68 13.038 l 85.922 11.569 l 138.648 7.03
 l 152.609 5.924 l 164.5 5.045 l 175.293 4.315 l 185.934 3.67 l 195.441 
3.163 l 204.762 2.741 l 212.969 2.44 l 220.984 2.21 l 228.793 2.061 l 236.371
 1.999 l 242.902 2.014 l 249.234 2.096 l 255.352 2.241 l 261.246 2.456 l
 266.906 2.733 l 272.324 3.085 l 277.496 3.495 l 281.805 3.901 l 285.91 
4.362 l 289.813 4.858 l 293.5 5.405 l 296.973 5.991 l 300.219 6.616 l 303.242
 7.28 l 305.652 7.874 l 307.895 8.491 l 309.961 9.135 l 311.855 9.799 l 
313.57 10.479 l 315.113 11.178 l 316.266 11.776 l 317.285 12.381 l 318.188
 12.991 l 318.961 13.612 l 319.609 14.237 l 320.035 14.745 l 320.379 15.249
 l 320.645 15.76 l 320.824 16.272 l 320.93 16.788 l 320.953 17.17 l f
0 g
5.6 w
2 J
1 j
[] 0.0 d
100 M 320.953 17.17 m 320.91 17.682 l 320.789 18.198 l 320.586 18.706 l 320.301
 19.213 l 319.934 19.721 l 319.484 20.225 l 318.961 20.729 l 318.184 21.346
 l 317.285 21.96 l 316.262 22.561 l 315.113 23.159 l 313.836 23.741 l 312.148
 24.424 l 310.281 25.088 l 308.246 25.733 l 306.031 26.358 l 303.648 26.952
 l 301.098 27.526 l 297.914 28.163 l 294.504 28.756 l 290.883 29.311 l 287.039
 29.819 l 282.992 30.292 l 278.738 30.71 l 274.285 31.085 l 269.637 31.409
 l 264.098 31.721 l 258.316 31.963 l 252.313 32.139 l 246.086 32.252 l 239.652
 32.292 l 233.023 32.272 l 226.203 32.182 l 218.328 32.002 l 210.246 31.745
 l 201.977 31.409 l 192.598 30.956 l 183.039 30.42 l 172.355 29.741 l 161.531
 28.987 l 149.613 28.085 l 135.652 26.952 l 117.762 25.428 l 61.77 20.581
 l 48.715 19.557 l 37.574 18.756 l 28.281 18.163 l 20.211 17.71 l 13.066
 17.377 l 7.012 17.167 l 2.367 17.077 l 1.98 17.073 l 2.367 17.069 l 5.926
 17.01 l 11.055 16.85 l 17.648 16.577 l 25.254 16.178 l 34.125 15.639 l 
44.125 14.956 l 55.109 14.131 l 68.68 13.038 l 85.922 11.569 l 138.648 7.03
 l 152.609 5.924 l 164.5 5.045 l 175.293 4.315 l 185.934 3.67 l 195.441 
3.163 l 204.762 2.741 l 212.969 2.44 l 220.984 2.21 l 228.793 2.061 l 236.371
 1.999 l 242.902 2.014 l 249.234 2.096 l 255.352 2.241 l 261.246 2.456 l
 266.906 2.733 l 272.324 3.085 l 277.496 3.495 l 281.805 3.901 l 285.91 
4.362 l 289.813 4.858 l 293.5 5.405 l 296.973 5.991 l 300.219 6.616 l 303.242
 7.28 l 305.652 7.874 l 307.895 8.491 l 309.961 9.135 l 311.855 9.799 l 
313.57 10.479 l 315.113 11.178 l 316.266 11.776 l 317.285 12.381 l 318.188
 12.991 l 318.961 13.612 l 319.609 14.237 l 320.035 14.745 l 320.379 15.249
 l 320.645 15.76 l 320.824 16.272 l 320.93 16.788 l 320.953 17.17 l S
Q Q
showpage
%%Trailer
end restore
%%EOF
