%!PS-Adobe-3.0 EPSF-3.0
%%Creator: cairo 1.14.1 (http://cairographics.org)
%%CreationDate: Thu Feb 08 20:49:58 2018
%%Pages: 1
%%DocumentData: Clean7Bit
%%LanguageLevel: 2
%%BoundingBox: 30 81 417 238
%%EndComments
%%BeginProlog
save
50 dict begin
/q { gsave } bind def
/Q { grestore } bind def
/cm { 6 array astore concat } bind def
/w { setlinewidth } bind def
/J { setlinecap } bind def
/j { setlinejoin } bind def
/M { setmiterlimit } bind def
/d { setdash } bind def
/m { moveto } bind def
/l { lineto } bind def
/c { curveto } bind def
/h { closepath } bind def
/re { exch dup neg 3 1 roll 5 3 roll moveto 0 rlineto
      0 exch rlineto 0 rlineto closepath } bind def
/S { stroke } bind def
/f { fill } bind def
/f* { eofill } bind def
/n { newpath } bind def
/W { clip } bind def
/W* { eoclip } bind def
/BT { } bind def
/ET { } bind def
/pdfmark where { pop globaldict /?pdfmark /exec load put }
    { globaldict begin /?pdfmark /pop load def /pdfmark
    /cleartomark load def end } ifelse
/BDC { mark 3 1 roll /BDC pdfmark } bind def
/EMC { mark /EMC pdfmark } bind def
/cairo_store_point { /cairo_point_y exch def /cairo_point_x exch def } def
/Tj { show currentpoint cairo_store_point } bind def
/TJ {
  {
    dup
    type /stringtype eq
    { show } { -0.001 mul 0 cairo_font_matrix dtransform rmoveto } ifelse
  } forall
  currentpoint cairo_store_point
} bind def
/cairo_selectfont { cairo_font_matrix aload pop pop pop 0 0 6 array astore
    cairo_font exch selectfont cairo_point_x cairo_point_y moveto } bind def
/Tf { pop /cairo_font exch def /cairo_font_matrix where
      { pop cairo_selectfont } if } bind def
/Td { matrix translate cairo_font_matrix matrix concatmatrix dup
      /cairo_font_matrix exch def dup 4 get exch 5 get cairo_store_point
      /cairo_font where { pop cairo_selectfont } if } bind def
/Tm { 2 copy 8 2 roll 6 array astore /cairo_font_matrix exch def
      cairo_store_point /cairo_font where { pop cairo_selectfont } if } bind def
/g { setgray } bind def
/rg { setrgbcolor } bind def
/d1 { setcachedevice } bind def
%%EndProlog
%%BeginSetup
%%EndSetup
%%Page: 1 1
%%BeginPageSetup
%%PageBoundingBox: 30 81 417 238
%%EndPageSetup
q 30 81 387 157 rectclip q
1 g
226.836 233.328 m 216.949 233.273 l 211.738 233.078 l 208.227 232.789 l
 204.707 232.309 l 201.191 231.594 l 197.672 230.656 l 192.391 228.973 l
 183.598 225.879 l 176.559 223.18 l 171.285 220.879 l 166.008 218.309 l 
160.727 215.496 l 155.449 212.438 l 150.172 209.137 l 144.895 205.621 l 
139.617 201.895 l 132.582 196.625 l 125.547 191.074 l 116.75 183.828 l 109.715
 177.746 l 100.918 169.805 l 92.129 161.566 l 83.375 153.063 l 74.77 144.332
 l 63.047 132.02 l 53.359 121.465 l 47.156 114.43 l 42.766 109.152 l 40.133
 105.641 l 37.871 102.137 l 36.086 98.668 l 35.414 96.957 l 34.879 95.273
 l 34.523 93.637 l 34.359 92.066 l 34.371 90.586 l 34.609 89.234 l 35.059
 88.043 l 35.742 87.059 l 36.637 86.32 l 37.734 85.859 l 39.031 85.695 l
 40.473 85.832 l 42.02 86.246 l 43.672 86.906 l 47.109 88.727 l 55.891 93.965
 l 59.402 95.824 l 62.914 97.496 l 66.438 98.969 l 69.949 100.23 l 73.477
 101.273 l 76.992 102.094 l 80.512 102.715 l 85.789 103.402 l 98.102 104.652
 l 112.176 105.898 l 122.73 106.609 l 128.008 106.813 l 133.285 106.809 
l 138.563 106.508 l 143.84 105.91 l 150.879 105.051 l 154.395 104.793 l 
159.672 104.688 l 171.988 104.902 l 228.281 105.621 l 240.594 105.484 l 
272.258 104.922 l 291.609 104.805 l 296.887 105.121 l 302.164 105.742 l 
309.199 106.602 l 312.719 106.824 l 317.996 106.859 l 325.031 106.574 l 
333.828 105.957 l 346.145 104.84 l 361.977 103.188 l 367.254 102.469 l 370.77
 101.828 l 374.293 100.988 l 377.805 99.898 l 381.328 98.563 l 384.84 97.004
 l 390.125 94.32 l 395.375 91.344 l 400.539 88.375 l 403.844 86.777 l 405.406
 86.227 l 406.879 85.902 l 408.234 85.852 l 409.438 86.102 l 410.465 86.66
 l 411.27 87.516 l 411.848 88.637 l 412.207 89.973 l 412.309 91.473 l 412.176
 93.09 l 411.863 94.777 l 411.359 96.504 l 410.688 98.254 l 409.883 100.008
 l 407.906 103.523 l 405.496 107.039 l 402.758 110.559 l 398.246 115.836
 l 388.727 126.391 l 378.891 136.945 l 370.375 145.738 l 359.863 156.234
 l 351.066 164.766 l 342.273 172.938 l 335.234 179.211 l 326.441 186.723
 l 319.402 192.445 l 312.367 197.895 l 305.328 203.047 l 298.293 207.883
 l 293.016 211.285 l 287.738 214.449 l 282.461 217.355 l 277.184 220.012
 l 271.906 222.402 l 266.629 224.531 l 259.594 227.063 l 250.797 230.008
 l 245.527 231.512 l 242.023 232.273 l 238.539 232.797 l 235.098 233.105
 l 230.074 233.297 l 226.836 233.328 l f
0 g
8 w
2 J
1 j
[] 0.0 d
4 M q 1 0 0 1 0 343 cm
226.836 -109.672 m 216.949 -109.727 l 211.738 -109.922 l 208.227 -110.211
 l 204.707 -110.691 l 201.191 -111.406 l 197.672 -112.344 l 192.391 -114.027
 l 183.598 -117.121 l 176.559 -119.82 l 171.285 -122.121 l 166.008 -124.691
 l 160.727 -127.504 l 155.449 -130.563 l 150.172 -133.863 l 144.895 -137.379
 l 139.617 -141.105 l 132.582 -146.375 l 125.547 -151.926 l 116.75 -159.172
 l 109.715 -165.254 l 100.918 -173.195 l 92.129 -181.434 l 83.375 -189.938
 l 74.77 -198.668 l 63.047 -210.98 l 53.359 -221.535 l 47.156 -228.57 l 
42.766 -233.848 l 40.133 -237.359 l 37.871 -240.863 l 36.086 -244.332 l 
35.414 -246.043 l 34.879 -247.727 l 34.523 -249.363 l 34.359 -250.934 l 
34.371 -252.414 l 34.609 -253.766 l 35.059 -254.957 l 35.742 -255.941 l 
36.637 -256.68 l 37.734 -257.141 l 39.031 -257.305 l 40.473 -257.168 l 42.02
 -256.754 l 43.672 -256.094 l 47.109 -254.273 l 55.891 -249.035 l 59.402
 -247.176 l 62.914 -245.504 l 66.438 -244.031 l 69.949 -242.77 l 73.477 
-241.727 l 76.992 -240.906 l 80.512 -240.285 l 85.789 -239.598 l 98.102 
-238.348 l 112.176 -237.102 l 122.73 -236.391 l 128.008 -236.188 l 133.285
 -236.191 l 138.563 -236.492 l 143.84 -237.09 l 150.879 -237.949 l 154.395
 -238.207 l 159.672 -238.313 l 171.988 -238.098 l 228.281 -237.379 l 240.594
 -237.516 l 272.258 -238.078 l 291.609 -238.195 l 296.887 -237.879 l 302.164
 -237.258 l 309.199 -236.398 l 312.719 -236.176 l 317.996 -236.141 l 325.031
 -236.426 l 333.828 -237.043 l 346.145 -238.16 l 361.977 -239.813 l 367.254
 -240.531 l 370.77 -241.172 l 374.293 -242.012 l 377.805 -243.102 l 381.328
 -244.438 l 384.84 -245.996 l 390.125 -248.68 l 395.375 -251.656 l 400.539
 -254.625 l 403.844 -256.223 l 405.406 -256.773 l 406.879 -257.098 l 408.234
 -257.148 l 409.438 -256.898 l 410.465 -256.34 l 411.27 -255.484 l 411.848
 -254.363 l 412.207 -253.027 l 412.309 -251.527 l 412.176 -249.91 l 411.863
 -248.223 l 411.359 -246.496 l 410.688 -244.746 l 409.883 -242.992 l 407.906
 -239.477 l 405.496 -235.961 l 402.758 -232.441 l 398.246 -227.164 l 388.727
 -216.609 l 378.891 -206.055 l 370.375 -197.262 l 359.863 -186.766 l 351.066
 -178.234 l 342.273 -170.063 l 335.234 -163.789 l 326.441 -156.277 l 319.402
 -150.555 l 312.367 -145.105 l 305.328 -139.953 l 298.293 -135.117 l 293.016
 -131.715 l 287.738 -128.551 l 282.461 -125.645 l 277.184 -122.988 l 271.906
 -120.598 l 266.629 -118.469 l 259.594 -115.938 l 250.797 -112.992 l 245.527
 -111.488 l 242.023 -110.727 l 238.539 -110.203 l 235.098 -109.895 l 230.074
 -109.703 l 226.836 -109.672 l S Q
Q Q
showpage
%%Trailer
end restore
%%EOF
