%!PS-Adobe-3.0 EPSF-3.0
%%BoundingBox: 0 0 10 7
%%HiResBoundingBox: 0.989453 0.700391 9.599609 6.699609
%................................................
%%Creator: GPL Ghostscript 870 (epswrite)
%%CreationDate: 2018/03/31 14:27:28
%%DocumentData: Clean7Bit
%%LanguageLevel: 2
%%EndComments
%%BeginProlog
% This copyright applies to everything between here and the %%EndProlog:
% Copyright (C) 2009 Artifex Software, Inc.  All rights reserved.
%%BeginResource: procset GS_epswrite_2_0_1001 1.001 0
/GS_epswrite_2_0_1001 80 dict dup begin
/PageSize 2 array def/setpagesize{ PageSize aload pop 3 index eq exch
4 index eq and{ pop pop pop}{ PageSize dup  1
5 -1 roll put 0 4 -1 roll put dup null eq {false} {dup where} ifelse{ exch get exec}
{ pop/setpagedevice where
{ pop 1 dict dup /PageSize PageSize put setpagedevice}
{ /setpage where{ pop PageSize aload pop pageparams 3 {exch pop} repeat
setpage}if}ifelse}ifelse}ifelse} bind def
/!{bind def}bind def/#{load def}!/N/counttomark #
/rG{3{3 -1 roll 255 div}repeat setrgbcolor}!/G{255 div setgray}!/K{0 G}!
/r6{dup 3 -1 roll rG}!/r5{dup 3 1 roll rG}!/r3{dup rG}!
/w/setlinewidth #/J/setlinecap #
/j/setlinejoin #/M/setmiterlimit #/d/setdash #/i/setflat #
/m/moveto #/l/lineto #/c/rcurveto #
/p{N 2 idiv{N -2 roll rlineto}repeat}!
/P{N 0 gt{N -2 roll moveto p}if}!
/h{p closepath}!/H{P closepath}!
/lx{0 rlineto}!/ly{0 exch rlineto}!/v{0 0 6 2 roll c}!/y{2 copy c}!
/re{4 -2 roll m exch dup lx exch ly neg lx h}!
/^{3 index neg 3 index neg}!
/f{P fill}!/f*{P eofill}!/s{H stroke}!/S{P stroke}!
/q/gsave #/Q/grestore #/rf{re fill}!
/Y{P clip newpath}!/Y*{P eoclip newpath}!/rY{re Y}!
/|={pop exch 4 1 roll 1 array astore cvx 3 array astore cvx exch 1 index def exec}!
/|{exch string readstring |=}!
/+{dup type/nametype eq{2 index 7 add -3 bitshift 2 index mul}if}!
/@/currentfile #/${+ @ |}!
/B{{2 copy string{readstring pop}aload pop 4 array astore cvx
3 1 roll}repeat pop pop true}!
/Ix{[1 0 0 1 11 -2 roll exch neg exch neg]exch}!
/,{true exch Ix imagemask}!/If{false exch Ix imagemask}!/I{exch Ix image}!
/Ic{exch Ix false 3 colorimage}!
/F{/Columns counttomark 3 add -2 roll/Rows exch/K -1/BlackIs1 true>>
/CCITTFaxDecode filter}!/FX{<</EndOfBlock false F}!
/X{/ASCII85Decode filter}!/@X{@ X}!/&2{2 index 2 index}!
/@F{@ &2<<F}!/@C{@X &2 FX}!
/$X{+ @X |}!/&4{4 index 4 index}!/$F{+ @ &4<<F |}!/$C{+ @X &4 FX |}!
/IC{3 1 roll 10 dict begin 1{/ImageType/Interpolate/Decode/DataSource
/ImageMatrix/BitsPerComponent/Height/Width}{exch def}forall
currentdict end image}!
/~{@ read {pop} if}!
end def
%%EndResource
/pagesave null def
%%EndProlog
%%Page: 1 1
%%BeginPageSetup
GS_epswrite_2_0_1001 begin
/pagesave save store 197 dict begin
0.1 0.1 scale
%%EndPageSetup
gsave mark
Q q
0 0.871094 98.9414 69.1289 re
Y
0.2 i
K
53 60.04 m
0 5.36 -2.52 6.96 -4.26 6.96 c
-2.42 0 -4.74 -2.6 -4.74 -4.8 c
0 -1.3 0.54 -1.89 1.71 -2.99 c
2.24 -2 3.63 -4.59 3.63 -8.18 c
0 -4.19 -6.14 -27.04 -17.9 -27.04 c
-5.12 0 -7.44 3.49 -7.44 8.68 c
0 5.59 2.7 12.87 5.79 21.15 c
0.7 1.7 1.2 3.09 1.2 4.99 c
0 4.49 -3.16 8.19 -8.09 8.19 c
-9.27 0 -13.02 -14.41 -13.02 -15.31 c
0 -1 0.98 -1 1.18 -1 c
0.98 0 1.08 0.2 1.57 1.81 c
2.84 10.17 7.06 12.49 9.91 12.49 c
0.79 0 2.45 0 2.45 -3.2 c
0 -2.49 -0.95 -5.19 -1.61 -6.98 c
-4.16 -11.57 -5.39 -16.16 -5.39 -20.45 c
0 -10.77 8.53 -12.37 13 -12.37 c
16.43 0 22 32.88 22 38.05 c
h
f
72.37 15.24 m
-0.7 -2.41 -3 -6.23 -6.56 -6.23 c
-0.21 0 -2.3 0 -3.77 1.05 c
2.75 0.98 2.96 3.7 2.96 4.15 c
0 1.66 -1.23 2.79 -2.89 2.79 c
-2.02 0 -4.11 -1.79 -4.11 -4.55 c
0 -3.73 3.94 -5.45 7.39 -5.45 c
3.24 0 6.13 2.45 7.89 6 c
1.69 -4.48 5.56 -6 8.38 -6 c
8.1 0 12.39 8.95 12.39 10.95 c
0 0.93 -0.91 0.93 -1.12 0.93 c
-0.98 0 -1.05 -0.36 -1.32 -1.22 c
-1.46 -4.94 -5.65 -8.66 -9.55 -8.66 c
-2.79 0 -4.25 1.91 -4.25 4.61 c
0 1.84 1.68 8.29 3.63 16.16 c
1.4 5.46 4.54 7.23 6.84 7.23 c
0.14 0 2.3 0 3.77 -1 c
-2.21 -0.59 -3.03 -2.41 -3.03 -3.59 c
0 -1.44 1.24 -2.41 2.91 -2.41 c
1.68 0 4.09 1.28 4.09 4.1 c
0 3.76 -4.51 4.9 -7.32 4.9 c
-3.52 0 -6.34 -2.42 -7.88 -5.2 c
-1.27 3 -4.51 5.2 -8.45 5.2 c
-7.89 0 -12.39 -8.76 -12.39 -10.89 c
0 -0.93 0.98 -0.93 1.18 -0.93 c
0.91 0 0.98 0.29 1.32 1.21 c
1.75 5.55 6.14 8.61 9.55 8.61 c
2.3 0 4.18 -1.28 4.18 -4.68 c
0 -1.42 -0.84 -4.96 -1.46 -7.37 c
h
f
cleartomark end end pagesave restore
 showpage
%%PageTrailer
%%Trailer
%%Pages: 1
