%!PS-Adobe-3.0 EPSF-3.0
%%BoundingBox: 0 0 11 9
%%HiResBoundingBox: 0.147266 0.900391 10.499609 8.099609
%...............................................
%%Creator: GPL Ghostscript 870 (epswrite)
%%CreationDate: 2018/03/31 14:26:46
%%DocumentData: Clean7Bit
%%LanguageLevel: 2
%%EndComments
%%BeginProlog
% This copyright applies to everything between here and the %%EndProlog:
% Copyright (C) 2009 Artifex Software, Inc.  All rights reserved.
%%BeginResource: procset GS_epswrite_2_0_1001 1.001 0
/GS_epswrite_2_0_1001 80 dict dup begin
/PageSize 2 array def/setpagesize{ PageSize aload pop 3 index eq exch
4 index eq and{ pop pop pop}{ PageSize dup  1
5 -1 roll put 0 4 -1 roll put dup null eq {false} {dup where} ifelse{ exch get exec}
{ pop/setpagedevice where
{ pop 1 dict dup /PageSize PageSize put setpagedevice}
{ /setpage where{ pop PageSize aload pop pageparams 3 {exch pop} repeat
setpage}if}ifelse}ifelse}ifelse} bind def
/!{bind def}bind def/#{load def}!/N/counttomark #
/rG{3{3 -1 roll 255 div}repeat setrgbcolor}!/G{255 div setgray}!/K{0 G}!
/r6{dup 3 -1 roll rG}!/r5{dup 3 1 roll rG}!/r3{dup rG}!
/w/setlinewidth #/J/setlinecap #
/j/setlinejoin #/M/setmiterlimit #/d/setdash #/i/setflat #
/m/moveto #/l/lineto #/c/rcurveto #
/p{N 2 idiv{N -2 roll rlineto}repeat}!
/P{N 0 gt{N -2 roll moveto p}if}!
/h{p closepath}!/H{P closepath}!
/lx{0 rlineto}!/ly{0 exch rlineto}!/v{0 0 6 2 roll c}!/y{2 copy c}!
/re{4 -2 roll m exch dup lx exch ly neg lx h}!
/^{3 index neg 3 index neg}!
/f{P fill}!/f*{P eofill}!/s{H stroke}!/S{P stroke}!
/q/gsave #/Q/grestore #/rf{re fill}!
/Y{P clip newpath}!/Y*{P eoclip newpath}!/rY{re Y}!
/|={pop exch 4 1 roll 1 array astore cvx 3 array astore cvx exch 1 index def exec}!
/|{exch string readstring |=}!
/+{dup type/nametype eq{2 index 7 add -3 bitshift 2 index mul}if}!
/@/currentfile #/${+ @ |}!
/B{{2 copy string{readstring pop}aload pop 4 array astore cvx
3 1 roll}repeat pop pop true}!
/Ix{[1 0 0 1 11 -2 roll exch neg exch neg]exch}!
/,{true exch Ix imagemask}!/If{false exch Ix imagemask}!/I{exch Ix image}!
/Ic{exch Ix false 3 colorimage}!
/F{/Columns counttomark 3 add -2 roll/Rows exch/K -1/BlackIs1 true>>
/CCITTFaxDecode filter}!/FX{<</EndOfBlock false F}!
/X{/ASCII85Decode filter}!/@X{@ X}!/&2{2 index 2 index}!
/@F{@ &2<<F}!/@C{@X &2 FX}!
/$X{+ @X |}!/&4{4 index 4 index}!/$F{+ @ &4<<F |}!/$C{+ @X &4 FX |}!
/IC{3 1 roll 10 dict begin 1{/ImageType/Interpolate/Decode/DataSource
/ImageMatrix/BitsPerComponent/Height/Width}{exch def}forall
currentdict end image}!
/~{@ read {pop} if}!
end def
%%EndResource
/pagesave null def
%%EndProlog
%%Page: 1 1
%%BeginPageSetup
GS_epswrite_2_0_1001 begin
/pagesave save store 197 dict begin
0.1 0.1 scale
%%EndPageSetup
gsave mark
Q q
0 0.96875 108.84 89.0312 re
Y
0.2 i
K
54 72.65 m
0 6.44 -3.07 8.35 -5.2 8.35 c
-2.96 0 -5.79 -3.08 -5.79 -5.68 c
0 -1.54 0.58 -2.25 1.86 -3.55 c
2.44 -2.37 3.95 -5.45 3.95 -9.7 c
0 -4.97 -7.22 -32.07 -21.06 -32.07 c
-6.04 0 -8.75 4.14 -8.75 10.29 c
0 6.63 3.09 15.27 6.63 25.09 c
0.8 2.01 1.38 3.67 1.38 5.92 c
0 5.32 -3.82 9.7 -9.79 9.7 c
-11.21 0 -15.75 -17.47 -15.75 -18.56 c
0 -1.2 1.2 -1.2 1.44 -1.2 c
1.2 0 1.32 0.23 1.93 2.12 c
3.49 11.92 8.66 14.64 12.16 14.64 c
0.96 0 3.01 0 3.01 -3.79 c
0 -2.96 -1.21 -6.15 -2.07 -8.28 c
-5.35 -13.73 -6.93 -19.17 -6.93 -24.26 c
0 -12.78 10.51 -14.67 16 -14.67 c
20.15 0 27 39.46 27 45.65 c
h
f
76.84 19.13 m
-0.84 -2.75 -3.6 -7.13 -7.87 -7.13 c
-0.25 0 -2.76 0 -4.52 1.06 c
3.3 0.98 3.55 3.7 3.55 4.15 c
0 1.66 -1.4 2.79 -3.3 2.79 c
-2.31 0 -4.7 -1.97 -4.7 -5.01 c
0 -4.11 4.69 -5.99 8.79 -5.99 c
3.85 0 7.29 2.45 9.38 6 c
2.01 -4.48 6.61 -6 9.96 -6 c
9.63 0 14.74 10.58 14.74 12.95 c
0 1.1 -1.09 1.1 -1.34 1.1 c
-1.17 0 -1.26 -0.4 -1.59 -1.36 c
-1.76 -5.53 -6.78 -9.69 -11.46 -9.69 c
-3.35 0 -5.11 2.19 -5.11 5.27 c
0 2.11 2.01 9.48 4.35 18.47 c
1.67 6.24 5.44 8.26 8.2 8.26 c
0.17 0 2.76 0 4.52 0 c
-2.5 -0.79 -3.44 -3.22 -3.44 -4.79 c
0 -1.91 1.41 -3.21 3.33 -3.21 c
1.92 0 4.67 1.56 4.67 5 c
0 4.6 -5.38 6 -8.75 6 c
-4.21 0 -7.57 -2.8 -9.42 -6.04 c
-1.52 3.48 -5.38 6.04 -10.09 6.04 c
-9.42 0 -14.8 -10.36 -14.8 -12.89 c
0 -1.09 1.17 -1.09 1.42 -1.09 c
1.09 0 1.17 0.32 1.59 1.35 c
2.09 6.21 7.37 9.63 11.46 9.63 c
2.76 0 5.02 -1.46 5.02 -5.35 c
0 -1.62 -1 -5.67 -1.76 -8.43 c
h
f
cleartomark end end pagesave restore
 showpage
%%PageTrailer
%%Trailer
%%Pages: 1
