\relax 
\providecommand\hyper@newdestlabel[2]{}
\providecommand\HyperFirstAtBeginDocument{\AtBeginDocument}
\HyperFirstAtBeginDocument{\ifx\hyper@anchor\@undefined
\global\let\oldcontentsline\contentsline
\gdef\contentsline#1#2#3#4{\oldcontentsline{#1}{#2}{#3}}
\global\let\oldnewlabel\newlabel
\gdef\newlabel#1#2{\newlabelxx{#1}#2}
\gdef\newlabelxx#1#2#3#4#5#6{\oldnewlabel{#1}{{#2}{#3}}}
\AtEndDocument{\ifx\hyper@anchor\@undefined
\let\contentsline\oldcontentsline
\let\newlabel\oldnewlabel
\fi}
\fi}
\global\let\hyper@last\relax 
\gdef\HyperFirstAtBeginDocument#1{#1}
\providecommand\HyField@AuxAddToFields[1]{}
\providecommand\HyField@AuxAddToCoFields[2]{}
\bibstyle{unsrtnat}
\citation{assi_role_2013}
\citation{blevins_forces_2005}
\citation{yang2018critical}
\citation{mizushima2005instability}
\citation{carmo2010possible}
\citation{tasaka2006hysteretic}
\citation{huhe1985visual}
\citation{papaioannou2006three}
\citation{tong2015numerical}
\citation{ishigai1972experimental}
\citation{ishigai1972experimental}
\citation{xu2004strouhal}
\citation{igarashi1981characteristics}
\citation{kiya1980vortex}
\citation{ljungkrona1991free}
\citation{kitagawa2008numerical}
\citation{wang2018two}
\citation{zdravkovich1977interference}
\citation{zdravkovich_reviewreview_1977}
\citation{alam2003fluctuating}
\citation{biermann1933interference}
\citation{arie1983pressure}
\citation{okajima1979flows}
\citation{assi_role_2013}
\citation{assi_wake-induced_2010}
\citation{blevins_forces_2005}
\citation{assi_wake-induced_2010}
\@writefile{toc}{\contentsline {chapter}{List of Figures}{x}{chapter*.3}}
\citation{assi_wake-induced_2010}
\citation{price_origin_1976}
\citation{price_aerodynamic_1984}
\citation{bokaian_wake-induced_1984}
\citation{bokaian_wake-induced_1984}
\citation{blevins_forces_2005}
\citation{assi_wake-induced_2010}
\citation{price_origin_1976}
\citation{price_aerodynamic_1984}
\citation{bokaian_wake-induced_1984}
\citation{bokaian_wake-induced_1984}
\citation{blevins_forces_2005}
\citation{assi_wake-induced_2010}
\citation{price_origin_1976}
\citation{price_aerodynamic_1984}
\citation{bokaian_wake-induced_1984}
\citation{bokaian_wake-induced_1984}
\citation{blevins_forces_2005}
\citation{assi_wake-induced_2010}
\citation{price_origin_1976}
\citation{price_aerodynamic_1984}
\citation{bokaian_wake-induced_1984}
\citation{bokaian_wake-induced_1984}
\citation{assi_wake-induced_2010}
\citation{price_origin_1976}
\citation{price_aerodynamic_1984}
\citation{bokaian_wake-induced_1984}
\citation{bokaian_wake-induced_1984}
\citation{assi_wake-induced_2010}
\citation{price_origin_1976}
\citation{price_aerodynamic_1984}
\citation{bokaian_wake-induced_1984}
\citation{bokaian_wake-induced_1984}
\citation{nave2018global}
\citation{shadden2005definition}
\citation{haller_variational_2011}
\citation{serra_objective_2016}
\citation{de2014relocatable}
\citation{schindler2012ridge}
\gdef\@extra@binfo{@-1}\@writefile{toc}{\gdef \the@ipfilectr{@-1}}\@writefile{lof}{\gdef \the@ipfilectr{@-1}}\@writefile{lot}{\gdef \the@ipfilectr{@-1}}
\@input{./Chapters/Introduction.aux}
\gdef\@extra@binfo{}\@writefile{toc}{\gdef \the@ipfilectr{}}\@writefile{lof}{\gdef \the@ipfilectr{}}\@writefile{lot}{\gdef \the@ipfilectr{}}
\gdef\@extra@binfo{@-2}\@writefile{toc}{\gdef \the@ipfilectr{@-2}}\@writefile{lof}{\gdef \the@ipfilectr{@-2}}\@writefile{lot}{\gdef \the@ipfilectr{@-2}}
\@input{./Chapters/WakeStiffness.aux}
\gdef\@extra@binfo{}\@writefile{toc}{\gdef \the@ipfilectr{}}\@writefile{lof}{\gdef \the@ipfilectr{}}\@writefile{lot}{\gdef \the@ipfilectr{}}
\gdef\@extra@binfo{@-3}\@writefile{toc}{\gdef \the@ipfilectr{@-3}}\@writefile{lof}{\gdef \the@ipfilectr{@-3}}\@writefile{lot}{\gdef \the@ipfilectr{@-3}}
\@input{./Chapters/TVM.aux}
\gdef\@extra@binfo{}\@writefile{toc}{\gdef \the@ipfilectr{}}\@writefile{lof}{\gdef \the@ipfilectr{}}\@writefile{lot}{\gdef \the@ipfilectr{}}
\gdef\@extra@binfo{@-4}\@writefile{toc}{\gdef \the@ipfilectr{@-4}}\@writefile{lof}{\gdef \the@ipfilectr{@-4}}\@writefile{lot}{\gdef \the@ipfilectr{@-4}}
\@input{./Chapters/RepRate.aux}
\gdef\@extra@binfo{}\@writefile{toc}{\gdef \the@ipfilectr{}}\@writefile{lof}{\gdef \the@ipfilectr{}}\@writefile{lot}{\gdef \the@ipfilectr{}}
\gdef\@extra@binfo{@-5}\@writefile{toc}{\gdef \the@ipfilectr{@-5}}\@writefile{lof}{\gdef \the@ipfilectr{@-5}}\@writefile{lot}{\gdef \the@ipfilectr{@-5}}
\@input{./Chapters/Conclusion.aux}
\gdef\@extra@binfo{}\@writefile{toc}{\gdef \the@ipfilectr{}}\@writefile{lof}{\gdef \the@ipfilectr{}}\@writefile{lot}{\gdef \the@ipfilectr{}}
\@writefile{toc}{\contentsline {chapter}{Appendices}{129}{section*.80}}
\gdef\@extra@binfo{@-6}\@writefile{toc}{\gdef \the@ipfilectr{@-6}}\@writefile{lof}{\gdef \the@ipfilectr{@-6}}\@writefile{lot}{\gdef \the@ipfilectr{@-6}}
\@input{./Chapters/tandemGlider.aux}
\gdef\@extra@binfo{}\@writefile{toc}{\gdef \the@ipfilectr{}}\@writefile{lof}{\gdef \the@ipfilectr{}}\@writefile{lot}{\gdef \the@ipfilectr{}}
