\relax 
\providecommand\hyper@newdestlabel[2]{}
\citation{assi_role_2013}
\citation{blevins_forces_2005}
\citation{yeaton_global_2017}
\@writefile{toc}{\contentsline {chapter}{\numberline {5}Summary and conclusions}{124}{chapter.5}}
\@writefile{lof}{\addvspace {10\p@ }}
\@writefile{lot}{\addvspace {10\p@ }}
\newlabel{ch:summary_conclusions}{{5}{124}{Summary and conclusions}{chapter.5}{}}
\citation{haller_variational_2011}
\citation{huse1993interaction,blevins_forces_2005}
\citation{yang2018critical}
\@writefile{toc}{\contentsline {section}{\numberline {5.1}Future research directions}{125}{section.5.1}}
\citation{balasuriya2017unsteadily}
\bibstyle{unsrtnat}
\bibdata{dissertation}
\bibcite{assi_role_2013}{{1}{2013}{{Assi et~al.}}{{Assi, Bearman, Carmo, Meneghini, Sherwin, and Willden}}}
\bibcite{blevins_forces_2005}{{2}{2005}{{Blevins}}{{}}}
\bibcite{yeaton_global_2017}{{3}{2017}{{Yeaton et~al.}}{{Yeaton, Socha, and Ross}}}
\bibcite{haller_variational_2011}{{4}{2011}{{Haller}}{{}}}
\bibcite{huse1993interaction}{{5}{1993}{{Huse et~al.}}{{}}}
\bibcite{yang2018critical}{{6}{2018}{{Yang and Stremler}}{{}}}
\bibcite{balasuriya2017unsteadily}{{7}{2017}{{Balasuriya}}{{}}}
\@writefile{toc}{\contentsline {chapter}{Bibliography}{127}{chapter*.79}}
\@setckpt{./Chapters/Conclusion}{
\setcounter{page}{128}
\setcounter{equation}{0}
\setcounter{enumi}{0}
\setcounter{enumii}{0}
\setcounter{enumiii}{0}
\setcounter{enumiv}{0}
\setcounter{footnote}{0}
\setcounter{mpfootnote}{0}
\setcounter{part}{0}
\setcounter{chapter}{5}
\setcounter{section}{1}
\setcounter{subsection}{0}
\setcounter{subsubsection}{0}
\setcounter{paragraph}{0}
\setcounter{subparagraph}{0}
\setcounter{figure}{0}
\setcounter{table}{0}
\setcounter{parentequation}{0}
\setcounter{NAT@ctr}{7}
\setcounter{@pps}{0}
\setcounter{@ppsavesec}{0}
\setcounter{@ppsaveapp}{0}
\setcounter{Item}{0}
\setcounter{Hfootnote}{0}
\setcounter{bookmark@seq@number}{76}
\setcounter{float@type}{8}
\setcounter{lstnumber}{1}
\setcounter{ContinuedFloat}{0}
\setcounter{subfigure}{0}
\setcounter{subtable}{0}
\setcounter{proposition}{0}
\setcounter{section@level}{1}
\setcounter{lstlisting}{0}
}
