\relax 
\providecommand\hyper@newdestlabel[2]{}
\citation{box2005statistics}
\citation{sarpkaya2004critical}
\@writefile{toc}{\contentsline {chapter}{\numberline {1}Introduction}{1}{chapter.1}}
\@writefile{lof}{\addvspace {10\p@ }}
\@writefile{lot}{\addvspace {10\p@ }}
\newlabel{ch:introduction}{{1}{1}{Introduction}{chapter.1}{}}
\@writefile{toc}{\contentsline {section}{\numberline {1.1}Low-dimensional and simplified models in mechanics}{1}{section.1.1}}
\citation{socha2015animals}
\citation{yeaton_global_2017}
\citation{wan2015computational,krishnan2014lift}
\citation{yeaton_global_2017,nave2018global}
\citation{dowell2001modeling}
\citation{batchelor2000introduction}
\citation{lamb1932hydrodynamics,leonard1997stability,shashikanth2002hamiltonian,borisov2006motion,kelly2010self}
\@writefile{toc}{\contentsline {section}{\numberline {1.2}The challenge of understanding fluid forces}{3}{section.1.2}}
\citation{wiggins2003introduction}
\citation{koon2008dynamical,zhong2017tube}
\citation{wiggins2013normally}
\@writefile{toc}{\contentsline {section}{\numberline {1.3}The geometric structure of flows}{4}{section.1.3}}
\@writefile{toc}{\contentsline {section}{\numberline {1.4}Research Overview}{5}{section.1.4}}
\@writefile{toc}{\contentsline {section}{\numberline {1.5}Research topics not covered in this dissertation}{6}{section.1.5}}
\@writefile{toc}{\contentsline {subsection}{\numberline {1.5.1}Samara-inspired design of dispersed sensors through additive manufacturing}{6}{subsection.1.5.1}}
\citation{nave_wake_2016}
\citation{krishnan2014lift}
\citation{jafari_theoretical_2014}
\citation{blevins_forces_2005}
\@writefile{lof}{\contentsline {figure}{\numberline {1.1}{\ignorespaces Photos of experimental setup for real wind condition drops of 3D printed Norway maple seeds. (left) Seeds were dropped from a cherry picker at a 10ft height from the ground. (right) Close-up of 3D printed samara.\relax }}{7}{figure.caption.4}}
\providecommand*\caption@xref[2]{\@setref\relax\@undefined{#1}}
\newlabel{fig:3d-printed-samaras}{{1.1}{7}{Photos of experimental setup for real wind condition drops of 3D printed Norway maple seeds. (left) Seeds were dropped from a cherry picker at a 10ft height from the ground. (right) Close-up of 3D printed samara.\relax }{figure.caption.4}{}}
\@writefile{toc}{\contentsline {subsection}{\numberline {1.5.2}Wake effects on tandem airfoil gliders}{7}{subsection.1.5.2}}
\bibstyle{unsrtnat}
\bibdata{dissertation}
\@writefile{lof}{\contentsline {figure}{\numberline {1.2}{\ignorespaces Comparison of the results of simulated glides without(left) and with(right) a lift enhancement model based on wake stiffness. Green regions are considered ``stable'' glides based on whether the glider traveled at an angle shallower than $45^\circ $.\relax }}{8}{figure.caption.5}}
\newlabel{fig:tandemGlider-results}{{1.2}{8}{Comparison of the results of simulated glides without(left) and with(right) a lift enhancement model based on wake stiffness. Green regions are considered ``stable'' glides based on whether the glider traveled at an angle shallower than $45^\circ $.\relax }{figure.caption.5}{}}
\@writefile{toc}{\contentsline {subsection}{\numberline {1.5.3}Energy harvesting with flow-induced vibration}{8}{subsection.1.5.3}}
\@writefile{lof}{\contentsline {figure}{\numberline {1.3}{\ignorespaces (left) Schematic of the vortex-induced vibration energy harvesting system, courtesy of Saikat Basu. (right) Photograph of custom gear assembly designed to rectify cylinder oscillations to single direction of rotation.\relax }}{8}{figure.caption.6}}
\newlabel{fig:enVIV}{{1.3}{8}{(left) Schematic of the vortex-induced vibration energy harvesting system, courtesy of Saikat Basu. (right) Photograph of custom gear assembly designed to rectify cylinder oscillations to single direction of rotation.\relax }{figure.caption.6}{}}
\bibcite{box2005statistics}{{1}{2005}{{Box et~al.}}{{Box, Hunter, and Hunter}}}
\bibcite{sarpkaya2004critical}{{2}{2004}{{Sarpkaya}}{{}}}
\bibcite{socha2015animals}{{3}{2015}{{Socha et~al.}}{{Socha, Munk, and Byrnes}}}
\bibcite{yeaton_global_2017}{{4}{2017}{{Yeaton et~al.}}{{Yeaton, Socha, and Ross}}}
\bibcite{wan2015computational}{{5}{2015}{{Wan et~al.}}{{Wan, Dong, and Gai}}}
\bibcite{krishnan2014lift}{{6}{2014}{{Krishnan et~al.}}{{Krishnan, Socha, Vlachos, and Barba}}}
\bibcite{nave2018global}{{7}{2018}{{Nave~Jr and Ross}}{{}}}
\bibcite{dowell2001modeling}{{8}{2001}{{Dowell and Hall}}{{}}}
\bibcite{batchelor2000introduction}{{9}{2000}{{Batchelor}}{{}}}
\bibcite{lamb1932hydrodynamics}{{10}{1932}{{Lamb}}{{}}}
\bibcite{leonard1997stability}{{11}{1997}{{Leonard}}{{}}}
\@writefile{toc}{\contentsline {chapter}{Bibliography}{9}{chapter*.7}}
\bibcite{shashikanth2002hamiltonian}{{12}{2002}{{Shashikanth et~al.}}{{Shashikanth, Marsden, Burdick, and Kelly}}}
\bibcite{borisov2006motion}{{13}{2006}{{Borisov and Mamaev}}{{}}}
\bibcite{kelly2010self}{{14}{2010}{{Kelly and Xiong}}{{}}}
\bibcite{wiggins2003introduction}{{15}{2003}{{Wiggins}}{{}}}
\bibcite{koon2008dynamical}{{16}{2008}{{Koon et~al.}}{{Koon, Lo, Marsden, and Ross}}}
\bibcite{zhong2017tube}{{17}{2017}{{Zhong et~al.}}{{Zhong, Virgin, and Ross}}}
\bibcite{wiggins2013normally}{{18}{2013}{{Wiggins}}{{}}}
\bibcite{nave_wake_2016}{{19}{2016}{{Nave~Jr. et~al.}}{{Nave~Jr., Stremler, and Ross}}}
\bibcite{jafari_theoretical_2014}{{20}{2014}{{Jafari et~al.}}{{Jafari, Ross, Vlachos, and Socha}}}
\bibcite{blevins_forces_2005}{{21}{2005}{{Blevins}}{{}}}
\@setckpt{./Chapters/Introduction}{
\setcounter{page}{11}
\setcounter{equation}{5}
\setcounter{enumi}{0}
\setcounter{enumii}{0}
\setcounter{enumiii}{0}
\setcounter{enumiv}{0}
\setcounter{footnote}{0}
\setcounter{mpfootnote}{0}
\setcounter{part}{0}
\setcounter{chapter}{1}
\setcounter{section}{5}
\setcounter{subsection}{3}
\setcounter{subsubsection}{0}
\setcounter{paragraph}{0}
\setcounter{subparagraph}{0}
\setcounter{figure}{3}
\setcounter{table}{0}
\setcounter{parentequation}{0}
\setcounter{NAT@ctr}{21}
\setcounter{@pps}{0}
\setcounter{@ppsavesec}{0}
\setcounter{@ppsaveapp}{0}
\setcounter{Item}{0}
\setcounter{Hfootnote}{0}
\setcounter{bookmark@seq@number}{15}
\setcounter{float@type}{8}
\setcounter{lstnumber}{1}
\setcounter{ContinuedFloat}{0}
\setcounter{subfigure}{0}
\setcounter{subtable}{0}
\setcounter{proposition}{0}
\setcounter{section@level}{2}
\setcounter{lstlisting}{0}
}
