\relax 
\providecommand\hyper@newdestlabel[2]{}
\@writefile{toc}{\contentsline {chapter}{\numberline {4}The normal repulsion rate}{90}{chapter.4}}
\@writefile{lof}{\addvspace {10\p@ }}
\@writefile{lot}{\addvspace {10\p@ }}
\newlabel{ch:RepRate}{{4}{90}{The normal repulsion rate}{chapter.4}{}}
\citation{schmale2015highways}
\citation{peng2008theupstream,nave2018global}
\citation{kai2009top}
\citation{lekien2005pollution,wiggins2005dynamical}
\citation{zhong2017tube}
\citation{zhong2017tube}
\citation{zhong2017tube}
\citation{koon2008dynamical}
\citation{nave2018global}
\citation{kuehn2016multiple}
\citation{wiggins2013normally}
\citation{madrid2009distinguished}
\citation{shadden2005definition,shadden2011lagrangian}
\citation{aldridge2006direct,gawlik2009lagrangian,tanaka2010mathematical,nave2018global}
\@writefile{toc}{\contentsline {section}{\numberline {4.1}Introduction}{91}{section.4.1}}
\citation{balasuriya2018generalized,shadden2011lagrangian}
\citation{dellnitz2001algorithms,froyland2015rough}
\citation{allshouse2012detecting,budivsic2015finite}
\citation{shadden2005definition}
\citation{hadjighasem2017critical}
\citation{ameli2014development,brunton2010fast}
\citation{haller2010localized}
\citation{chakraborty2005relationships}
\citation{serra_objective_2016}
\citation{haller_variational_2011,lopesino2017theoretical}
\@writefile{toc}{\contentsline {subsection}{\numberline {4.1.1}Main result}{92}{subsection.4.1.1}}
\citation{haller2010localized}
\citation{haller2001lagrangian}
\citation{desroches2011canards}
\citation{tallapragada2017globally,haller2001lagrangian}
\citation{haller_variational_2011}
\citation{tallapragada2017globally}
\citation{nave2018global}
\citation{nave2018global}
\@writefile{toc}{\contentsline {section}{\numberline {4.2}Background and notation}{94}{section.4.2}}
\newlabel{s:Background}{{4.2}{94}{Background and notation}{section.4.2}{}}
\newlabel{eq:flowmap}{{4.2}{94}{Background and notation}{equation.4.2.2}{}}
\newlabel{unit_vector_fields}{{4.3}{94}{Background and notation}{equation.4.2.3}{}}
\@writefile{toc}{\contentsline {subsection}{\numberline {4.2.1}Trajectory-normal repulsion rate}{94}{subsection.4.2.1}}
\newlabel{eq:reprate}{{4.4}{94}{Trajectory-normal repulsion rate}{equation.4.2.4}{}}
\citation{haller_variational_2011}
\citation{truesdell2004non}
\citation{haller_variational_2011}
\@writefile{lof}{\contentsline {figure}{\numberline {4.1}{\ignorespaces Geometry of the trajectory-normal repulsion rate, reproduced from \cite  {nave2018global}.\relax }}{95}{figure.caption.59}}
\newlabel{fig:normal-repulsion-factor-2D}{{4.1}{95}{Geometry of the trajectory-normal repulsion rate, reproduced from \cite {nave2018global}.\relax }{figure.caption.59}{}}
\@writefile{toc}{\contentsline {subsection}{\numberline {4.2.2}Trajectory-normal repulsion ratio}{95}{subsection.4.2.2}}
\citation{haller_variational_2011}
\citation{haller_variational_2011}
\citation{truesdell2004non}
\newlabel{eq:rhoT}{{4.6}{96}{Trajectory-normal repulsion ratio}{equation.4.2.6}{}}
\@writefile{toc}{\contentsline {section}{\numberline {4.3}The trajectory divergence rate}{96}{section.4.3}}
\newlabel{s:Derivation}{{4.3}{96}{The trajectory divergence rate}{section.4.3}{}}
\newlabel{eq:CG Expansion}{{4.7}{96}{The trajectory divergence rate}{equation.4.3.7}{}}
\@writefile{lof}{\contentsline {figure}{\numberline {4.2}{\ignorespaces This schematic shows the relationship between the divergence rate and the time-$T$ repulsion rate $\rho _T$. The divergence rate is the instantaneous rate of change of the repulsion rate, which is therefore signified as $\mathaccentV {dot}05F{\rho }$.\relax }}{97}{figure.caption.60}}
\newlabel{fig:div-rate-schematic}{{4.2}{97}{This schematic shows the relationship between the divergence rate and the time-$T$ repulsion rate $\rho _T$. The divergence rate is the instantaneous rate of change of the repulsion rate, which is therefore signified as $\dot {\rho }$.\relax }{figure.caption.60}{}}
\newlabel{eq:Expansion2}{{4.9}{97}{The trajectory divergence rate}{equation.4.3.9}{}}
\newlabel{eq:detC}{{4.12}{98}{The trajectory divergence rate}{equation.4.3.12}{}}
\newlabel{eq:expand}{{4.13}{98}{The trajectory divergence rate}{equation.4.3.13}{}}
\newlabel{eq:local Rho}{{4.15}{98}{The trajectory divergence rate}{equation.4.3.15}{}}
\newlabel{eq:Leading Order Behavior}{{4.16}{98}{The trajectory divergence rate}{equation.4.3.16}{}}
\newlabel{eq:DivRate}{{4.17}{99}{The trajectory divergence rate}{equation.4.3.17}{}}
\@writefile{toc}{\contentsline {subsection}{\numberline {4.3.1}Trajectory divergence ratio}{99}{subsection.4.3.1}}
\newlabel{eq:nuT}{{4.19}{99}{Trajectory divergence ratio}{equation.4.3.19}{}}
\@writefile{lof}{\contentsline {figure}{\numberline {4.3}{\ignorespaces The phase portrait (left) and trajectory divergence rate field (right) for Example \ref  {ex:saddle}.\relax }}{100}{figure.caption.61}}
\newlabel{fig:saddle}{{4.3}{100}{The phase portrait (left) and trajectory divergence rate field (right) for Example \ref {ex:saddle}.\relax }{figure.caption.61}{}}
\@writefile{toc}{\contentsline {subsection}{\numberline {4.3.2}Physical interpretation of the trajectory divergence rate}{100}{subsection.4.3.2}}
\newlabel{ex:saddle}{{4.1}{100}{}{proposition.4.1}{}}
\citation{haller_variational_2011}
\citation{green2010using}
\@writefile{lof}{\contentsline {figure}{\numberline {4.4}{\ignorespaces Schematic of the physical interpretation of the trajectory divergence rate $\mathaccentV {dot}05F{\rho }$. Negative values indicate converging trajectories while positive values indicate diverging trajectories.\relax }}{101}{figure.caption.62}}
\newlabel{fig:DivRateSchema}{{4.4}{101}{Schematic of the physical interpretation of the trajectory divergence rate $\dot {\rho }$. Negative values indicate converging trajectories while positive values indicate diverging trajectories.\relax }{figure.caption.62}{}}
\newlabel{eq:SaddleDivRate}{{4.25}{101}{}{equation.4.3.25}{}}
\citation{truesdell2004non,serra_objective_2016}
\citation{lopesino2017theoretical}
\citation{serra_objective_2016}
\@writefile{toc}{\contentsline {subsection}{\numberline {4.3.3}Remarks on the trajectory divergence rate}{102}{subsection.4.3.3}}
\@writefile{toc}{\contentsline {subsubsection}{(Lack of) objectivity of the trajectory divergence rate}{102}{section*.63}}
\@writefile{toc}{\contentsline {subsubsection}{Relationship to Objective Eulerian Coherent Structures}{102}{section*.64}}
\newlabel{eq:stretch-rate}{{4.26}{102}{Relationship to Objective Eulerian Coherent Structures}{equation.4.3.26}{}}
\newlabel{eq:shear-rate}{{4.27}{102}{Relationship to Objective Eulerian Coherent Structures}{equation.4.3.27}{}}
\citation{kuehn2016multiple}
\@writefile{toc}{\contentsline {section}{\numberline {4.4}Applications of the trajectory divergence rate}{103}{section.4.4}}
\newlabel{s:Application}{{4.4}{103}{Applications of the trajectory divergence rate}{section.4.4}{}}
\citation{strogatz_nonlinear_2014}
\@writefile{lof}{\contentsline {figure}{\numberline {4.5}{\ignorespaces  (Left) Schematic of an overdamped bead on a rotating hoop, Coulomb friction directly opposes the motion along the hoop, while the entire hoop rotates about the vertical axis with rotational velocity $\omega $. (Right) The phase portrait for the model of Example \ref  {ex:rotHoop} defined by (\ref  {eq:rotHoop}), using $\varepsilon = 0.02$ and $\mu = 2.3$.\relax }}{104}{figure.caption.65}}
\newlabel{fig:rotHoopA}{{4.5}{104}{(Left) Schematic of an overdamped bead on a rotating hoop, Coulomb friction directly opposes the motion along the hoop, while the entire hoop rotates about the vertical axis with rotational velocity $\omega $. (Right) The phase portrait for the model of Example \ref {ex:rotHoop} defined by (\ref {eq:rotHoop}), using $\varepsilon = 0.02$ and $\mu = 2.3$.\relax }{figure.caption.65}{}}
\@writefile{toc}{\contentsline {subsection}{\numberline {4.4.1}Approximation of slow manifolds and normally hyperbolic invariant manifolds}{104}{subsection.4.4.1}}
\newlabel{ex:rotHoop}{{4.2}{104}{}{proposition.4.2}{}}
\@writefile{lof}{\contentsline {figure}{\numberline {4.6}{\ignorespaces  (left) The trajectory divergence rate and (right) the trajectory divergence ratio of Example \ref  {ex:rotHoop} with $\varepsilon = 0.02$ and $\mu = 2.3$. These diagnostics both show strong attraction along the slow manifold visible above in Fig. \ref  {fig:rotHoopA}.\relax }}{105}{figure.caption.66}}
\newlabel{fig:rotHoopB}{{4.6}{105}{(left) The trajectory divergence rate and (right) the trajectory divergence ratio of Example \ref {ex:rotHoop} with $\varepsilon = 0.02$ and $\mu = 2.3$. These diagnostics both show strong attraction along the slow manifold visible above in Fig. \ref {fig:rotHoopA}.\relax }{figure.caption.66}{}}
\newlabel{eq:rotHoop}{{4.29}{105}{}{equation.4.4.29}{}}
\@writefile{toc}{\contentsline {subsubsection}{Search for the curve which minimizes the trajectory divergence rate}{105}{section*.67}}
\citation{haller_variational_2011}
\@writefile{lof}{\contentsline {figure}{\numberline {4.7}{\ignorespaces The arc-length averaged trajectory divergence rate $\mathaccentV {dot}05F{\rho }$ over 1,000 trajectories integrated both forward and backward along the vertical slice $\phi =-3$.\relax }}{106}{figure.caption.68}}
\newlabel{fig:min-rhodot}{{4.7}{106}{The arc-length averaged trajectory divergence rate $\dot {\rho }$ over 1,000 trajectories integrated both forward and backward along the vertical slice $\phi =-3$.\relax }{figure.caption.68}{}}
\newlabel{eq:minimum}{{4.31}{106}{Search for the curve which minimizes the trajectory divergence rate}{equation.4.4.31}{}}
\citation{yeaton_global_2017,nave2018global}
\@writefile{lof}{\contentsline {figure}{\numberline {4.8}{\ignorespaces The results of the minimization of (\ref  {eq:minimum}) as shown in Fig. \ref  {fig:min-rhodot}. The red dot shows the minimum point found from the simulations, and the red curve shows the forward integration of this trajectory. Local minima were calculated at the points $\phi =\{-3.0, -0.1, 0.1, 3.0\}$ and integrated forward.\relax }}{107}{figure.caption.69}}
\newlabel{fig:min-rhodot-comp}{{4.8}{107}{The results of the minimization of (\ref {eq:minimum}) as shown in Fig. \ref {fig:min-rhodot}. The red dot shows the minimum point found from the simulations, and the red curve shows the forward integration of this trajectory. Local minima were calculated at the points $\phi =\{-3.0, -0.1, 0.1, 3.0\}$ and integrated forward.\relax }{figure.caption.69}{}}
\@writefile{lof}{\contentsline {figure}{\numberline {4.9}{\ignorespaces The phase portrait for Example \ref  {ex:glider}, showing the weak unstable manifold passing through the origin.\relax }}{107}{figure.caption.71}}
\newlabel{fig:glider}{{4.9}{107}{The phase portrait for Example \ref {ex:glider}, showing the weak unstable manifold passing through the origin.\relax }{figure.caption.71}{}}
\@writefile{toc}{\contentsline {subsubsection}{Comparison with other methods}{107}{section*.70}}
\newlabel{ex:glider}{{4.3}{107}{}{proposition.4.3}{}}
\citation{yeaton_global_2017}
\citation{haller_variational_2011,nave2018global}
\citation{shadden2005definition}
\citation{haller_variational_2011}
\citation{serra_objective_2016}
\citation{shadden2005definition}
\citation{haller_variational_2011}
\citation{serra_objective_2016}
\citation{serra_objective_2016}
\citation{shadden2005definition}
\@writefile{lof}{\contentsline {figure}{\numberline {4.10}{\ignorespaces Comparison of methods to extract structure from Ex. \ref  {ex:glider}. The scalar field calculations using (a) the finite-time Lyapunov exponent \cite  {shadden2005definition}, (b) the trajectory-normal repulsion rate \cite  {haller_variational_2011}, (c) minimum eigenvalue of $\mathbf  {S}$ from the objective Eulerian coherent structure approach \cite  {serra_objective_2016}, and (d) the trajectory divergence rate. Panels (a) and (b) were calculated by integrating trajectories with $T=-0.33$.\relax }}{109}{figure.caption.72}}
\newlabel{fig:method-comparison}{{4.10}{109}{Comparison of methods to extract structure from Ex. \ref {ex:glider}. The scalar field calculations using (a) the finite-time Lyapunov exponent \cite {shadden2005definition}, (b) the trajectory-normal repulsion rate \cite {haller_variational_2011}, (c) minimum eigenvalue of $\mathbf {S}$ from the objective Eulerian coherent structure approach \cite {serra_objective_2016}, and (d) the trajectory divergence rate. Panels (a) and (b) were calculated by integrating trajectories with $T=-0.33$.\relax }{figure.caption.72}{}}
\citation{brunton2010fast,ameli2014development}
\citation{garth2007efficient}
\citation{tallapragada2017globally}
\citation{de2014relocatable}
\citation{schindler2012ridge}
\citation{de2014relocatable}
\citation{schindler2012ridge}
\citation{haley2010multiscale}
\citation{schindler2012ridge}
\@writefile{lof}{\contentsline {figure}{\numberline {4.11}{\ignorespaces Simulation of ocean flow around Martha's Vineyard in August 2017 using the MSEAS model \cite  {de2014relocatable}. Streamlines of the ocean flow are shown in gray in the left figure. Lagrangian coherent structures calculated using $C$-ridges \cite  {schindler2012ridge} for an integration time of 2 hours are shown as solid lines in the right figure, with attracting LCSs in blue and repelling LCSs in red. The trajectory divergence rate, shown in the background shows regions of attraction (cyan) and repulsion (orange). The inset figure shows the trajectory divergence rate $\mathaccentV {dot}05F{\rho }$ along $41.3^\circ $N latitude from $70.6^\circ $W to $70.3^\circ $W, marked by the points A and B. Intersecting attracting and repelling LCSs are shown with the blue and red vertical lines, respectively.\relax }}{110}{figure.caption.73}}
\newlabel{fig:LCScomp}{{4.11}{110}{Simulation of ocean flow around Martha's Vineyard in August 2017 using the MSEAS model \cite {de2014relocatable}. Streamlines of the ocean flow are shown in gray in the left figure. Lagrangian coherent structures calculated using $C$-ridges \cite {schindler2012ridge} for an integration time of 2 hours are shown as solid lines in the right figure, with attracting LCSs in blue and repelling LCSs in red. The trajectory divergence rate, shown in the background shows regions of attraction (cyan) and repulsion (orange). The inset figure shows the trajectory divergence rate $\dot {\rho }$ along $41.3^\circ $N latitude from $70.6^\circ $W to $70.3^\circ $W, marked by the points A and B. Intersecting attracting and repelling LCSs are shown with the blue and red vertical lines, respectively.\relax }{figure.caption.73}{}}
\@writefile{toc}{\contentsline {subsection}{\numberline {4.4.2}Approximation of hyperbolic Lagrangian coherent structures}{110}{subsection.4.4.2}}
\newlabel{ss:LCSapprox}{{4.4.2}{110}{Approximation of hyperbolic Lagrangian coherent structures}{subsection.4.4.2}{}}
\citation{lekien2010computation,xie2018lagrangian}
\citation{ali1999local,norris2008revisiting}
\citation{krupa2001relaxation,kuehn2016multiple}
\@writefile{toc}{\contentsline {subsection}{\numberline {4.4.3}Repulsion rate along a limit cycle}{111}{subsection.4.4.3}}
\newlabel{ex:vdP}{{4.5}{111}{}{proposition.4.5}{}}
\citation{ali1999local,norris2008revisiting}
\@writefile{lof}{\contentsline {figure}{\numberline {4.12}{\ignorespaces The phase portrait of the Van der Pol oscillator given by Example \ref  {ex:vdP}, using $\varepsilon = 0.01$ and $a = 0.575$.\relax }}{112}{figure.caption.74}}
\newlabel{fig:phaseplot-vdP}{{4.12}{112}{The phase portrait of the Van der Pol oscillator given by Example \ref {ex:vdP}, using $\varepsilon = 0.01$ and $a = 0.575$.\relax }{figure.caption.74}{}}
\newlabel{eq: vanderPol}{{4.33}{112}{}{equation.4.4.33}{}}
\@writefile{lof}{\contentsline {figure}{\numberline {4.13}{\ignorespaces The trajectory divergence rate along the limit cycle in the Van der Pol oscillator of Example \ref  {ex:vdP}. Along the limit cycle, the outer branches along the slow manifold are very attractive, but the fast branches are instantaneously repelling.\relax }}{113}{figure.caption.75}}
\newlabel{fig:limitcycle}{{4.13}{113}{The trajectory divergence rate along the limit cycle in the Van der Pol oscillator of Example \ref {ex:vdP}. Along the limit cycle, the outer branches along the slow manifold are very attractive, but the fast branches are instantaneously repelling.\relax }{figure.caption.75}{}}
\@writefile{toc}{\contentsline {section}{\numberline {4.5}Extension to higher dimensions}{113}{section.4.5}}
\newlabel{s:HigherDimension}{{4.5}{113}{Extension to higher dimensions}{section.4.5}{}}
\newlabel{eq:higherdim-reprate}{{4.34}{113}{Extension to higher dimensions}{equation.4.5.34}{}}
\@writefile{lof}{\contentsline {figure}{\numberline {4.14}{\ignorespaces Representation of the divergence rate in a 3-dimensional system, $\mathaccentV {dot}05F{\textbf  {R}}$. The circle represents the normal plane $N$ to the trajectory, and the ellipse represents the slope of normal stretching as in Fig. \ref  {fig:div-rate-schematic}. The eigenvalues of $\mathaccentV {dot}05F{\mathbf  {R}}$ give the principal stretching within the normal plane.\relax }}{114}{figure.caption.76}}
\newlabel{fig:3dDivRateSchematic}{{4.14}{114}{Representation of the divergence rate in a 3-dimensional system, $\dot {\textbf {R}}$. The circle represents the normal plane $N$ to the trajectory, and the ellipse represents the slope of normal stretching as in Fig. \ref {fig:div-rate-schematic}. The eigenvalues of $\dot {\mathbf {R}}$ give the principal stretching within the normal plane.\relax }{figure.caption.76}{}}
\@writefile{lof}{\contentsline {figure}{\numberline {4.15}{\ignorespaces The phase portrait for Example \ref  {ex:hopf} with $\mu =-1$ and $\mu =1$, and results of the 3D computation of the trajectory divergence rate. In the bottom left, two slices of the largest eigenvalue of $\mathaccentV {dot}05F{\mathbf  {R}}$ from Eq. (\ref  {eq:higherdim-reprate}) are shown for the Hopf bifurcation in extended phase space as described by (\ref  {eq:Hopf}), with $\epsilon =0.25$. In the bottom right, this has been overlaid with the attracting manifold (blue) and example trajectories.\relax }}{115}{figure.caption.77}}
\newlabel{fig:Hopf}{{4.15}{115}{The phase portrait for Example \ref {ex:hopf} with $\mu =-1$ and $\mu =1$, and results of the 3D computation of the trajectory divergence rate. In the bottom left, two slices of the largest eigenvalue of $\dot {\mathbf {R}}$ from Eq. (\ref {eq:higherdim-reprate}) are shown for the Hopf bifurcation in extended phase space as described by (\ref {eq:Hopf}), with $\epsilon =0.25$. In the bottom right, this has been overlaid with the attracting manifold (blue) and example trajectories.\relax }{figure.caption.77}{}}
\citation{wiggins2003introduction}
\newlabel{ex:hopf}{{4.6}{116}{}{proposition.4.6}{}}
\newlabel{eq:Hopf}{{4.39}{116}{}{equation.4.5.39}{}}
\bibstyle{unsrtnat}
\bibdata{dissertation}
\@writefile{toc}{\contentsline {section}{\numberline {4.6}Summary and conclusions}{117}{section.4.6}}
\newlabel{s:Summary}{{4.6}{117}{Summary and conclusions}{section.4.6}{}}
\bibcite{schmale2015highways}{{1}{2015}{{Schmale~III and Ross}}{{}}}
\bibcite{peng2008theupstream}{{2}{2008}{{Peng and Dabiri}}{{}}}
\bibcite{nave2018global}{{3}{2018}{{Nave~Jr and Ross}}{{}}}
\bibcite{kai2009top}{{4}{2009}{{Kai et~al.}}{{Kai, Rossi, Sudre, Weimerskirch, Lopez, Hernandez-Garcia, Marsac, and Gar{\c {c}}on}}}
\bibcite{lekien2005pollution}{{5}{2005}{{Lekien et~al.}}{{Lekien, Coulliette, Mariano, Ryan, Shay, Haller, and Marsden}}}
\bibcite{wiggins2005dynamical}{{6}{2005}{{Wiggins}}{{}}}
\bibcite{zhong2017tube}{{7}{2017}{{Zhong et~al.}}{{Zhong, Virgin, and Ross}}}
\bibcite{koon2008dynamical}{{8}{2008}{{Koon et~al.}}{{Koon, Lo, Marsden, and Ross}}}
\bibcite{kuehn2016multiple}{{9}{2016}{{Kuehn}}{{}}}
\bibcite{wiggins2013normally}{{10}{2013}{{Wiggins}}{{}}}
\@writefile{toc}{\contentsline {chapter}{Bibliography}{118}{chapter*.78}}
\bibcite{madrid2009distinguished}{{11}{2009}{{Madrid and Mancho}}{{}}}
\bibcite{shadden2005definition}{{12}{2005}{{Shadden et~al.}}{{Shadden, Lekien, and Marsden}}}
\bibcite{shadden2011lagrangian}{{13}{2011}{{Shadden}}{{}}}
\bibcite{aldridge2006direct}{{14}{2006}{{Aldridge et~al.}}{{Aldridge, Haller, Sorger, and Lauffenburger}}}
\bibcite{gawlik2009lagrangian}{{15}{2009}{{Gawlik et~al.}}{{Gawlik, Marsden, Du~Toit, and Campagnola}}}
\bibcite{tanaka2010mathematical}{{16}{2010}{{Tanaka et~al.}}{{Tanaka, Ross, and Nussbaum}}}
\bibcite{balasuriya2018generalized}{{17}{2018}{{Balasuriya et~al.}}{{Balasuriya, Ouellette, and Rypina}}}
\bibcite{dellnitz2001algorithms}{{18}{2001}{{Dellnitz et~al.}}{{Dellnitz, Froyland, and Junge}}}
\bibcite{froyland2015rough}{{19}{2015}{{Froyland and Padberg-Gehle}}{{}}}
\bibcite{allshouse2012detecting}{{20}{2012}{{Allshouse and Thiffeault}}{{}}}
\bibcite{budivsic2015finite}{{21}{2015}{{Budi{\v {s}}i{\'c} and Thiffeault}}{{}}}
\bibcite{hadjighasem2017critical}{{22}{2017}{{Hadjighasem et~al.}}{{Hadjighasem, Farazmand, Blazevski, Froyland, and Haller}}}
\bibcite{ameli2014development}{{23}{2014}{{Ameli et~al.}}{{Ameli, Desai, and Shadden}}}
\bibcite{brunton2010fast}{{24}{2010}{{Brunton and Rowley}}{{}}}
\bibcite{haller2010localized}{{25}{2010}{{Haller and Sapsis}}{{}}}
\bibcite{chakraborty2005relationships}{{26}{2005}{{Chakraborty et~al.}}{{Chakraborty, Balachandar, and Adrian}}}
\bibcite{serra_objective_2016}{{27}{2016}{{Serra and Haller}}{{}}}
\bibcite{haller_variational_2011}{{28}{2011}{{Haller}}{{}}}
\bibcite{lopesino2017theoretical}{{29}{2017}{{Lopesino et~al.}}{{Lopesino, Balibrea-Iniesta, Garc{\'\i }a-Garrido, Wiggins, and Mancho}}}
\bibcite{haller2001lagrangian}{{30}{2001}{{Haller}}{{}}}
\bibcite{desroches2011canards}{{31}{2011}{{Desroches and Jeffrey}}{{}}}
\bibcite{tallapragada2017globally}{{32}{2017}{{Tallapragada and Sudarsanam}}{{}}}
\bibcite{truesdell2004non}{{33}{2004}{{Truesdell and Noll}}{{}}}
\bibcite{green2010using}{{34}{2010}{{Green et~al.}}{{Green, Rowley, and Smits}}}
\bibcite{strogatz_nonlinear_2014}{{35}{2014}{{Strogatz}}{{}}}
\bibcite{yeaton_global_2017}{{36}{2017}{{Yeaton et~al.}}{{Yeaton, Socha, and Ross}}}
\bibcite{garth2007efficient}{{37}{2007}{{Garth et~al.}}{{Garth, Gerhardt, Tricoche, and Hans}}}
\bibcite{de2014relocatable}{{38}{2014}{{De~Dominicis et~al.}}{{De~Dominicis, Falchetti, Trotta, Pinardi, Giacomelli, Napolitano, Fazioli, Sorgente, Haley~Jr, Lermusiaux, et~al.}}}
\bibcite{schindler2012ridge}{{39}{2012}{{Schindler et~al.}}{{Schindler, Peikert, Fuchs, and Theisel}}}
\bibcite{haley2010multiscale}{{40}{2010}{{Haley and Lermusiaux}}{{}}}
\bibcite{lekien2010computation}{{41}{2010}{{Lekien and Ross}}{{}}}
\bibcite{xie2018lagrangian}{{42}{2018}{{Xie et~al.}}{{Xie, Nolan, Ross, and Iliescu}}}
\bibcite{ali1999local}{{43}{1999}{{Ali and Menzinger}}{{}}}
\bibcite{norris2008revisiting}{{44}{2008}{{Norris et~al.}}{{Norris, Marsh, Granata, and Ross}}}
\bibcite{krupa2001relaxation}{{45}{2001}{{Krupa and Szmolyan}}{{}}}
\bibcite{wiggins2003introduction}{{46}{2003}{{Wiggins}}{{}}}
\@writefile{toc}{\contentsline {section}{\numberline {4.7}Derivation of Equation (\ref  {eq:DivRate})}{122}{section.4.7}}
\newlabel{ap: normal derivation}{{4.7}{122}{Derivation of Equation (\ref {eq:DivRate})}{section.4.7}{}}
\@setckpt{./Chapters/RepRate}{
\setcounter{page}{124}
\setcounter{equation}{45}
\setcounter{enumi}{0}
\setcounter{enumii}{0}
\setcounter{enumiii}{0}
\setcounter{enumiv}{0}
\setcounter{footnote}{0}
\setcounter{mpfootnote}{0}
\setcounter{part}{0}
\setcounter{chapter}{4}
\setcounter{section}{7}
\setcounter{subsection}{0}
\setcounter{subsubsection}{0}
\setcounter{paragraph}{0}
\setcounter{subparagraph}{0}
\setcounter{figure}{15}
\setcounter{table}{0}
\setcounter{parentequation}{0}
\setcounter{NAT@ctr}{46}
\setcounter{@pps}{0}
\setcounter{@ppsavesec}{0}
\setcounter{@ppsaveapp}{0}
\setcounter{Item}{0}
\setcounter{Hfootnote}{0}
\setcounter{bookmark@seq@number}{73}
\setcounter{float@type}{8}
\setcounter{lstnumber}{1}
\setcounter{ContinuedFloat}{0}
\setcounter{subfigure}{0}
\setcounter{subtable}{0}
\setcounter{proposition}{6}
\setcounter{section@level}{1}
\setcounter{lstlisting}{0}
}
