\relax 
\providecommand\hyper@newdestlabel[2]{}
\citation{assi_wake-induced_2010}
\citation{hover_galloping_2001}
\citation{assi_role_2013}
\@writefile{toc}{\contentsline {chapter}{Appendix \numberline {A}Wake stiffness and its application: oscillating cylinders and flying snakes}{130}{Appendix.a.A}}
\@writefile{lof}{\addvspace {10\p@ }}
\@writefile{lot}{\addvspace {10\p@ }}
\newlabel{ap:tandemGlider}{{A}{130}{Wake stiffness and its application: oscillating cylinders and flying snakes}{Appendix.a.A}{}}
\citation{assi_role_2013}
\citation{assi_wake-induced_2010}
\citation{hover_galloping_2001}
\citation{assi_role_2013}
\citation{zdravkovich_review_1988}
\citation{zdravkovich_review_1988}
\citation{assi_role_2013}
\@writefile{toc}{\contentsline {section}{\numberline {A.1}Wake stiffness in the motion of tandem, tethered cylinders}{131}{section.a.A.1}}
\citation{assi_role_2013}
\citation{assi_role_2013}
\citation{holden_aerodynamics_2014}
\citation{jafari_theoretical_2014}
\citation{holden_aerodynamics_2014}
\@writefile{toc}{\contentsline {section}{\numberline {A.2}Applying wake stiffness to a model of flying snakes}{132}{section.a.A.2}}
\citation{assi_role_2013}
\bibstyle{unsrtnat}
\bibdata{dissertation}
\@writefile{toc}{\contentsline {section}{\numberline {A.3}Conclusions}{133}{section.a.A.3}}
\@writefile{lof}{\contentsline {figure}{\numberline {A.1}{\ignorespaces (a) Configuration of the tandem, tethered cylinder system. The trailing cylinder is constrained to move around the upstream cylinder along the ``cylinder path.'' (b) Schematic of tandem wing model of flying snakes. The wings move together and are constrained to a constant distance, giving the similarity to tethered cylinders. (c) PSD of dynamic response for cylinder spacing \(x_0/D = 4\), showing frequency peaks corresponding to Strouhal frequency and wake stiffness frequency. (d) Apparent Wake Stiffness, \(f_wD/U\), for tandem, tethered cylinders at various spacings. The figure shows that wake stiffness effects decrease for \(x_0/D \geq 3.5\), but remain constant for \(x_0/D = 3.0\).\relax }}{133}{figure.caption.83}}
\newlabel{fig}{{A.1}{133}{(a) Configuration of the tandem, tethered cylinder system. The trailing cylinder is constrained to move around the upstream cylinder along the ``cylinder path.'' (b) Schematic of tandem wing model of flying snakes. The wings move together and are constrained to a constant distance, giving the similarity to tethered cylinders. (c) PSD of dynamic response for cylinder spacing \(x_0/D = 4\), showing frequency peaks corresponding to Strouhal frequency and wake stiffness frequency. (d) Apparent Wake Stiffness, \(f_wD/U\), for tandem, tethered cylinders at various spacings. The figure shows that wake stiffness effects decrease for \(x_0/D \geq 3.5\), but remain constant for \(x_0/D = 3.0\).\relax }{figure.caption.83}{}}
\bibcite{assi_wake-induced_2010}{{1}{2010}{{Assi et~al.}}{{Assi, Bearman, and Meneghini}}}
\bibcite{hover_galloping_2001}{{2}{2001}{{Hover and Triantafyllou}}{{}}}
\bibcite{assi_role_2013}{{3}{2013}{{Assi et~al.}}{{Assi, Bearman, Carmo, Meneghini, Sherwin, and Willden}}}
\bibcite{zdravkovich_review_1988}{{4}{1988}{{Zdravkovich}}{{}}}
\bibcite{holden_aerodynamics_2014}{{5}{2014}{{Holden et~al.}}{{Holden, Socha, Cardwell, and Vlachos}}}
\bibcite{jafari_theoretical_2014}{{6}{2014}{{Jafari et~al.}}{{Jafari, Ross, Vlachos, and Socha}}}
\@writefile{toc}{\contentsline {chapter}{Appendix Bibliography}{134}{Appendix*.84}}
\@setckpt{./Chapters/tandemGlider}{
\setcounter{page}{135}
\setcounter{equation}{0}
\setcounter{enumi}{0}
\setcounter{enumii}{0}
\setcounter{enumiii}{0}
\setcounter{enumiv}{0}
\setcounter{footnote}{0}
\setcounter{mpfootnote}{0}
\setcounter{part}{0}
\setcounter{chapter}{1}
\setcounter{section}{3}
\setcounter{subsection}{0}
\setcounter{subsubsection}{0}
\setcounter{paragraph}{0}
\setcounter{subparagraph}{0}
\setcounter{figure}{1}
\setcounter{table}{0}
\setcounter{parentequation}{0}
\setcounter{NAT@ctr}{6}
\setcounter{@pps}{1}
\setcounter{@ppsavesec}{0}
\setcounter{@ppsaveapp}{0}
\setcounter{Item}{0}
\setcounter{Hfootnote}{0}
\setcounter{bookmark@seq@number}{82}
\setcounter{float@type}{8}
\setcounter{lstnumber}{1}
\setcounter{ContinuedFloat}{0}
\setcounter{subfigure}{0}
\setcounter{subtable}{0}
\setcounter{proposition}{0}
\setcounter{section@level}{1}
\setcounter{lstlisting}{0}
}
