\relax 
\providecommand\hyper@newdestlabel[2]{}
\citation{socha2015animals}
\citation{minami_various_2003}
\citation{jackson2000glide,vernes2001gliding,mcguire2005cost,socha_non-equilibrium_2010,bahlman2013glide}
\citation{mcguire2005cost,socha_non-equilibrium_2010,bahlman2013glide}
\citation{minami_various_2003}
\citation{vogel1994life,kovavc2011epfl,dickson2013design,leonard2010coordinated}
\@writefile{toc}{\contentsline {chapter}{\numberline {3}Global phase space structures in a model of passive descent}{56}{chapter.3}}
\@writefile{lof}{\addvspace {10\p@ }}
\@writefile{lot}{\addvspace {10\p@ }}
\newlabel{ch:TVM}{{3}{56}{Global phase space structures in a model of passive descent}{chapter.3}{}}
\citation{maxwell1854particular,lamb1932hydrodynamics,andronov2013theory}
\citation{minami_various_2003,field_chaotic_1997}
\citation{field_chaotic_1997,ern2012wake,andersen_unsteady_2005,andersen_analysis_2005,tam2010tumbling,vincent2016holes}
\citation{lamb1932hydrodynamics,aref1993chaotic,borisov2007dynamic,Roenby1871}
\citation{andronov2013theory}
\citation{andersen_unsteady_2005,andersen_analysis_2005}
\citation{yeaton_global_2017}
\citation{andronov2013theory}
\citation{andersen_analysis_2005}
\citation{yeaton_global_2017}
\@writefile{toc}{\contentsline {section}{\numberline {3.1}Introduction}{57}{section.3.1}}
\citation{yeaton_global_2017}
\citation{wiggins2013normally}
\citation{kevrekidis2003equation}
\citation{shadden2005definition,haller_variational_2011,haller_lagrangian_2015}
\citation{yeaton_global_2017}
\citation{yeaton_global_2017}
\citation{wang2004unsteady}
\citation{holden_aerodynamics_2014}
\citation{sheldahl1981aerodynamic}
\citation{yeaton_global_2017}
\citation{yeaton_global_2017}
\citation{andersen_unsteady_2005}
\citation{andersen_analysis_2005}
\@writefile{toc}{\contentsline {section}{\numberline {3.2}A simple glider model}{59}{section.3.2}}
\newlabel{s:GliderModel}{{3.2}{59}{A simple glider model}{section.3.2}{}}
\citation{yeaton_global_2017}
\citation{yeaton_global_2017}
\@writefile{lof}{\contentsline {figure}{\numberline {3.1}{\ignorespaces Definitions of angles and directions in the glider model used in this paper. The pitch angle $\theta $ represents the body's fixed orientation with respect to the ground. The black arrows show the lift force $F_L$, drag force $F_D$ and gravitational force $F_{gravity}$ which give the model in (\ref  {eq:dimensionalEOM}). The magnitude $v$ and direction $\gamma $ of the body's velocity, shown in green, form the velocity-polar coordinates used in (\ref  {eq:glider model}), while the $\mathaccentV {hat}05E{x}$ and $\mathaccentV {hat}05E{z}$ directions shown in blue comprise the inertial coordinates used in this study.\relax }}{60}{figure.caption.33}}
\newlabel{fig:AngleDef}{{3.1}{60}{Definitions of angles and directions in the glider model used in this paper. The pitch angle $\theta $ represents the body's fixed orientation with respect to the ground. The black arrows show the lift force $F_L$, drag force $F_D$ and gravitational force $F_{gravity}$ which give the model in (\ref {eq:dimensionalEOM}). The magnitude $v$ and direction $\gamma $ of the body's velocity, shown in green, form the velocity-polar coordinates used in (\ref {eq:glider model}), while the $\hat {x}$ and $\hat {z}$ directions shown in blue comprise the inertial coordinates used in this study.\relax }{figure.caption.33}{}}
\newlabel{eq:dimensionalEOM}{{3.1}{60}{A simple glider model}{equation.3.2.1}{}}
\newlabel{eq:dimensionlessEOM}{{3.2}{61}{A simple glider model}{equation.3.2.2}{}}
\newlabel{eq:glider model}{{3.3}{61}{A simple glider model}{equation.3.2.3}{}}
\newlabel{eq:inertial-v1}{{3.4}{61}{A simple glider model}{equation.3.2.4}{}}
\newlabel{eq:inertial-v2}{{3.5}{61}{A simple glider model}{equation.3.2.5}{}}
\@writefile{lof}{\contentsline {figure}{\numberline {3.2}{\ignorespaces Example glide in position space (left) in which the glider launches with an initial velocity of $\left (v_x(0), v_z(0)\right )=(0.2, 0)$ and the associated velocities of that glide (center). The green points represent even the states at every 1.5 non-dimensional time units. Between the first two green points, the glider accelerates downward due to gravity. After that, the velocities change more slowly toward the equilibrium velocity shown in blue. Looking at the whole velocity space (right), trajectories shown in gray from a variety of initial conditions seem to collapse to a single curve in the velocity space. This attracting curve is the \textit  {terminal velocity manifold}. Additionally, the blue vector field shows the magnitude and direction of acceleration at every velocity, while the black vertical line represents $v_x=0$.\relax }}{62}{figure.caption.34}}
\newlabel{fig:TVMdemo}{{3.2}{62}{Example glide in position space (left) in which the glider launches with an initial velocity of $\left (v_x(0), v_z(0)\right )=(0.2, 0)$ and the associated velocities of that glide (center). The green points represent even the states at every 1.5 non-dimensional time units. Between the first two green points, the glider accelerates downward due to gravity. After that, the velocities change more slowly toward the equilibrium velocity shown in blue. Looking at the whole velocity space (right), trajectories shown in gray from a variety of initial conditions seem to collapse to a single curve in the velocity space. This attracting curve is the \textit {terminal velocity manifold}. Additionally, the blue vector field shows the magnitude and direction of acceleration at every velocity, while the black vertical line represents $v_x=0$.\relax }{figure.caption.34}{}}
\@writefile{toc}{\contentsline {subsection}{\numberline {3.2.1}The terminal velocity manifold}{62}{subsection.3.2.1}}
\newlabel{ss:terminalVelocity}{{3.2.1}{62}{The terminal velocity manifold}{subsection.3.2.1}{}}
\newlabel{eq:TerminalVelocity}{{3.6}{62}{The terminal velocity manifold}{equation.3.2.6}{}}
\citation{wang2004unsteady,andersen_analysis_2005,andersen_unsteady_2005,ern2012wake,tam2010tumbling}
\citation{andersen_unsteady_2005,andersen_analysis_2005}
\citation{wang2004unsteady}
\@writefile{toc}{\contentsline {subsection}{\numberline {3.2.2}Lift and drag as functional parameters}{63}{subsection.3.2.2}}
\newlabel{ss:liftdrag}{{3.2.2}{63}{Lift and drag as functional parameters}{subsection.3.2.2}{}}
\newlabel{eq:liftCoeff}{{3.7}{63}{Lift and drag as functional parameters}{equation.3.2.7}{}}
\newlabel{eq:dragCoeff}{{3.8}{63}{Lift and drag as functional parameters}{equation.3.2.8}{}}
\citation{wang2004unsteady}
\citation{socha2011gliding}
\citation{holden_aerodynamics_2014}
\citation{socha2002kinematics,socha_non-equilibrium_2010,jafari_theoretical_2014,krishnan2014lift,socha2015animals,yeaton_global_2017,jafari2017control}
\citation{jafari_theoretical_2014}
\citation{sheldahl1981aerodynamic}
\@writefile{toc}{\contentsline {subsubsection}{Falling flat plate}{64}{section*.35}}
\@writefile{toc}{\contentsline {subsubsection}{The flying snake airfoil: the body shape of \textit  {Chrysopelea paradisi}}{64}{section*.37}}
\@writefile{lof}{\contentsline {figure}{\numberline {3.3}{\ignorespaces Comparison of the example airfoils considered in this paper. For each airfoil, the lift and drag curves are shown over the interval $\alpha \in (0^\circ , 180^\circ )$. The symmetry of drag and antisymmetry of lift for the flat plate (panel b) and flying snake airfoils (panel e) about $\alpha =90^\circ $ are evident. The NACA airfoil exhibits this same symmetry and anti-symmetry, but about $\alpha =0^\circ $ in panel h. In panels c, f, and i, the acceleration at each velocity is shown by the blue arrows and example trajectories are shown in gray for an example with a fixed pitch angle of $\theta =-5^\circ $.\relax }}{65}{figure.caption.36}}
\newlabel{fig:ExampleComp}{{3.3}{65}{Comparison of the example airfoils considered in this paper. For each airfoil, the lift and drag curves are shown over the interval $\alpha \in (0^\circ , 180^\circ )$. The symmetry of drag and antisymmetry of lift for the flat plate (panel b) and flying snake airfoils (panel e) about $\alpha =90^\circ $ are evident. The NACA airfoil exhibits this same symmetry and anti-symmetry, but about $\alpha =0^\circ $ in panel h. In panels c, f, and i, the acceleration at each velocity is shown by the blue arrows and example trajectories are shown in gray for an example with a fixed pitch angle of $\theta =-5^\circ $.\relax }{figure.caption.36}{}}
\@writefile{toc}{\contentsline {subsubsection}{The NACA-0012 airfoil}{65}{section*.38}}
\@writefile{toc}{\contentsline {subsection}{\numberline {3.2.3}Shape symmetry and force coefficients}{66}{subsection.3.2.3}}
\@writefile{toc}{\contentsline {section}{\numberline {3.3}Equilibrium points of the system}{67}{section.3.3}}
\newlabel{s:equilibria}{{3.3}{67}{Equilibrium points of the system}{section.3.3}{}}
\newlabel{eq:fixed-point-condition}{{3.13}{67}{Equilibrium points of the system}{equation.3.3.13}{}}
\newlabel{eq:DifferenceEquation}{{3.14}{67}{Equilibrium points of the system}{equation.3.3.14}{}}
\@writefile{lof}{\contentsline {figure}{\numberline {3.4}{\ignorespaces Graphical representation of (\ref  {eq:DifferenceEquation}). Every intersection between the two functions, or equivalently, every zero crossing of $h(\gamma )$, represents a fixed point of the system. This example is for the flying snake airfoil at pitch angle $\theta =-5^\circ $, matching the phase space shown in Figure \ref  {fig:ExampleComp}f.\relax }}{68}{figure.caption.39}}
\newlabel{fig:ProofFigure}{{3.4}{68}{Graphical representation of (\ref {eq:DifferenceEquation}). Every intersection between the two functions, or equivalently, every zero crossing of $h(\gamma )$, represents a fixed point of the system. This example is for the flying snake airfoil at pitch angle $\theta =-5^\circ $, matching the phase space shown in Figure \ref {fig:ExampleComp}f.\relax }{figure.caption.39}{}}
\citation{yeaton_global_2017}
\newlabel{eq:dh-dgamma}{{3.16}{69}{Equilibrium points of the system}{equation.3.3.16}{}}
\citation{yeaton_global_2017}
\citation{wiggins2013normally}
\citation{koon2008dynamical}
\citation{kuehn2016multiple}
\citation{haller_variational_2011}
\@writefile{lof}{\contentsline {figure}{\numberline {3.5}{\ignorespaces The bifurcation diagram showing the glide angle of the equilibrium points $\gamma ^*$ at each pitch angle $\theta $ for the flat plate(left), the flying snake cross section(center), and a NACA-0012 airfoil(right). The $\gamma $-axis is flipped such that forward equilibrium glides ($v_x>0$, $\gamma ^*<90^\circ $) are located at the top while backward equilibrium glides ($v_x<0$, $\gamma ^*>90^\circ $) are located in the lower half of each panel. The type of fixed point is indicated by the color. Blue indicates a saddle node, purple indicates a stable focus, red indicates a saddle point, and black indicates a center fixed point.\relax }}{70}{figure.caption.40}}
\newlabel{fig:Bifurcation}{{3.5}{70}{The bifurcation diagram showing the glide angle of the equilibrium points $\gamma ^*$ at each pitch angle $\theta $ for the flat plate(left), the flying snake cross section(center), and a NACA-0012 airfoil(right). The $\gamma $-axis is flipped such that forward equilibrium glides ($v_x>0$, $\gamma ^*<90^\circ $) are located at the top while backward equilibrium glides ($v_x<0$, $\gamma ^*>90^\circ $) are located in the lower half of each panel. The type of fixed point is indicated by the color. Blue indicates a saddle node, purple indicates a stable focus, red indicates a saddle point, and black indicates a center fixed point.\relax }{figure.caption.40}{}}
\@writefile{toc}{\contentsline {section}{\numberline {3.4}Detecting the terminal velocity manifold}{70}{section.3.4}}
\newlabel{s:TVMdetection}{{3.4}{70}{Detecting the terminal velocity manifold}{section.3.4}{}}
\citation{krauskopf2005survey}
\@writefile{lof}{\contentsline {figure}{\numberline {3.6}{\ignorespaces A schematic representation of the attracting manifold in the context of stable and unstable manifolds of fixed points.\relax }}{71}{figure.caption.41}}
\newlabel{fig:AttractingSubmanifold}{{3.6}{71}{A schematic representation of the attracting manifold in the context of stable and unstable manifolds of fixed points.\relax }{figure.caption.41}{}}
\@writefile{toc}{\contentsline {subsection}{\numberline {3.4.1}Stable manifold expansion}{71}{subsection.3.4.1}}
\citation{koon2008dynamical,naik2017geometry}
\citation{yeaton_global_2017}
\citation{fenichel1979geometric,jones1995geometric,kuehn2016multiple}
\citation{yeaton_global_2017}
\citation{kuehn2016multiple}
\@writefile{toc}{\contentsline {subsection}{\numberline {3.4.2}The $v_z$-nullcline}{72}{subsection.3.4.2}}
\newlabel{ss:nullcline}{{3.4.2}{72}{The $v_z$-nullcline}{subsection.3.4.2}{}}
\@writefile{lof}{\contentsline {figure}{\numberline {3.7}{\ignorespaces The $v_z$-nullcline as an approximation to the terminal velocity manifold for the flat plate=(left), the flying snake cross section(center), and a NACA-0012 airfoil(right) at pitch angle of $\theta =-5^\circ $. The nullcline remains close to the most attracting curve, but does not lie along it.\relax }}{73}{figure.caption.42}}
\newlabel{fig:nullcline}{{3.7}{73}{The $v_z$-nullcline as an approximation to the terminal velocity manifold for the flat plate=(left), the flying snake cross section(center), and a NACA-0012 airfoil(right) at pitch angle of $\theta =-5^\circ $. The nullcline remains close to the most attracting curve, but does not lie along it.\relax }{figure.caption.42}{}}
\newlabel{eq:vznullcline}{{3.18}{73}{The $v_z$-nullcline}{equation.3.4.18}{}}
\newlabel{eq:vznullParametric}{{3.19}{73}{The $v_z$-nullcline}{equation.3.4.19}{}}
\newlabel{eq:singularvznullcline}{{3.20}{73}{The $v_z$-nullcline}{equation.3.4.20}{}}
\citation{battelino1988multiple,skufca2006edge}
\@writefile{toc}{\contentsline {subsection}{\numberline {3.4.3}Bisection method}{74}{subsection.3.4.3}}
\@writefile{lof}{\contentsline {figure}{\numberline {3.8}{\ignorespaces Schematic representation of a bisection algorithm to find the true TVM, shown in black, along a vertical slice of velocity space shown in gray (a). We select two points that bracket the manifold, labeled Max and Min and shown in green (b). Next, we calculate the midpoint of Max and Min, labeled Mid and shown in blue (c). We integrate Mid backward in time (d) and find that the trajectory moves downward. Therefore, Mid is selected as the new Min (e), a new Mid is selected (f) and integrated backward (g). This process is then repeated iteratively until the distance between Max and Min is smaller than a specified tolerance.\relax }}{75}{figure.caption.43}}
\newlabel{fig:BisectAlgorithm}{{3.8}{75}{Schematic representation of a bisection algorithm to find the true TVM, shown in black, along a vertical slice of velocity space shown in gray (a). We select two points that bracket the manifold, labeled Max and Min and shown in green (b). Next, we calculate the midpoint of Max and Min, labeled Mid and shown in blue (c). We integrate Mid backward in time (d) and find that the trajectory moves downward. Therefore, Mid is selected as the new Min (e), a new Mid is selected (f) and integrated backward (g). This process is then repeated iteratively until the distance between Max and Min is smaller than a specified tolerance.\relax }{figure.caption.43}{}}
\citation{haller_variational_2011}
\citation{jones2014scipy}
\@writefile{lof}{\contentsline {figure}{\numberline {3.9}{\ignorespaces The velocity space at a pitch angle of $\theta =-5^\circ $ for the flat plate (left), the flying snake cross section (center), and a NACA-0012 airfoil(right). The bisection method described in Figure \ref  {fig:BisectAlgorithm} is able to accurately find the TVM (black), which attracts all trajectories (gray) of the vector field (blue).\relax }}{76}{figure.caption.44}}
\newlabel{fig:bisection}{{3.9}{76}{The velocity space at a pitch angle of $\theta =-5^\circ $ for the flat plate (left), the flying snake cross section (center), and a NACA-0012 airfoil(right). The bisection method described in Figure \ref {fig:BisectAlgorithm} is able to accurately find the TVM (black), which attracts all trajectories (gray) of the vector field (blue).\relax }{figure.caption.44}{}}
\@writefile{toc}{\contentsline {subsection}{\numberline {3.4.4}Normal repulsion factor}{76}{subsection.3.4.4}}
\newlabel{eq:repfactor}{{3.21}{76}{Normal repulsion factor}{equation.3.4.21}{}}
\@writefile{lof}{\contentsline {figure}{\numberline {3.10}{\ignorespaces Graphical explanation of the trajectory-normal repulsion factor. The initial unit normal vector $\mathbf  {n}_0$ is mapped forward by the gradient of the flow map $\nabla \mathbf  {F}_T\mathbf  {n}_0$. By taking an inner product with the new unit normal vector $\mathbf  {n}_T$, we measure the stretching of phase space normal to the trajectory of $\mathbf  {x}_0$ over the time $T$.\relax }}{77}{figure.caption.45}}
\newlabel{fig:RepFactor}{{3.10}{77}{Graphical explanation of the trajectory-normal repulsion factor. The initial unit normal vector $\mathbf {n}_0$ is mapped forward by the gradient of the flow map $\nabla \mathbf {F}_T\mathbf {n}_0$. By taking an inner product with the new unit normal vector $\mathbf {n}_T$, we measure the stretching of phase space normal to the trajectory of $\mathbf {x}_0$ over the time $T$.\relax }{figure.caption.45}{}}
\@writefile{lof}{\contentsline {figure}{\numberline {3.11}{\ignorespaces The velocity space at a pitch angle of $\theta =-5^\circ $ for the flat plate(left), the flying snake cross section(center), and a NACA-0012 airfoil(right). The colormap shows the value of the trajectory-normal repulsion, described by (\ref  {eq:repfactor}) and illustrated in Figure \ref  {fig:RepFactor}, of the system when integrated backward. The black curve represents the results of the bisection method described in Figure \ref  {fig:BisectAlgorithm}.\relax }}{77}{figure.caption.46}}
\newlabel{fig:RepComp}{{3.11}{77}{The velocity space at a pitch angle of $\theta =-5^\circ $ for the flat plate(left), the flying snake cross section(center), and a NACA-0012 airfoil(right). The colormap shows the value of the trajectory-normal repulsion, described by (\ref {eq:repfactor}) and illustrated in Figure \ref {fig:RepFactor}, of the system when integrated backward. The black curve represents the results of the bisection method described in Figure \ref {fig:BisectAlgorithm}.\relax }{figure.caption.46}{}}
\@writefile{lof}{\contentsline {figure}{\numberline {3.12}{\ignorespaces The terminal velocity manifold as a 2-dimensional surface embedded in 3-dimensional space for the flat plate for parameter values $\theta \in [-45^\circ , 45^\circ ]$. Blue values indicate positive acceleration along the manifold and red values indicate negative acceleration along the manifold, while the 1-dimensional curve shows the equilibrium points of the system, including stable nodes (blue) and the center equilibrium point (black, at the center of the manifold).\relax }}{78}{figure.caption.47}}
\newlabel{fig:3Dtvm-plate}{{3.12}{78}{The terminal velocity manifold as a 2-dimensional surface embedded in 3-dimensional space for the flat plate for parameter values $\theta \in [-45^\circ , 45^\circ ]$. Blue values indicate positive acceleration along the manifold and red values indicate negative acceleration along the manifold, while the 1-dimensional curve shows the equilibrium points of the system, including stable nodes (blue) and the center equilibrium point (black, at the center of the manifold).\relax }{figure.caption.47}{}}
\@writefile{toc}{\contentsline {section}{\numberline {3.5}Pitch angle dependence of the terminal velocity manifold}{78}{section.3.5}}
\newlabel{s:3DTVM}{{3.5}{78}{Pitch angle dependence of the terminal velocity manifold}{section.3.5}{}}
\@writefile{toc}{\contentsline {subsection}{\numberline {3.5.1}The terminal velocity manifold in extended phase space}{78}{subsection.3.5.1}}
\@writefile{lof}{\contentsline {figure}{\numberline {3.13}{\ignorespaces The terminal velocity manifold as a 2-dimensional surface embedded in 3-dimensional space for the flying snake airfoil over a pitch domain of $\theta \in [-45^\circ , 45^\circ ]$. Blue values indicate positive acceleration along the manifold and red values indicate negative acceleration along the manifold, while the 1-dimensional curve shows the equilibrium points of the system, including stable nodes (blue), saddle points (red), and stable foci (purple).\relax }}{79}{figure.caption.48}}
\newlabel{fig:3Dtvm-snake}{{3.13}{79}{The terminal velocity manifold as a 2-dimensional surface embedded in 3-dimensional space for the flying snake airfoil over a pitch domain of $\theta \in [-45^\circ , 45^\circ ]$. Blue values indicate positive acceleration along the manifold and red values indicate negative acceleration along the manifold, while the 1-dimensional curve shows the equilibrium points of the system, including stable nodes (blue), saddle points (red), and stable foci (purple).\relax }{figure.caption.48}{}}
\newlabel{eq:extended phase space}{{3.23}{79}{The terminal velocity manifold in extended phase space}{equation.3.5.23}{}}
\@writefile{lof}{\contentsline {figure}{\numberline {3.14}{\ignorespaces The terminal velocity manifold as a 2-dimensional surface embedded in 3-dimensional space for the NACA-0012 airfoil over a pitch domain of $\theta \in [-45^\circ , 45^\circ ]$. Blue values indicate positive acceleration along the manifold and red values indicate negative acceleration along the manifold, while the 1-dimensional curve shows the equilibrium points of the system, including stable nodes (blue) and saddle points (red). Equilibrium velocities with a larger horizontal velocity of $\left |v_x\right |>1.5$ were also omitted.\relax }}{80}{figure.caption.49}}
\newlabel{fig:3Dtvm-naca}{{3.14}{80}{The terminal velocity manifold as a 2-dimensional surface embedded in 3-dimensional space for the NACA-0012 airfoil over a pitch domain of $\theta \in [-45^\circ , 45^\circ ]$. Blue values indicate positive acceleration along the manifold and red values indicate negative acceleration along the manifold, while the 1-dimensional curve shows the equilibrium points of the system, including stable nodes (blue) and saddle points (red). Equilibrium velocities with a larger horizontal velocity of $\left |v_x\right |>1.5$ were also omitted.\relax }{figure.caption.49}{}}
\@writefile{toc}{\contentsline {subsection}{\numberline {3.5.2}Conceptualizing motion with the terminal velocity manifold}{80}{subsection.3.5.2}}
\newlabel{sec:time_varying_pitch}{{3.5.2}{80}{Conceptualizing motion with the terminal velocity manifold}{subsection.3.5.2}{}}
\citation{andersen_analysis_2005,andersen_unsteady_2005}
\citation{yeaton_global_2017}
\citation{socha2015animals,bahlman2013glide,bishop2006relationship}
\citation{minami_various_2003,field_chaotic_1997,ern2012wake,andersen_unsteady_2005,andersen_analysis_2005,tam2010tumbling,vincent2016holes}
\citation{socha2015animals,bahlman2013glide}
\citation{socha2002kinematics,bishop2006relationship}
\newlabel{eq:extended-dynamics}{{3.24}{81}{Conceptualizing motion with the terminal velocity manifold}{equation.3.5.24}{}}
\@writefile{toc}{\contentsline {subsubsection}{Gliding flight}{81}{section*.50}}
\citation{field_chaotic_1997,ern2012wake,andersen_unsteady_2005,andersen_analysis_2005,tam2010tumbling,vincent2016holes}
\@writefile{lof}{\contentsline {figure}{\numberline {3.15}{\ignorespaces In this figure, we show an example glide of a snake-shaped glider with a linearly increasing pitch angle $\theta $ with respect to time, as shown in the top-left corner. The resulting motion in physical space is shown in the bottom-left, with the pitch angle marked by the intersecting lines. This motion is shown in extended phase space with respect to the extended TVM in the top-right, with the black line representing the trajectory. The bottom-right panel shows motion in velocity space. The glider is quickly drawn toward fast downward motion, but as it pitches up, the trajectory moves along the terminal velocity manifold toward a stable forward glide before slowing descent just before landing.\relax }}{82}{figure.caption.51}}
\newlabel{fig:gliding}{{3.15}{82}{In this figure, we show an example glide of a snake-shaped glider with a linearly increasing pitch angle $\theta $ with respect to time, as shown in the top-left corner. The resulting motion in physical space is shown in the bottom-left, with the pitch angle marked by the intersecting lines. This motion is shown in extended phase space with respect to the extended TVM in the top-right, with the black line representing the trajectory. The bottom-right panel shows motion in velocity space. The glider is quickly drawn toward fast downward motion, but as it pitches up, the trajectory moves along the terminal velocity manifold toward a stable forward glide before slowing descent just before landing.\relax }{figure.caption.51}{}}
\@writefile{toc}{\contentsline {subsubsection}{Fluttering plates}{82}{section*.52}}
\citation{yeaton_global_2017}
\citation{haller_variational_2011}
\@writefile{lof}{\contentsline {figure}{\numberline {3.16}{\ignorespaces In this figure, we show the example of fluttering descent of a flat plate. The controlled pitch angle, $\theta $, varies sinusoidally, as shown in the top-left. The resulting motion in physical space is shown in the central panel, with snapshots of the flat plate shown in black. The motion in extended phase space is shown in the two panels on the right side relative to the terminal velocity manifold. The motion projected into velocity space is shown in the bottom-left corner.\relax }}{83}{figure.caption.53}}
\newlabel{fig:fluttering}{{3.16}{83}{In this figure, we show the example of fluttering descent of a flat plate. The controlled pitch angle, $\theta $, varies sinusoidally, as shown in the top-left. The resulting motion in physical space is shown in the central panel, with snapshots of the flat plate shown in black. The motion in extended phase space is shown in the two panels on the right side relative to the terminal velocity manifold. The motion projected into velocity space is shown in the bottom-left corner.\relax }{figure.caption.53}{}}
\@writefile{toc}{\contentsline {section}{\numberline {3.6}Summary and Conclusion}{83}{section.3.6}}
\newlabel{s:conclusion}{{3.6}{83}{Summary and Conclusion}{section.3.6}{}}
\bibstyle{unsrtnat}
\bibdata{dissertation}
\bibcite{socha2015animals}{{1}{2015}{{Socha et~al.}}{{Socha, Munk, and Byrnes}}}
\bibcite{minami_various_2003}{{2}{2003}{{Minami and Azuma}}{{}}}
\bibcite{jackson2000glide}{{3}{2000}{{Jackson}}{{}}}
\bibcite{vernes2001gliding}{{4}{2001}{{Vernes}}{{}}}
\bibcite{mcguire2005cost}{{5}{2005}{{McGuire}}{{}}}
\bibcite{socha_non-equilibrium_2010}{{6}{2010}{{Socha et~al.}}{{Socha, Miklasz, Jafari, and Vlachos}}}
\bibcite{bahlman2013glide}{{7}{2013}{{Bahlman et~al.}}{{Bahlman, Swartz, Riskin, and Breuer}}}
\bibcite{vogel1994life}{{8}{1994}{{Vogel}}{{}}}
\bibcite{kovavc2011epfl}{{9}{2011}{{Kova{\v {c}} et~al.}}{{Kova{\v {c}}, Fauria, Zufferey, Floreano, et~al.}}}
\@writefile{toc}{\contentsline {chapter}{Bibliography}{85}{chapter*.55}}
\bibcite{dickson2013design}{{10}{2013}{{Dickson}}{{}}}
\bibcite{leonard2010coordinated}{{11}{2010}{{Leonard et~al.}}{{Leonard, Paley, Davis, Fratantoni, Lekien, and Zhang}}}
\bibcite{maxwell1854particular}{{12}{1854}{{Maxwell}}{{}}}
\bibcite{lamb1932hydrodynamics}{{13}{1932}{{Lamb}}{{}}}
\bibcite{andronov2013theory}{{14}{2013}{{Andronov et~al.}}{{Andronov, Vitt, and Khaikin}}}
\bibcite{field_chaotic_1997}{{15}{1997}{{Field et~al.}}{{Field, Klaus, Moore, and Nori}}}
\bibcite{ern2012wake}{{16}{2012}{{Ern et~al.}}{{Ern, Risso, Fabre, and Magnaudet}}}
\bibcite{andersen_unsteady_2005}{{17}{2005{}}{{Andersen et~al.}}{{Andersen, Pesavento, and Wang}}}
\bibcite{andersen_analysis_2005}{{18}{2005{}}{{Andersen et~al.}}{{Andersen, Pesavento, and Wang}}}
\bibcite{tam2010tumbling}{{19}{2010}{{Tam et~al.}}{{Tam, Bush, Robitaille, and Kudrolli}}}
\bibcite{vincent2016holes}{{20}{2016}{{Vincent et~al.}}{{Vincent, Shambaugh, and Kanso}}}
\bibcite{aref1993chaotic}{{21}{1993}{{Aref and Jones}}{{}}}
\bibcite{borisov2007dynamic}{{22}{2007}{{Borisov et~al.}}{{Borisov, Mamaev, and Ramodanov}}}
\bibcite{Roenby1871}{{23}{2010}{{Roenby and Aref}}{{}}}
\bibcite{yeaton_global_2017}{{24}{2017}{{Yeaton et~al.}}{{Yeaton, Socha, and Ross}}}
\bibcite{wiggins2013normally}{{25}{2013}{{Wiggins}}{{}}}
\bibcite{kevrekidis2003equation}{{26}{2003}{{Kevrekidis et~al.}}{{Kevrekidis, Gear, Hyman, Kevrekidid, Runborg, Theodoropoulos, et~al.}}}
\bibcite{shadden2005definition}{{27}{2005}{{Shadden et~al.}}{{Shadden, Lekien, and Marsden}}}
\bibcite{haller_variational_2011}{{28}{2011}{{Haller}}{{}}}
\bibcite{haller_lagrangian_2015}{{29}{2015}{{Haller}}{{}}}
\bibcite{wang2004unsteady}{{30}{2004}{{Wang and Birch}}{{}}}
\bibcite{holden_aerodynamics_2014}{{31}{2014}{{Holden et~al.}}{{Holden, Socha, Cardwell, and Vlachos}}}
\bibcite{sheldahl1981aerodynamic}{{32}{1981}{{Sheldahl and Klimas}}{{}}}
\bibcite{socha2011gliding}{{33}{2011}{{Socha}}{{}}}
\bibcite{socha2002kinematics}{{34}{2002}{{Socha}}{{}}}
\bibcite{jafari_theoretical_2014}{{35}{2014}{{Jafari et~al.}}{{Jafari, Ross, Vlachos, and Socha}}}
\bibcite{krishnan2014lift}{{36}{2014}{{Krishnan et~al.}}{{Krishnan, Socha, Vlachos, and Barba}}}
\bibcite{jafari2017control}{{37}{2017}{{Jafari et~al.}}{{Jafari, Tahmasian, Ross, and Socha}}}
\bibcite{koon2008dynamical}{{38}{2008}{{Koon et~al.}}{{Koon, Lo, Marsden, and Ross}}}
\bibcite{kuehn2016multiple}{{39}{2016}{{Kuehn}}{{}}}
\bibcite{krauskopf2005survey}{{40}{2005}{{Krauskopf et~al.}}{{Krauskopf, Osinga, Doedel, Henderson, Guckenheimer, Vladimirsky, Dellnitz, and Junge}}}
\bibcite{naik2017geometry}{{41}{2017}{{Naik and Ross}}{{}}}
\bibcite{fenichel1979geometric}{{42}{1979}{{Fenichel}}{{}}}
\bibcite{jones1995geometric}{{43}{1995}{{Jones}}{{}}}
\bibcite{battelino1988multiple}{{44}{1988}{{Battelino et~al.}}{{Battelino, Grebogi, Ott, Yorke, and Yorke}}}
\bibcite{skufca2006edge}{{45}{2006}{{Skufca et~al.}}{{Skufca, Yorke, and Eckhardt}}}
\bibcite{jones2014scipy}{{46}{2014}{{Jones et~al.}}{{Jones, Oliphant, and Peterson}}}
\bibcite{bishop2006relationship}{{47}{2006}{{Bishop}}{{}}}
\@setckpt{./Chapters/TVM}{
\setcounter{page}{90}
\setcounter{equation}{24}
\setcounter{enumi}{0}
\setcounter{enumii}{0}
\setcounter{enumiii}{0}
\setcounter{enumiv}{0}
\setcounter{footnote}{0}
\setcounter{mpfootnote}{0}
\setcounter{part}{0}
\setcounter{chapter}{3}
\setcounter{section}{6}
\setcounter{subsection}{0}
\setcounter{subsubsection}{0}
\setcounter{paragraph}{0}
\setcounter{subparagraph}{0}
\setcounter{figure}{16}
\setcounter{table}{0}
\setcounter{parentequation}{0}
\setcounter{NAT@ctr}{47}
\setcounter{@pps}{0}
\setcounter{@ppsavesec}{0}
\setcounter{@ppsaveapp}{0}
\setcounter{Item}{0}
\setcounter{Hfootnote}{0}
\setcounter{bookmark@seq@number}{55}
\setcounter{float@type}{8}
\setcounter{lstnumber}{1}
\setcounter{ContinuedFloat}{0}
\setcounter{subfigure}{0}
\setcounter{subtable}{0}
\setcounter{proposition}{2}
\setcounter{section@level}{1}
\setcounter{lstlisting}{0}
}
