\relax 
\providecommand\hyper@newdestlabel[2]{}
\@writefile{toc}{\contentsline {chapter}{\numberline {2}Wake stiffness as a nonlinear spring}{11}{chapter.2}}
\@writefile{lof}{\addvspace {10\p@ }}
\@writefile{lot}{\addvspace {10\p@ }}
\newlabel{ch:WakeStiffness}{{2}{11}{Wake stiffness as a nonlinear spring}{chapter.2}{}}
\citation{bearman_vortex_1984,zdravkovich_reviewreview_1977,zdravkovich_review_1988,sumner_two_2010}
\citation{brika_vortex-induced_1993,khalak_motions_1999,williamson_vortex-induced_2004}
\citation{assi_wake-induced_2010,bearman_circular_2011,bokaian_wake-induced_1984,brika_flow_1999,hover_galloping_2001,zdravkovich_reviewreview_1977,zdravkovich_review_1988}
\citation{assi_role_2013}
\citation{sumner_two_2010,zdravkovich_review_1988,zdravkovich_reviewreview_1977}
\citation{assi_wake-induced_2010}
\citation{assi_role_2013}
\@writefile{toc}{\contentsline {section}{\numberline {2.1}Introduction}{12}{section.2.1}}
\citation{sumner_two_2010,zdravkovich_reviewreview_1977,zdravkovich_review_1988}
\citation{sumner_two_2010}
\citation{zdravkovich_flow-induced_1974}
\citation{igarashi1981characteristics,zdravkovich_review_1988,mizushima2005instability}
\citation{yang2018critical}
\citation{yang2018critical}
\citation{mizushima2005instability}
\citation{carmo2010possible}
\citation{tasaka2006hysteretic}
\citation{huhe1985visual}
\citation{papaioannou2006three}
\citation{tong2015numerical}
\citation{ishigai1972experimental}
\citation{ishigai1972experimental}
\citation{xu2004strouhal}
\citation{igarashi1981characteristics}
\citation{kiya1980vortex}
\citation{ljungkrona1991free}
\citation{kitagawa2008numerical}
\citation{wang2018two}
\citation{zdravkovich1977interference}
\citation{zdravkovich_reviewreview_1977}
\citation{alam2003fluctuating}
\citation{biermann1933interference}
\citation{arie1983pressure}
\citation{okajima1979flows}
\citation{yang2018critical}
\citation{mizushima2005instability}
\citation{carmo2010possible}
\citation{tasaka2006hysteretic}
\citation{huhe1985visual}
\citation{papaioannou2006three}
\citation{tong2015numerical}
\citation{ishigai1972experimental}
\citation{ishigai1972experimental}
\citation{xu2004strouhal}
\citation{igarashi1981characteristics}
\citation{kiya1980vortex}
\citation{ljungkrona1991free}
\citation{kitagawa2008numerical}
\citation{wang2018two}
\citation{zdravkovich1977interference}
\citation{zdravkovich_reviewreview_1977}
\citation{alam2003fluctuating}
\citation{biermann1933interference}
\citation{arie1983pressure}
\citation{okajima1979flows}
\@writefile{lof}{\contentsline {figure}{\numberline {2.1}{\ignorespaces The critical spacing in the wake of a cylinder $\ell _c=x_c/D$, reported from various sources over a range of Reynolds numbers, reproduced with permission from preprint of \cite  {yang2018critical}. Open symbols represent computational results, while closed symbols show experimental results. Upper (shading below) and lower (shading above) bounds indicate the possible range for $\ell _{c,min}\leq \ell _c\leq \ell _{c,max}$. Shown in the figure are (a,b) from \cite  [Fig. 9]{mizushima2005instability}; (c,d) from \cite  [Fig. 6]{carmo2010possible}; (e,f) from \cite  [Fig. 8]{tasaka2006hysteretic}; (g, h) from \cite  [Fig. 2]{huhe1985visual}; (i,j) from \cite  [Fig. 8]{papaioannou2006three}; (k) from \cite  {tong2015numerical}; (l) from \cite  [Fig. 7]{ishigai1972experimental}; (m,n) from \cite  {ishigai1972experimental}; (o,p) from \cite  {xu2004strouhal}; (q,r) from \cite  [Fig. 16]{igarashi1981characteristics}; (s) from \cite  {kiya1980vortex}; (t) from \cite  {ljungkrona1991free}; (u) from \cite  [Fig. 19]{kitagawa2008numerical}; (v) from \cite  {wang2018two}; (w,x) from \cite  [Figs. 1,3]{zdravkovich1977interference}; (y,z) from \cite  {zdravkovich_reviewreview_1977}; (aa) from \cite  {alam2003fluctuating}; (bb,cc) from \cite  [Fig. 8]{biermann1933interference}; (dd) from \cite  {arie1983pressure}; (ee,ff) from \cite  {okajima1979flows}. \relax }}{14}{figure.caption.10}}
\newlabel{fig:critspacing}{{2.1}{14}{The critical spacing in the wake of a cylinder $\ell _c=x_c/D$, reported from various sources over a range of Reynolds numbers, reproduced with permission from preprint of \cite {yang2018critical}. Open symbols represent computational results, while closed symbols show experimental results. Upper (shading below) and lower (shading above) bounds indicate the possible range for $\ell _{c,min}\leq \ell _c\leq \ell _{c,max}$. Shown in the figure are (a,b) from \cite [Fig. 9]{mizushima2005instability}; (c,d) from \cite [Fig. 6]{carmo2010possible}; (e,f) from \cite [Fig. 8]{tasaka2006hysteretic}; (g, h) from \cite [Fig. 2]{huhe1985visual}; (i,j) from \cite [Fig. 8]{papaioannou2006three}; (k) from \cite {tong2015numerical}; (l) from \cite [Fig. 7]{ishigai1972experimental}; (m,n) from \cite {ishigai1972experimental}; (o,p) from \cite {xu2004strouhal}; (q,r) from \cite [Fig. 16]{igarashi1981characteristics}; (s) from \cite {kiya1980vortex}; (t) from \cite {ljungkrona1991free}; (u) from \cite [Fig. 19]{kitagawa2008numerical}; (v) from \cite {wang2018two}; (w,x) from \cite [Figs. 1,3]{zdravkovich1977interference}; (y,z) from \cite {zdravkovich_reviewreview_1977}; (aa) from \cite {alam2003fluctuating}; (bb,cc) from \cite [Fig. 8]{biermann1933interference}; (dd) from \cite {arie1983pressure}; (ee,ff) from \cite {okajima1979flows}. \relax }{figure.caption.10}{}}
\citation{fylling2008riflex}
\citation{orcaflex}
\citation{sarpkaya2004critical}
\citation{assi_role_2013}
\citation{blevins_forces_2005}
\citation{assi_role_2013}
\citation{assi_role_2013}
\@writefile{toc}{\contentsline {section}{\numberline {2.2}Existing force models}{15}{section.2.2}}
\newlabel{s:PreviousModels}{{2.2}{15}{Existing force models}{section.2.2}{}}
\citation{assi_wake-induced_2010,hover_galloping_2001,bokaian_wake-induced_1984}
\@writefile{toc}{\contentsline {subsection}{\numberline {2.2.1}Linear Wake Stiffness, \citet  {assi_role_2013}}{16}{subsection.2.2.1}}
\newlabel{eq:Assi Step 1}{{2.1}{16}{Linear Wake Stiffness, \citet {assi_role_2013}}{equation.2.2.1}{}}
\citation{assi_role_2013}
\citation{assi_role_2013}
\@writefile{lof}{\contentsline {figure}{\numberline {2.2}{\ignorespaces The relationship between transverse displacements $y_0/D$ and quasi-steady fluid force coefficients in the transverse ($\mathaccentV {bar}016{C}_L$) and streamwise ($\mathaccentV {bar}016{C}_D$) directions for a fixed cylinder in the wake of another fixed cylinder at a downstream offset of 4 diameters ($x_0/D$=4) at various Reynolds numbers ($Re$). Reproduced from Assi et al. \cite  {assi_role_2013}.\relax }}{17}{figure.caption.11}}
\newlabel{fig: WakeStiffness}{{2.2}{17}{The relationship between transverse displacements $y_0/D$ and quasi-steady fluid force coefficients in the transverse ($\bar {C}_L$) and streamwise ($\bar {C}_D$) directions for a fixed cylinder in the wake of another fixed cylinder at a downstream offset of 4 diameters ($x_0/D$=4) at various Reynolds numbers ($Re$). Reproduced from Assi et al. \cite {assi_role_2013}.\relax }{figure.caption.11}{}}
\newlabel{eq:Linear Spring}{{2.2}{17}{Linear Wake Stiffness, \citet {assi_role_2013}}{equation.2.2.2}{}}
\newlabel{eq:Assi WS}{{2.3}{17}{Linear Wake Stiffness, \citet {assi_role_2013}}{equation.2.2.3}{}}
\citation{blevins_forces_2005}
\citation{blevins_forces_2005}
\citation{price_wake_1975}
\citation{price_aerodynamic_1984}
\citation{huse1993interaction}
\@writefile{toc}{\contentsline {subsection}{\numberline {2.2.2}Quasi-steady coefficients in the wake, \citet  {blevins_forces_2005}}{18}{subsection.2.2.2}}
\newlabel{eq:Blev vel}{{2.4}{18}{Quasi-steady coefficients in the wake, \citet {blevins_forces_2005}}{equation.2.2.4}{}}
\newlabel{eq:wake drag equiv}{{2.5}{18}{Quasi-steady coefficients in the wake, \citet {blevins_forces_2005}}{equation.2.2.5}{}}
\citation{bokaian_wake-induced_1984}
\citation{price_origin_1976}
\citation{simpson1974use}
\citation{price_wake_1975}
\citation{price_aerodynamic_1984}
\citation{blevins_forces_2005}
\citation{assi_role_2013}
\newlabel{eq:BlevDrag}{{2.6}{19}{Quasi-steady coefficients in the wake, \citet {blevins_forces_2005}}{equation.2.2.6}{}}
\newlabel{eq:BlevLift}{{2.8}{19}{Quasi-steady coefficients in the wake, \citet {blevins_forces_2005}}{equation.2.2.8}{}}
\citation{blevins_forces_2005}
\citation{assi_wake-induced_2010}
\@writefile{toc}{\contentsline {section}{\numberline {2.3}Wake Stiffness as a Nonlinear Spring}{20}{section.2.3}}
\newlabel{s:nonlinearStiffness}{{2.3}{20}{Wake Stiffness as a Nonlinear Spring}{section.2.3}{}}
\newlabel{eq:FluidForces}{{2.10}{20}{Wake Stiffness as a Nonlinear Spring}{equation.2.3.10}{}}
\newlabel{eq:transverseNLWS}{{2.11}{20}{Wake Stiffness as a Nonlinear Spring}{equation.2.3.11}{}}
\newlabel{eq:keff}{{2.14}{21}{Wake Stiffness as a Nonlinear Spring}{equation.2.3.14}{}}
\citation{morse2009prediction}
\citation{assi_role_2013}
\citation{assi_wake-induced_2010}
\citation{blevins_forces_2005}
\citation{assi_role_2013}
\newlabel{eq:rescaledNLWS}{{2.16}{22}{Wake Stiffness as a Nonlinear Spring}{equation.2.3.16}{}}
\newlabel{eq:Nonlinear Expansion}{{2.17}{22}{Wake Stiffness as a Nonlinear Spring}{equation.2.3.17}{}}
\newlabel{eq:ExpansionExample}{{2.18}{22}{Wake Stiffness as a Nonlinear Spring}{equation.2.3.18}{}}
\@writefile{toc}{\contentsline {subsection}{\numberline {2.3.1}Resonance of nonlinear wake stiffness}{23}{subsection.2.3.1}}
\newlabel{ss:NonlinearResonance}{{2.3.1}{23}{Resonance of nonlinear wake stiffness}{subsection.2.3.1}{}}
\newlabel{eq:assumedSoln}{{2.20}{23}{Resonance of nonlinear wake stiffness}{equation.2.3.20}{}}
\citation{blevins_forces_2005}
\citation{huse1993interaction}
\citation{price_origin_1976,price_aerodynamic_1984,bokaian_wake-induced_1984,assi_wake-induced_2010}
\@writefile{toc}{\contentsline {section}{\numberline {2.4}Extended Model}{24}{section.2.4}}
\newlabel{s:ModelExtend}{{2.4}{24}{Extended Model}{section.2.4}{}}
\citation{assi_wake-induced_2010}
\citation{blevins_forces_2005}
\citation{assi_wake-induced_2010}
\citation{assi_wake-induced_2010}
\citation{blevins_forces_2005}
\citation{assi_wake-induced_2010}
\citation{blevins_forces_2005}
\citation{assi_wake-induced_2010}
\citation{blevins_forces_2005}
\citation{blevins_forces_2005}
\citation{paidoussis2010fluid}
\@writefile{lof}{\contentsline {figure}{\numberline {2.3}{\ignorespaces The experimental results of \citet  {assi_wake-induced_2010} (left) compared with the semi-analytical model of \citet  {blevins_forces_2005} (right) for both quasi-steady lift (top) and quasi-steady drag (bottom). The left column is reproduced from \cite  {assi_wake-induced_2010}, while the right column is a representation of the Blevins model of (\ref  {eq:BlevDrag}) and (\ref  {eq:BlevLift}) designed for comparison with the left column.\relax }}{25}{figure.caption.12}}
\newlabel{fig:ModelComp}{{2.3}{25}{The experimental results of \citet {assi_wake-induced_2010} (left) compared with the semi-analytical model of \citet {blevins_forces_2005} (right) for both quasi-steady lift (top) and quasi-steady drag (bottom). The left column is reproduced from \cite {assi_wake-induced_2010}, while the right column is a representation of the Blevins model of (\ref {eq:BlevDrag}) and (\ref {eq:BlevLift}) designed for comparison with the left column.\relax }{figure.caption.12}{}}
\@writefile{toc}{\contentsline {subsection}{\numberline {2.4.1}Negative drag in the near wake}{25}{subsection.2.4.1}}
\citation{blevins_forces_2005}
\citation{zdravkovich_review_1988,sumner_two_2010}
\citation{assi_wake-induced_2010}
\citation{zdravkovich_flow-induced_1974}
\citation{zdravkovich_review_1988}
\newlabel{eq:update-velocity-dependence}{{2.25}{26}{Negative drag in the near wake}{equation.2.4.25}{}}
\@writefile{toc}{\contentsline {subsection}{\numberline {2.4.2}Critical spacing}{26}{subsection.2.4.2}}
\citation{blevins_forces_2005}
\citation{price_wake_1975}
\citation{simpson1977improved}
\citation{simpson1974use}
\@writefile{toc}{\contentsline {subsection}{\numberline {2.4.3}Lift dependence on drag}{27}{subsection.2.4.3}}
\newlabel{ss:LiftDependence}{{2.4.3}{27}{Lift dependence on drag}{subsection.2.4.3}{}}
\citation{assi_wake-induced_2010}
\citation{price_origin_1976}
\citation{price_aerodynamic_1984}
\citation{bokaian_wake-induced_1984}
\citation{bokaian_wake-induced_1984}
\citation{assi_wake-induced_2010}
\citation{price_origin_1976}
\citation{price_aerodynamic_1984}
\citation{bokaian_wake-induced_1984}
\citation{bokaian_wake-induced_1984}
\citation{blevins_forces_2005}
\citation{assi_wake-induced_2010}
\citation{price_origin_1976}
\citation{price_aerodynamic_1984}
\citation{bokaian_wake-induced_1984}
\citation{bokaian_wake-induced_1984}
\citation{blevins_forces_2005}
\citation{assi_wake-induced_2010}
\citation{price_origin_1976}
\citation{price_aerodynamic_1984}
\citation{bokaian_wake-induced_1984}
\citation{bokaian_wake-induced_1984}
\newlabel{eq:proportionalLift}{{2.28}{28}{Lift dependence on drag}{equation.2.4.28}{}}
\@writefile{lof}{\contentsline {figure}{\numberline {2.4}{\ignorespaces Experimental observation of C.B. Rawlins postulate (\ref  {eq:proportionalLift}) that lift is proportional to the transverse derivative of drag. The straight lines represent linear regression of each data set. The symbols and line colors represent different experimental sources: $\circ $, black, \cite  {assi_wake-induced_2010}; $\Box $, red, \cite  {price_origin_1976}; $\Diamond $, green, \cite  {price_aerodynamic_1984}; $\vartriangle $, cyan, \cite  [$Re=5900$]{bokaian_wake-induced_1984}; $\triangledown $, blue, \cite  [$Re=2600$]{bokaian_wake-induced_1984}.\relax }}{29}{figure.caption.13}}
\newlabel{fig:liftSlope}{{2.4}{29}{Experimental observation of C.B. Rawlins postulate (\ref {eq:proportionalLift}) that lift is proportional to the transverse derivative of drag. The straight lines represent linear regression of each data set. The symbols and line colors represent different experimental sources: $\circ $, black, \cite {assi_wake-induced_2010}; $\Box $, red, \cite {price_origin_1976}; $\Diamond $, green, \cite {price_aerodynamic_1984}; $\vartriangle $, cyan, \cite [$Re=5900$]{bokaian_wake-induced_1984}; $\triangledown $, blue, \cite [$Re=2600$]{bokaian_wake-induced_1984}.\relax }{figure.caption.13}{}}
\@writefile{lof}{\contentsline {figure}{\numberline {2.5}{\ignorespaces The slope of the linear regression for each data set. The dotted line represents the slope predicted by \cite  {blevins_forces_2005}, the solid line represents the present expanded piecewise model, and the dashed line represents the smooth model. As above, the symbols represent different experiments: $\circ $, \cite  {assi_wake-induced_2010}; $\Box $, \cite  {price_origin_1976}; $\Diamond $, \cite  {price_aerodynamic_1984}; $\vartriangle $, \cite  [$Re=5900$]{bokaian_wake-induced_1984}; $\triangledown $, \cite  [$Re=2600$]{bokaian_wake-induced_1984}.\relax }}{30}{figure.caption.14}}
\newlabel{fig:lift-regression}{{2.5}{30}{The slope of the linear regression for each data set. The dotted line represents the slope predicted by \cite {blevins_forces_2005}, the solid line represents the present expanded piecewise model, and the dashed line represents the smooth model. As above, the symbols represent different experiments: $\circ $, \cite {assi_wake-induced_2010}; $\Box $, \cite {price_origin_1976}; $\Diamond $, \cite {price_aerodynamic_1984}; $\vartriangle $, \cite [$Re=5900$]{bokaian_wake-induced_1984}; $\triangledown $, \cite [$Re=2600$]{bokaian_wake-induced_1984}.\relax }{figure.caption.14}{}}
\@writefile{toc}{\contentsline {subsection}{\numberline {2.4.4}Piecewise model}{30}{subsection.2.4.4}}
\newlabel{eq:dragUpdate-pw}{{2.31}{30}{Piecewise model}{equation.2.4.31}{}}
\citation{blevins_forces_2005}
\citation{assi_wake-induced_2010}
\citation{price_origin_1976}
\citation{price_aerodynamic_1984}
\citation{bokaian_wake-induced_1984}
\citation{bokaian_wake-induced_1984}
\citation{blevins_forces_2005}
\citation{assi_wake-induced_2010}
\citation{price_origin_1976}
\citation{price_aerodynamic_1984}
\citation{bokaian_wake-induced_1984}
\citation{bokaian_wake-induced_1984}
\citation{blevins_forces_2005}
\citation{assi_wake-induced_2010}
\citation{price_origin_1976}
\citation{price_aerodynamic_1984}
\citation{bokaian_wake-induced_1984}
\citation{bokaian_wake-induced_1984}
\citation{blevins_forces_2005}
\citation{assi_wake-induced_2010}
\citation{price_origin_1976}
\citation{price_aerodynamic_1984}
\citation{bokaian_wake-induced_1984}
\citation{bokaian_wake-induced_1984}
\citation{assi_wake-induced_2010}
\citation{price_origin_1976}
\citation{price_aerodynamic_1984}
\citation{bokaian_wake-induced_1984}
\citation{bokaian_wake-induced_1984}
\citation{assi_wake-induced_2010}
\citation{price_origin_1976}
\citation{price_aerodynamic_1984}
\citation{bokaian_wake-induced_1984}
\citation{bokaian_wake-induced_1984}
\newlabel{eq:liftUpdate-pw}{{2.32}{31}{Piecewise model}{equation.2.4.32}{}}
\newlabel{eq:coeffUpdate-pw}{{2.33}{31}{Piecewise model}{equation.2.4.33}{}}
\@writefile{toc}{\contentsline {subsection}{\numberline {2.4.5}Smooth fluid force model}{31}{subsection.2.4.5}}
\@writefile{lof}{\contentsline {figure}{\numberline {2.6}{\ignorespaces Comparison of modeled and experimental drag coefficients plotted against transverse displacement $y^*$ at a variety of streamwise displacements $x^*$. The proposed piecewise model is given by the solid line, the smooth model is given by the dashed line, and the Blevins \cite  {blevins_forces_2005} model is given by the dotted line. The symbols represent different experiments: $\circ $, \cite  {assi_wake-induced_2010}; $\Box $, \cite  {price_origin_1976}; $\Diamond $, \cite  {price_aerodynamic_1984}; $\vartriangle $, \cite  [$Re=5900$]{bokaian_wake-induced_1984}; $\triangledown $, \cite  [$Re=2600$]{bokaian_wake-induced_1984}.\relax }}{32}{figure.caption.15}}
\newlabel{fig:dragPlot}{{2.6}{32}{Comparison of modeled and experimental drag coefficients plotted against transverse displacement $y^*$ at a variety of streamwise displacements $x^*$. The proposed piecewise model is given by the solid line, the smooth model is given by the dashed line, and the Blevins \cite {blevins_forces_2005} model is given by the dotted line. The symbols represent different experiments: $\circ $, \cite {assi_wake-induced_2010}; $\Box $, \cite {price_origin_1976}; $\Diamond $, \cite {price_aerodynamic_1984}; $\vartriangle $, \cite [$Re=5900$]{bokaian_wake-induced_1984}; $\triangledown $, \cite [$Re=2600$]{bokaian_wake-induced_1984}.\relax }{figure.caption.15}{}}
\@writefile{lof}{\contentsline {figure}{\numberline {2.7}{\ignorespaces Comparison of modeled and experimental lift coefficients plotted against transverse displacement $y^*$ at a variety of streamwise displacements $x^*$. The proposed piecewise model is given by the solid line, the smooth model is given by the dashed line, and the Blevins \cite  {blevins_forces_2005} model is given by the dotted line. The symbols represent different experiments: $\circ $, \cite  {assi_wake-induced_2010}; $\Box $, \cite  {price_origin_1976}; $\Diamond $, \cite  {price_aerodynamic_1984}; $\vartriangle $, \cite  [$Re=5900$]{bokaian_wake-induced_1984}; $\triangledown $, \cite  [$Re=2600$]{bokaian_wake-induced_1984}.\relax }}{33}{figure.caption.16}}
\newlabel{fig:liftPlot}{{2.7}{33}{Comparison of modeled and experimental lift coefficients plotted against transverse displacement $y^*$ at a variety of streamwise displacements $x^*$. The proposed piecewise model is given by the solid line, the smooth model is given by the dashed line, and the Blevins \cite {blevins_forces_2005} model is given by the dotted line. The symbols represent different experiments: $\circ $, \cite {assi_wake-induced_2010}; $\Box $, \cite {price_origin_1976}; $\Diamond $, \cite {price_aerodynamic_1984}; $\vartriangle $, \cite [$Re=5900$]{bokaian_wake-induced_1984}; $\triangledown $, \cite [$Re=2600$]{bokaian_wake-induced_1984}.\relax }{figure.caption.16}{}}
\@writefile{lof}{\contentsline {figure}{\numberline {2.8}{\ignorespaces Contour plots of the smooth (left) and piecewise (right) updated models for comparison with Figure \ref  {fig:ModelComp}.\relax }}{34}{figure.caption.17}}
\newlabel{fig:updateComparison}{{2.8}{34}{Contour plots of the smooth (left) and piecewise (right) updated models for comparison with Figure \ref {fig:ModelComp}.\relax }{figure.caption.17}{}}
\@writefile{lof}{\contentsline {figure}{\numberline {2.9}{\ignorespaces A comparison of the drag reduction at the wake centerline for each dataset. For each experimental data set, the drag coefficient measurements are linearly interpolated to identify the drag coefficient at the wake centerline. The symbols represent the different experiments considered: $\circ $, \cite  {assi_wake-induced_2010}; $\Box $, \cite  {price_origin_1976}; $\Diamond $, \cite  {price_aerodynamic_1984}; $\vartriangle $, \cite  {bokaian_wake-induced_1984}, $Re=5900$; $\triangledown $, \cite  {bokaian_wake-induced_1984}, $Re=2600$.\relax }}{34}{figure.caption.18}}
\newlabel{fig:DragReduction}{{2.9}{34}{A comparison of the drag reduction at the wake centerline for each dataset. For each experimental data set, the drag coefficient measurements are linearly interpolated to identify the drag coefficient at the wake centerline. The symbols represent the different experiments considered: $\circ $, \cite {assi_wake-induced_2010}; $\Box $, \cite {price_origin_1976}; $\Diamond $, \cite {price_aerodynamic_1984}; $\vartriangle $, \cite {bokaian_wake-induced_1984}, $Re=5900$; $\triangledown $, \cite {bokaian_wake-induced_1984}, $Re=2600$.\relax }{figure.caption.18}{}}
\newlabel{eq:sigmoid}{{2.34}{35}{Smooth fluid force model}{equation.2.4.34}{}}
\newlabel{eq:smooth-lift-drag}{{2.35}{35}{Smooth fluid force model}{equation.2.4.35}{}}
\citation{assi_wake-induced_2010}
\citation{assi_wake-induced_2010}
\citation{price_origin_1976}
\citation{price_aerodynamic_1984}
\citation{bokaian_wake-induced_1984}
\citation{bokaian_wake-induced_1984}
\citation{assi_wake-induced_2010}
\citation{price_origin_1976}
\citation{price_aerodynamic_1984}
\citation{bokaian_wake-induced_1984}
\citation{bokaian_wake-induced_1984}
\citation{assi_wake-induced_2010}
\@writefile{lof}{\contentsline {figure}{\numberline {2.10}{\ignorespaces A comparison of the absolute error of the smooth function for each dataset. Solid shapes represent the error in lift and open shapes represent error in drag. The symbols represent the various experimental sources:\textit  {} $\circ $, \cite  {assi_wake-induced_2010}; $\Box $, \cite  {price_origin_1976}; $\Diamond $, \cite  {price_aerodynamic_1984}; $\vartriangle $, \cite  [$Re=5900$]{bokaian_wake-induced_1984}; $\triangledown $, \cite  [$Re=2600$]{bokaian_wake-induced_1984}.\relax }}{36}{figure.caption.19}}
\newlabel{fig:ErrorComp}{{2.10}{36}{A comparison of the absolute error of the smooth function for each dataset. Solid shapes represent the error in lift and open shapes represent error in drag. The symbols represent the various experimental sources:\textit {} $\circ $, \cite {assi_wake-induced_2010}; $\Box $, \cite {price_origin_1976}; $\Diamond $, \cite {price_aerodynamic_1984}; $\vartriangle $, \cite [$Re=5900$]{bokaian_wake-induced_1984}; $\triangledown $, \cite [$Re=2600$]{bokaian_wake-induced_1984}.\relax }{figure.caption.19}{}}
\newlabel{eq:coeffUpdate-smooth}{{2.36}{36}{Smooth fluid force model}{equation.2.4.36}{}}
\@writefile{toc}{\contentsline {subsection}{\numberline {2.4.6}Comment on force models}{36}{subsection.2.4.6}}
\citation{assi_wake-induced_2010}
\citation{blevins_forces_2005,huse1993interaction}
\@writefile{toc}{\contentsline {section}{\numberline {2.5}Full Nonlinear Wake Stiffness Model}{37}{section.2.5}}
\newlabel{s:FullNLWS}{{2.5}{37}{Full Nonlinear Wake Stiffness Model}{section.2.5}{}}
\citation{norberg2003fluctuating}
\citation{paidoussis2010fluid}
\newlabel{eq:StructuralElasticity}{{2.37}{38}{Full Nonlinear Wake Stiffness Model}{equation.2.5.37}{}}
\newlabel{eq:StructuralDamping}{{2.38}{38}{Full Nonlinear Wake Stiffness Model}{equation.2.5.38}{}}
\newlabel{eq:wakeForces-full}{{2.39}{38}{Full Nonlinear Wake Stiffness Model}{equation.2.5.39}{}}
\newlabel{eq:2DwsNondim}{{2.41}{39}{Full Nonlinear Wake Stiffness Model}{equation.2.5.41}{}}
\citation{blevins_forces_2005}
\@writefile{toc}{\contentsline {section}{\numberline {2.6}Example: tandem, tethered cylinders}{41}{section.2.6}}
\newlabel{s:tetheredCyls}{{2.6}{41}{Example: tandem, tethered cylinders}{section.2.6}{}}
\@writefile{lof}{\contentsline {figure}{\numberline {2.11}{\ignorespaces (a) A snapshot from experimental data. The trailing cylinder (red) is connected by an acrylic plate to a central rod running through the upstream cylinder. The position of the trailing cylinder is tracked and resulting angular position calculated. (b) Schematic of tethered cylinder system. Both cylinders have the same diameter, \(D\), and the distance between the cylinders is fixed to the length \(x_0\).\relax }}{41}{figure.caption.20}}
\newlabel{fig: Schematic}{{2.11}{41}{(a) A snapshot from experimental data. The trailing cylinder (red) is connected by an acrylic plate to a central rod running through the upstream cylinder. The position of the trailing cylinder is tracked and resulting angular position calculated. (b) Schematic of tethered cylinder system. Both cylinders have the same diameter, \(D\), and the distance between the cylinders is fixed to the length \(x_0\).\relax }{figure.caption.20}{}}
\@writefile{toc}{\contentsline {subsection}{\numberline {2.6.1}Predictions from the model}{41}{subsection.2.6.1}}
\newlabel{eq:CthProjection}{{2.47}{41}{Predictions from the model}{equation.2.6.47}{}}
\@writefile{lof}{\contentsline {figure}{\numberline {2.12}{\ignorespaces The combined fluid force coefficient $C_\theta $ defined by (\ref  {eq:CthProjection}) compared against lift and drag over the range $\theta \in (-90^\circ ,90^\circ )$ at a spacing of $r=4$.\relax }}{42}{figure.caption.21}}
\newlabel{fig:coeffs}{{2.12}{42}{The combined fluid force coefficient $C_\theta $ defined by (\ref {eq:CthProjection}) compared against lift and drag over the range $\theta \in (-90^\circ ,90^\circ )$ at a spacing of $r=4$.\relax }{figure.caption.21}{}}
\@writefile{toc}{\contentsline {subsection}{\numberline {2.6.2}Experimental Setup}{42}{subsection.2.6.2}}
\citation{hover_galloping_2001}
\@writefile{toc}{\contentsline {subsection}{\numberline {2.6.3}Experimental Results}{43}{subsection.2.6.3}}
\@writefile{toc}{\contentsline {subsubsection}{Amplitude of Oscillation}{43}{section*.22}}
\@writefile{lof}{\contentsline {figure}{\numberline {2.13}{\ignorespaces This figure shows mean amplitudes of oscillation in both angular distance and transverse position from the centerline. The left column shows the mean of the entire dataset, while the right column shows the mean of the top 10\% of amplitudes. The top row represents angular distance, in degrees, while the bottom row represents transverse distance, nondimensionalized by diameter. The colors correspond to Figure \ref  {fig:freqPlot}.\relax }}{44}{figure.caption.23}}
\newlabel{fig: AmplitudePlot}{{2.13}{44}{This figure shows mean amplitudes of oscillation in both angular distance and transverse position from the centerline. The left column shows the mean of the entire dataset, while the right column shows the mean of the top 10\% of amplitudes. The top row represents angular distance, in degrees, while the bottom row represents transverse distance, nondimensionalized by diameter. The colors correspond to Figure \ref {fig:freqPlot}.\relax }{figure.caption.23}{}}
\@writefile{toc}{\contentsline {subsubsection}{Frequency Measurements and Wake Stiffness}{45}{section*.24}}
\@writefile{lof}{\contentsline {figure}{\numberline {2.14}{\ignorespaces Power spectral densities for center-to-center spacings of \(x^*=3.5\) (top), \(x^*=4\) (middle) and \(x^*=5\) (bottom). As Reynolds number increases, the dominant frequencies increase, and the frequency response becomes increasingly broadband.\relax }}{45}{figure.caption.25}}
\newlabel{fig: PSD}{{2.14}{45}{Power spectral densities for center-to-center spacings of \(x^*=3.5\) (top), \(x^*=4\) (middle) and \(x^*=5\) (bottom). As Reynolds number increases, the dominant frequencies increase, and the frequency response becomes increasingly broadband.\relax }{figure.caption.25}{}}
\@writefile{lof}{\contentsline {figure}{\numberline {2.15}{\ignorespaces (Left) Measured dominant frequency shown for all Reynolds numbers and center-to-center spacings. Dominant frequency is found by numerically finding the power spectrum of measured cylinder kinematics. (Right) Nondimensionalizing this frequency measurement with cylinder diameter and flow velocity gives us the effective dimensionless wake frequency for comparison with Eq. (\ref  {eq:Assi WS}).\relax }}{46}{figure.caption.26}}
\newlabel{fig:freqPlot}{{2.15}{46}{(Left) Measured dominant frequency shown for all Reynolds numbers and center-to-center spacings. Dominant frequency is found by numerically finding the power spectrum of measured cylinder kinematics. (Right) Nondimensionalizing this frequency measurement with cylinder diameter and flow velocity gives us the effective dimensionless wake frequency for comparison with Eq. (\ref {eq:Assi WS}).\relax }{figure.caption.26}{}}
\@writefile{toc}{\contentsline {subsection}{\numberline {2.6.4}The Gap Flow Switching Regime}{46}{subsection.2.6.4}}
\@writefile{lof}{\contentsline {figure}{\numberline {2.16}{\ignorespaces Comparison of the data points from above in Fig. \ref  {fig:freqPlot} with the mean apparent wake stiffness value for each spacing.\relax }}{47}{figure.caption.27}}
\newlabel{fig:AWS}{{2.16}{47}{Comparison of the data points from above in Fig. \ref {fig:freqPlot} with the mean apparent wake stiffness value for each spacing.\relax }{figure.caption.27}{}}
\@writefile{toc}{\contentsline {subsection}{\numberline {2.6.5}Experimental observations}{47}{subsection.2.6.5}}
\citation{assi_wake-induced_2010}
\citation{assi_role_2013}
\citation{hover_galloping_2001}
\citation{assi_wake-induced_2010}
\citation{assi_role_2013}
\@writefile{lof}{\contentsline {figure}{\numberline {2.17}{\ignorespaces Time series of angular displacement (left column) and trajectory in position-velocity space (right column) for a 15 second sample of behavior at \(Re = 11,250\) for \(x^* = 3\) (top row) and \(x^* = 4\) (bottom row)\relax }}{48}{figure.caption.28}}
\newlabel{fig: timeSeries-phasePlot}{{2.17}{48}{Time series of angular displacement (left column) and trajectory in position-velocity space (right column) for a 15 second sample of behavior at \(Re = 11,250\) for \(x^* = 3\) (top row) and \(x^* = 4\) (bottom row)\relax }{figure.caption.28}{}}
\citation{blevins_forces_2005}
\@writefile{toc}{\contentsline {section}{\numberline {2.7}Discussion}{49}{section.2.7}}
\newlabel{s:Discussion}{{2.7}{49}{Discussion}{section.2.7}{}}
\citation{assi_wake-induced_2010,price_origin_1976,price_aerodynamic_1984,bokaian_wake-induced_1984}
\citation{nave_wake_2016}
\bibstyle{unsrtnat}
\bibdata{dissertation}
\bibcite{bearman_vortex_1984}{{1}{1984}{{Bearman}}{{}}}
\bibcite{zdravkovich_reviewreview_1977}{{2}{1977}{{Zdravkovich}}{{}}}
\bibcite{zdravkovich_review_1988}{{3}{1988}{{Zdravkovich}}{{}}}
\bibcite{sumner_two_2010}{{4}{2010}{{Sumner}}{{}}}
\bibcite{brika_vortex-induced_1993}{{5}{1993}{{Brika and Laneville}}{{}}}
\bibcite{khalak_motions_1999}{{6}{1999}{{Khalak and Williamson}}{{}}}
\bibcite{williamson_vortex-induced_2004}{{7}{2004}{{Williamson and Govardhan}}{{}}}
\bibcite{assi_wake-induced_2010}{{8}{2010}{{Assi et~al.}}{{Assi, Bearman, and Meneghini}}}
\bibcite{bearman_circular_2011}{{9}{2011}{{Bearman}}{{}}}
\@writefile{toc}{\contentsline {chapter}{Bibliography}{51}{chapter*.30}}
\bibcite{bokaian_wake-induced_1984}{{10}{1984}{{Bokaian and Geoola}}{{}}}
\bibcite{brika_flow_1999}{{11}{1999}{{Brika and Laneville}}{{}}}
\bibcite{hover_galloping_2001}{{12}{2001}{{Hover and Triantafyllou}}{{}}}
\bibcite{assi_role_2013}{{13}{2013}{{Assi et~al.}}{{Assi, Bearman, Carmo, Meneghini, Sherwin, and Willden}}}
\bibcite{zdravkovich_flow-induced_1974}{{14}{1974}{{Zdravkovich}}{{}}}
\bibcite{igarashi1981characteristics}{{15}{1981}{{Igarashi}}{{}}}
\bibcite{mizushima2005instability}{{16}{2005}{{Mizushima and Suehiro}}{{}}}
\bibcite{yang2018critical}{{17}{2018}{{Yang and Stremler}}{{}}}
\bibcite{carmo2010possible}{{18}{2010}{{Carmo et~al.}}{{Carmo, Meneghini, and Sherwin}}}
\bibcite{tasaka2006hysteretic}{{19}{2006}{{Tasaka et~al.}}{{Tasaka, Kon, Schouveiler, and Le~Gal}}}
\bibcite{huhe1985visual}{{20}{1985}{{Huhe-Aode et~al.}}{{}}}
\bibcite{papaioannou2006three}{{21}{2006}{{Papaioannou et~al.}}{{Papaioannou, Yue, Triantafyllou, and Karniadakis}}}
\bibcite{tong2015numerical}{{22}{2015}{{Tong et~al.}}{{Tong, Cheng, and Zhao}}}
\bibcite{ishigai1972experimental}{{23}{1972}{{Ishigai et~al.}}{{Ishigai, Nishikawa, Nishimura, and Cho}}}
\bibcite{xu2004strouhal}{{24}{2004}{{Xu and Zhou}}{{}}}
\bibcite{kiya1980vortex}{{25}{1980}{{Kiya et~al.}}{{Kiya, Arie, Tamura, and Mori}}}
\bibcite{ljungkrona1991free}{{26}{1991}{{Ljungkrona et~al.}}{{Ljungkrona, Norberg, and Sunden}}}
\bibcite{kitagawa2008numerical}{{27}{2008}{{Kitagawa and Ohta}}{{}}}
\bibcite{wang2018two}{{28}{2018}{{Wang et~al.}}{{Wang, Alam, and Zhou}}}
\bibcite{zdravkovich1977interference}{{29}{1977}{{Zdravkovich and Pridden}}{{}}}
\bibcite{alam2003fluctuating}{{30}{2003}{{Alam et~al.}}{{Alam, Moriya, Takai, and Sakamoto}}}
\bibcite{biermann1933interference}{{31}{1933}{{Biermann and Herrnstein~Jr}}{{}}}
\bibcite{arie1983pressure}{{32}{1983}{{Arie et~al.}}{{Arie, Kiya, Moriya, and Mori}}}
\bibcite{okajima1979flows}{{33}{1979}{{Okajima}}{{}}}
\bibcite{fylling2008riflex}{{34}{2008}{{Fylling et~al.}}{{Fylling, Larsen, S{\o }dahl, Passano, Bech, Engseth, Lie, and Ormberg}}}
\bibcite{orcaflex}{{35}{2018}{{Orc}}{{}}}
\bibcite{sarpkaya2004critical}{{36}{2004}{{Sarpkaya}}{{}}}
\bibcite{blevins_forces_2005}{{37}{2005}{{Blevins}}{{}}}
\bibcite{price_wake_1975}{{38}{1975}{{Price}}{{}}}
\bibcite{price_aerodynamic_1984}{{39}{1984}{{Price and Paidoussis}}{{}}}
\bibcite{huse1993interaction}{{40}{1993}{{Huse et~al.}}{{}}}
\bibcite{price_origin_1976}{{41}{1976}{{Price}}{{}}}
\bibcite{simpson1974use}{{42}{1974}{{Simpson and Price}}{{}}}
\bibcite{morse2009prediction}{{43}{2009}{{Morse and Williamson}}{{}}}
\bibcite{paidoussis2010fluid}{{44}{2010}{{Pa{\"\i }doussis et~al.}}{{Pa{\"\i }doussis, Price, and De~Langre}}}
\bibcite{simpson1977improved}{{45}{1977}{{Simpson and Flower}}{{}}}
\bibcite{norberg2003fluctuating}{{46}{2003}{{Norberg}}{{}}}
\bibcite{nave_wake_2016}{{47}{2016}{{Nave~Jr. et~al.}}{{Nave~Jr., Stremler, and Ross}}}
\@setckpt{./Chapters/WakeStiffness}{
\setcounter{page}{56}
\setcounter{equation}{47}
\setcounter{enumi}{0}
\setcounter{enumii}{0}
\setcounter{enumiii}{0}
\setcounter{enumiv}{0}
\setcounter{footnote}{0}
\setcounter{mpfootnote}{0}
\setcounter{part}{0}
\setcounter{chapter}{2}
\setcounter{section}{7}
\setcounter{subsection}{0}
\setcounter{subsubsection}{0}
\setcounter{paragraph}{0}
\setcounter{subparagraph}{0}
\setcounter{figure}{17}
\setcounter{table}{0}
\setcounter{parentequation}{0}
\setcounter{NAT@ctr}{47}
\setcounter{@pps}{0}
\setcounter{@ppsavesec}{0}
\setcounter{@ppsaveapp}{0}
\setcounter{Item}{0}
\setcounter{Hfootnote}{0}
\setcounter{bookmark@seq@number}{38}
\setcounter{float@type}{8}
\setcounter{lstnumber}{1}
\setcounter{ContinuedFloat}{0}
\setcounter{subfigure}{0}
\setcounter{subtable}{0}
\setcounter{proposition}{0}
\setcounter{section@level}{1}
\setcounter{lstlisting}{0}
}
