%!PS-Adobe-3.0 EPSF-3.0
%%BoundingBox: 0 0 18 11
%%HiResBoundingBox: 0.248438 0.100391 17.899219 10.100000
%.............................................
%%Creator: GPL Ghostscript 870 (epswrite)
%%CreationDate: 2018/03/29 12:16:35
%%DocumentData: Clean7Bit
%%LanguageLevel: 2
%%EndComments
%%BeginProlog
% This copyright applies to everything between here and the %%EndProlog:
% Copyright (C) 2009 Artifex Software, Inc.  All rights reserved.
%%BeginResource: procset GS_epswrite_2_0_1001 1.001 0
/GS_epswrite_2_0_1001 80 dict dup begin
/PageSize 2 array def/setpagesize{ PageSize aload pop 3 index eq exch
4 index eq and{ pop pop pop}{ PageSize dup  1
5 -1 roll put 0 4 -1 roll put dup null eq {false} {dup where} ifelse{ exch get exec}
{ pop/setpagedevice where
{ pop 1 dict dup /PageSize PageSize put setpagedevice}
{ /setpage where{ pop PageSize aload pop pageparams 3 {exch pop} repeat
setpage}if}ifelse}ifelse}ifelse} bind def
/!{bind def}bind def/#{load def}!/N/counttomark #
/rG{3{3 -1 roll 255 div}repeat setrgbcolor}!/G{255 div setgray}!/K{0 G}!
/r6{dup 3 -1 roll rG}!/r5{dup 3 1 roll rG}!/r3{dup rG}!
/w/setlinewidth #/J/setlinecap #
/j/setlinejoin #/M/setmiterlimit #/d/setdash #/i/setflat #
/m/moveto #/l/lineto #/c/rcurveto #
/p{N 2 idiv{N -2 roll rlineto}repeat}!
/P{N 0 gt{N -2 roll moveto p}if}!
/h{p closepath}!/H{P closepath}!
/lx{0 rlineto}!/ly{0 exch rlineto}!/v{0 0 6 2 roll c}!/y{2 copy c}!
/re{4 -2 roll m exch dup lx exch ly neg lx h}!
/^{3 index neg 3 index neg}!
/f{P fill}!/f*{P eofill}!/s{H stroke}!/S{P stroke}!
/q/gsave #/Q/grestore #/rf{re fill}!
/Y{P clip newpath}!/Y*{P eoclip newpath}!/rY{re Y}!
/|={pop exch 4 1 roll 1 array astore cvx 3 array astore cvx exch 1 index def exec}!
/|{exch string readstring |=}!
/+{dup type/nametype eq{2 index 7 add -3 bitshift 2 index mul}if}!
/@/currentfile #/${+ @ |}!
/B{{2 copy string{readstring pop}aload pop 4 array astore cvx
3 1 roll}repeat pop pop true}!
/Ix{[1 0 0 1 11 -2 roll exch neg exch neg]exch}!
/,{true exch Ix imagemask}!/If{false exch Ix imagemask}!/I{exch Ix image}!
/Ic{exch Ix false 3 colorimage}!
/F{/Columns counttomark 3 add -2 roll/Rows exch/K -1/BlackIs1 true>>
/CCITTFaxDecode filter}!/FX{<</EndOfBlock false F}!
/X{/ASCII85Decode filter}!/@X{@ X}!/&2{2 index 2 index}!
/@F{@ &2<<F}!/@C{@X &2 FX}!
/$X{+ @X |}!/&4{4 index 4 index}!/$F{+ @ &4<<F |}!/$C{+ @X &4 FX |}!
/IC{3 1 roll 10 dict begin 1{/ImageType/Interpolate/Decode/DataSource
/ImageMatrix/BitsPerComponent/Height/Width}{exch def}forall
currentdict end image}!
/~{@ read {pop} if}!
end def
%%EndResource
/pagesave null def
%%EndProlog
%%Page: 1 1
%%BeginPageSetup
GS_epswrite_2_0_1001 begin
/pagesave save store 197 dict begin
0.1 0.1 scale
%%EndPageSetup
gsave mark
Q q
0 0.5 180 109.5 re
Y
0.2 i
K
25.58 93.91 m
0 0.1 0 1.09 -1.3 1.09 c
-2.29 0 -9.55 -0.76 -12.14 -0.95 c
-0.8 -0.09 -1.89 -0.19 -1.89 -1.91 c
0 -1.14 0.89 -1.14 2.39 -1.14 c
4.78 0 4.98 -0.71 4.98 -1.7 c
-0.3 -1.99 -14.43 -57.33 p
-0.4 -1.39 -0.4 -1.59 -0.4 -2.19 c
0 -2.29 2.01 -2.79 2.92 -2.79 c
1.61 0 3.22 1.2 3.72 2.59 c
1.91 7.58 p
0.7 2.99 1.51 5.98 2.21 8.98 c
0.61 2.2 1.21 4.39 1.71 6.68 c
0.2 0.6 1.01 3.89 1.11 4.49 c
0.3 0.9 3.42 6.48 6.84 9.18 c
2.21 1.59 5.33 3.5 9.66 3.5 c
4.33 0 5.44 -3.4 5.44 -6.99 c
0 -5.39 -4.05 -16.26 -6.62 -22.34 c
-0.85 -2.3 -1.39 -3.49 -1.39 -5.49 c
0 -4.69 3.52 -8.18 8.24 -8.18 c
9.45 0 13.16 14.46 13.16 15.25 c
0 0.99 -0.91 0.99 -1.21 0.99 c
-1.01 0 -1.01 -0.3 -1.51 -1.8 c
-1.51 -5.32 -4.73 -12.44 -10.26 -12.44 c
-1.71 0 -2.41 1 -2.41 3.29 c
0 2.5 0.91 4.89 1.82 7.08 c
1.62 4.29 6.18 16.16 6.18 21.95 c
0 6.48 -3.99 10.68 -11.45 10.68 c
-6.27 0 -11.05 -3.07 -14.73 -7.64 c
h
f
86.98 2 m
0 0.3 0 0.5 -1.66 2.2 c
-12.2 12.6 -15.32 31.5 -15.32 46.8 c
0 17.4 3.71 34.8 15.71 47.3 c
1.27 1.2 1.27 1.4 1.27 1.7 c
0 0.7 -0.4 1.01 -0.99 1.01 c
-0.99 0 -9.9 -6.81 -15.75 -19.51 c
-5.05 -11 -6.24 -22.1 -6.24 -30.5 c
0 -7.8 1.09 -19.9 6.54 -31.2 c
5.94 -12.3 14.46 -18.8 15.45 -18.8 c
0.59 0 0.99 0.3 0.99 1 c
h
f
97.08 51.31 m
3.88 11.58 14.71 11.68 15.81 11.68 c
15.01 0 16.11 -17.35 16.11 -25.18 c
0 -6.05 -0.49 -7.73 -1.18 -9.71 c
-2.17 -7.24 -5.12 -18.74 -5.12 -21.32 c
0 -1.09 0.46 -1.79 1.2 -1.79 c
1.2 0 1.94 2.18 2.95 5.94 c
2.12 8.31 3.05 13.95 3.41 17.01 c
0.19 1.29 0.37 2.57 0.74 3.86 c
3.32 9.79 9.97 24.54 14.13 32.35 c
0.73 1.19 1.97 3.36 1.97 3.76 c
0 0.99 -1.03 0.99 -1.24 0.99 c
-0.31 0 -0.93 0 -1.24 -0.69 c
-5.37 -9.4 -9.5 -19.29 -13.62 -29.28 c
-0.1 3.07 -0.2 10.58 -4.03 20.18 c
-2.36 6.04 -6.28 10.89 -13.05 10.89 c
-12.26 0 -19.13 -15.12 -19.13 -18.2 c
0 -0.99 0.89 -0.99 1.89 -0.99 c
h
f
179 51 m
0 7.8 -1.11 19.9 -6.63 31.2 c
-6.03 12.3 -14.68 18.81 -15.68 18.81 c
-0.6 0 -1 -0.41 -1 -1.01 c
0 -0.3 0 -0.5 1.89 -2.3 c
9.75 -9.9 15.43 -25.8 15.43 -46.7 c
0 -17.1 -3.68 -34.7 -16.02 -47.3 c
-1.29 -1.2 -1.29 -1.4 -1.29 -1.7 c
0 -0.6 0.4 -1 1 -1 c
1 0 10.05 6.8 15.98 19.5 c
5.13 11 6.33 22.1 6.33 30.5 c
h
f
cleartomark end end pagesave restore
 showpage
%%PageTrailer
%%Trailer
%%Pages: 1
