%!PS-Adobe-3.0 EPSF-3.0
%%BoundingBox: 0 0 15 9
%%HiResBoundingBox: 0.138672 0.700391 14.299609 8.700000
%...............................................
%%Creator: GPL Ghostscript 870 (epswrite)
%%CreationDate: 2018/03/29 12:16:00
%%DocumentData: Clean7Bit
%%LanguageLevel: 2
%%EndComments
%%BeginProlog
% This copyright applies to everything between here and the %%EndProlog:
% Copyright (C) 2009 Artifex Software, Inc.  All rights reserved.
%%BeginResource: procset GS_epswrite_2_0_1001 1.001 0
/GS_epswrite_2_0_1001 80 dict dup begin
/PageSize 2 array def/setpagesize{ PageSize aload pop 3 index eq exch
4 index eq and{ pop pop pop}{ PageSize dup  1
5 -1 roll put 0 4 -1 roll put dup null eq {false} {dup where} ifelse{ exch get exec}
{ pop/setpagedevice where
{ pop 1 dict dup /PageSize PageSize put setpagedevice}
{ /setpage where{ pop PageSize aload pop pageparams 3 {exch pop} repeat
setpage}if}ifelse}ifelse}ifelse} bind def
/!{bind def}bind def/#{load def}!/N/counttomark #
/rG{3{3 -1 roll 255 div}repeat setrgbcolor}!/G{255 div setgray}!/K{0 G}!
/r6{dup 3 -1 roll rG}!/r5{dup 3 1 roll rG}!/r3{dup rG}!
/w/setlinewidth #/J/setlinecap #
/j/setlinejoin #/M/setmiterlimit #/d/setdash #/i/setflat #
/m/moveto #/l/lineto #/c/rcurveto #
/p{N 2 idiv{N -2 roll rlineto}repeat}!
/P{N 0 gt{N -2 roll moveto p}if}!
/h{p closepath}!/H{P closepath}!
/lx{0 rlineto}!/ly{0 exch rlineto}!/v{0 0 6 2 roll c}!/y{2 copy c}!
/re{4 -2 roll m exch dup lx exch ly neg lx h}!
/^{3 index neg 3 index neg}!
/f{P fill}!/f*{P eofill}!/s{H stroke}!/S{P stroke}!
/q/gsave #/Q/grestore #/rf{re fill}!
/Y{P clip newpath}!/Y*{P eoclip newpath}!/rY{re Y}!
/|={pop exch 4 1 roll 1 array astore cvx 3 array astore cvx exch 1 index def exec}!
/|{exch string readstring |=}!
/+{dup type/nametype eq{2 index 7 add -3 bitshift 2 index mul}if}!
/@/currentfile #/${+ @ |}!
/B{{2 copy string{readstring pop}aload pop 4 array astore cvx
3 1 roll}repeat pop pop true}!
/Ix{[1 0 0 1 11 -2 roll exch neg exch neg]exch}!
/,{true exch Ix imagemask}!/If{false exch Ix imagemask}!/I{exch Ix image}!
/Ic{exch Ix false 3 colorimage}!
/F{/Columns counttomark 3 add -2 roll/Rows exch/K -1/BlackIs1 true>>
/CCITTFaxDecode filter}!/FX{<</EndOfBlock false F}!
/X{/ASCII85Decode filter}!/@X{@ X}!/&2{2 index 2 index}!
/@F{@ &2<<F}!/@C{@X &2 FX}!
/$X{+ @X |}!/&4{4 index 4 index}!/$F{+ @ &4<<F |}!/$C{+ @X &4 FX |}!
/IC{3 1 roll 10 dict begin 1{/ImageType/Interpolate/Decode/DataSource
/ImageMatrix/BitsPerComponent/Height/Width}{exch def}forall
currentdict end image}!
/~{@ read {pop} if}!
end def
%%EndResource
/pagesave null def
%%EndProlog
%%Page: 1 1
%%BeginPageSetup
GS_epswrite_2_0_1001 begin
/pagesave save store 197 dict begin
0.1 0.1 scale
%%EndPageSetup
gsave mark
Q q
0 0.769531 145.344 89.2305 re
Y
0.2 i
K
20.08 81.13 m
0 0.08 0 0.87 -1.05 0.87 c
-1.86 0 -7.74 -0.57 -9.83 -0.71 c
-0.64 -0.07 -1.53 -0.14 -1.53 -1.43 c
0 -0.86 0.72 -0.86 1.93 -0.86 c
3.87 0 4.03 -0.56 4.03 -1.36 c
-0.24 -1.6 -11.69 -46.04 p
-0.32 -1.12 -0.32 -1.28 -0.32 -1.76 c
0 -1.84 1.62 -2.24 2.35 -2.24 c
1.3 0 2.59 0.95 3 2.05 c
1.54 6 p
0.57 2.36 1.21 4.73 1.78 7.1 c
0.49 1.73 0.97 3.47 1.38 5.29 c
0.16 0.47 0.81 3.08 0.89 3.55 c
0.24 0.71 2.76 5.13 5.51 7.26 c
1.78 1.26 4.3 2.76 7.78 2.76 c
3.48 0 4.38 -2.68 4.38 -5.52 c
0 -4.26 -3.55 -12.86 -5.79 -17.67 c
-0.75 -1.81 -1.21 -2.76 -1.21 -4.34 c
0 -3.71 2.88 -6.47 6.74 -6.47 c
7.73 0 10.78 11.75 10.78 12.39 c
0 0.8 -0.74 0.8 -0.98 0.8 c
-0.82 0 -0.82 -0.24 -1.23 -1.42 c
-1.23 -4.18 -3.85 -9.77 -8.34 -9.77 c
-1.39 0 -1.96 0.79 -1.96 2.6 c
0 1.97 0.8 3.87 1.59 5.6 c
1.42 3.39 5.41 12.78 5.41 17.36 c
0 5.13 -3.23 8.44 -9.28 8.44 c
-5.07 0 -8.95 -2.38 -11.93 -5.91 c
h
f
69.38 7.8 m
0 0.24 0 0.4 -1.31 1.76 c
-9.61 10.08 -12.07 25.2 -12.07 37.44 c
0 13.92 2.92 27.84 12.38 37.84 c
1 0.96 1 1.12 1 1.36 c
0 0.56 -0.32 0.81 -0.8 0.81 c
-0.79 0 -7.92 -5.45 -12.59 -15.61 c
-4.04 -8.8 -4.99 -17.68 -4.99 -24.4 c
0 -6.24 0.87 -15.92 5.23 -24.96 c
4.75 -9.84 11.57 -15.04 12.36 -15.04 c
0.48 0 0.8 0.24 0.8 0.8 c
h
f
77.28 47.22 m
3.13 8.7 11.86 8.78 12.74 8.78 c
12.1 0 12.98 -13.76 12.98 -19.97 c
0 -4.8 -0.41 -6.14 -0.98 -7.71 c
-1.8 -5.74 -4.27 -14.86 -4.27 -16.91 c
0 -0.87 0.4 -1.41 1.05 -1.41 c
1.05 0 1.69 1.74 2.58 4.75 c
1.85 6.65 2.66 11.16 2.98 13.61 c
0.16 1.03 0.32 2.06 0.64 3.09 c
2.54 7.84 7.61 19.63 10.78 25.88 c
0.55 0.95 1.51 2.69 1.51 3.01 c
0 0.79 -0.79 0.79 -0.95 0.79 c
-0.24 0 -0.71 0 -0.95 -0.55 c
-4.09 -7.52 -7.24 -15.43 -10.39 -23.42 c
-0.08 2.45 -0.16 8.46 -3.29 16.14 c
-1.92 4.82 -5.12 8.71 -10.66 8.71 c
-10.01 0 -15.62 -11.93 -15.62 -14.37 c
0 -0.79 0.72 -0.79 1.52 -0.79 c
h
f
143 47 m
0 6.24 -0.87 15.92 -5.25 24.96 c
-4.77 9.84 -11.62 15.05 -12.41 15.05 c
-0.48 0 -0.8 -0.33 -0.8 -0.81 c
0 -0.24 0 -0.4 1.47 -1.84 c
7.58 -7.92 11.99 -20.64 11.99 -37.36 c
0 -13.68 -2.86 -27.76 -12.45 -37.84 c
-1 -0.96 -1 -1.12 -1 -1.36 c
0 -0.48 0.32 -0.8 0.8 -0.8 c
0.79 0 7.95 5.44 12.65 15.6 c
4.05 8.8 5.01 17.68 5.01 24.4 c
h
f
cleartomark end end pagesave restore
 showpage
%%PageTrailer
%%Trailer
%%Pages: 1
