%!PS-Adobe-3.0 EPSF-3.0
%%BoundingBox: 0 0 17 7
%%HiResBoundingBox: 0.800391 0.200391 16.827734 6.799609
%...............................................
%%Creator: GPL Ghostscript 870 (epswrite)
%%CreationDate: 2018/03/29 12:19:34
%%DocumentData: Clean7Bit
%%LanguageLevel: 2
%%EndComments
%%BeginProlog
% This copyright applies to everything between here and the %%EndProlog:
% Copyright (C) 2009 Artifex Software, Inc.  All rights reserved.
%%BeginResource: procset GS_epswrite_2_0_1001 1.001 0
/GS_epswrite_2_0_1001 80 dict dup begin
/PageSize 2 array def/setpagesize{ PageSize aload pop 3 index eq exch
4 index eq and{ pop pop pop}{ PageSize dup  1
5 -1 roll put 0 4 -1 roll put dup null eq {false} {dup where} ifelse{ exch get exec}
{ pop/setpagedevice where
{ pop 1 dict dup /PageSize PageSize put setpagedevice}
{ /setpage where{ pop PageSize aload pop pageparams 3 {exch pop} repeat
setpage}if}ifelse}ifelse}ifelse} bind def
/!{bind def}bind def/#{load def}!/N/counttomark #
/rG{3{3 -1 roll 255 div}repeat setrgbcolor}!/G{255 div setgray}!/K{0 G}!
/r6{dup 3 -1 roll rG}!/r5{dup 3 1 roll rG}!/r3{dup rG}!
/w/setlinewidth #/J/setlinecap #
/j/setlinejoin #/M/setmiterlimit #/d/setdash #/i/setflat #
/m/moveto #/l/lineto #/c/rcurveto #
/p{N 2 idiv{N -2 roll rlineto}repeat}!
/P{N 0 gt{N -2 roll moveto p}if}!
/h{p closepath}!/H{P closepath}!
/lx{0 rlineto}!/ly{0 exch rlineto}!/v{0 0 6 2 roll c}!/y{2 copy c}!
/re{4 -2 roll m exch dup lx exch ly neg lx h}!
/^{3 index neg 3 index neg}!
/f{P fill}!/f*{P eofill}!/s{H stroke}!/S{P stroke}!
/q/gsave #/Q/grestore #/rf{re fill}!
/Y{P clip newpath}!/Y*{P eoclip newpath}!/rY{re Y}!
/|={pop exch 4 1 roll 1 array astore cvx 3 array astore cvx exch 1 index def exec}!
/|{exch string readstring |=}!
/+{dup type/nametype eq{2 index 7 add -3 bitshift 2 index mul}if}!
/@/currentfile #/${+ @ |}!
/B{{2 copy string{readstring pop}aload pop 4 array astore cvx
3 1 roll}repeat pop pop true}!
/Ix{[1 0 0 1 11 -2 roll exch neg exch neg]exch}!
/,{true exch Ix imagemask}!/If{false exch Ix imagemask}!/I{exch Ix image}!
/Ic{exch Ix false 3 colorimage}!
/F{/Columns counttomark 3 add -2 roll/Rows exch/K -1/BlackIs1 true>>
/CCITTFaxDecode filter}!/FX{<</EndOfBlock false F}!
/X{/ASCII85Decode filter}!/@X{@ X}!/&2{2 index 2 index}!
/@F{@ &2<<F}!/@C{@X &2 FX}!
/$X{+ @X |}!/&4{4 index 4 index}!/$F{+ @ &4<<F |}!/$C{+ @X &4 FX |}!
/IC{3 1 roll 10 dict begin 1{/ImageType/Interpolate/Decode/DataSource
/ImageMatrix/BitsPerComponent/Height/Width}{exch def}forall
currentdict end image}!
/~{@ read {pop} if}!
end def
%%EndResource
/pagesave null def
%%EndProlog
%%Page: 1 1
%%BeginPageSetup
GS_epswrite_2_0_1001 begin
/pagesave save store 197 dict begin
0.1 0.1 scale
%%EndPageSetup
gsave mark
Q q
0 0.769531 170 69.2305 re
Y
0.2 i
K
33.61 50 m
-3.15 -0.23 -3.61 -2.51 -3.61 -3.5 c
0 -1.98 1.37 -3.5 3.5 -3.5 c
1.98 0 3.5 1.32 3.5 3.66 c
0 5.3 -5.96 8.34 -12 8.34 c
-9.8 0 -17.01 -8.71 -17.01 -18.71 c
0 -10.32 7.81 -18.29 16.97 -18.29 c
10.58 0 13.11 9.67 13.11 10.47 c
0 0.81 -0.78 0.81 -1.01 0.81 c
-0.7 0 -0.85 -0.32 -1.01 -0.81 c
-2.25 -7.5 -7.28 -8.47 -10.14 -8.47 c
-4.11 0 -10.92 3.47 -10.92 16.46 c
0 13.15 6.3 16.54 10.38 16.54 c
0.69 0 5.54 -0.08 8.23 -3 c
h
f
79 36.13 m
0 10.32 -8.12 18.87 -17.96 18.87 c
-10.16 0 -18.04 -8.79 -18.04 -18.87 c
0 -10.4 8.45 -18.13 17.96 -18.13 c
9.83 0 18.04 7.9 18.04 18.13 c
h
61.04 20 m
-3.41 0 -6.91 1.68 -9.05 5.36 c
-1.99 3.53 -1.99 8.41 -1.99 11.29 c
0 3.13 0 7.45 1.91 10.98 c
2.14 3.68 5.88 5.37 9.05 5.37 c
3.49 0 6.91 -1.77 8.97 -5.21 c
2.07 -3.44 2.07 -8.09 2.07 -11.13 c
0 -2.88 0 -7.21 -1.75 -10.73 c
-1.75 -3.61 -5.24 -5.93 -9.21 -5.93 c
h
f
94 51 11.19 0 0 2 ^ 0 15 -2.03 0 P
-0.08 -6.48 -2.51 -14.95 -10.45 -15.26 c
0 -1.74 7.48 0 0 -22.16 p
0 -9.87 6.93 -10.84 9.62 -10.84 c
5.29 0 7.39 5.54 7.39 10.54 c
0 4.45 -2 0 0 -4.28 p
0 -5.76 -2.24 -8.71 -5 -8.71 c
-5 0 -5 7.31 -5 8.67 c
h
f
128.28 39.22 m
3.13 8.7 11.86 8.78 12.74 8.78 c
12.1 0 12.98 -13.76 12.98 -19.97 c
0 -4.8 -0.41 -6.14 -0.98 -7.71 c
-1.8 -5.74 -4.27 -14.86 -4.27 -16.91 c
0 -0.87 0.4 -1.41 1.05 -1.41 c
1.05 0 1.69 1.74 2.58 4.75 c
1.85 6.65 2.66 11.16 2.98 13.61 c
0.16 1.03 0.32 2.06 0.64 3.09 c
2.54 7.84 7.61 19.63 10.78 25.88 c
0.55 0.95 1.51 2.69 1.51 3.01 c
0 0.79 -0.79 0.79 -0.95 0.79 c
-0.24 0 -0.71 0 -0.95 -0.55 c
-4.09 -7.52 -7.24 -15.43 -10.39 -23.42 c
-0.08 2.45 -0.16 8.46 -3.29 16.14 c
-1.92 4.82 -5.12 8.71 -10.66 8.71 c
-10.01 0 -15.62 -11.93 -15.62 -14.37 c
0 -0.79 0.72 -0.79 1.52 -0.79 c
h
f
cleartomark end end pagesave restore
 showpage
%%PageTrailer
%%Trailer
%%Pages: 1
