%!PS-Adobe-3.0 EPSF-3.0
%%BoundingBox: 1 0 26 9
%%HiResBoundingBox: 1.100391 0.700391 25.899609 8.700000
%...............................................
%%Creator: GPL Ghostscript 870 (epswrite)
%%CreationDate: 2018/03/29 12:19:48
%%DocumentData: Clean7Bit
%%LanguageLevel: 2
%%EndComments
%%BeginProlog
% This copyright applies to everything between here and the %%EndProlog:
% Copyright (C) 2009 Artifex Software, Inc.  All rights reserved.
%%BeginResource: procset GS_epswrite_2_0_1001 1.001 0
/GS_epswrite_2_0_1001 80 dict dup begin
/PageSize 2 array def/setpagesize{ PageSize aload pop 3 index eq exch
4 index eq and{ pop pop pop}{ PageSize dup  1
5 -1 roll put 0 4 -1 roll put dup null eq {false} {dup where} ifelse{ exch get exec}
{ pop/setpagedevice where
{ pop 1 dict dup /PageSize PageSize put setpagedevice}
{ /setpage where{ pop PageSize aload pop pageparams 3 {exch pop} repeat
setpage}if}ifelse}ifelse}ifelse} bind def
/!{bind def}bind def/#{load def}!/N/counttomark #
/rG{3{3 -1 roll 255 div}repeat setrgbcolor}!/G{255 div setgray}!/K{0 G}!
/r6{dup 3 -1 roll rG}!/r5{dup 3 1 roll rG}!/r3{dup rG}!
/w/setlinewidth #/J/setlinecap #
/j/setlinejoin #/M/setmiterlimit #/d/setdash #/i/setflat #
/m/moveto #/l/lineto #/c/rcurveto #
/p{N 2 idiv{N -2 roll rlineto}repeat}!
/P{N 0 gt{N -2 roll moveto p}if}!
/h{p closepath}!/H{P closepath}!
/lx{0 rlineto}!/ly{0 exch rlineto}!/v{0 0 6 2 roll c}!/y{2 copy c}!
/re{4 -2 roll m exch dup lx exch ly neg lx h}!
/^{3 index neg 3 index neg}!
/f{P fill}!/f*{P eofill}!/s{H stroke}!/S{P stroke}!
/q/gsave #/Q/grestore #/rf{re fill}!
/Y{P clip newpath}!/Y*{P eoclip newpath}!/rY{re Y}!
/|={pop exch 4 1 roll 1 array astore cvx 3 array astore cvx exch 1 index def exec}!
/|{exch string readstring |=}!
/+{dup type/nametype eq{2 index 7 add -3 bitshift 2 index mul}if}!
/@/currentfile #/${+ @ |}!
/B{{2 copy string{readstring pop}aload pop 4 array astore cvx
3 1 roll}repeat pop pop true}!
/Ix{[1 0 0 1 11 -2 roll exch neg exch neg]exch}!
/,{true exch Ix imagemask}!/If{false exch Ix imagemask}!/I{exch Ix image}!
/Ic{exch Ix false 3 colorimage}!
/F{/Columns counttomark 3 add -2 roll/Rows exch/K -1/BlackIs1 true>>
/CCITTFaxDecode filter}!/FX{<</EndOfBlock false F}!
/X{/ASCII85Decode filter}!/@X{@ X}!/&2{2 index 2 index}!
/@F{@ &2<<F}!/@C{@X &2 FX}!
/$X{+ @X |}!/&4{4 index 4 index}!/$F{+ @ &4<<F |}!/$C{+ @X &4 FX |}!
/IC{3 1 roll 10 dict begin 1{/ImageType/Interpolate/Decode/DataSource
/ImageMatrix/BitsPerComponent/Height/Width}{exch def}forall
currentdict end image}!
/~{@ read {pop} if}!
end def
%%EndResource
/pagesave null def
%%EndProlog
%%Page: 1 1
%%BeginPageSetup
GS_epswrite_2_0_1001 begin
/pagesave save store 197 dict begin
0.1 0.1 scale
%%EndPageSetup
gsave mark
Q q
9.44141 0.769531 250.559 89.2305 re
Y
0.2 i
K
67.57 82.21 m
0 0.24 -0.17 0.8 -0.89 0.8 c
-0.24 0 -0.32 -0.08 -1.2 -0.93 c
-5.58 -5.97 p
-0.71 1.09 -4.38 6.91 -13.22 6.91 c
-17.77 0 -35.69 -17.64 -35.69 -36.14 c
0 -13.16 9.4 -21.86 21.59 -21.86 c
6.93 0 12.98 3.23 17.21 6.93 c
7.41 6.61 8.77 13.95 8.77 14.19 c
0 0.8 -0.8 0.8 -0.96 0.8 c
-0.48 0 -0.88 -0.17 -1.04 -0.83 c
-0.72 -2.4 -2.57 -8.27 -8.1 -13.06 c
-5.53 -4.63 -10.58 -6.04 -14.75 -6.04 c
-7.21 0 -15.71 4.22 -15.71 16.89 c
0 4.63 1.68 17.79 9.69 27.29 c
4.89 5.77 12.41 9.83 19.54 9.83 c
8.17 0 12.89 -6.23 12.89 -15.6 c
0 -3.23 -0.24 -3.31 -0.24 -4.12 c
0 -0.81 0.88 -0.81 1.2 -0.81 c
1.04 0 1.04 0.16 1.44 1.58 c
h
f
86.98 48.44 m
0.5 2 0.67 2.56 5.8 2.56 c
1.73 0 2.29 0 2.29 1.22 c
0 0.05 -0.05 0.78 -0.95 0.78 c
-16.07 0 p
-0.33 0 -1.17 0 -1.17 -1.22 c
0 -0.78 0.67 -0.78 1.79 -0.78 c
0.06 0 1.12 0 2.12 -0.11 c
1.17 -0.11 1.29 -0.22 1.29 -0.78 c
0 -0.11 0 -0.39 -0.23 -1.22 c
-7.42 -29.55 p
-0.5 -1.89 -0.61 -2.34 -4.91 -2.34 c
-0.95 0 -1.67 0 -1.67 -1.17 c
0 -0.83 0.67 -0.83 1.67 -0.83 c
28.06 0 p
1.39 0 1.45 0.05 1.9 1.12 c
0.56 1.5 4.74 12.33 4.74 12.77 c
0 0.17 -0.11 0.78 -0.95 0.78 c
-0.67 0 -0.78 -0.28 -1.12 -1.17 c
-2.12 -5.3 -4.57 -11.5 -14.79 -11.5 c
-6.3 0 p
-1.73 0 -1.79 0.05 -1.79 0.55 c
0 0.06 0 0.34 0.23 1.17 c
h
f
146.6 83.96 m
0.4 1.04 0.4 1.36 0.4 1.44 c
0 0.88 -0.72 1.61 -1.6 1.61 c
-0.56 0 -1.12 -0.25 -1.36 -0.73 c
-27.65 -76.23 p
-0.4 -1.04 -0.4 -1.36 -0.4 -1.44 c
0 -0.88 0.71 -1.6 1.59 -1.6 c
1.04 0 1.27 0.56 1.75 1.92 c
h
f
212.57 82.21 m
0 0.24 -0.17 0.8 -0.89 0.8 c
-0.24 0 -0.32 -0.08 -1.2 -0.93 c
-5.58 -5.97 p
-0.71 1.09 -4.38 6.91 -13.22 6.91 c
-17.77 0 -35.69 -17.64 -35.69 -36.14 c
0 -13.16 9.4 -21.86 21.59 -21.86 c
6.93 0 12.98 3.23 17.21 6.93 c
7.41 6.61 8.77 13.95 8.77 14.19 c
0 0.8 -0.8 0.8 -0.96 0.8 c
-0.48 0 -0.88 -0.17 -1.04 -0.83 c
-0.72 -2.4 -2.57 -8.27 -8.1 -13.06 c
-5.53 -4.63 -10.58 -6.04 -14.75 -6.04 c
-7.21 0 -15.71 4.22 -15.71 16.89 c
0 4.63 1.68 17.79 9.69 27.29 c
4.89 5.77 12.41 9.83 19.54 9.83 c
8.17 0 12.89 -6.23 12.89 -15.6 c
0 -3.23 -0.24 -3.31 -0.24 -4.12 c
0 -0.81 0.88 -0.81 1.2 -0.81 c
1.04 0 1.04 0.16 1.44 1.58 c
h
f
219.57 19.34 m
-0.45 -1.89 -0.56 -2.34 -4.93 -2.34 c
-1.01 0 -1.68 0 -1.68 -1.22 c
0 -0.78 0.67 -0.78 1.68 -0.78 c
19.99 0 p
12.43 0 24.37 11.35 24.37 23.48 c
0 8.12 -5.66 14.52 -14.79 14.52 c
-20.38 0 p
-1.12 0 -1.79 0 -1.79 -1.22 c
0 -0.78 0.62 -0.78 1.85 -0.78 c
0.9 0 1.12 0 2.13 -0.11 c
1.12 -0.11 1.23 -0.22 1.23 -0.78 c
0 -0.11 0 -0.39 -0.23 -1.22 c
h
232.17 49.11 m
0.45 1.73 0.51 1.89 2.89 1.89 c
7.26 0 p
6.35 0 11.68 -3.12 11.68 -10.69 c
0 -1.28 -0.57 -10.91 -6.24 -17.25 c
-2.21 -2.5 -7.09 -6.07 -14.06 -6.07 c
-7.71 0 p
-1.76 0 -1.81 0.05 -1.81 0.55 c
0 0.06 0 0.34 0.23 1.17 c
h
f
cleartomark end end pagesave restore
 showpage
%%PageTrailer
%%Trailer
%%Pages: 1
