%!PS-Adobe-3.0 EPSF-3.0
%%Title: ../Figures/DataComp/DragData-5_0.eps
%%Creator: matplotlib version 2.1.2, http://matplotlib.org/
%%CreationDate: Tue Jun 12 12:22:20 2018
%%Orientation: portrait
%%BoundingBox: 219 311 392 480
%%EndComments
%%BeginProlog
/mpldict 8 dict def
mpldict begin
/m { moveto } bind def
/l { lineto } bind def
/r { rlineto } bind def
/c { curveto } bind def
/cl { closepath } bind def
/box {
m
1 index 0 r
0 exch r
neg 0 r
cl
} bind def
/clipbox {
box
clip
newpath
} bind def
%!PS-Adobe-3.0 Resource-Font
%%Title: DejaVu Sans
%%Copyright: Copyright (c) 2003 by Bitstream, Inc. All Rights Reserved. Copyright (c) 2006 by Tavmjong Bah. All Rights Reserved. DejaVu changes are in public domain 
%%Creator: Converted from TrueType to type 3 by PPR
25 dict begin
/_d{bind def}bind def
/_m{moveto}_d
/_l{lineto}_d
/_cl{closepath eofill}_d
/_c{curveto}_d
/_sc{7 -1 roll{setcachedevice}{pop pop pop pop pop pop}ifelse}_d
/_e{exec}_d
/FontName /DejaVuSans def
/PaintType 0 def
/FontMatrix[.001 0 0 .001 0 0]def
/FontBBox[-1021 -463 1793 1232]def
/FontType 3 def
/Encoding [ /period /zero /one /two /three /five /minus ] def
/FontInfo 10 dict dup begin
/FamilyName (DejaVu Sans) def
/FullName (DejaVu Sans) def
/Notice (Copyright (c) 2003 by Bitstream, Inc. All Rights Reserved. Copyright (c) 2006 by Tavmjong Bah. All Rights Reserved. DejaVu changes are in public domain ) def
/Weight (Book) def
/Version (Version 2.35) def
/ItalicAngle 0.0 def
/isFixedPitch false def
/UnderlinePosition -130 def
/UnderlineThickness 90 def
end readonly def
/CharStrings 8 dict dup begin
/.notdef 0 def
/period{318 0 107 0 210 124 _sc
107 124 _m
210 124 _l
210 0 _l
107 0 _l
107 124 _l
_cl}_d
/zero{636 0 66 -13 570 742 _sc
318 664 _m
267 664 229 639 203 589 _c
177 539 165 464 165 364 _c
165 264 177 189 203 139 _c
229 89 267 64 318 64 _c
369 64 407 89 433 139 _c
458 189 471 264 471 364 _c
471 464 458 539 433 589 _c
407 639 369 664 318 664 _c
318 742 _m
399 742 461 709 505 645 _c
548 580 570 486 570 364 _c
570 241 548 147 505 83 _c
461 19 399 -13 318 -13 _c
236 -13 173 19 130 83 _c
87 147 66 241 66 364 _c
66 486 87 580 130 645 _c
173 709 236 742 318 742 _c
_cl}_d
/one{636 0 110 0 544 729 _sc
124 83 _m
285 83 _l
285 639 _l
110 604 _l
110 694 _l
284 729 _l
383 729 _l
383 83 _l
544 83 _l
544 0 _l
124 0 _l
124 83 _l
_cl}_d
/two{{636 0 73 0 536 742 _sc
192 83 _m
536 83 _l
536 0 _l
73 0 _l
73 83 _l
110 121 161 173 226 239 _c
290 304 331 346 348 365 _c
380 400 402 430 414 455 _c
426 479 433 504 433 528 _c
433 566 419 598 392 622 _c
365 646 330 659 286 659 _c
255 659 222 653 188 643 _c
154 632 117 616 78 594 _c
78 694 _l
118 710 155 722 189 730 _c
223 738 255 742 284 742 _c
}_e{359 742 419 723 464 685 _c
509 647 532 597 532 534 _c
532 504 526 475 515 449 _c
504 422 484 390 454 354 _c
446 344 420 317 376 272 _c
332 227 271 164 192 83 _c
_cl}_e}_d
/three{{636 0 76 -13 556 742 _sc
406 393 _m
453 383 490 362 516 330 _c
542 298 556 258 556 212 _c
556 140 531 84 482 45 _c
432 6 362 -13 271 -13 _c
240 -13 208 -10 176 -4 _c
144 1 110 10 76 22 _c
76 117 _l
103 101 133 89 166 81 _c
198 73 232 69 268 69 _c
330 69 377 81 409 105 _c
441 129 458 165 458 212 _c
458 254 443 288 413 312 _c
383 336 341 349 287 349 _c
}_e{202 349 _l
202 430 _l
291 430 _l
339 430 376 439 402 459 _c
428 478 441 506 441 543 _c
441 580 427 609 401 629 _c
374 649 336 659 287 659 _c
260 659 231 656 200 650 _c
169 644 135 635 98 623 _c
98 711 _l
135 721 170 729 203 734 _c
235 739 266 742 296 742 _c
370 742 429 725 473 691 _c
517 657 539 611 539 553 _c
539 513 527 479 504 451 _c
481 423 448 403 406 393 _c
_cl}_e}_d
/five{{636 0 77 -13 549 729 _sc
108 729 _m
495 729 _l
495 646 _l
198 646 _l
198 467 _l
212 472 227 476 241 478 _c
255 480 270 482 284 482 _c
365 482 429 459 477 415 _c
525 370 549 310 549 234 _c
549 155 524 94 475 51 _c
426 8 357 -13 269 -13 _c
238 -13 207 -10 175 -6 _c
143 -1 111 6 77 17 _c
77 116 _l
106 100 136 88 168 80 _c
199 72 232 69 267 69 _c
}_e{323 69 368 83 401 113 _c
433 143 450 183 450 234 _c
450 284 433 324 401 354 _c
368 384 323 399 267 399 _c
241 399 214 396 188 390 _c
162 384 135 375 108 363 _c
108 729 _l
_cl}_e}_d
/minus{838 0 106 272 732 355 _sc
106 355 _m
732 355 _l
732 272 _l
106 272 _l
106 355 _l
_cl}_d
end readonly def

/BuildGlyph
 {exch begin
 CharStrings exch
 2 copy known not{pop /.notdef}if
 true 3 1 roll get exec
 end}_d

/BuildChar {
 1 index /Encoding get exch get
 1 index /BuildGlyph get exec
}_d

FontName currentdict end definefont pop
end
%%EndProlog
mpldict begin
219.951 311.943 translate
172.097 168.114 0 0 clipbox
gsave
0 0 m
172.0975 0 l
172.0975 168.114 l
0 168.114 l
cl
grestore
gsave
36.1375 24.45 m
158.8975 24.45 l
158.8975 154.914 l
36.1375 154.914 l
cl
grestore
0.800 setlinewidth
1 setlinejoin
0 setlinecap
[] 0 setdash
0.150 setgray
gsave
/o {
gsave
newpath
translate
0.8 setlinewidth
1 setlinejoin
0 setlinecap
0 0 m
0 -6 l

gsave
0.150 setgray
fill
grestore
stroke
grestore
} bind def
43.81 24.45 o
grestore
/DejaVuSans findfont
8.000 scalefont
setfont
gsave
41.263125 8.871875 translate
0.000000 rotate
0.000000 0.000000 m /zero glyphshow
grestore
gsave
/o {
gsave
newpath
translate
0.8 setlinewidth
1 setlinejoin
0 setlinecap
0 0 m
0 -6 l

gsave
0.150 setgray
fill
grestore
stroke
grestore
} bind def
82.1725 24.45 o
grestore
gsave
79.625625 8.871875 translate
0.000000 rotate
0.000000 0.000000 m /one glyphshow
grestore
gsave
/o {
gsave
newpath
translate
0.8 setlinewidth
1 setlinejoin
0 setlinecap
0 0 m
0 -6 l

gsave
0.150 setgray
fill
grestore
stroke
grestore
} bind def
120.535 24.45 o
grestore
gsave
117.988125 8.871875 translate
0.000000 rotate
0.000000 0.000000 m /two glyphshow
grestore
gsave
/o {
gsave
newpath
translate
0.8 setlinewidth
1 setlinejoin
0 setlinecap
0 0 m
0 -6 l

gsave
0.150 setgray
fill
grestore
stroke
grestore
} bind def
158.898 24.45 o
grestore
gsave
156.350625 8.871875 translate
0.000000 rotate
0.000000 0.000000 m /three glyphshow
grestore
gsave
/o {
gsave
newpath
translate
0.8 setlinewidth
1 setlinejoin
0 setlinecap
0 0 m
-6 0 l

gsave
0.150 setgray
fill
grestore
stroke
grestore
} bind def
36.1375 24.45 o
grestore
gsave
7.200000 21.410938 translate
0.000000 rotate
0.000000 0.000000 m /minus glyphshow
6.703125 0.000000 m /zero glyphshow
11.792969 0.000000 m /period glyphshow
14.335938 0.000000 m /five glyphshow
grestore
gsave
/o {
gsave
newpath
translate
0.8 setlinewidth
1 setlinejoin
0 setlinecap
0 0 m
-6 0 l

gsave
0.150 setgray
fill
grestore
stroke
grestore
} bind def
36.1375 57.066 o
grestore
gsave
13.903125 54.026938 translate
0.000000 rotate
0.000000 0.000000 m /zero glyphshow
5.089844 0.000000 m /period glyphshow
7.632812 0.000000 m /zero glyphshow
grestore
gsave
/o {
gsave
newpath
translate
0.8 setlinewidth
1 setlinejoin
0 setlinecap
0 0 m
-6 0 l

gsave
0.150 setgray
fill
grestore
stroke
grestore
} bind def
36.1375 89.682 o
grestore
gsave
13.903125 86.642938 translate
0.000000 rotate
0.000000 0.000000 m /zero glyphshow
5.089844 0.000000 m /period glyphshow
7.632812 0.000000 m /five glyphshow
grestore
gsave
/o {
gsave
newpath
translate
0.8 setlinewidth
1 setlinejoin
0 setlinecap
0 0 m
-6 0 l

gsave
0.150 setgray
fill
grestore
stroke
grestore
} bind def
36.1375 122.298 o
grestore
gsave
13.903125 119.258938 translate
0.000000 rotate
0.000000 0.000000 m /one glyphshow
5.089844 0.000000 m /period glyphshow
7.632812 0.000000 m /zero glyphshow
grestore
gsave
/o {
gsave
newpath
translate
0.8 setlinewidth
1 setlinejoin
0 setlinecap
0 0 m
-6 0 l

gsave
0.150 setgray
fill
grestore
stroke
grestore
} bind def
36.1375 154.914 o
grestore
gsave
13.903125 151.874937 translate
0.000000 rotate
0.000000 0.000000 m /one glyphshow
5.089844 0.000000 m /period glyphshow
7.632812 0.000000 m /five glyphshow
grestore
0.400 setlinewidth
1 setlinecap
0.650 setgray
gsave
122.8 130.5 36.14 24.45 clipbox
-1 57.066 m
158.8975 57.066 l
stroke
grestore
gsave
122.8 130.5 36.14 24.45 clipbox
43.81 21.1884 m
43.81 158.1756 l
stroke
grestore
1.000 setlinewidth
0 setlinecap
0.000 setgray
gsave
122.8 130.5 36.14 24.45 clipbox
/o {
gsave
newpath
translate
1.0 setlinewidth
1 setlinejoin
0 setlinecap
-0 -2.738613 m
2.738613 0 l
0 2.738613 l
-2.738613 0 l
cl

gsave
1.000 setgray
fill
grestore
stroke
grestore
} bind def
-1 110.855 o
1.29975 109.354 o
9.25786 101.524 o
17.3879 92.3186 o
24.3695 85.7235 o
28.0907 83.9255 o
31.8191 81.1748 o
40.3975 76.5561 o
43.3088 75.2517 o
47.1773 75.2531 o
50.562 75.2897 o
54.5908 75.397 o
63.9112 79.105 o
70.1725 82.3533 o
78.3383 89.4832 o
85.5342 96.9655 o
89.3712 101.095 o
92.8814 105.753 o
96.5707 108.119 o
101.048 112.742 o
105.528 117.084 o
103.745 118.459 o
111.121 123.401 o
118.973 129.472 o
127.665 131.028 o
133.775 133.006 o
153.277 133.19 o
173.097 131.639 o
grestore
gsave
122.8 130.5 36.14 24.45 clipbox
/o {
gsave
newpath
translate
1.0 setlinewidth
1 setlinejoin
0 setlinecap
-0 -2.738613 m
2.738613 0 l
0 2.738613 l
-2.738613 0 l
cl

gsave
1.000 setgray
fill
grestore
stroke
grestore
} bind def
173.097 133.825 o
164.201 133.881 o
136.8 133.962 o
124.542 133.014 o
110.648 128.785 o
101.262 123.955 o
94.5996 116.972 o
90.5325 112.104 o
86.3203 109.354 o
78.3621 101.524 o
70.2321 92.3186 o
63.2505 85.7235 o
59.5293 83.9255 o
55.8009 81.1748 o
47.2225 76.5561 o
44.3112 75.2517 o
40.4427 75.2531 o
37.058 75.2897 o
33.0292 75.397 o
23.7088 79.105 o
17.4475 82.3533 o
9.28168 89.4832 o
2.08579 96.9655 o
-1 100.286 o
grestore
gsave
122.8 130.5 36.14 24.45 clipbox
/o {
gsave
newpath
translate
1.0 setlinewidth
1 setlinejoin
0 setlinecap
0 1.936492 m
-1.936492 -1.936492 l
1.936492 -1.936492 l
cl

gsave
1.000 setgray
fill
grestore
stroke
grestore
} bind def
44.4571 103.83 o
39.1704 104.85 o
30.1907 106.684 o
25.1049 105.145 o
20.1813 106.264 o
14.7613 109.091 o
10.4197 110.509 o
6.25457 116.744 o
0.473802 119.823 o
-1 120.591 o
grestore
gsave
122.8 130.5 36.14 24.45 clipbox
/o {
gsave
newpath
translate
1.0 setlinewidth
1 setlinejoin
0 setlinecap
0 1.936492 m
-1.936492 -1.936492 l
1.936492 -1.936492 l
cl

gsave
1.000 setgray
fill
grestore
stroke
grestore
} bind def
43.1629 103.83 o
48.4496 104.85 o
57.4293 106.684 o
62.5151 105.145 o
67.4387 106.264 o
72.8587 109.091 o
77.2003 110.509 o
81.3654 116.744 o
87.1462 119.823 o
91.6991 122.196 o
96.6091 125.423 o
101.592 128.599 o
112.349 135.858 o
121.032 138.746 o
130.469 137.119 o
140.029 138.956 o
159.382 140.12 o
173.097 140.002 o
grestore
gsave
122.8 130.5 36.14 24.45 clipbox
/o {
gsave
newpath
translate
1.0 setlinewidth
1 setlinejoin
0 setlinecap
-1.936492 -1.936492 m
1.936492 -1.936492 l
1.936492 1.936492 l
-1.936492 1.936492 l
cl

gsave
1.000 setgray
fill
grestore
stroke
grestore
} bind def
173.097 135.36 o
166.673 135.12 o
153.478 134.036 o
137.272 135.68 o
121.033 133.541 o
104.842 123.595 o
89.3229 110.272 o
75.4522 98.696 o
60.3072 88.1789 o
44.009 79.249 o
28.3086 85.3253 o
14.7492 96.0356 o
-0.19102 108.984 o
-1 109.695 o
grestore
gsave
122.8 130.5 36.14 24.45 clipbox
/o {
gsave
newpath
translate
1.0 setlinewidth
1 setlinejoin
0 setlinecap
-1.936492 -1.936492 m
1.936492 -1.936492 l
1.936492 1.936492 l
-1.936492 1.936492 l
cl

gsave
1.000 setgray
fill
grestore
stroke
grestore
} bind def
-1 109.685 o
12.1678 98.696 o
27.3128 88.1789 o
43.611 79.249 o
59.3114 85.3253 o
72.8708 96.0356 o
87.811 108.984 o
103.56 122.828 o
117.966 130.164 o
134.27 133.963 o
148.496 135.117 o
163.791 134.157 o
173.097 133.966 o
grestore
gsave
122.8 130.5 36.14 24.45 clipbox
/o {
gsave
newpath
translate
1.0 setlinewidth
1 setlinejoin
0 setlinecap
-0 -1.936492 m
1.936492 1.936492 l
-1.936492 1.936492 l
cl

gsave
1.000 setgray
fill
grestore
stroke
grestore
} bind def
83.0433 116.455 o
63.9822 106.78 o
58.9688 105.24 o
53.8865 104.252 o
49.1612 102.41 o
43.9371 101.925 o
39.3023 102.842 o
34.8161 104.312 o
29.8155 104.729 o
25.4044 106.599 o
20.554 107.818 o
14.9167 110.696 o
10.5785 112.616 o
6.02236 114.487 o
0.531729 117.615 o
-1 118.51 o
grestore
gsave
122.8 130.5 36.14 24.45 clipbox
/o {
gsave
newpath
translate
1.0 setlinewidth
1 setlinejoin
0 setlinecap
-0 -1.936492 m
1.936492 1.936492 l
-1.936492 1.936492 l
cl

gsave
1.000 setgray
fill
grestore
stroke
grestore
} bind def
4.57667 116.455 o
23.6378 106.78 o
28.6512 105.24 o
33.7335 104.252 o
38.4588 102.41 o
43.6829 101.925 o
48.3177 102.842 o
52.8039 104.312 o
57.8045 104.729 o
62.2156 106.599 o
67.066 107.818 o
72.7033 110.696 o
77.0415 112.616 o
81.5976 114.487 o
87.0883 117.615 o
91.0615 119.936 o
96.8389 123.517 o
101.607 126.342 o
106.874 130.322 o
112.797 133.853 o
121.625 136.74 o
131.038 138.877 o
140.112 137.3 o
159.468 138.012 o
173.097 137.807 o
grestore
gsave
122.8 130.5 36.14 24.45 clipbox
/o {
gsave
newpath
translate
1.0 setlinewidth
1 setlinejoin
0 setlinecap
0 -1.936492 m
0.513564 -1.936492 1.006162 -1.732451 1.369306 -1.369306 c
1.732451 -1.006162 1.936492 -0.513564 1.936492 0 c
1.936492 0.513564 1.732451 1.006162 1.369306 1.369306 c
1.006162 1.732451 0.513564 1.936492 0 1.936492 c
-0.513564 1.936492 -1.006162 1.732451 -1.369306 1.369306 c
-1.732451 1.006162 -1.936492 0.513564 -1.936492 0 c
-1.936492 -0.513564 -1.732451 -1.006162 -1.369306 -1.369306 c
-1.006162 -1.732451 -0.513564 -1.936492 0 -1.936492 c
cl

gsave
1.000 setgray
fill
grestore
stroke
grestore
} bind def
28.465 95.0479 o
36.1375 92.373 o
43.81 89.9091 o
51.4825 92.3763 o
59.155 95.7826 o
66.8275 100.169 o
74.5 106.829 o
82.1725 112.786 o
89.845 118.421 o
97.5175 125.031 o
105.19 131.616 o
112.862 136.232 o
120.535 139.745 o
128.208 139.76 o
135.88 140.177 o
143.553 142.603 o
151.225 141.052 o
158.898 140.547 o
grestore
gsave
122.8 130.5 36.14 24.45 clipbox
/o {
gsave
newpath
translate
1.0 setlinewidth
1 setlinejoin
0 setlinecap
0 -1.936492 m
0.513564 -1.936492 1.006162 -1.732451 1.369306 -1.369306 c
1.732451 -1.006162 1.936492 -0.513564 1.936492 0 c
1.936492 0.513564 1.732451 1.006162 1.369306 1.369306 c
1.006162 1.732451 0.513564 1.936492 0 1.936492 c
-0.513564 1.936492 -1.006162 1.732451 -1.369306 1.369306 c
-1.732451 1.006162 -1.936492 0.513564 -1.936492 0 c
-1.936492 -0.513564 -1.732451 -1.006162 -1.369306 -1.369306 c
-1.006162 -1.732451 -0.513564 -1.936492 0 -1.936492 c
cl

gsave
1.000 setgray
fill
grestore
stroke
grestore
} bind def
59.155 95.0479 o
51.4825 92.373 o
43.81 89.9091 o
36.1375 92.3763 o
28.465 95.7826 o
20.7925 100.169 o
13.12 106.829 o
5.4475 112.786 o
-1 117.521 o
grestore
0.750 setlinewidth
[0.75 1.237] 0 setdash
gsave
122.8 130.5 36.14 24.45 clipbox
-1 111.570672 m
12.580226 96.015818 l
17.206859 91.205372 l
19.520176 89.002269 l
21.833492 86.959722 l
24.146809 85.093342 l
26.460126 83.415622 l
28.773442 81.936044 l
31.086759 80.661358 l
33.400075 79.595976 l
35.713392 78.742457 l
38.026709 78.102035 l
40.340025 77.67511 l
42.653342 77.461688 l
44.966658 77.461688 l
47.279975 77.67511 l
49.593291 78.102035 l
51.906608 78.742457 l
54.219925 79.595976 l
56.533241 80.661358 l
58.846558 81.936044 l
61.159874 83.415622 l
63.473191 85.093342 l
65.786508 86.959722 l
68.099824 89.002269 l
72.726457 93.550375 l
77.35309 98.57786 l
86.606357 109.265753 l
91.23299 114.501534 l
95.859623 119.412169 l
100.486256 123.857386 l
105.112889 127.747883 l
107.426206 129.471298 l
109.739523 131.045378 l
112.052839 132.472243 l
114.366156 133.756152 l
116.679472 134.903131 l
121.306106 136.816946 l
125.932739 138.283137 l
130.559372 139.377356 l
135.186005 140.173604 l
139.812638 140.739025 l
146.752588 141.277191 l
153.692538 141.572627 l
165.259121 141.78377 l
173.0975 141.834051 l
173.0975 141.834051 l
stroke
grestore
[2.775 1.2] 0 setdash
gsave
122.8 130.5 36.14 24.45 clipbox
-1 116.352291 m
10.26691 107.914347 l
14.893543 104.694664 l
19.520176 101.76881 l
24.146809 99.225718 l
28.773442 97.139199 l
31.086759 96.28562 l
33.400075 95.566209 l
35.713392 94.985466 l
38.026709 94.54691 l
40.340025 94.253127 l
42.653342 94.105815 l
44.966658 94.105815 l
47.279975 94.253127 l
49.593291 94.54691 l
51.906608 94.985466 l
54.219925 95.566209 l
56.533241 96.28562 l
58.846558 97.139199 l
61.159874 98.121425 l
65.786508 100.444421 l
70.413141 103.189131 l
75.039774 106.273835 l
81.979724 111.327625 l
95.859623 121.682835 l
100.486256 124.856714 l
105.112889 127.770018 l
109.739523 130.379179 l
114.366156 132.661327 l
118.992789 134.612471 l
123.619422 136.244339 l
128.246055 137.580475 l
132.872688 138.652195 l
137.499322 139.494841 l
142.125955 140.144642 l
149.065905 140.83295 l
156.005854 141.268056 l
165.259121 141.593476 l
173.0975 141.732402 l
173.0975 141.732402 l
stroke
grestore
1 setlinecap
[] 0 setdash
gsave
122.8 130.5 36.14 24.45 clipbox
-1 119.155928 m
12.580226 108.598385 l
17.206859 105.330175 l
21.833492 102.410222 l
26.460126 99.930966 l
28.773442 98.880652 l
31.086759 97.966986 l
33.400075 97.196298 l
35.713392 96.573752 l
38.026709 96.103392 l
40.340025 95.788194 l
42.653342 95.630111 l
44.966658 95.630111 l
47.279975 95.788194 l
49.593291 96.103392 l
51.906608 96.573752 l
54.219925 97.196298 l
56.533241 97.966986 l
58.846558 98.880652 l
61.159874 99.930966 l
65.786508 102.410222 l
70.413141 105.330175 l
75.039774 108.598385 l
81.979724 113.917819 l
93.546307 122.940187 l
98.17294 126.296415 l
102.799573 129.385505 l
107.426206 132.155747 l
112.052839 134.578777 l
116.679472 136.647778 l
121.306106 138.37401 l
125.932739 139.78239 l
130.559372 140.906841 l
135.186005 141.785962 l
139.812638 142.459407 l
146.752588 143.166071 l
153.692538 143.606848 l
162.945804 143.930761 l
173.0975 144.091426 l
173.0975 144.091426 l
stroke
grestore
gsave
122.8 130.5 36.14 24.45 clipbox
-1 106.55061 m
12.580226 95.227715 l
17.206859 91.685158 l
21.833492 88.490148 l
26.460126 85.749112 l
28.773442 84.578747 l
31.086759 83.55575 l
33.400075 82.689074 l
35.713392 81.986346 l
38.026709 81.453774 l
40.340025 81.096076 l
42.653342 80.916429 l
44.966658 80.916429 l
47.279975 81.096076 l
49.593291 81.453774 l
51.906608 81.986346 l
54.219925 82.689074 l
56.533241 83.55575 l
58.846558 84.578747 l
61.159874 85.749112 l
65.786508 88.490148 l
70.413141 91.685158 l
75.039774 95.227715 l
81.979724 100.94396 l
93.546307 110.613573 l
98.17294 114.245393 l
102.799573 117.629035 l
107.426206 120.714317 l
112.052839 123.470145 l
116.679472 125.8833 l
121.306106 127.956183 l
125.932739 129.703878 l
130.559372 131.150891 l
135.186005 132.32792 l
139.812638 133.268896 l
144.439271 134.008498 l
151.379221 134.812903 l
158.319171 135.340267 l
167.572437 135.753477 l
173.0975 135.895841 l
173.0975 135.895841 l
stroke
grestore
1.250 setlinewidth
0 setlinejoin
2 setlinecap
[] 0 setdash
0.150 setgray
gsave
36.1375 24.45 m
36.1375 154.914 l
stroke
grestore
gsave
158.8975 24.45 m
158.8975 154.914 l
stroke
grestore
gsave
36.1375 24.45 m
158.8975 24.45 l
stroke
grestore
gsave
36.1375 154.914 m
158.8975 154.914 l
stroke
grestore

end
showpage
