%!PS-Adobe-3.0 EPSF-3.0
%%Title: ../Figures/DataComp/DragData-2_5.eps
%%Creator: matplotlib version 2.1.2, http://matplotlib.org/
%%CreationDate: Tue Jun 12 12:22:21 2018
%%Orientation: portrait
%%BoundingBox: 219 311 392 480
%%EndComments
%%BeginProlog
/mpldict 8 dict def
mpldict begin
/m { moveto } bind def
/l { lineto } bind def
/r { rlineto } bind def
/c { curveto } bind def
/cl { closepath } bind def
/box {
m
1 index 0 r
0 exch r
neg 0 r
cl
} bind def
/clipbox {
box
clip
newpath
} bind def
%!PS-Adobe-3.0 Resource-Font
%%Title: DejaVu Sans
%%Copyright: Copyright (c) 2003 by Bitstream, Inc. All Rights Reserved. Copyright (c) 2006 by Tavmjong Bah. All Rights Reserved. DejaVu changes are in public domain 
%%Creator: Converted from TrueType to type 3 by PPR
25 dict begin
/_d{bind def}bind def
/_m{moveto}_d
/_l{lineto}_d
/_cl{closepath eofill}_d
/_c{curveto}_d
/_sc{7 -1 roll{setcachedevice}{pop pop pop pop pop pop}ifelse}_d
/_e{exec}_d
/FontName /DejaVuSans def
/PaintType 0 def
/FontMatrix[.001 0 0 .001 0 0]def
/FontBBox[-1021 -463 1793 1232]def
/FontType 3 def
/Encoding [ /period /zero /one /two /three /five /minus ] def
/FontInfo 10 dict dup begin
/FamilyName (DejaVu Sans) def
/FullName (DejaVu Sans) def
/Notice (Copyright (c) 2003 by Bitstream, Inc. All Rights Reserved. Copyright (c) 2006 by Tavmjong Bah. All Rights Reserved. DejaVu changes are in public domain ) def
/Weight (Book) def
/Version (Version 2.35) def
/ItalicAngle 0.0 def
/isFixedPitch false def
/UnderlinePosition -130 def
/UnderlineThickness 90 def
end readonly def
/CharStrings 8 dict dup begin
/.notdef 0 def
/period{318 0 107 0 210 124 _sc
107 124 _m
210 124 _l
210 0 _l
107 0 _l
107 124 _l
_cl}_d
/zero{636 0 66 -13 570 742 _sc
318 664 _m
267 664 229 639 203 589 _c
177 539 165 464 165 364 _c
165 264 177 189 203 139 _c
229 89 267 64 318 64 _c
369 64 407 89 433 139 _c
458 189 471 264 471 364 _c
471 464 458 539 433 589 _c
407 639 369 664 318 664 _c
318 742 _m
399 742 461 709 505 645 _c
548 580 570 486 570 364 _c
570 241 548 147 505 83 _c
461 19 399 -13 318 -13 _c
236 -13 173 19 130 83 _c
87 147 66 241 66 364 _c
66 486 87 580 130 645 _c
173 709 236 742 318 742 _c
_cl}_d
/one{636 0 110 0 544 729 _sc
124 83 _m
285 83 _l
285 639 _l
110 604 _l
110 694 _l
284 729 _l
383 729 _l
383 83 _l
544 83 _l
544 0 _l
124 0 _l
124 83 _l
_cl}_d
/two{{636 0 73 0 536 742 _sc
192 83 _m
536 83 _l
536 0 _l
73 0 _l
73 83 _l
110 121 161 173 226 239 _c
290 304 331 346 348 365 _c
380 400 402 430 414 455 _c
426 479 433 504 433 528 _c
433 566 419 598 392 622 _c
365 646 330 659 286 659 _c
255 659 222 653 188 643 _c
154 632 117 616 78 594 _c
78 694 _l
118 710 155 722 189 730 _c
223 738 255 742 284 742 _c
}_e{359 742 419 723 464 685 _c
509 647 532 597 532 534 _c
532 504 526 475 515 449 _c
504 422 484 390 454 354 _c
446 344 420 317 376 272 _c
332 227 271 164 192 83 _c
_cl}_e}_d
/three{{636 0 76 -13 556 742 _sc
406 393 _m
453 383 490 362 516 330 _c
542 298 556 258 556 212 _c
556 140 531 84 482 45 _c
432 6 362 -13 271 -13 _c
240 -13 208 -10 176 -4 _c
144 1 110 10 76 22 _c
76 117 _l
103 101 133 89 166 81 _c
198 73 232 69 268 69 _c
330 69 377 81 409 105 _c
441 129 458 165 458 212 _c
458 254 443 288 413 312 _c
383 336 341 349 287 349 _c
}_e{202 349 _l
202 430 _l
291 430 _l
339 430 376 439 402 459 _c
428 478 441 506 441 543 _c
441 580 427 609 401 629 _c
374 649 336 659 287 659 _c
260 659 231 656 200 650 _c
169 644 135 635 98 623 _c
98 711 _l
135 721 170 729 203 734 _c
235 739 266 742 296 742 _c
370 742 429 725 473 691 _c
517 657 539 611 539 553 _c
539 513 527 479 504 451 _c
481 423 448 403 406 393 _c
_cl}_e}_d
/five{{636 0 77 -13 549 729 _sc
108 729 _m
495 729 _l
495 646 _l
198 646 _l
198 467 _l
212 472 227 476 241 478 _c
255 480 270 482 284 482 _c
365 482 429 459 477 415 _c
525 370 549 310 549 234 _c
549 155 524 94 475 51 _c
426 8 357 -13 269 -13 _c
238 -13 207 -10 175 -6 _c
143 -1 111 6 77 17 _c
77 116 _l
106 100 136 88 168 80 _c
199 72 232 69 267 69 _c
}_e{323 69 368 83 401 113 _c
433 143 450 183 450 234 _c
450 284 433 324 401 354 _c
368 384 323 399 267 399 _c
241 399 214 396 188 390 _c
162 384 135 375 108 363 _c
108 729 _l
_cl}_e}_d
/minus{838 0 106 272 732 355 _sc
106 355 _m
732 355 _l
732 272 _l
106 272 _l
106 355 _l
_cl}_d
end readonly def

/BuildGlyph
 {exch begin
 CharStrings exch
 2 copy known not{pop /.notdef}if
 true 3 1 roll get exec
 end}_d

/BuildChar {
 1 index /Encoding get exch get
 1 index /BuildGlyph get exec
}_d

FontName currentdict end definefont pop
end
%%EndProlog
mpldict begin
219.951 311.943 translate
172.097 168.114 0 0 clipbox
gsave
0 0 m
172.0975 0 l
172.0975 168.114 l
0 168.114 l
cl
grestore
gsave
36.1375 24.45 m
158.8975 24.45 l
158.8975 154.914 l
36.1375 154.914 l
cl
grestore
0.800 setlinewidth
1 setlinejoin
0 setlinecap
[] 0 setdash
0.150 setgray
gsave
/o {
gsave
newpath
translate
0.8 setlinewidth
1 setlinejoin
0 setlinecap
0 0 m
0 -6 l

gsave
0.150 setgray
fill
grestore
stroke
grestore
} bind def
43.81 24.45 o
grestore
/DejaVuSans findfont
8.000 scalefont
setfont
gsave
41.263125 8.871875 translate
0.000000 rotate
0.000000 0.000000 m /zero glyphshow
grestore
gsave
/o {
gsave
newpath
translate
0.8 setlinewidth
1 setlinejoin
0 setlinecap
0 0 m
0 -6 l

gsave
0.150 setgray
fill
grestore
stroke
grestore
} bind def
82.1725 24.45 o
grestore
gsave
79.625625 8.871875 translate
0.000000 rotate
0.000000 0.000000 m /one glyphshow
grestore
gsave
/o {
gsave
newpath
translate
0.8 setlinewidth
1 setlinejoin
0 setlinecap
0 0 m
0 -6 l

gsave
0.150 setgray
fill
grestore
stroke
grestore
} bind def
120.535 24.45 o
grestore
gsave
117.988125 8.871875 translate
0.000000 rotate
0.000000 0.000000 m /two glyphshow
grestore
gsave
/o {
gsave
newpath
translate
0.8 setlinewidth
1 setlinejoin
0 setlinecap
0 0 m
0 -6 l

gsave
0.150 setgray
fill
grestore
stroke
grestore
} bind def
158.898 24.45 o
grestore
gsave
156.350625 8.871875 translate
0.000000 rotate
0.000000 0.000000 m /three glyphshow
grestore
gsave
/o {
gsave
newpath
translate
0.8 setlinewidth
1 setlinejoin
0 setlinecap
0 0 m
-6 0 l

gsave
0.150 setgray
fill
grestore
stroke
grestore
} bind def
36.1375 24.45 o
grestore
gsave
7.200000 21.410938 translate
0.000000 rotate
0.000000 0.000000 m /minus glyphshow
6.703125 0.000000 m /zero glyphshow
11.792969 0.000000 m /period glyphshow
14.335938 0.000000 m /five glyphshow
grestore
gsave
/o {
gsave
newpath
translate
0.8 setlinewidth
1 setlinejoin
0 setlinecap
0 0 m
-6 0 l

gsave
0.150 setgray
fill
grestore
stroke
grestore
} bind def
36.1375 57.066 o
grestore
gsave
13.903125 54.026938 translate
0.000000 rotate
0.000000 0.000000 m /zero glyphshow
5.089844 0.000000 m /period glyphshow
7.632812 0.000000 m /zero glyphshow
grestore
gsave
/o {
gsave
newpath
translate
0.8 setlinewidth
1 setlinejoin
0 setlinecap
0 0 m
-6 0 l

gsave
0.150 setgray
fill
grestore
stroke
grestore
} bind def
36.1375 89.682 o
grestore
gsave
13.903125 86.642938 translate
0.000000 rotate
0.000000 0.000000 m /zero glyphshow
5.089844 0.000000 m /period glyphshow
7.632812 0.000000 m /five glyphshow
grestore
gsave
/o {
gsave
newpath
translate
0.8 setlinewidth
1 setlinejoin
0 setlinecap
0 0 m
-6 0 l

gsave
0.150 setgray
fill
grestore
stroke
grestore
} bind def
36.1375 122.298 o
grestore
gsave
13.903125 119.258938 translate
0.000000 rotate
0.000000 0.000000 m /one glyphshow
5.089844 0.000000 m /period glyphshow
7.632812 0.000000 m /zero glyphshow
grestore
gsave
/o {
gsave
newpath
translate
0.8 setlinewidth
1 setlinejoin
0 setlinecap
0 0 m
-6 0 l

gsave
0.150 setgray
fill
grestore
stroke
grestore
} bind def
36.1375 154.914 o
grestore
gsave
13.903125 151.874937 translate
0.000000 rotate
0.000000 0.000000 m /one glyphshow
5.089844 0.000000 m /period glyphshow
7.632812 0.000000 m /five glyphshow
grestore
0.400 setlinewidth
1 setlinecap
0.650 setgray
gsave
122.8 130.5 36.14 24.45 clipbox
-1 57.066 m
158.8975 57.066 l
stroke
grestore
gsave
122.8 130.5 36.14 24.45 clipbox
43.81 21.1884 m
43.81 158.1756 l
stroke
grestore
1.000 setlinewidth
0 setlinecap
0.000 setgray
gsave
122.8 130.5 36.14 24.45 clipbox
/o {
gsave
newpath
translate
1.0 setlinewidth
1 setlinejoin
0 setlinecap
0 1.936492 m
-1.936492 -1.936492 l
1.936492 -1.936492 l
cl

gsave
1.000 setgray
fill
grestore
stroke
grestore
} bind def
44.8039 67.0989 o
39.7648 72.7346 o
34.7909 77.2661 o
29.5514 85.5618 o
25.5414 93.352 o
20.0112 101.548 o
15.7125 109.54 o
10.591 113.67 o
5.11605 119.207 o
-1 123.408 o
grestore
gsave
122.8 130.5 36.14 24.45 clipbox
/o {
gsave
newpath
translate
1.0 setlinewidth
1 setlinejoin
0 setlinecap
0 1.936492 m
-1.936492 -1.936492 l
1.936492 -1.936492 l
cl

gsave
1.000 setgray
fill
grestore
stroke
grestore
} bind def
42.8161 67.0989 o
47.8552 72.7346 o
52.8291 77.2661 o
58.0686 85.5618 o
62.0786 93.352 o
67.6088 101.548 o
71.9075 109.54 o
77.029 113.67 o
82.504 119.207 o
91.3833 125.306 o
100.501 128.145 o
110.117 132.59 o
119.887 135.531 o
129.372 137.718 o
139.149 139.505 o
148.933 140.288 o
157.564 140.014 o
173.097 139.663 o
grestore
gsave
122.8 130.5 36.14 24.45 clipbox
/o {
gsave
newpath
translate
1.0 setlinewidth
1 setlinejoin
0 setlinecap
-0 -1.936492 m
1.936492 1.936492 l
-1.936492 1.936492 l
cl

gsave
1.000 setgray
fill
grestore
stroke
grestore
} bind def
82.7568 116.155 o
63.5119 89.37 o
59.4658 80.4509 o
54.6291 72.6381 o
49.8046 66.682 o
44.4933 63.9387 o
39.9431 66.7126 o
34.9072 72.8501 o
29.9535 80.4926 o
25.2236 89.0878 o
19.8463 98.4879 o
15.0298 104.926 o
10.5678 110.108 o
5.74577 115.693 o
-1 120.436 o
grestore
gsave
122.8 130.5 36.14 24.45 clipbox
/o {
gsave
newpath
translate
1.0 setlinewidth
1 setlinejoin
0 setlinecap
-0 -1.936492 m
1.936492 1.936492 l
-1.936492 1.936492 l
cl

gsave
1.000 setgray
fill
grestore
stroke
grestore
} bind def
4.86324 116.155 o
24.1081 89.37 o
28.1542 80.4509 o
32.9909 72.6381 o
37.8154 66.682 o
43.1267 63.9387 o
47.6769 66.7126 o
52.7128 72.8501 o
57.6665 80.4926 o
62.3964 89.0878 o
67.7737 98.4879 o
72.5902 104.926 o
77.0522 110.108 o
81.8742 115.693 o
91.9799 122.799 o
101.169 125.789 o
111.295 129.884 o
120.192 133.123 o
129.457 135.762 o
139.669 137.6 o
148.729 138.23 o
157.563 140.114 o
173.097 140.841 o
grestore
gsave
122.8 130.5 36.14 24.45 clipbox
/o {
gsave
newpath
translate
1.0 setlinewidth
1 setlinejoin
0 setlinecap
0 -1.936492 m
0.513564 -1.936492 1.006162 -1.732451 1.369306 -1.369306 c
1.732451 -1.006162 1.936492 -0.513564 1.936492 0 c
1.936492 0.513564 1.732451 1.006162 1.369306 1.369306 c
1.006162 1.732451 0.513564 1.936492 0 1.936492 c
-0.513564 1.936492 -1.006162 1.732451 -1.369306 1.369306 c
-1.732451 1.006162 -1.936492 0.513564 -1.936492 0 c
-1.936492 -0.513564 -1.732451 -1.006162 -1.369306 -1.369306 c
-1.006162 -1.732451 -0.513564 -1.936492 0 -1.936492 c
cl

gsave
1.000 setgray
fill
grestore
stroke
grestore
} bind def
28.465 62.0596 o
36.1375 60.9703 o
43.81 62.5898 o
51.4825 60.6179 o
59.155 62.123 o
66.8275 85.3798 o
74.5 98.3256 o
82.1725 110.101 o
89.845 116.535 o
97.5175 123.108 o
105.19 126.627 o
112.862 129.945 o
120.535 132.55 o
128.208 135.668 o
135.88 136.054 o
143.553 136.463 o
151.225 139.558 o
158.898 138.29 o
grestore
gsave
122.8 130.5 36.14 24.45 clipbox
/o {
gsave
newpath
translate
1.0 setlinewidth
1 setlinejoin
0 setlinecap
0 -1.936492 m
0.513564 -1.936492 1.006162 -1.732451 1.369306 -1.369306 c
1.732451 -1.006162 1.936492 -0.513564 1.936492 0 c
1.936492 0.513564 1.732451 1.006162 1.369306 1.369306 c
1.006162 1.732451 0.513564 1.936492 0 1.936492 c
-0.513564 1.936492 -1.006162 1.732451 -1.369306 1.369306 c
-1.732451 1.006162 -1.936492 0.513564 -1.936492 0 c
-1.936492 -0.513564 -1.732451 -1.006162 -1.369306 -1.369306 c
-1.006162 -1.732451 -0.513564 -1.936492 0 -1.936492 c
cl

gsave
1.000 setgray
fill
grestore
stroke
grestore
} bind def
59.155 62.0596 o
51.4825 60.9703 o
43.81 62.5898 o
36.1375 60.6179 o
28.465 62.123 o
20.7925 85.3798 o
13.12 98.3256 o
5.4475 110.101 o
-1 115.508 o
grestore
0.750 setlinewidth
[0.75 1.237] 0 setdash
gsave
122.8 130.5 36.14 24.45 clipbox
-1 124.361944 m
1.013643 121.441734 l
3.32696 117.717396 l
5.640276 113.655646 l
10.26691 104.742838 l
19.520176 86.193311 l
21.833492 81.997497 l
24.146809 78.163921 l
26.460126 74.756819 l
28.773442 71.816891 l
31.086759 69.36057 l
33.400075 67.382323 l
35.713392 65.859754 l
38.026709 64.760761 l
40.340025 64.051639 l
42.653342 63.704801 l
44.966658 63.704801 l
47.279975 64.051639 l
49.593291 64.760761 l
51.906608 65.859754 l
54.219925 67.382323 l
56.533241 69.36057 l
58.846558 71.816891 l
61.159874 74.756819 l
63.473191 78.163921 l
65.786508 81.997497 l
68.099824 86.193311 l
72.726457 95.320473 l
79.666407 109.307571 l
81.979724 113.655646 l
84.29304 117.717396 l
86.606357 121.441734 l
88.919673 124.796534 l
91.23299 127.767541 l
93.546307 130.356203 l
95.859623 132.576818 l
98.17294 134.453393 l
100.486256 136.016537 l
102.799573 137.300625 l
105.112889 138.341396 l
107.426206 139.174036 l
109.739523 139.831788 l
112.052839 140.345012 l
116.679472 141.042097 l
121.306106 141.438093 l
128.246055 141.718271 l
139.812638 141.846633 l
173.0975 141.867581 l
173.0975 141.867581 l
stroke
grestore
[2.775 1.2] 0 setdash
gsave
122.8 130.5 36.14 24.45 clipbox
-1 116.345388 m
3.32696 110.49753 l
7.953593 103.660884 l
21.833492 82.274527 l
24.146809 79.037512 l
26.460126 76.019557 l
28.773442 73.265917 l
31.086759 70.818866 l
33.400075 68.716676 l
35.713392 66.992716 l
38.026709 65.674661 l
40.340025 64.783846 l
42.653342 64.334771 l
44.966658 64.334771 l
47.279975 64.783846 l
49.593291 65.674661 l
51.906608 66.992716 l
54.219925 68.716676 l
56.533241 70.818866 l
58.846558 73.265917 l
61.159874 76.019557 l
63.473191 79.037512 l
68.099824 85.683435 l
75.039774 96.464596 l
81.979724 107.140761 l
86.606357 113.704082 l
88.919673 116.738471 l
91.23299 119.583948 l
93.546307 122.228832 l
95.859623 124.666249 l
98.17294 126.893737 l
100.486256 128.912784 l
102.799573 130.728284 l
105.112889 132.347977 l
107.426206 133.781867 l
109.739523 135.041669 l
112.052839 136.140275 l
114.366156 137.091278 l
116.679472 137.908545 l
121.306106 139.196612 l
125.932739 140.108777 l
130.559372 140.737111 l
135.186005 141.15831 l
142.125955 141.53068 l
151.379221 141.752821 l
167.572437 141.853769 l
173.0975 141.861241 l
173.0975 141.861241 l
stroke
grestore
1 setlinecap
[] 0 setdash
gsave
122.8 130.5 36.14 24.45 clipbox
-1 117.437713 m
3.32696 111.133126 l
7.953593 103.770469 l
21.833492 80.947903 l
24.146809 77.534282 l
26.460126 74.363467 l
28.773442 71.480787 l
31.086759 68.927762 l
33.400075 66.741298 l
35.713392 64.953021 l
38.026709 63.58877 l
40.340025 62.668218 l
42.653342 62.204611 l
44.966658 62.204611 l
47.279975 62.668218 l
49.593291 63.58877 l
51.906608 64.953021 l
54.219925 66.741298 l
56.533241 68.927762 l
58.846558 71.480787 l
61.159874 74.363467 l
63.473191 77.534282 l
68.099824 84.556147 l
72.726457 92.155987 l
81.979724 107.515969 l
86.606357 114.590279 l
88.919673 117.861472 l
91.23299 120.926646 l
93.546307 123.771611 l
95.859623 126.387813 l
98.17294 128.771948 l
100.486256 130.925421 l
102.799573 132.853728 l
105.112889 134.565769 l
107.426206 136.073145 l
109.739523 137.389468 l
112.052839 138.529709 l
114.366156 139.509603 l
116.679472 140.345133 l
121.306106 141.64572 l
125.932739 142.549711 l
130.559372 143.159739 l
135.186005 143.559633 l
142.125955 143.903003 l
151.379221 144.098948 l
169.885754 144.184848 l
173.0975 144.187526 l
173.0975 144.187526 l
stroke
grestore
1.250 setlinewidth
0 setlinejoin
2 setlinecap
[] 0 setdash
0.150 setgray
gsave
36.1375 24.45 m
36.1375 154.914 l
stroke
grestore
gsave
158.8975 24.45 m
158.8975 154.914 l
stroke
grestore
gsave
36.1375 24.45 m
158.8975 24.45 l
stroke
grestore
gsave
36.1375 154.914 m
158.8975 154.914 l
stroke
grestore

end
showpage
