%!PS-Adobe-3.0 EPSF-3.0
%%Title: ../Figures/DataComp/DragData-3_0.eps
%%Creator: matplotlib version 2.1.2, http://matplotlib.org/
%%CreationDate: Tue Jun 12 12:22:20 2018
%%Orientation: portrait
%%BoundingBox: 219 311 392 480
%%EndComments
%%BeginProlog
/mpldict 8 dict def
mpldict begin
/m { moveto } bind def
/l { lineto } bind def
/r { rlineto } bind def
/c { curveto } bind def
/cl { closepath } bind def
/box {
m
1 index 0 r
0 exch r
neg 0 r
cl
} bind def
/clipbox {
box
clip
newpath
} bind def
%!PS-Adobe-3.0 Resource-Font
%%Title: DejaVu Sans
%%Copyright: Copyright (c) 2003 by Bitstream, Inc. All Rights Reserved. Copyright (c) 2006 by Tavmjong Bah. All Rights Reserved. DejaVu changes are in public domain 
%%Creator: Converted from TrueType to type 3 by PPR
25 dict begin
/_d{bind def}bind def
/_m{moveto}_d
/_l{lineto}_d
/_cl{closepath eofill}_d
/_c{curveto}_d
/_sc{7 -1 roll{setcachedevice}{pop pop pop pop pop pop}ifelse}_d
/_e{exec}_d
/FontName /DejaVuSans def
/PaintType 0 def
/FontMatrix[.001 0 0 .001 0 0]def
/FontBBox[-1021 -463 1793 1232]def
/FontType 3 def
/Encoding [ /period /zero /one /two /three /five /minus ] def
/FontInfo 10 dict dup begin
/FamilyName (DejaVu Sans) def
/FullName (DejaVu Sans) def
/Notice (Copyright (c) 2003 by Bitstream, Inc. All Rights Reserved. Copyright (c) 2006 by Tavmjong Bah. All Rights Reserved. DejaVu changes are in public domain ) def
/Weight (Book) def
/Version (Version 2.35) def
/ItalicAngle 0.0 def
/isFixedPitch false def
/UnderlinePosition -130 def
/UnderlineThickness 90 def
end readonly def
/CharStrings 8 dict dup begin
/.notdef 0 def
/period{318 0 107 0 210 124 _sc
107 124 _m
210 124 _l
210 0 _l
107 0 _l
107 124 _l
_cl}_d
/zero{636 0 66 -13 570 742 _sc
318 664 _m
267 664 229 639 203 589 _c
177 539 165 464 165 364 _c
165 264 177 189 203 139 _c
229 89 267 64 318 64 _c
369 64 407 89 433 139 _c
458 189 471 264 471 364 _c
471 464 458 539 433 589 _c
407 639 369 664 318 664 _c
318 742 _m
399 742 461 709 505 645 _c
548 580 570 486 570 364 _c
570 241 548 147 505 83 _c
461 19 399 -13 318 -13 _c
236 -13 173 19 130 83 _c
87 147 66 241 66 364 _c
66 486 87 580 130 645 _c
173 709 236 742 318 742 _c
_cl}_d
/one{636 0 110 0 544 729 _sc
124 83 _m
285 83 _l
285 639 _l
110 604 _l
110 694 _l
284 729 _l
383 729 _l
383 83 _l
544 83 _l
544 0 _l
124 0 _l
124 83 _l
_cl}_d
/two{{636 0 73 0 536 742 _sc
192 83 _m
536 83 _l
536 0 _l
73 0 _l
73 83 _l
110 121 161 173 226 239 _c
290 304 331 346 348 365 _c
380 400 402 430 414 455 _c
426 479 433 504 433 528 _c
433 566 419 598 392 622 _c
365 646 330 659 286 659 _c
255 659 222 653 188 643 _c
154 632 117 616 78 594 _c
78 694 _l
118 710 155 722 189 730 _c
223 738 255 742 284 742 _c
}_e{359 742 419 723 464 685 _c
509 647 532 597 532 534 _c
532 504 526 475 515 449 _c
504 422 484 390 454 354 _c
446 344 420 317 376 272 _c
332 227 271 164 192 83 _c
_cl}_e}_d
/three{{636 0 76 -13 556 742 _sc
406 393 _m
453 383 490 362 516 330 _c
542 298 556 258 556 212 _c
556 140 531 84 482 45 _c
432 6 362 -13 271 -13 _c
240 -13 208 -10 176 -4 _c
144 1 110 10 76 22 _c
76 117 _l
103 101 133 89 166 81 _c
198 73 232 69 268 69 _c
330 69 377 81 409 105 _c
441 129 458 165 458 212 _c
458 254 443 288 413 312 _c
383 336 341 349 287 349 _c
}_e{202 349 _l
202 430 _l
291 430 _l
339 430 376 439 402 459 _c
428 478 441 506 441 543 _c
441 580 427 609 401 629 _c
374 649 336 659 287 659 _c
260 659 231 656 200 650 _c
169 644 135 635 98 623 _c
98 711 _l
135 721 170 729 203 734 _c
235 739 266 742 296 742 _c
370 742 429 725 473 691 _c
517 657 539 611 539 553 _c
539 513 527 479 504 451 _c
481 423 448 403 406 393 _c
_cl}_e}_d
/five{{636 0 77 -13 549 729 _sc
108 729 _m
495 729 _l
495 646 _l
198 646 _l
198 467 _l
212 472 227 476 241 478 _c
255 480 270 482 284 482 _c
365 482 429 459 477 415 _c
525 370 549 310 549 234 _c
549 155 524 94 475 51 _c
426 8 357 -13 269 -13 _c
238 -13 207 -10 175 -6 _c
143 -1 111 6 77 17 _c
77 116 _l
106 100 136 88 168 80 _c
199 72 232 69 267 69 _c
}_e{323 69 368 83 401 113 _c
433 143 450 183 450 234 _c
450 284 433 324 401 354 _c
368 384 323 399 267 399 _c
241 399 214 396 188 390 _c
162 384 135 375 108 363 _c
108 729 _l
_cl}_e}_d
/minus{838 0 106 272 732 355 _sc
106 355 _m
732 355 _l
732 272 _l
106 272 _l
106 355 _l
_cl}_d
end readonly def

/BuildGlyph
 {exch begin
 CharStrings exch
 2 copy known not{pop /.notdef}if
 true 3 1 roll get exec
 end}_d

/BuildChar {
 1 index /Encoding get exch get
 1 index /BuildGlyph get exec
}_d

FontName currentdict end definefont pop
end
%%EndProlog
mpldict begin
219.951 311.943 translate
172.097 168.114 0 0 clipbox
gsave
0 0 m
172.0975 0 l
172.0975 168.114 l
0 168.114 l
cl
grestore
gsave
36.1375 24.45 m
158.8975 24.45 l
158.8975 154.914 l
36.1375 154.914 l
cl
grestore
0.800 setlinewidth
1 setlinejoin
0 setlinecap
[] 0 setdash
0.150 setgray
gsave
/o {
gsave
newpath
translate
0.8 setlinewidth
1 setlinejoin
0 setlinecap
0 0 m
0 -6 l

gsave
0.150 setgray
fill
grestore
stroke
grestore
} bind def
43.81 24.45 o
grestore
/DejaVuSans findfont
8.000 scalefont
setfont
gsave
41.263125 8.871875 translate
0.000000 rotate
0.000000 0.000000 m /zero glyphshow
grestore
gsave
/o {
gsave
newpath
translate
0.8 setlinewidth
1 setlinejoin
0 setlinecap
0 0 m
0 -6 l

gsave
0.150 setgray
fill
grestore
stroke
grestore
} bind def
82.1725 24.45 o
grestore
gsave
79.625625 8.871875 translate
0.000000 rotate
0.000000 0.000000 m /one glyphshow
grestore
gsave
/o {
gsave
newpath
translate
0.8 setlinewidth
1 setlinejoin
0 setlinecap
0 0 m
0 -6 l

gsave
0.150 setgray
fill
grestore
stroke
grestore
} bind def
120.535 24.45 o
grestore
gsave
117.988125 8.871875 translate
0.000000 rotate
0.000000 0.000000 m /two glyphshow
grestore
gsave
/o {
gsave
newpath
translate
0.8 setlinewidth
1 setlinejoin
0 setlinecap
0 0 m
0 -6 l

gsave
0.150 setgray
fill
grestore
stroke
grestore
} bind def
158.898 24.45 o
grestore
gsave
156.350625 8.871875 translate
0.000000 rotate
0.000000 0.000000 m /three glyphshow
grestore
gsave
/o {
gsave
newpath
translate
0.8 setlinewidth
1 setlinejoin
0 setlinecap
0 0 m
-6 0 l

gsave
0.150 setgray
fill
grestore
stroke
grestore
} bind def
36.1375 24.45 o
grestore
gsave
7.200000 21.410938 translate
0.000000 rotate
0.000000 0.000000 m /minus glyphshow
6.703125 0.000000 m /zero glyphshow
11.792969 0.000000 m /period glyphshow
14.335938 0.000000 m /five glyphshow
grestore
gsave
/o {
gsave
newpath
translate
0.8 setlinewidth
1 setlinejoin
0 setlinecap
0 0 m
-6 0 l

gsave
0.150 setgray
fill
grestore
stroke
grestore
} bind def
36.1375 57.066 o
grestore
gsave
13.903125 54.026938 translate
0.000000 rotate
0.000000 0.000000 m /zero glyphshow
5.089844 0.000000 m /period glyphshow
7.632812 0.000000 m /zero glyphshow
grestore
gsave
/o {
gsave
newpath
translate
0.8 setlinewidth
1 setlinejoin
0 setlinecap
0 0 m
-6 0 l

gsave
0.150 setgray
fill
grestore
stroke
grestore
} bind def
36.1375 89.682 o
grestore
gsave
13.903125 86.642938 translate
0.000000 rotate
0.000000 0.000000 m /zero glyphshow
5.089844 0.000000 m /period glyphshow
7.632812 0.000000 m /five glyphshow
grestore
gsave
/o {
gsave
newpath
translate
0.8 setlinewidth
1 setlinejoin
0 setlinecap
0 0 m
-6 0 l

gsave
0.150 setgray
fill
grestore
stroke
grestore
} bind def
36.1375 122.298 o
grestore
gsave
13.903125 119.258938 translate
0.000000 rotate
0.000000 0.000000 m /one glyphshow
5.089844 0.000000 m /period glyphshow
7.632812 0.000000 m /zero glyphshow
grestore
gsave
/o {
gsave
newpath
translate
0.8 setlinewidth
1 setlinejoin
0 setlinecap
0 0 m
-6 0 l

gsave
0.150 setgray
fill
grestore
stroke
grestore
} bind def
36.1375 154.914 o
grestore
gsave
13.903125 151.874937 translate
0.000000 rotate
0.000000 0.000000 m /one glyphshow
5.089844 0.000000 m /period glyphshow
7.632812 0.000000 m /five glyphshow
grestore
0.400 setlinewidth
1 setlinecap
0.650 setgray
gsave
122.8 130.5 36.14 24.45 clipbox
-1 57.066 m
158.8975 57.066 l
stroke
grestore
gsave
122.8 130.5 36.14 24.45 clipbox
43.81 21.1884 m
43.81 158.1756 l
stroke
grestore
1.000 setlinewidth
0 setlinecap
0.000 setgray
gsave
122.8 130.5 36.14 24.45 clipbox
/o {
gsave
newpath
translate
1.0 setlinewidth
1 setlinejoin
0 setlinecap
-0 -2.738613 m
2.738613 0 l
0 2.738613 l
-2.738613 0 l
cl

gsave
1.000 setgray
fill
grestore
stroke
grestore
} bind def
-1 105.733 o
0.792211 103.993 o
5.03587 98.7487 o
9.62924 94.2936 o
12.931 91.4552 o
17.7767 82.3052 o
21.2137 70.55 o
25.5528 58.9928 o
29.0643 54.2608 o
33.0465 54.3031 o
37.211 54.2666 o
43.7386 53.6006 o
48.0739 54.235 o
52.9685 53.8045 o
56.3891 55.0695 o
60.1842 67.4611 o
63.2754 78.5108 o
66.969 85.6548 o
70.6823 91.4968 o
74.7966 94.7745 o
77.8049 99.3535 o
81.8778 105.354 o
85.2519 109.696 o
89.9075 113.093 o
97.2724 116.886 o
103.387 119.573 o
110.412 121.945 o
126.129 124.126 o
141.296 126.821 o
156.475 128.725 o
173.097 129.471 o
grestore
gsave
122.8 130.5 36.14 24.45 clipbox
/o {
gsave
newpath
translate
1.0 setlinewidth
1 setlinejoin
0 setlinecap
-0 -2.738613 m
2.738613 0 l
0 2.738613 l
-2.738613 0 l
cl

gsave
1.000 setgray
fill
grestore
stroke
grestore
} bind def
173.097 130.591 o
160.351 129.271 o
142.408 127.942 o
127.341 125.23 o
112.627 122.006 o
103.89 118.855 o
98.948 115.308 o
94.0062 111.761 o
90.6863 107.739 o
86.8278 103.993 o
82.5841 98.7487 o
77.9908 94.2936 o
74.689 91.4552 o
69.8433 82.3052 o
66.4063 70.55 o
62.0672 58.9928 o
58.5557 54.2608 o
54.5735 54.3031 o
50.409 54.2666 o
43.8814 53.6006 o
39.5461 54.235 o
34.6515 53.8045 o
31.2309 55.0695 o
27.4358 67.4611 o
24.3446 78.5108 o
20.651 85.6548 o
16.9377 91.4968 o
12.8234 94.7745 o
9.81515 99.3535 o
5.74216 105.354 o
2.36814 109.696 o
-1 112.153 o
grestore
gsave
122.8 130.5 36.14 24.45 clipbox
/o {
gsave
newpath
translate
1.0 setlinewidth
1 setlinejoin
0 setlinecap
0 1.936492 m
-1.936492 -1.936492 l
1.936492 -1.936492 l
cl

gsave
1.000 setgray
fill
grestore
stroke
grestore
} bind def
44.4246 83.308 o
39.7258 85.5391 o
35.1069 88.9284 o
30.2683 91.9658 o
24.8384 93.2925 o
19.9028 103.735 o
15.1569 109.895 o
11.1971 114.29 o
6.71093 115.765 o
-1 120.494 o
grestore
gsave
122.8 130.5 36.14 24.45 clipbox
/o {
gsave
newpath
translate
1.0 setlinewidth
1 setlinejoin
0 setlinecap
0 1.936492 m
-1.936492 -1.936492 l
1.936492 -1.936492 l
cl

gsave
1.000 setgray
fill
grestore
stroke
grestore
} bind def
43.1954 83.308 o
47.8942 85.5391 o
52.5131 88.9284 o
57.3517 91.9658 o
62.7816 93.2925 o
67.7172 103.735 o
72.4631 109.895 o
76.4229 114.29 o
80.9091 115.765 o
90.1538 121.435 o
101.038 131.443 o
110.506 136.308 o
119.631 138.05 o
129.784 137.879 o
139.038 142.241 o
149.04 142.876 o
157.831 140.335 o
173.097 141.031 o
grestore
gsave
122.8 130.5 36.14 24.45 clipbox
/o {
gsave
newpath
translate
1.0 setlinewidth
1 setlinejoin
0 setlinecap
-0 -1.936492 m
1.936492 1.936492 l
-1.936492 1.936492 l
cl

gsave
1.000 setgray
fill
grestore
stroke
grestore
} bind def
82.7851 117.088 o
63.4315 95.8415 o
58.751 89.7108 o
53.8749 86.9556 o
49.2061 82.6382 o
44.342 81.7467 o
39.5661 83.2728 o
34.4439 87.3186 o
30.1792 89.3971 o
24.7045 95.0055 o
19.9619 101.669 o
15.1444 107.981 o
10.6752 112.075 o
6.86442 117.074 o
-1 121.828 o
grestore
gsave
122.8 130.5 36.14 24.45 clipbox
/o {
gsave
newpath
translate
1.0 setlinewidth
1 setlinejoin
0 setlinecap
-0 -1.936492 m
1.936492 1.936492 l
-1.936492 1.936492 l
cl

gsave
1.000 setgray
fill
grestore
stroke
grestore
} bind def
4.83485 117.088 o
24.1885 95.8415 o
28.869 89.7108 o
33.7451 86.9556 o
38.4139 82.6382 o
43.278 81.7467 o
48.0539 83.2728 o
53.1761 87.3186 o
57.4408 89.3971 o
62.9155 95.0055 o
67.6581 101.669 o
72.4756 107.981 o
76.9448 112.075 o
80.7556 117.074 o
90.7231 123.099 o
101.411 129.883 o
110.882 134.294 o
120.153 135.835 o
129.988 140.046 o
139.125 139.974 o
149.345 140.611 o
157.816 142.551 o
173.097 143.247 o
grestore
gsave
122.8 130.5 36.14 24.45 clipbox
/o {
gsave
newpath
translate
1.0 setlinewidth
1 setlinejoin
0 setlinecap
0 -1.936492 m
0.513564 -1.936492 1.006162 -1.732451 1.369306 -1.369306 c
1.732451 -1.006162 1.936492 -0.513564 1.936492 0 c
1.936492 0.513564 1.732451 1.006162 1.369306 1.369306 c
1.006162 1.732451 0.513564 1.936492 0 1.936492 c
-0.513564 1.936492 -1.006162 1.732451 -1.369306 1.369306 c
-1.732451 1.006162 -1.936492 0.513564 -1.936492 0 c
-1.936492 -0.513564 -1.732451 -1.006162 -1.369306 -1.369306 c
-1.006162 -1.732451 -0.513564 -1.936492 0 -1.936492 c
cl

gsave
1.000 setgray
fill
grestore
stroke
grestore
} bind def
28.465 91.3567 o
36.1375 86.2273 o
43.81 88.4752 o
51.4825 91.9967 o
59.155 99.296 o
66.8275 103.203 o
74.5 109.46 o
82.1725 117.097 o
89.845 124.136 o
97.5175 129.681 o
105.19 134.115 o
112.862 135.781 o
120.535 137.717 o
128.208 138.185 o
135.88 137.454 o
143.553 139.945 o
151.225 140.484 o
158.898 139.163 o
grestore
gsave
122.8 130.5 36.14 24.45 clipbox
/o {
gsave
newpath
translate
1.0 setlinewidth
1 setlinejoin
0 setlinecap
0 -1.936492 m
0.513564 -1.936492 1.006162 -1.732451 1.369306 -1.369306 c
1.732451 -1.006162 1.936492 -0.513564 1.936492 0 c
1.936492 0.513564 1.732451 1.006162 1.369306 1.369306 c
1.006162 1.732451 0.513564 1.936492 0 1.936492 c
-0.513564 1.936492 -1.006162 1.732451 -1.369306 1.369306 c
-1.732451 1.006162 -1.936492 0.513564 -1.936492 0 c
-1.936492 -0.513564 -1.732451 -1.006162 -1.369306 -1.369306 c
-1.006162 -1.732451 -0.513564 -1.936492 0 -1.936492 c
cl

gsave
1.000 setgray
fill
grestore
stroke
grestore
} bind def
59.155 91.3567 o
51.4825 86.2273 o
43.81 88.4752 o
36.1375 91.9967 o
28.465 99.296 o
20.7925 103.203 o
13.12 109.46 o
5.4475 117.097 o
-1 123.012 o
grestore
0.750 setlinewidth
[0.75 1.237] 0 setdash
gsave
122.8 130.5 36.14 24.45 clipbox
-1 120.301165 m
1.013643 117.3883 l
3.32696 113.791308 l
7.953593 106.017206 l
17.206859 89.880125 l
19.520176 86.137576 l
21.833492 82.646192 l
24.146809 79.458235 l
26.460126 76.612991 l
28.773442 74.13573 l
31.086759 72.038088 l
33.400075 70.319874 l
35.713392 68.972056 l
38.026709 67.980537 l
40.340025 67.33018 l
42.653342 67.008503 l
44.966658 67.008503 l
47.279975 67.33018 l
49.593291 67.980537 l
51.906608 68.972056 l
54.219925 70.319874 l
56.533241 72.038088 l
58.846558 74.13573 l
61.159874 76.612991 l
63.473191 79.458235 l
65.786508 82.646192 l
68.099824 86.137576 l
72.726457 93.810939 l
81.979724 109.983787 l
86.606357 117.3883 l
88.919673 120.734661 l
91.23299 123.802241 l
93.546307 126.574597 l
95.859623 129.046097 l
98.17294 131.220529 l
100.486256 133.109417 l
102.799573 134.730216 l
105.112889 136.10454 l
107.426206 137.256524 l
109.739523 138.2114 l
112.052839 138.99433 l
114.366156 139.629505 l
118.992789 140.544855 l
123.619422 141.11244 l
128.246055 141.450993 l
135.186005 141.707423 l
146.752588 141.840092 l
173.0975 141.867367 l
173.0975 141.867367 l
stroke
grestore
[2.775 1.2] 0 setdash
gsave
122.8 130.5 36.14 24.45 clipbox
-1 115.837551 m
3.32696 110.724475 l
10.26691 101.973183 l
17.206859 93.225855 l
21.833492 87.828263 l
24.146809 85.35787 l
26.460126 83.080506 l
28.773442 81.023974 l
31.086759 79.213289 l
33.400075 77.670323 l
35.713392 76.413545 l
38.026709 75.457854 l
40.340025 74.814474 l
42.653342 74.490908 l
44.966658 74.490908 l
47.279975 74.814474 l
49.593291 75.457854 l
51.906608 76.413545 l
54.219925 77.670323 l
56.533241 79.213289 l
58.846558 81.023974 l
61.159874 83.080506 l
63.473191 85.35787 l
65.786508 87.828263 l
70.413141 93.225855 l
77.35309 101.973183 l
84.29304 110.724475 l
88.919673 116.184313 l
93.546307 121.149443 l
95.859623 123.412039 l
98.17294 125.51688 l
100.486256 127.459907 l
102.799573 129.240149 l
105.112889 130.859375 l
107.426206 132.321708 l
109.739523 133.633223 l
112.052839 134.801539 l
114.366156 135.835431 l
118.992789 137.538681 l
123.619422 138.823407 l
128.246055 139.769331 l
132.872688 140.449718 l
137.499322 140.928122 l
144.439271 141.379069 l
153.692538 141.676687 l
167.572437 141.827229 l
173.0975 141.846688 l
173.0975 141.846688 l
stroke
grestore
1 setlinecap
[] 0 setdash
gsave
122.8 130.5 36.14 24.45 clipbox
-1 124.408577 m
3.32696 119.618081 l
7.953593 114.078056 l
17.206859 102.759843 l
21.833492 97.575833 l
24.146809 95.226429 l
26.460126 93.078095 l
28.773442 91.15508 l
31.086759 89.477172 l
33.400075 88.059843 l
35.713392 86.914629 l
38.026709 86.049689 l
40.340025 85.470421 l
42.653342 85.180044 l
44.966658 85.180044 l
47.279975 85.470421 l
49.593291 86.049689 l
51.906608 86.914629 l
54.219925 88.059843 l
56.533241 89.477172 l
58.846558 91.15508 l
61.159874 93.078095 l
63.473191 95.226429 l
65.786508 97.575833 l
70.413141 102.759843 l
77.35309 111.223834 l
84.29304 119.618081 l
88.919673 124.731153 l
91.23299 127.068482 l
93.546307 129.238319 l
95.859623 131.231141 l
98.17294 133.042344 l
100.486256 134.671794 l
102.799573 136.123245 l
105.112889 137.403684 l
107.426206 138.522638 l
109.739523 139.491493 l
112.052839 140.322852 l
116.679472 141.626213 l
121.306106 142.538108 l
125.932739 143.155402 l
130.559372 143.560109 l
137.499322 143.906407 l
146.752588 144.101976 l
165.259121 144.185501 l
173.0975 144.190063 l
173.0975 144.190063 l
stroke
grestore
gsave
122.8 130.5 36.14 24.45 clipbox
-1 111.356366 m
3.32696 106.028625 l
7.953593 99.901658 l
19.520176 84.234445 l
24.146809 78.58841 l
26.460126 76.048644 l
28.773442 73.744126 l
31.086759 71.706293 l
33.400075 69.963146 l
35.713392 68.538746 l
38.026709 67.452806 l
40.340025 66.720373 l
42.653342 66.351599 l
44.966658 66.351599 l
47.279975 66.720373 l
49.593291 67.452806 l
51.906608 68.538746 l
54.219925 69.963146 l
56.533241 71.706293 l
58.846558 73.744126 l
61.159874 76.048644 l
63.473191 78.58841 l
68.099824 84.234445 l
72.726457 90.386783 l
81.979724 103.007548 l
86.606357 108.938848 l
91.23299 114.34262 l
93.546307 116.804616 l
95.859623 119.092641 l
98.17294 121.201173 l
100.486256 123.128365 l
102.799573 124.875668 l
105.112889 126.447396 l
107.426206 127.850257 l
109.739523 129.09288 l
112.052839 130.18534 l
114.366156 131.138715 l
118.992789 132.675148 l
123.619422 133.796617 l
128.246055 134.592768 l
132.872688 135.142809 l
139.812638 135.647209 l
146.752588 135.910048 l
158.319171 136.084426 l
173.0975 136.135148 l
173.0975 136.135148 l
stroke
grestore
1.250 setlinewidth
0 setlinejoin
2 setlinecap
[] 0 setdash
0.150 setgray
gsave
36.1375 24.45 m
36.1375 154.914 l
stroke
grestore
gsave
158.8975 24.45 m
158.8975 154.914 l
stroke
grestore
gsave
36.1375 24.45 m
158.8975 24.45 l
stroke
grestore
gsave
36.1375 154.914 m
158.8975 154.914 l
stroke
grestore

end
showpage
