%!PS-Adobe-3.0 EPSF-3.0
%%Title: ../Figures/DataComp/DragData-1_5.eps
%%Creator: matplotlib version 2.1.2, http://matplotlib.org/
%%CreationDate: Tue Jun 12 12:22:20 2018
%%Orientation: portrait
%%BoundingBox: 219 311 392 480
%%EndComments
%%BeginProlog
/mpldict 8 dict def
mpldict begin
/m { moveto } bind def
/l { lineto } bind def
/r { rlineto } bind def
/c { curveto } bind def
/cl { closepath } bind def
/box {
m
1 index 0 r
0 exch r
neg 0 r
cl
} bind def
/clipbox {
box
clip
newpath
} bind def
%!PS-Adobe-3.0 Resource-Font
%%Title: DejaVu Sans
%%Copyright: Copyright (c) 2003 by Bitstream, Inc. All Rights Reserved. Copyright (c) 2006 by Tavmjong Bah. All Rights Reserved. DejaVu changes are in public domain 
%%Creator: Converted from TrueType to type 3 by PPR
25 dict begin
/_d{bind def}bind def
/_m{moveto}_d
/_l{lineto}_d
/_cl{closepath eofill}_d
/_c{curveto}_d
/_sc{7 -1 roll{setcachedevice}{pop pop pop pop pop pop}ifelse}_d
/_e{exec}_d
/FontName /DejaVuSans def
/PaintType 0 def
/FontMatrix[.001 0 0 .001 0 0]def
/FontBBox[-1021 -463 1793 1232]def
/FontType 3 def
/Encoding [ /period /zero /one /two /three /five /minus ] def
/FontInfo 10 dict dup begin
/FamilyName (DejaVu Sans) def
/FullName (DejaVu Sans) def
/Notice (Copyright (c) 2003 by Bitstream, Inc. All Rights Reserved. Copyright (c) 2006 by Tavmjong Bah. All Rights Reserved. DejaVu changes are in public domain ) def
/Weight (Book) def
/Version (Version 2.35) def
/ItalicAngle 0.0 def
/isFixedPitch false def
/UnderlinePosition -130 def
/UnderlineThickness 90 def
end readonly def
/CharStrings 8 dict dup begin
/.notdef 0 def
/period{318 0 107 0 210 124 _sc
107 124 _m
210 124 _l
210 0 _l
107 0 _l
107 124 _l
_cl}_d
/zero{636 0 66 -13 570 742 _sc
318 664 _m
267 664 229 639 203 589 _c
177 539 165 464 165 364 _c
165 264 177 189 203 139 _c
229 89 267 64 318 64 _c
369 64 407 89 433 139 _c
458 189 471 264 471 364 _c
471 464 458 539 433 589 _c
407 639 369 664 318 664 _c
318 742 _m
399 742 461 709 505 645 _c
548 580 570 486 570 364 _c
570 241 548 147 505 83 _c
461 19 399 -13 318 -13 _c
236 -13 173 19 130 83 _c
87 147 66 241 66 364 _c
66 486 87 580 130 645 _c
173 709 236 742 318 742 _c
_cl}_d
/one{636 0 110 0 544 729 _sc
124 83 _m
285 83 _l
285 639 _l
110 604 _l
110 694 _l
284 729 _l
383 729 _l
383 83 _l
544 83 _l
544 0 _l
124 0 _l
124 83 _l
_cl}_d
/two{{636 0 73 0 536 742 _sc
192 83 _m
536 83 _l
536 0 _l
73 0 _l
73 83 _l
110 121 161 173 226 239 _c
290 304 331 346 348 365 _c
380 400 402 430 414 455 _c
426 479 433 504 433 528 _c
433 566 419 598 392 622 _c
365 646 330 659 286 659 _c
255 659 222 653 188 643 _c
154 632 117 616 78 594 _c
78 694 _l
118 710 155 722 189 730 _c
223 738 255 742 284 742 _c
}_e{359 742 419 723 464 685 _c
509 647 532 597 532 534 _c
532 504 526 475 515 449 _c
504 422 484 390 454 354 _c
446 344 420 317 376 272 _c
332 227 271 164 192 83 _c
_cl}_e}_d
/three{{636 0 76 -13 556 742 _sc
406 393 _m
453 383 490 362 516 330 _c
542 298 556 258 556 212 _c
556 140 531 84 482 45 _c
432 6 362 -13 271 -13 _c
240 -13 208 -10 176 -4 _c
144 1 110 10 76 22 _c
76 117 _l
103 101 133 89 166 81 _c
198 73 232 69 268 69 _c
330 69 377 81 409 105 _c
441 129 458 165 458 212 _c
458 254 443 288 413 312 _c
383 336 341 349 287 349 _c
}_e{202 349 _l
202 430 _l
291 430 _l
339 430 376 439 402 459 _c
428 478 441 506 441 543 _c
441 580 427 609 401 629 _c
374 649 336 659 287 659 _c
260 659 231 656 200 650 _c
169 644 135 635 98 623 _c
98 711 _l
135 721 170 729 203 734 _c
235 739 266 742 296 742 _c
370 742 429 725 473 691 _c
517 657 539 611 539 553 _c
539 513 527 479 504 451 _c
481 423 448 403 406 393 _c
_cl}_e}_d
/five{{636 0 77 -13 549 729 _sc
108 729 _m
495 729 _l
495 646 _l
198 646 _l
198 467 _l
212 472 227 476 241 478 _c
255 480 270 482 284 482 _c
365 482 429 459 477 415 _c
525 370 549 310 549 234 _c
549 155 524 94 475 51 _c
426 8 357 -13 269 -13 _c
238 -13 207 -10 175 -6 _c
143 -1 111 6 77 17 _c
77 116 _l
106 100 136 88 168 80 _c
199 72 232 69 267 69 _c
}_e{323 69 368 83 401 113 _c
433 143 450 183 450 234 _c
450 284 433 324 401 354 _c
368 384 323 399 267 399 _c
241 399 214 396 188 390 _c
162 384 135 375 108 363 _c
108 729 _l
_cl}_e}_d
/minus{838 0 106 272 732 355 _sc
106 355 _m
732 355 _l
732 272 _l
106 272 _l
106 355 _l
_cl}_d
end readonly def

/BuildGlyph
 {exch begin
 CharStrings exch
 2 copy known not{pop /.notdef}if
 true 3 1 roll get exec
 end}_d

/BuildChar {
 1 index /Encoding get exch get
 1 index /BuildGlyph get exec
}_d

FontName currentdict end definefont pop
end
%%EndProlog
mpldict begin
219.951 311.943 translate
172.097 168.114 0 0 clipbox
gsave
0 0 m
172.0975 0 l
172.0975 168.114 l
0 168.114 l
cl
grestore
gsave
36.1375 24.45 m
158.8975 24.45 l
158.8975 154.914 l
36.1375 154.914 l
cl
grestore
0.800 setlinewidth
1 setlinejoin
0 setlinecap
[] 0 setdash
0.150 setgray
gsave
/o {
gsave
newpath
translate
0.8 setlinewidth
1 setlinejoin
0 setlinecap
0 0 m
0 -6 l

gsave
0.150 setgray
fill
grestore
stroke
grestore
} bind def
43.81 24.45 o
grestore
/DejaVuSans findfont
8.000 scalefont
setfont
gsave
41.263125 8.871875 translate
0.000000 rotate
0.000000 0.000000 m /zero glyphshow
grestore
gsave
/o {
gsave
newpath
translate
0.8 setlinewidth
1 setlinejoin
0 setlinecap
0 0 m
0 -6 l

gsave
0.150 setgray
fill
grestore
stroke
grestore
} bind def
82.1725 24.45 o
grestore
gsave
79.625625 8.871875 translate
0.000000 rotate
0.000000 0.000000 m /one glyphshow
grestore
gsave
/o {
gsave
newpath
translate
0.8 setlinewidth
1 setlinejoin
0 setlinecap
0 0 m
0 -6 l

gsave
0.150 setgray
fill
grestore
stroke
grestore
} bind def
120.535 24.45 o
grestore
gsave
117.988125 8.871875 translate
0.000000 rotate
0.000000 0.000000 m /two glyphshow
grestore
gsave
/o {
gsave
newpath
translate
0.8 setlinewidth
1 setlinejoin
0 setlinecap
0 0 m
0 -6 l

gsave
0.150 setgray
fill
grestore
stroke
grestore
} bind def
158.898 24.45 o
grestore
gsave
156.350625 8.871875 translate
0.000000 rotate
0.000000 0.000000 m /three glyphshow
grestore
gsave
/o {
gsave
newpath
translate
0.8 setlinewidth
1 setlinejoin
0 setlinecap
0 0 m
-6 0 l

gsave
0.150 setgray
fill
grestore
stroke
grestore
} bind def
36.1375 24.45 o
grestore
gsave
7.200000 21.410938 translate
0.000000 rotate
0.000000 0.000000 m /minus glyphshow
6.703125 0.000000 m /zero glyphshow
11.792969 0.000000 m /period glyphshow
14.335938 0.000000 m /five glyphshow
grestore
gsave
/o {
gsave
newpath
translate
0.8 setlinewidth
1 setlinejoin
0 setlinecap
0 0 m
-6 0 l

gsave
0.150 setgray
fill
grestore
stroke
grestore
} bind def
36.1375 57.066 o
grestore
gsave
13.903125 54.026938 translate
0.000000 rotate
0.000000 0.000000 m /zero glyphshow
5.089844 0.000000 m /period glyphshow
7.632812 0.000000 m /zero glyphshow
grestore
gsave
/o {
gsave
newpath
translate
0.8 setlinewidth
1 setlinejoin
0 setlinecap
0 0 m
-6 0 l

gsave
0.150 setgray
fill
grestore
stroke
grestore
} bind def
36.1375 89.682 o
grestore
gsave
13.903125 86.642938 translate
0.000000 rotate
0.000000 0.000000 m /zero glyphshow
5.089844 0.000000 m /period glyphshow
7.632812 0.000000 m /five glyphshow
grestore
gsave
/o {
gsave
newpath
translate
0.8 setlinewidth
1 setlinejoin
0 setlinecap
0 0 m
-6 0 l

gsave
0.150 setgray
fill
grestore
stroke
grestore
} bind def
36.1375 122.298 o
grestore
gsave
13.903125 119.258938 translate
0.000000 rotate
0.000000 0.000000 m /one glyphshow
5.089844 0.000000 m /period glyphshow
7.632812 0.000000 m /zero glyphshow
grestore
gsave
/o {
gsave
newpath
translate
0.8 setlinewidth
1 setlinejoin
0 setlinecap
0 0 m
-6 0 l

gsave
0.150 setgray
fill
grestore
stroke
grestore
} bind def
36.1375 154.914 o
grestore
gsave
13.903125 151.874937 translate
0.000000 rotate
0.000000 0.000000 m /one glyphshow
5.089844 0.000000 m /period glyphshow
7.632812 0.000000 m /five glyphshow
grestore
0.400 setlinewidth
1 setlinecap
0.650 setgray
gsave
122.8 130.5 36.14 24.45 clipbox
-1 57.066 m
158.8975 57.066 l
stroke
grestore
gsave
122.8 130.5 36.14 24.45 clipbox
43.81 21.1884 m
43.81 158.1756 l
stroke
grestore
1.000 setlinewidth
0 setlinecap
0.000 setgray
gsave
122.8 130.5 36.14 24.45 clipbox
/o {
gsave
newpath
translate
1.0 setlinewidth
1 setlinejoin
0 setlinecap
-0 -2.738613 m
2.738613 0 l
0 2.738613 l
-2.738613 0 l
cl

gsave
1.000 setgray
fill
grestore
stroke
grestore
} bind def
-1 108.235 o
-0.464161 108.118 o
7.76924 106.463 o
11.8038 105.829 o
16.1715 103.785 o
19.0786 103.045 o
22.6815 95.637 o
31.7034 75.2475 o
36.2556 70.1686 o
39.3824 40.8152 o
43.5532 43.4276 o
48.5562 42.618 o
52.2529 43.9953 o
55.0364 38.3512 o
57.704 68.8005 o
62.3421 73.5299 o
64.8306 85.315 o
69.5717 97.6301 o
73.0525 106.134 o
76.4204 108.358 o
83.3464 109.031 o
88.1831 108.857 o
92.037 110.763 o
94.9315 111.646 o
96.7008 112.141 o
99.0915 115.67 o
105.052 116.166 o
111.005 117.544 o
117.259 121.71 o
126.429 124.006 o
133.83 125.809 o
142.04 127.223 o
149.117 129.202 o
159.893 132.31 o
168.107 133.125 o
173.097 133.242 o
grestore
gsave
122.8 130.5 36.14 24.45 clipbox
/o {
gsave
newpath
translate
1.0 setlinewidth
1 setlinejoin
0 setlinecap
-0 -2.738613 m
2.738613 0 l
0 2.738613 l
-2.738613 0 l
cl

gsave
1.000 setgray
fill
grestore
stroke
grestore
} bind def
173.097 130.642 o
153.209 129.863 o
145.621 128.172 o
136.739 125.988 o
129.154 124.791 o
122.368 122.677 o
113.636 119.082 o
106.845 116.403 o
99.5626 112.595 o
92.1203 108.999 o
88.0842 108.118 o
79.8508 106.463 o
75.8162 105.829 o
71.4485 103.785 o
68.5414 103.045 o
64.9385 95.637 o
55.9166 75.2475 o
51.3644 70.1686 o
48.2376 40.8152 o
44.0668 43.4276 o
39.0638 42.618 o
35.3671 43.9953 o
32.5836 38.3512 o
29.916 68.8005 o
25.2779 73.5299 o
22.7894 85.315 o
18.0483 97.6301 o
14.5675 106.134 o
11.1996 108.358 o
4.27361 109.031 o
-0.563136 108.857 o
-1 109.073 o
grestore
gsave
122.8 130.5 36.14 24.45 clipbox
/o {
gsave
newpath
translate
1.0 setlinewidth
1 setlinejoin
0 setlinecap
0 1.936492 m
-1.936492 -1.936492 l
1.936492 -1.936492 l
cl

gsave
1.000 setgray
fill
grestore
stroke
grestore
} bind def
44.9969 36.6621 o
40.5979 40.3702 o
35.7184 48.2234 o
30.5589 57.6251 o
25.7842 70.4204 o
20.5223 75.2295 o
16.1287 90.8693 o
11.8596 103.363 o
7.48804 111.265 o
3.3882 116.37 o
-1 121.089 o
grestore
gsave
122.8 130.5 36.14 24.45 clipbox
/o {
gsave
newpath
translate
1.0 setlinewidth
1 setlinejoin
0 setlinecap
0 1.936492 m
-1.936492 -1.936492 l
1.936492 -1.936492 l
cl

gsave
1.000 setgray
fill
grestore
stroke
grestore
} bind def
42.6231 36.6621 o
47.0221 40.3702 o
51.9016 48.2234 o
57.0611 57.6251 o
61.8358 70.4204 o
67.0977 75.2295 o
71.4913 90.8693 o
75.7604 103.363 o
80.132 111.265 o
84.2318 116.37 o
90.4243 123.029 o
99.657 130.496 o
108.752 136.915 o
118.47 136.746 o
137.44 140.948 o
156.941 141.657 o
173.097 141.772 o
grestore
gsave
122.8 130.5 36.14 24.45 clipbox
/o {
gsave
newpath
translate
1.0 setlinewidth
1 setlinejoin
0 setlinecap
-0 -1.936492 m
1.936492 1.936492 l
-1.936492 1.936492 l
cl

gsave
1.000 setgray
fill
grestore
stroke
grestore
} bind def
83.4588 107.884 o
64.0491 67.1067 o
59.1142 55.3899 o
54.5464 44.3708 o
48.9905 37.4985 o
44.471 33.8681 o
40.2177 37.6755 o
35.4009 44.0308 o
30.1088 55.33 o
25.8323 66.676 o
20.3168 77.0773 o
15.6806 88.8737 o
11.9887 100.917 o
7.47204 108.819 o
3.07746 113.226 o
-1 118.607 o
grestore
gsave
122.8 130.5 36.14 24.45 clipbox
/o {
gsave
newpath
translate
1.0 setlinewidth
1 setlinejoin
0 setlinecap
-0 -1.936492 m
1.936492 1.936492 l
-1.936492 1.936492 l
cl

gsave
1.000 setgray
fill
grestore
stroke
grestore
} bind def
4.16121 107.884 o
23.5709 67.1067 o
28.5058 55.3899 o
33.0736 44.3708 o
38.6295 37.4985 o
43.149 33.8681 o
47.4023 37.6755 o
52.2191 44.0308 o
57.5112 55.33 o
61.7877 66.676 o
67.3032 77.0773 o
71.9394 88.8737 o
75.6313 100.917 o
80.148 108.819 o
84.5425 113.226 o
90.0782 120.532 o
94.6119 125.788 o
99.8193 127.901 o
104.226 130.361 o
108.983 134.769 o
113.754 137.08 o
118.818 138.943 o
123.458 139.057 o
128.387 139.372 o
137.816 138.952 o
157.315 139.961 o
173.097 141.461 o
grestore
gsave
122.8 130.5 36.14 24.45 clipbox
/o {
gsave
newpath
translate
1.0 setlinewidth
1 setlinejoin
0 setlinecap
0 -1.936492 m
0.513564 -1.936492 1.006162 -1.732451 1.369306 -1.369306 c
1.732451 -1.006162 1.936492 -0.513564 1.936492 0 c
1.936492 0.513564 1.732451 1.006162 1.369306 1.369306 c
1.006162 1.732451 0.513564 1.936492 0 1.936492 c
-0.513564 1.936492 -1.006162 1.732451 -1.369306 1.369306 c
-1.732451 1.006162 -1.936492 0.513564 -1.936492 0 c
-1.936492 -0.513564 -1.732451 -1.006162 -1.369306 -1.369306 c
-1.006162 -1.732451 -0.513564 -1.936492 0 -1.936492 c
cl

gsave
1.000 setgray
fill
grestore
stroke
grestore
} bind def
28.465 72.109 o
36.1375 48.3256 o
43.81 29.9786 o
51.4825 45.7398 o
59.155 69.8575 o
66.8275 97.1601 o
74.5 116.66 o
82.1725 122.102 o
89.845 123.177 o
97.5175 124.584 o
105.19 127.374 o
112.862 129.707 o
120.535 130.786 o
128.208 131.557 o
135.88 134.745 o
143.553 134.961 o
151.225 137.725 o
158.898 136.924 o
grestore
gsave
122.8 130.5 36.14 24.45 clipbox
/o {
gsave
newpath
translate
1.0 setlinewidth
1 setlinejoin
0 setlinecap
0 -1.936492 m
0.513564 -1.936492 1.006162 -1.732451 1.369306 -1.369306 c
1.732451 -1.006162 1.936492 -0.513564 1.936492 0 c
1.936492 0.513564 1.732451 1.006162 1.369306 1.369306 c
1.006162 1.732451 0.513564 1.936492 0 1.936492 c
-0.513564 1.936492 -1.006162 1.732451 -1.369306 1.369306 c
-1.732451 1.006162 -1.936492 0.513564 -1.936492 0 c
-1.936492 -0.513564 -1.732451 -1.006162 -1.369306 -1.369306 c
-1.006162 -1.732451 -0.513564 -1.936492 0 -1.936492 c
cl

gsave
1.000 setgray
fill
grestore
stroke
grestore
} bind def
59.155 72.109 o
51.4825 48.3256 o
43.81 29.9786 o
36.1375 45.7398 o
28.465 69.8575 o
20.7925 97.1601 o
13.12 116.66 o
5.4475 122.102 o
-1 123.005 o
grestore
0.750 setlinewidth
[0.75 1.237] 0 setdash
gsave
122.8 130.5 36.14 24.45 clipbox
-1 135.195008 m
1.013643 133.168129 l
3.32696 130.212247 l
5.640276 126.553111 l
7.953593 122.142734 l
10.26691 116.976223 l
12.580226 111.106113 l
14.893543 104.652655 l
21.833492 83.989365 l
24.146809 77.616941 l
26.460126 71.977058 l
28.773442 67.27337 l
31.086759 63.608237 l
33.400075 60.968925 l
35.713392 59.23673 l
38.026709 58.219265 l
40.340025 57.69996 l
42.653342 57.493504 l
44.966658 57.493504 l
47.279975 57.69996 l
49.593291 58.219265 l
51.906608 59.23673 l
54.219925 60.968925 l
56.533241 63.608237 l
58.846558 67.27337 l
61.159874 71.977058 l
63.473191 77.616941 l
65.786508 83.989365 l
75.039774 111.106113 l
77.35309 116.976223 l
79.666407 122.142734 l
81.979724 126.553111 l
84.29304 130.212247 l
86.606357 133.168129 l
88.919673 135.496652 l
91.23299 137.287854 l
93.546307 138.634897 l
95.859623 139.626218 l
98.17294 140.340714 l
100.486256 140.845409 l
105.112889 141.432523 l
109.739523 141.694608 l
116.679472 141.829386 l
137.499322 141.867434 l
173.0975 141.8676 l
173.0975 141.8676 l
stroke
grestore
[2.775 1.2] 0 setdash
gsave
122.8 130.5 36.14 24.45 clipbox
-1 126.132601 m
1.013643 123.344805 l
3.32696 119.701319 l
5.640276 115.612194 l
7.953593 111.086475 l
10.26691 106.149095 l
12.580226 100.842308 l
17.206859 89.379371 l
24.146809 71.467156 l
26.460126 65.769694 l
28.773442 60.423068 l
31.086759 55.55552 l
33.400075 51.288223 l
35.713392 47.730511 l
38.026709 44.975547 l
40.340025 43.096629 l
42.653342 42.144284 l
44.966658 42.144284 l
47.279975 43.096629 l
49.593291 44.975547 l
51.906608 47.730511 l
54.219925 51.288223 l
56.533241 55.55552 l
58.846558 60.423068 l
61.159874 65.769694 l
65.786508 77.385098 l
72.726457 95.226381 l
75.039774 100.842308 l
77.35309 106.149095 l
79.666407 111.086475 l
81.979724 115.612194 l
84.29304 119.701319 l
86.606357 123.344805 l
88.919673 126.547485 l
91.23299 129.325693 l
93.546307 131.704718 l
95.859623 133.716268 l
98.17294 135.396083 l
100.486256 136.781829 l
102.799573 137.91131 l
105.112889 138.821059 l
107.426206 139.54529 l
109.739523 140.115199 l
114.366156 140.899587 l
118.992789 141.35405 l
125.932739 141.683612 l
135.186005 141.826942 l
160.632487 141.867321 l
173.0975 141.867584 l
173.0975 141.867584 l
stroke
grestore
1 setlinecap
[] 0 setdash
gsave
122.8 130.5 36.14 24.45 clipbox
-1 128.399867 m
1.013643 125.475446 l
3.32696 121.63553 l
5.640276 117.312126 l
7.953593 112.519054 l
10.26691 107.289339 l
12.580226 101.67643 l
17.206859 89.615779 l
24.146809 71.055861 l
26.460126 65.248446 l
28.773442 59.847733 l
31.086759 54.975153 l
33.400075 50.740055 l
35.713392 47.23651 l
38.026709 44.541155 l
40.340025 42.71196 l
42.653342 41.787674 l
44.966658 41.787674 l
47.279975 42.71196 l
49.593291 44.541155 l
51.906608 47.23651 l
54.219925 50.740055 l
56.533241 54.975153 l
58.846558 59.847733 l
61.159874 65.248446 l
65.786508 77.140653 l
72.726457 95.754232 l
75.039774 101.67643 l
77.35309 107.289339 l
79.666407 112.519054 l
81.979724 117.312126 l
84.29304 121.63553 l
86.606357 125.475446 l
88.919673 128.835083 l
91.23299 131.73185 l
93.546307 134.194191 l
95.859623 136.25837 l
98.17294 137.965431 l
100.486256 139.358527 l
102.799573 140.480699 l
105.112889 141.373156 l
107.426206 142.074062 l
109.739523 142.617764 l
114.366156 143.349856 l
118.992789 143.760361 l
125.932739 144.045763 l
137.499322 144.172493 l
173.0975 144.191933 l
173.0975 144.191933 l
stroke
grestore
gsave
122.8 130.5 36.14 24.45 clipbox
-1 124.238024 m
1.013643 121.779793 l
3.32696 118.483156 l
5.640276 114.696265 l
7.953593 110.417609 l
10.26691 105.665088 l
12.580226 100.478422 l
17.206859 89.076192 l
26.460126 65.186265 l
28.773442 59.765067 l
31.086759 54.840268 l
33.400075 50.535324 l
35.713392 46.957696 l
38.026709 44.19574 l
40.340025 42.31675 l
42.653342 41.365923 l
44.966658 41.365923 l
47.279975 42.31675 l
49.593291 44.19574 l
51.906608 46.957696 l
54.219925 50.535324 l
56.533241 54.840268 l
58.846558 59.765067 l
61.159874 65.186265 l
65.786508 76.971188 l
72.726457 94.920328 l
75.039774 100.478422 l
77.35309 105.665088 l
79.666407 110.417609 l
81.979724 114.696265 l
84.29304 118.483156 l
86.606357 121.779793 l
88.919673 124.603861 l
91.23299 126.985531 l
93.546307 128.963692 l
95.859623 130.582412 l
98.17294 131.88785 l
100.486256 132.925721 l
102.799573 133.739394 l
105.112889 134.36858 l
107.426206 134.84856 l
112.052839 135.478245 l
116.679472 135.817464 l
123.619422 136.041064 l
135.186005 136.131726 l
173.0975 136.143491 l
173.0975 136.143491 l
stroke
grestore
1.250 setlinewidth
0 setlinejoin
2 setlinecap
[] 0 setdash
0.150 setgray
gsave
36.1375 24.45 m
36.1375 154.914 l
stroke
grestore
gsave
158.8975 24.45 m
158.8975 154.914 l
stroke
grestore
gsave
36.1375 24.45 m
158.8975 24.45 l
stroke
grestore
gsave
36.1375 154.914 m
158.8975 154.914 l
stroke
grestore

end
showpage
