%!PS-Adobe-3.0 EPSF-3.0
%%Title: ../Figures/DataComp/DragData-2_0.eps
%%Creator: matplotlib version 2.1.2, http://matplotlib.org/
%%CreationDate: Tue Jun 12 12:22:21 2018
%%Orientation: portrait
%%BoundingBox: 219 311 392 480
%%EndComments
%%BeginProlog
/mpldict 8 dict def
mpldict begin
/m { moveto } bind def
/l { lineto } bind def
/r { rlineto } bind def
/c { curveto } bind def
/cl { closepath } bind def
/box {
m
1 index 0 r
0 exch r
neg 0 r
cl
} bind def
/clipbox {
box
clip
newpath
} bind def
%!PS-Adobe-3.0 Resource-Font
%%Title: DejaVu Sans
%%Copyright: Copyright (c) 2003 by Bitstream, Inc. All Rights Reserved. Copyright (c) 2006 by Tavmjong Bah. All Rights Reserved. DejaVu changes are in public domain 
%%Creator: Converted from TrueType to type 3 by PPR
25 dict begin
/_d{bind def}bind def
/_m{moveto}_d
/_l{lineto}_d
/_cl{closepath eofill}_d
/_c{curveto}_d
/_sc{7 -1 roll{setcachedevice}{pop pop pop pop pop pop}ifelse}_d
/_e{exec}_d
/FontName /DejaVuSans def
/PaintType 0 def
/FontMatrix[.001 0 0 .001 0 0]def
/FontBBox[-1021 -463 1793 1232]def
/FontType 3 def
/Encoding [ /period /zero /one /two /three /five /minus ] def
/FontInfo 10 dict dup begin
/FamilyName (DejaVu Sans) def
/FullName (DejaVu Sans) def
/Notice (Copyright (c) 2003 by Bitstream, Inc. All Rights Reserved. Copyright (c) 2006 by Tavmjong Bah. All Rights Reserved. DejaVu changes are in public domain ) def
/Weight (Book) def
/Version (Version 2.35) def
/ItalicAngle 0.0 def
/isFixedPitch false def
/UnderlinePosition -130 def
/UnderlineThickness 90 def
end readonly def
/CharStrings 8 dict dup begin
/.notdef 0 def
/period{318 0 107 0 210 124 _sc
107 124 _m
210 124 _l
210 0 _l
107 0 _l
107 124 _l
_cl}_d
/zero{636 0 66 -13 570 742 _sc
318 664 _m
267 664 229 639 203 589 _c
177 539 165 464 165 364 _c
165 264 177 189 203 139 _c
229 89 267 64 318 64 _c
369 64 407 89 433 139 _c
458 189 471 264 471 364 _c
471 464 458 539 433 589 _c
407 639 369 664 318 664 _c
318 742 _m
399 742 461 709 505 645 _c
548 580 570 486 570 364 _c
570 241 548 147 505 83 _c
461 19 399 -13 318 -13 _c
236 -13 173 19 130 83 _c
87 147 66 241 66 364 _c
66 486 87 580 130 645 _c
173 709 236 742 318 742 _c
_cl}_d
/one{636 0 110 0 544 729 _sc
124 83 _m
285 83 _l
285 639 _l
110 604 _l
110 694 _l
284 729 _l
383 729 _l
383 83 _l
544 83 _l
544 0 _l
124 0 _l
124 83 _l
_cl}_d
/two{{636 0 73 0 536 742 _sc
192 83 _m
536 83 _l
536 0 _l
73 0 _l
73 83 _l
110 121 161 173 226 239 _c
290 304 331 346 348 365 _c
380 400 402 430 414 455 _c
426 479 433 504 433 528 _c
433 566 419 598 392 622 _c
365 646 330 659 286 659 _c
255 659 222 653 188 643 _c
154 632 117 616 78 594 _c
78 694 _l
118 710 155 722 189 730 _c
223 738 255 742 284 742 _c
}_e{359 742 419 723 464 685 _c
509 647 532 597 532 534 _c
532 504 526 475 515 449 _c
504 422 484 390 454 354 _c
446 344 420 317 376 272 _c
332 227 271 164 192 83 _c
_cl}_e}_d
/three{{636 0 76 -13 556 742 _sc
406 393 _m
453 383 490 362 516 330 _c
542 298 556 258 556 212 _c
556 140 531 84 482 45 _c
432 6 362 -13 271 -13 _c
240 -13 208 -10 176 -4 _c
144 1 110 10 76 22 _c
76 117 _l
103 101 133 89 166 81 _c
198 73 232 69 268 69 _c
330 69 377 81 409 105 _c
441 129 458 165 458 212 _c
458 254 443 288 413 312 _c
383 336 341 349 287 349 _c
}_e{202 349 _l
202 430 _l
291 430 _l
339 430 376 439 402 459 _c
428 478 441 506 441 543 _c
441 580 427 609 401 629 _c
374 649 336 659 287 659 _c
260 659 231 656 200 650 _c
169 644 135 635 98 623 _c
98 711 _l
135 721 170 729 203 734 _c
235 739 266 742 296 742 _c
370 742 429 725 473 691 _c
517 657 539 611 539 553 _c
539 513 527 479 504 451 _c
481 423 448 403 406 393 _c
_cl}_e}_d
/five{{636 0 77 -13 549 729 _sc
108 729 _m
495 729 _l
495 646 _l
198 646 _l
198 467 _l
212 472 227 476 241 478 _c
255 480 270 482 284 482 _c
365 482 429 459 477 415 _c
525 370 549 310 549 234 _c
549 155 524 94 475 51 _c
426 8 357 -13 269 -13 _c
238 -13 207 -10 175 -6 _c
143 -1 111 6 77 17 _c
77 116 _l
106 100 136 88 168 80 _c
199 72 232 69 267 69 _c
}_e{323 69 368 83 401 113 _c
433 143 450 183 450 234 _c
450 284 433 324 401 354 _c
368 384 323 399 267 399 _c
241 399 214 396 188 390 _c
162 384 135 375 108 363 _c
108 729 _l
_cl}_e}_d
/minus{838 0 106 272 732 355 _sc
106 355 _m
732 355 _l
732 272 _l
106 272 _l
106 355 _l
_cl}_d
end readonly def

/BuildGlyph
 {exch begin
 CharStrings exch
 2 copy known not{pop /.notdef}if
 true 3 1 roll get exec
 end}_d

/BuildChar {
 1 index /Encoding get exch get
 1 index /BuildGlyph get exec
}_d

FontName currentdict end definefont pop
end
%%EndProlog
mpldict begin
219.951 311.943 translate
172.097 168.114 0 0 clipbox
gsave
0 0 m
172.0975 0 l
172.0975 168.114 l
0 168.114 l
cl
grestore
gsave
36.1375 24.45 m
158.8975 24.45 l
158.8975 154.914 l
36.1375 154.914 l
cl
grestore
0.800 setlinewidth
1 setlinejoin
0 setlinecap
[] 0 setdash
0.150 setgray
gsave
/o {
gsave
newpath
translate
0.8 setlinewidth
1 setlinejoin
0 setlinecap
0 0 m
0 -6 l

gsave
0.150 setgray
fill
grestore
stroke
grestore
} bind def
43.81 24.45 o
grestore
/DejaVuSans findfont
8.000 scalefont
setfont
gsave
41.263125 8.871875 translate
0.000000 rotate
0.000000 0.000000 m /zero glyphshow
grestore
gsave
/o {
gsave
newpath
translate
0.8 setlinewidth
1 setlinejoin
0 setlinecap
0 0 m
0 -6 l

gsave
0.150 setgray
fill
grestore
stroke
grestore
} bind def
82.1725 24.45 o
grestore
gsave
79.625625 8.871875 translate
0.000000 rotate
0.000000 0.000000 m /one glyphshow
grestore
gsave
/o {
gsave
newpath
translate
0.8 setlinewidth
1 setlinejoin
0 setlinecap
0 0 m
0 -6 l

gsave
0.150 setgray
fill
grestore
stroke
grestore
} bind def
120.535 24.45 o
grestore
gsave
117.988125 8.871875 translate
0.000000 rotate
0.000000 0.000000 m /two glyphshow
grestore
gsave
/o {
gsave
newpath
translate
0.8 setlinewidth
1 setlinejoin
0 setlinecap
0 0 m
0 -6 l

gsave
0.150 setgray
fill
grestore
stroke
grestore
} bind def
158.898 24.45 o
grestore
gsave
156.350625 8.871875 translate
0.000000 rotate
0.000000 0.000000 m /three glyphshow
grestore
gsave
/o {
gsave
newpath
translate
0.8 setlinewidth
1 setlinejoin
0 setlinecap
0 0 m
-6 0 l

gsave
0.150 setgray
fill
grestore
stroke
grestore
} bind def
36.1375 24.45 o
grestore
gsave
7.200000 21.410938 translate
0.000000 rotate
0.000000 0.000000 m /minus glyphshow
6.703125 0.000000 m /zero glyphshow
11.792969 0.000000 m /period glyphshow
14.335938 0.000000 m /five glyphshow
grestore
gsave
/o {
gsave
newpath
translate
0.8 setlinewidth
1 setlinejoin
0 setlinecap
0 0 m
-6 0 l

gsave
0.150 setgray
fill
grestore
stroke
grestore
} bind def
36.1375 57.066 o
grestore
gsave
13.903125 54.026938 translate
0.000000 rotate
0.000000 0.000000 m /zero glyphshow
5.089844 0.000000 m /period glyphshow
7.632812 0.000000 m /zero glyphshow
grestore
gsave
/o {
gsave
newpath
translate
0.8 setlinewidth
1 setlinejoin
0 setlinecap
0 0 m
-6 0 l

gsave
0.150 setgray
fill
grestore
stroke
grestore
} bind def
36.1375 89.682 o
grestore
gsave
13.903125 86.642938 translate
0.000000 rotate
0.000000 0.000000 m /zero glyphshow
5.089844 0.000000 m /period glyphshow
7.632812 0.000000 m /five glyphshow
grestore
gsave
/o {
gsave
newpath
translate
0.8 setlinewidth
1 setlinejoin
0 setlinecap
0 0 m
-6 0 l

gsave
0.150 setgray
fill
grestore
stroke
grestore
} bind def
36.1375 122.298 o
grestore
gsave
13.903125 119.258938 translate
0.000000 rotate
0.000000 0.000000 m /one glyphshow
5.089844 0.000000 m /period glyphshow
7.632812 0.000000 m /zero glyphshow
grestore
gsave
/o {
gsave
newpath
translate
0.8 setlinewidth
1 setlinejoin
0 setlinecap
0 0 m
-6 0 l

gsave
0.150 setgray
fill
grestore
stroke
grestore
} bind def
36.1375 154.914 o
grestore
gsave
13.903125 151.874937 translate
0.000000 rotate
0.000000 0.000000 m /one glyphshow
5.089844 0.000000 m /period glyphshow
7.632812 0.000000 m /five glyphshow
grestore
0.400 setlinewidth
1 setlinecap
0.650 setgray
gsave
122.8 130.5 36.14 24.45 clipbox
-1 57.066 m
158.8975 57.066 l
stroke
grestore
gsave
122.8 130.5 36.14 24.45 clipbox
43.81 21.1884 m
43.81 158.1756 l
stroke
grestore
1.000 setlinewidth
0 setlinecap
0.000 setgray
gsave
122.8 130.5 36.14 24.45 clipbox
/o {
gsave
newpath
translate
1.0 setlinewidth
1 setlinejoin
0 setlinecap
0 1.936492 m
-1.936492 -1.936492 l
1.936492 -1.936492 l
cl

gsave
1.000 setgray
fill
grestore
stroke
grestore
} bind def
44.9768 52.3945 o
40.0595 54.4791 o
35.001 57.1698 o
30.8211 61.1698 o
25.4295 68.4037 o
19.9245 80.5334 o
15.7257 92.8104 o
11.6454 100.999 o
6.53531 106.92 o
1.34808 112.134 o
-1 114.075 o
grestore
gsave
122.8 130.5 36.14 24.45 clipbox
/o {
gsave
newpath
translate
1.0 setlinewidth
1 setlinejoin
0 setlinecap
0 1.936492 m
-1.936492 -1.936492 l
1.936492 -1.936492 l
cl

gsave
1.000 setgray
fill
grestore
stroke
grestore
} bind def
42.6432 52.3945 o
47.5605 54.4791 o
52.619 57.1698 o
56.7989 61.1698 o
62.1905 68.4037 o
67.6955 80.5334 o
71.8943 92.8104 o
75.9746 100.999 o
81.0847 106.92 o
86.2719 112.134 o
91.1766 116.187 o
99.5818 128.376 o
109.54 135.928 o
118.802 138.833 o
137.98 144.748 o
157.913 145.92 o
173.097 145.847 o
grestore
gsave
122.8 130.5 36.14 24.45 clipbox
/o {
gsave
newpath
translate
1.0 setlinewidth
1 setlinejoin
0 setlinecap
-0 -1.936492 m
1.936492 1.936492 l
-1.936492 1.936492 l
cl

gsave
1.000 setgray
fill
grestore
stroke
grestore
} bind def
83.0502 109.153 o
63.8505 66.7693 o
59.2912 56.9423 o
54.4052 52.6677 o
50.0405 50.5113 o
44.3007 48.7629 o
39.4533 50.4435 o
34.969 52.2239 o
30.504 56.982 o
24.7626 66.1852 o
19.9728 76.7986 o
15.484 89.0765 o
10.901 98.0237 o
6.40334 108.939 o
1.21842 114.507 o
-1 116.806 o
grestore
gsave
122.8 130.5 36.14 24.45 clipbox
/o {
gsave
newpath
translate
1.0 setlinewidth
1 setlinejoin
0 setlinecap
-0 -1.936492 m
1.936492 1.936492 l
-1.936492 1.936492 l
cl

gsave
1.000 setgray
fill
grestore
stroke
grestore
} bind def
4.56977 109.153 o
23.7695 66.7693 o
28.3288 56.9423 o
33.2148 52.6677 o
37.5795 50.5113 o
43.3193 48.7629 o
48.1667 50.4435 o
52.651 52.2239 o
57.116 56.982 o
62.8574 66.1852 o
67.6472 76.7986 o
72.136 89.0765 o
76.719 98.0237 o
81.2167 108.939 o
86.4016 114.507 o
90.6514 118.911 o
95.6243 123.62 o
105.234 129 o
114.757 136.398 o
124.598 139.709 o
138.43 142.427 o
147.634 143.213 o
157.999 143.902 o
173.097 145.288 o
grestore
gsave
122.8 130.5 36.14 24.45 clipbox
/o {
gsave
newpath
translate
1.0 setlinewidth
1 setlinejoin
0 setlinecap
0 -1.936492 m
0.513564 -1.936492 1.006162 -1.732451 1.369306 -1.369306 c
1.732451 -1.006162 1.936492 -0.513564 1.936492 0 c
1.936492 0.513564 1.732451 1.006162 1.369306 1.369306 c
1.006162 1.732451 0.513564 1.936492 0 1.936492 c
-0.513564 1.936492 -1.006162 1.732451 -1.369306 1.369306 c
-1.732451 1.006162 -1.936492 0.513564 -1.936492 0 c
-1.936492 -0.513564 -1.732451 -1.006162 -1.369306 -1.369306 c
-1.006162 -1.732451 -0.513564 -1.936492 0 -1.936492 c
cl

gsave
1.000 setgray
fill
grestore
stroke
grestore
} bind def
28.465 64.8433 o
36.1375 50.8031 o
43.81 41.3046 o
51.4825 50.3649 o
59.155 56.9754 o
66.8275 89.6689 o
74.5 106.179 o
82.1725 116.423 o
89.845 118.725 o
97.5175 121.379 o
105.19 125.611 o
112.862 128.851 o
120.535 130.455 o
128.208 132.24 o
135.88 132.675 o
143.553 134.506 o
151.225 136.857 o
158.898 136.923 o
grestore
gsave
122.8 130.5 36.14 24.45 clipbox
/o {
gsave
newpath
translate
1.0 setlinewidth
1 setlinejoin
0 setlinecap
0 -1.936492 m
0.513564 -1.936492 1.006162 -1.732451 1.369306 -1.369306 c
1.732451 -1.006162 1.936492 -0.513564 1.936492 0 c
1.936492 0.513564 1.732451 1.006162 1.369306 1.369306 c
1.006162 1.732451 0.513564 1.936492 0 1.936492 c
-0.513564 1.936492 -1.006162 1.732451 -1.369306 1.369306 c
-1.732451 1.006162 -1.936492 0.513564 -1.936492 0 c
-1.936492 -0.513564 -1.732451 -1.006162 -1.369306 -1.369306 c
-1.006162 -1.732451 -0.513564 -1.936492 0 -1.936492 c
cl

gsave
1.000 setgray
fill
grestore
stroke
grestore
} bind def
59.155 64.8433 o
51.4825 50.8031 o
43.81 41.3046 o
36.1375 50.3649 o
28.465 56.9754 o
20.7925 89.6689 o
13.12 106.179 o
5.4475 116.423 o
-1 118.358 o
grestore
0.750 setlinewidth
[0.75 1.237] 0 setdash
gsave
122.8 130.5 36.14 24.45 clipbox
-1 129.436654 m
1.013643 126.744792 l
3.32696 123.135912 l
5.640276 119.01154 l
7.953593 114.40091 l
10.26691 109.365566 l
14.893543 98.432782 l
19.520176 87.307857 l
21.833492 82.082807 l
24.146809 77.289368 l
26.460126 73.048985 l
28.773442 69.44167 l
31.086759 66.499941 l
33.400075 64.209882 l
35.713392 62.519642 l
38.026709 61.354169 l
40.340025 60.633624 l
42.653342 60.291961 l
44.966658 60.291961 l
47.279975 60.633624 l
49.593291 61.354169 l
51.906608 62.519642 l
54.219925 64.209882 l
56.533241 66.499941 l
58.846558 69.44167 l
61.159874 73.048985 l
63.473191 77.289368 l
65.786508 82.082807 l
68.099824 87.307857 l
77.35309 109.365566 l
79.666407 114.40091 l
81.979724 119.01154 l
84.29304 123.135912 l
86.606357 126.744792 l
88.919673 129.837261 l
91.23299 132.435092 l
93.546307 134.576495 l
95.859623 136.310037 l
98.17294 137.689291 l
100.486256 138.768523 l
102.799573 139.599514 l
105.112889 140.229459 l
107.426206 140.699809 l
112.052839 141.29672 l
116.679472 141.602457 l
123.619422 141.791298 l
137.499322 141.863106 l
173.0975 141.8676 l
173.0975 141.8676 l
stroke
grestore
[2.775 1.2] 0 setdash
gsave
122.8 130.5 36.14 24.45 clipbox
-1 120.11566 m
1.013643 117.28169 l
3.32696 113.745943 l
5.640276 109.947755 l
10.26691 101.677945 l
14.893543 92.787951 l
21.833492 79.292791 l
24.146809 75.027099 l
26.460126 71.000724 l
28.773442 67.28687 l
31.086759 63.955366 l
33.400075 61.070573 l
35.713392 58.689437 l
38.026709 56.859751 l
40.340025 55.618698 l
42.653342 54.991714 l
44.966658 54.991714 l
47.279975 55.618698 l
49.593291 56.859751 l
51.906608 58.689437 l
54.219925 61.070573 l
56.533241 63.955366 l
58.846558 67.28687 l
61.159874 71.000724 l
63.473191 75.027099 l
68.099824 83.723369 l
77.35309 101.677945 l
81.979724 109.947755 l
84.29304 113.745943 l
86.606357 117.28169 l
88.919673 120.537415 l
91.23299 123.503691 l
93.546307 126.178486 l
95.859623 128.566234 l
98.17294 130.676796 l
100.486256 132.524371 l
102.799573 134.126419 l
105.112889 135.502633 l
107.426206 136.674002 l
109.739523 137.662 l
112.052839 138.48789 l
114.366156 139.172179 l
118.992789 140.191794 l
123.619422 140.856846 l
128.246055 141.276157 l
135.186005 141.617461 l
144.439271 141.79616 l
162.945804 141.863544 l
173.0975 141.866902 l
173.0975 141.866902 l
stroke
grestore
1 setlinecap
[] 0 setdash
gsave
122.8 130.5 36.14 24.45 clipbox
-1 121.879602 m
1.013643 118.861713 l
3.32696 115.089882 l
5.640276 111.035184 l
10.26691 102.215709 l
17.206859 87.982569 l
21.833492 78.600788 l
24.146809 74.167744 l
26.460126 70.007989 l
28.773442 66.193687 l
31.086759 62.791521 l
33.400075 59.861059 l
35.713392 57.453467 l
38.026709 55.61055 l
40.340025 54.364105 l
42.653342 53.735512 l
44.966658 53.735512 l
47.279975 54.364105 l
49.593291 55.61055 l
51.906608 57.453467 l
54.219925 59.861059 l
56.533241 62.791521 l
58.846558 66.193687 l
61.159874 70.007989 l
63.473191 74.167744 l
68.099824 83.23142 l
77.35309 102.215709 l
81.979724 111.035184 l
84.29304 115.089882 l
86.606357 118.861713 l
88.919673 122.328729 l
91.23299 125.478714 l
93.546307 128.308394 l
95.859623 130.822361 l
98.17294 133.031808 l
100.486256 134.953177 l
102.799573 136.606793 l
105.112889 138.015572 l
107.426206 139.203844 l
109.739523 140.19634 l
112.052839 141.017352 l
114.366156 141.690082 l
118.992789 142.675361 l
123.619422 143.301791 l
128.246055 143.685985 l
135.186005 143.987758 l
144.439271 144.137487 l
167.572437 144.190795 l
173.0975 144.191527 l
173.0975 144.191527 l
stroke
grestore
1.250 setlinewidth
0 setlinejoin
2 setlinecap
[] 0 setdash
0.150 setgray
gsave
36.1375 24.45 m
36.1375 154.914 l
stroke
grestore
gsave
158.8975 24.45 m
158.8975 154.914 l
stroke
grestore
gsave
36.1375 24.45 m
158.8975 24.45 l
stroke
grestore
gsave
36.1375 154.914 m
158.8975 154.914 l
stroke
grestore

end
showpage
