%!PS-Adobe-3.0 EPSF-3.0
%%Title: ../Figures/DataComp/DragData-1_09.eps
%%Creator: matplotlib version 2.1.2, http://matplotlib.org/
%%CreationDate: Tue Jun 12 12:22:20 2018
%%Orientation: portrait
%%BoundingBox: 219 311 392 480
%%EndComments
%%BeginProlog
/mpldict 8 dict def
mpldict begin
/m { moveto } bind def
/l { lineto } bind def
/r { rlineto } bind def
/c { curveto } bind def
/cl { closepath } bind def
/box {
m
1 index 0 r
0 exch r
neg 0 r
cl
} bind def
/clipbox {
box
clip
newpath
} bind def
%!PS-Adobe-3.0 Resource-Font
%%Title: DejaVu Sans
%%Copyright: Copyright (c) 2003 by Bitstream, Inc. All Rights Reserved. Copyright (c) 2006 by Tavmjong Bah. All Rights Reserved. DejaVu changes are in public domain 
%%Creator: Converted from TrueType to type 3 by PPR
25 dict begin
/_d{bind def}bind def
/_m{moveto}_d
/_l{lineto}_d
/_cl{closepath eofill}_d
/_c{curveto}_d
/_sc{7 -1 roll{setcachedevice}{pop pop pop pop pop pop}ifelse}_d
/_e{exec}_d
/FontName /DejaVuSans def
/PaintType 0 def
/FontMatrix[.001 0 0 .001 0 0]def
/FontBBox[-1021 -463 1793 1232]def
/FontType 3 def
/Encoding [ /period /zero /one /two /three /five /minus ] def
/FontInfo 10 dict dup begin
/FamilyName (DejaVu Sans) def
/FullName (DejaVu Sans) def
/Notice (Copyright (c) 2003 by Bitstream, Inc. All Rights Reserved. Copyright (c) 2006 by Tavmjong Bah. All Rights Reserved. DejaVu changes are in public domain ) def
/Weight (Book) def
/Version (Version 2.35) def
/ItalicAngle 0.0 def
/isFixedPitch false def
/UnderlinePosition -130 def
/UnderlineThickness 90 def
end readonly def
/CharStrings 8 dict dup begin
/.notdef 0 def
/period{318 0 107 0 210 124 _sc
107 124 _m
210 124 _l
210 0 _l
107 0 _l
107 124 _l
_cl}_d
/zero{636 0 66 -13 570 742 _sc
318 664 _m
267 664 229 639 203 589 _c
177 539 165 464 165 364 _c
165 264 177 189 203 139 _c
229 89 267 64 318 64 _c
369 64 407 89 433 139 _c
458 189 471 264 471 364 _c
471 464 458 539 433 589 _c
407 639 369 664 318 664 _c
318 742 _m
399 742 461 709 505 645 _c
548 580 570 486 570 364 _c
570 241 548 147 505 83 _c
461 19 399 -13 318 -13 _c
236 -13 173 19 130 83 _c
87 147 66 241 66 364 _c
66 486 87 580 130 645 _c
173 709 236 742 318 742 _c
_cl}_d
/one{636 0 110 0 544 729 _sc
124 83 _m
285 83 _l
285 639 _l
110 604 _l
110 694 _l
284 729 _l
383 729 _l
383 83 _l
544 83 _l
544 0 _l
124 0 _l
124 83 _l
_cl}_d
/two{{636 0 73 0 536 742 _sc
192 83 _m
536 83 _l
536 0 _l
73 0 _l
73 83 _l
110 121 161 173 226 239 _c
290 304 331 346 348 365 _c
380 400 402 430 414 455 _c
426 479 433 504 433 528 _c
433 566 419 598 392 622 _c
365 646 330 659 286 659 _c
255 659 222 653 188 643 _c
154 632 117 616 78 594 _c
78 694 _l
118 710 155 722 189 730 _c
223 738 255 742 284 742 _c
}_e{359 742 419 723 464 685 _c
509 647 532 597 532 534 _c
532 504 526 475 515 449 _c
504 422 484 390 454 354 _c
446 344 420 317 376 272 _c
332 227 271 164 192 83 _c
_cl}_e}_d
/three{{636 0 76 -13 556 742 _sc
406 393 _m
453 383 490 362 516 330 _c
542 298 556 258 556 212 _c
556 140 531 84 482 45 _c
432 6 362 -13 271 -13 _c
240 -13 208 -10 176 -4 _c
144 1 110 10 76 22 _c
76 117 _l
103 101 133 89 166 81 _c
198 73 232 69 268 69 _c
330 69 377 81 409 105 _c
441 129 458 165 458 212 _c
458 254 443 288 413 312 _c
383 336 341 349 287 349 _c
}_e{202 349 _l
202 430 _l
291 430 _l
339 430 376 439 402 459 _c
428 478 441 506 441 543 _c
441 580 427 609 401 629 _c
374 649 336 659 287 659 _c
260 659 231 656 200 650 _c
169 644 135 635 98 623 _c
98 711 _l
135 721 170 729 203 734 _c
235 739 266 742 296 742 _c
370 742 429 725 473 691 _c
517 657 539 611 539 553 _c
539 513 527 479 504 451 _c
481 423 448 403 406 393 _c
_cl}_e}_d
/five{{636 0 77 -13 549 729 _sc
108 729 _m
495 729 _l
495 646 _l
198 646 _l
198 467 _l
212 472 227 476 241 478 _c
255 480 270 482 284 482 _c
365 482 429 459 477 415 _c
525 370 549 310 549 234 _c
549 155 524 94 475 51 _c
426 8 357 -13 269 -13 _c
238 -13 207 -10 175 -6 _c
143 -1 111 6 77 17 _c
77 116 _l
106 100 136 88 168 80 _c
199 72 232 69 267 69 _c
}_e{323 69 368 83 401 113 _c
433 143 450 183 450 234 _c
450 284 433 324 401 354 _c
368 384 323 399 267 399 _c
241 399 214 396 188 390 _c
162 384 135 375 108 363 _c
108 729 _l
_cl}_e}_d
/minus{838 0 106 272 732 355 _sc
106 355 _m
732 355 _l
732 272 _l
106 272 _l
106 355 _l
_cl}_d
end readonly def

/BuildGlyph
 {exch begin
 CharStrings exch
 2 copy known not{pop /.notdef}if
 true 3 1 roll get exec
 end}_d

/BuildChar {
 1 index /Encoding get exch get
 1 index /BuildGlyph get exec
}_d

FontName currentdict end definefont pop
end
%%EndProlog
mpldict begin
219.951 311.943 translate
172.097 168.114 0 0 clipbox
gsave
0 0 m
172.0975 0 l
172.0975 168.114 l
0 168.114 l
cl
grestore
gsave
36.1375 24.45 m
158.8975 24.45 l
158.8975 154.914 l
36.1375 154.914 l
cl
grestore
0.800 setlinewidth
1 setlinejoin
0 setlinecap
[] 0 setdash
0.150 setgray
gsave
/o {
gsave
newpath
translate
0.8 setlinewidth
1 setlinejoin
0 setlinecap
0 0 m
0 -6 l

gsave
0.150 setgray
fill
grestore
stroke
grestore
} bind def
43.81 24.45 o
grestore
/DejaVuSans findfont
8.000 scalefont
setfont
gsave
41.263125 8.871875 translate
0.000000 rotate
0.000000 0.000000 m /zero glyphshow
grestore
gsave
/o {
gsave
newpath
translate
0.8 setlinewidth
1 setlinejoin
0 setlinecap
0 0 m
0 -6 l

gsave
0.150 setgray
fill
grestore
stroke
grestore
} bind def
82.1725 24.45 o
grestore
gsave
79.625625 8.871875 translate
0.000000 rotate
0.000000 0.000000 m /one glyphshow
grestore
gsave
/o {
gsave
newpath
translate
0.8 setlinewidth
1 setlinejoin
0 setlinecap
0 0 m
0 -6 l

gsave
0.150 setgray
fill
grestore
stroke
grestore
} bind def
120.535 24.45 o
grestore
gsave
117.988125 8.871875 translate
0.000000 rotate
0.000000 0.000000 m /two glyphshow
grestore
gsave
/o {
gsave
newpath
translate
0.8 setlinewidth
1 setlinejoin
0 setlinecap
0 0 m
0 -6 l

gsave
0.150 setgray
fill
grestore
stroke
grestore
} bind def
158.898 24.45 o
grestore
gsave
156.350625 8.871875 translate
0.000000 rotate
0.000000 0.000000 m /three glyphshow
grestore
gsave
/o {
gsave
newpath
translate
0.8 setlinewidth
1 setlinejoin
0 setlinecap
0 0 m
-6 0 l

gsave
0.150 setgray
fill
grestore
stroke
grestore
} bind def
36.1375 24.45 o
grestore
gsave
7.200000 21.410938 translate
0.000000 rotate
0.000000 0.000000 m /minus glyphshow
6.703125 0.000000 m /zero glyphshow
11.792969 0.000000 m /period glyphshow
14.335938 0.000000 m /five glyphshow
grestore
gsave
/o {
gsave
newpath
translate
0.8 setlinewidth
1 setlinejoin
0 setlinecap
0 0 m
-6 0 l

gsave
0.150 setgray
fill
grestore
stroke
grestore
} bind def
36.1375 57.066 o
grestore
gsave
13.903125 54.026938 translate
0.000000 rotate
0.000000 0.000000 m /zero glyphshow
5.089844 0.000000 m /period glyphshow
7.632812 0.000000 m /zero glyphshow
grestore
gsave
/o {
gsave
newpath
translate
0.8 setlinewidth
1 setlinejoin
0 setlinecap
0 0 m
-6 0 l

gsave
0.150 setgray
fill
grestore
stroke
grestore
} bind def
36.1375 89.682 o
grestore
gsave
13.903125 86.642938 translate
0.000000 rotate
0.000000 0.000000 m /zero glyphshow
5.089844 0.000000 m /period glyphshow
7.632812 0.000000 m /five glyphshow
grestore
gsave
/o {
gsave
newpath
translate
0.8 setlinewidth
1 setlinejoin
0 setlinecap
0 0 m
-6 0 l

gsave
0.150 setgray
fill
grestore
stroke
grestore
} bind def
36.1375 122.298 o
grestore
gsave
13.903125 119.258938 translate
0.000000 rotate
0.000000 0.000000 m /one glyphshow
5.089844 0.000000 m /period glyphshow
7.632812 0.000000 m /zero glyphshow
grestore
gsave
/o {
gsave
newpath
translate
0.8 setlinewidth
1 setlinejoin
0 setlinecap
0 0 m
-6 0 l

gsave
0.150 setgray
fill
grestore
stroke
grestore
} bind def
36.1375 154.914 o
grestore
gsave
13.903125 151.874937 translate
0.000000 rotate
0.000000 0.000000 m /one glyphshow
5.089844 0.000000 m /period glyphshow
7.632812 0.000000 m /five glyphshow
grestore
0.400 setlinewidth
1 setlinecap
0.650 setgray
gsave
122.8 130.5 36.14 24.45 clipbox
-1 57.066 m
158.8975 57.066 l
stroke
grestore
gsave
122.8 130.5 36.14 24.45 clipbox
43.81 21.1884 m
43.81 158.1756 l
stroke
grestore
1.000 setlinewidth
0 setlinecap
0.000 setgray
gsave
122.8 130.5 36.14 24.45 clipbox
/o {
gsave
newpath
translate
1.0 setlinewidth
1 setlinejoin
0 setlinecap
0 1.936492 m
-1.936492 -1.936492 l
1.936492 -1.936492 l
cl

gsave
1.000 setgray
fill
grestore
stroke
grestore
} bind def
45.2095 26.5198 o
39.4393 31.2346 o
34.8423 37.9447 o
29.8224 46.5047 o
25.4008 57.8612 o
18.9835 74.5205 o
15.6652 88.272 o
10.7553 102.578 o
1.85562 116.647 o
-1 120.345 o
grestore
gsave
122.8 130.5 36.14 24.45 clipbox
/o {
gsave
newpath
translate
1.0 setlinewidth
1 setlinejoin
0 setlinecap
0 1.936492 m
-1.936492 -1.936492 l
1.936492 -1.936492 l
cl

gsave
1.000 setgray
fill
grestore
stroke
grestore
} bind def
42.4105 26.5198 o
48.1807 31.2346 o
52.7777 37.9447 o
57.7976 46.5047 o
62.2192 57.8612 o
68.6365 74.5205 o
71.9548 88.272 o
76.8647 102.578 o
85.7644 116.647 o
90.3663 122.607 o
99.802 132.33 o
119.053 137.986 o
137.803 142.642 o
157.674 142.303 o
173.097 141.844 o
grestore
gsave
122.8 130.5 36.14 24.45 clipbox
/o {
gsave
newpath
translate
1.0 setlinewidth
1 setlinejoin
0 setlinecap
-0 -1.936492 m
1.936492 1.936492 l
-1.936492 1.936492 l
cl

gsave
1.000 setgray
fill
grestore
stroke
grestore
} bind def
83.1922 113.247 o
64.2751 59.0398 o
59.173 43.9154 o
54.8978 33.2854 o
49.7832 27.355 o
45.1912 23.7216 o
39.1999 27.8875 o
35.2454 33.0465 o
30.0229 43.9058 o
25.2714 60.2601 o
18.6441 78.0693 o
15.6805 90.6205 o
10.7046 105.926 o
6.2566 113.235 o
1.4344 118.747 o
-1 122.028 o
grestore
gsave
122.8 130.5 36.14 24.45 clipbox
/o {
gsave
newpath
translate
1.0 setlinewidth
1 setlinejoin
0 setlinecap
-0 -1.936492 m
1.936492 1.936492 l
-1.936492 1.936492 l
cl

gsave
1.000 setgray
fill
grestore
stroke
grestore
} bind def
4.42782 113.247 o
23.3449 59.0398 o
28.447 43.9154 o
32.7222 33.2854 o
37.8368 27.355 o
42.4288 23.7216 o
48.4201 27.8875 o
52.3746 33.0465 o
57.5971 43.9058 o
62.3486 60.2601 o
68.9759 78.0693 o
71.9395 90.6205 o
76.9154 105.926 o
81.3634 113.235 o
86.1856 118.747 o
90.5704 124.657 o
95.2687 126.97 o
100.252 130.083 o
110.011 134.611 o
119.215 135.438 o
128.554 137.816 o
138.614 140.695 o
157.805 144.403 o
173.097 144.851 o
grestore
0.750 setlinewidth
[0.75 1.237] 0 setdash
gsave
122.8 130.5 36.14 24.45 clipbox
-1 139.427728 m
1.013643 138.346489 l
3.32696 136.560649 l
5.640276 134.069782 l
7.953593 130.705365 l
10.26691 126.314493 l
12.580226 120.792546 l
14.893543 114.122899 l
17.206859 106.416679 l
21.833492 89.123343 l
24.146809 80.515324 l
26.460126 72.718847 l
28.773442 66.275532 l
31.086759 61.547881 l
33.400075 58.625872 l
35.713392 57.295023 l
38.026709 57.087837 l
42.653342 57.736834 l
44.966658 57.736834 l
49.593291 57.087837 l
51.906608 57.295023 l
54.219925 58.625872 l
56.533241 61.547881 l
58.846558 66.275532 l
61.159874 72.718847 l
63.473191 80.515324 l
70.413141 106.416679 l
72.726457 114.122899 l
75.039774 120.792546 l
77.35309 126.314493 l
79.666407 130.705365 l
81.979724 134.069782 l
84.29304 136.560649 l
86.606357 138.346489 l
88.919673 139.58864 l
91.23299 140.42806 l
93.546307 140.979828 l
95.859623 141.332925 l
100.486256 141.686832 l
107.426206 141.837749 l
128.246055 141.867561 l
173.0975 141.8676 l
173.0975 141.8676 l
stroke
grestore
[2.775 1.2] 0 setdash
gsave
122.8 130.5 36.14 24.45 clipbox
-1 132.751559 m
1.013643 130.463345 l
3.32696 127.254752 l
5.640276 123.406265 l
7.953593 118.872198 l
10.26691 113.627819 l
12.580226 107.67583 l
14.893543 101.052078 l
17.206859 93.829776 l
21.833492 78.078688 l
26.460126 61.763129 l
28.773442 53.939135 l
31.086759 46.657511 l
33.400075 40.15576 l
35.713392 34.654586 l
38.026709 30.346225 l
40.340025 27.38432 l
42.653342 25.875907 l
44.966658 25.875907 l
47.279975 27.38432 l
49.593291 30.346225 l
51.906608 34.654586 l
54.219925 40.15576 l
56.533241 46.657511 l
58.846558 53.939135 l
63.473191 69.887624 l
68.099824 86.121534 l
70.413141 93.829776 l
72.726457 101.052078 l
75.039774 107.67583 l
77.35309 113.627819 l
79.666407 118.872198 l
81.979724 123.406265 l
84.29304 127.254752 l
86.606357 130.463345 l
88.919673 133.092094 l
91.23299 135.209282 l
93.546307 136.886123 l
95.859623 138.192521 l
98.17294 139.193962 l
100.486256 139.949474 l
102.799573 140.510536 l
105.112889 140.920753 l
109.739523 141.425486 l
114.366156 141.67231 l
123.619422 141.835335 l
149.065905 141.867527 l
173.0975 141.8676 l
173.0975 141.8676 l
stroke
grestore
1 setlinecap
[] 0 setdash
gsave
122.8 130.5 36.14 24.45 clipbox
-1 135.347152 m
1.013643 133.010123 l
3.32696 129.701146 l
5.640276 125.700976 l
7.953593 120.960622 l
10.26691 115.457513 l
12.580226 109.203432 l
14.893543 102.250901 l
17.206859 94.69687 l
21.833492 78.390225 l
26.460126 61.844502 l
28.773442 54.0652 l
31.086759 46.927497 l
33.400075 40.643837 l
35.713392 35.397121 l
38.026709 31.334871 l
40.340025 28.566831 l
42.653342 27.165047 l
44.966658 27.165047 l
47.279975 28.566831 l
49.593291 31.334871 l
51.906608 35.397121 l
54.219925 40.643837 l
56.533241 46.927497 l
58.846558 54.0652 l
61.159874 61.844502 l
70.413141 94.69687 l
72.726457 102.250901 l
75.039774 109.203432 l
77.35309 115.457513 l
79.666407 120.960622 l
81.979724 125.700976 l
84.29304 129.701146 l
86.606357 133.010123 l
88.919673 135.694952 l
91.23299 137.832834 l
93.546307 139.504344 l
95.859623 140.788102 l
98.17294 141.756994 l
100.486256 142.475835 l
102.799573 143.000259 l
107.426206 143.642195 l
112.052839 143.952816 l
118.992789 144.13048 l
135.186005 144.190393 l
173.0975 144.19194 l
173.0975 144.19194 l
stroke
grestore
1.250 setlinewidth
0 setlinejoin
2 setlinecap
[] 0 setdash
0.150 setgray
gsave
36.1375 24.45 m
36.1375 154.914 l
stroke
grestore
gsave
158.8975 24.45 m
158.8975 154.914 l
stroke
grestore
gsave
36.1375 24.45 m
158.8975 24.45 l
stroke
grestore
gsave
36.1375 154.914 m
158.8975 154.914 l
stroke
grestore

end
showpage
