%!PS-Adobe-3.0 EPSF-3.0
%%Title: ../Figures/DataComp/DragData-9_0.eps
%%Creator: matplotlib version 2.1.2, http://matplotlib.org/
%%CreationDate: Tue Jun 12 12:22:21 2018
%%Orientation: portrait
%%BoundingBox: 219 311 392 480
%%EndComments
%%BeginProlog
/mpldict 8 dict def
mpldict begin
/m { moveto } bind def
/l { lineto } bind def
/r { rlineto } bind def
/c { curveto } bind def
/cl { closepath } bind def
/box {
m
1 index 0 r
0 exch r
neg 0 r
cl
} bind def
/clipbox {
box
clip
newpath
} bind def
%!PS-Adobe-3.0 Resource-Font
%%Title: DejaVu Sans
%%Copyright: Copyright (c) 2003 by Bitstream, Inc. All Rights Reserved. Copyright (c) 2006 by Tavmjong Bah. All Rights Reserved. DejaVu changes are in public domain 
%%Creator: Converted from TrueType to type 3 by PPR
25 dict begin
/_d{bind def}bind def
/_m{moveto}_d
/_l{lineto}_d
/_cl{closepath eofill}_d
/_c{curveto}_d
/_sc{7 -1 roll{setcachedevice}{pop pop pop pop pop pop}ifelse}_d
/_e{exec}_d
/FontName /DejaVuSans def
/PaintType 0 def
/FontMatrix[.001 0 0 .001 0 0]def
/FontBBox[-1021 -463 1793 1232]def
/FontType 3 def
/Encoding [ /period /zero /one /two /three /five /minus ] def
/FontInfo 10 dict dup begin
/FamilyName (DejaVu Sans) def
/FullName (DejaVu Sans) def
/Notice (Copyright (c) 2003 by Bitstream, Inc. All Rights Reserved. Copyright (c) 2006 by Tavmjong Bah. All Rights Reserved. DejaVu changes are in public domain ) def
/Weight (Book) def
/Version (Version 2.35) def
/ItalicAngle 0.0 def
/isFixedPitch false def
/UnderlinePosition -130 def
/UnderlineThickness 90 def
end readonly def
/CharStrings 8 dict dup begin
/.notdef 0 def
/period{318 0 107 0 210 124 _sc
107 124 _m
210 124 _l
210 0 _l
107 0 _l
107 124 _l
_cl}_d
/zero{636 0 66 -13 570 742 _sc
318 664 _m
267 664 229 639 203 589 _c
177 539 165 464 165 364 _c
165 264 177 189 203 139 _c
229 89 267 64 318 64 _c
369 64 407 89 433 139 _c
458 189 471 264 471 364 _c
471 464 458 539 433 589 _c
407 639 369 664 318 664 _c
318 742 _m
399 742 461 709 505 645 _c
548 580 570 486 570 364 _c
570 241 548 147 505 83 _c
461 19 399 -13 318 -13 _c
236 -13 173 19 130 83 _c
87 147 66 241 66 364 _c
66 486 87 580 130 645 _c
173 709 236 742 318 742 _c
_cl}_d
/one{636 0 110 0 544 729 _sc
124 83 _m
285 83 _l
285 639 _l
110 604 _l
110 694 _l
284 729 _l
383 729 _l
383 83 _l
544 83 _l
544 0 _l
124 0 _l
124 83 _l
_cl}_d
/two{{636 0 73 0 536 742 _sc
192 83 _m
536 83 _l
536 0 _l
73 0 _l
73 83 _l
110 121 161 173 226 239 _c
290 304 331 346 348 365 _c
380 400 402 430 414 455 _c
426 479 433 504 433 528 _c
433 566 419 598 392 622 _c
365 646 330 659 286 659 _c
255 659 222 653 188 643 _c
154 632 117 616 78 594 _c
78 694 _l
118 710 155 722 189 730 _c
223 738 255 742 284 742 _c
}_e{359 742 419 723 464 685 _c
509 647 532 597 532 534 _c
532 504 526 475 515 449 _c
504 422 484 390 454 354 _c
446 344 420 317 376 272 _c
332 227 271 164 192 83 _c
_cl}_e}_d
/three{{636 0 76 -13 556 742 _sc
406 393 _m
453 383 490 362 516 330 _c
542 298 556 258 556 212 _c
556 140 531 84 482 45 _c
432 6 362 -13 271 -13 _c
240 -13 208 -10 176 -4 _c
144 1 110 10 76 22 _c
76 117 _l
103 101 133 89 166 81 _c
198 73 232 69 268 69 _c
330 69 377 81 409 105 _c
441 129 458 165 458 212 _c
458 254 443 288 413 312 _c
383 336 341 349 287 349 _c
}_e{202 349 _l
202 430 _l
291 430 _l
339 430 376 439 402 459 _c
428 478 441 506 441 543 _c
441 580 427 609 401 629 _c
374 649 336 659 287 659 _c
260 659 231 656 200 650 _c
169 644 135 635 98 623 _c
98 711 _l
135 721 170 729 203 734 _c
235 739 266 742 296 742 _c
370 742 429 725 473 691 _c
517 657 539 611 539 553 _c
539 513 527 479 504 451 _c
481 423 448 403 406 393 _c
_cl}_e}_d
/five{{636 0 77 -13 549 729 _sc
108 729 _m
495 729 _l
495 646 _l
198 646 _l
198 467 _l
212 472 227 476 241 478 _c
255 480 270 482 284 482 _c
365 482 429 459 477 415 _c
525 370 549 310 549 234 _c
549 155 524 94 475 51 _c
426 8 357 -13 269 -13 _c
238 -13 207 -10 175 -6 _c
143 -1 111 6 77 17 _c
77 116 _l
106 100 136 88 168 80 _c
199 72 232 69 267 69 _c
}_e{323 69 368 83 401 113 _c
433 143 450 183 450 234 _c
450 284 433 324 401 354 _c
368 384 323 399 267 399 _c
241 399 214 396 188 390 _c
162 384 135 375 108 363 _c
108 729 _l
_cl}_e}_d
/minus{838 0 106 272 732 355 _sc
106 355 _m
732 355 _l
732 272 _l
106 272 _l
106 355 _l
_cl}_d
end readonly def

/BuildGlyph
 {exch begin
 CharStrings exch
 2 copy known not{pop /.notdef}if
 true 3 1 roll get exec
 end}_d

/BuildChar {
 1 index /Encoding get exch get
 1 index /BuildGlyph get exec
}_d

FontName currentdict end definefont pop
end
%%EndProlog
mpldict begin
219.951 311.943 translate
172.097 168.114 0 0 clipbox
gsave
0 0 m
172.0975 0 l
172.0975 168.114 l
0 168.114 l
cl
grestore
gsave
36.1375 24.45 m
158.8975 24.45 l
158.8975 154.914 l
36.1375 154.914 l
cl
grestore
0.800 setlinewidth
1 setlinejoin
0 setlinecap
[] 0 setdash
0.150 setgray
gsave
/o {
gsave
newpath
translate
0.8 setlinewidth
1 setlinejoin
0 setlinecap
0 0 m
0 -6 l

gsave
0.150 setgray
fill
grestore
stroke
grestore
} bind def
43.81 24.45 o
grestore
/DejaVuSans findfont
8.000 scalefont
setfont
gsave
41.263125 8.871875 translate
0.000000 rotate
0.000000 0.000000 m /zero glyphshow
grestore
gsave
/o {
gsave
newpath
translate
0.8 setlinewidth
1 setlinejoin
0 setlinecap
0 0 m
0 -6 l

gsave
0.150 setgray
fill
grestore
stroke
grestore
} bind def
82.1725 24.45 o
grestore
gsave
79.625625 8.871875 translate
0.000000 rotate
0.000000 0.000000 m /one glyphshow
grestore
gsave
/o {
gsave
newpath
translate
0.8 setlinewidth
1 setlinejoin
0 setlinecap
0 0 m
0 -6 l

gsave
0.150 setgray
fill
grestore
stroke
grestore
} bind def
120.535 24.45 o
grestore
gsave
117.988125 8.871875 translate
0.000000 rotate
0.000000 0.000000 m /two glyphshow
grestore
gsave
/o {
gsave
newpath
translate
0.8 setlinewidth
1 setlinejoin
0 setlinecap
0 0 m
0 -6 l

gsave
0.150 setgray
fill
grestore
stroke
grestore
} bind def
158.898 24.45 o
grestore
gsave
156.350625 8.871875 translate
0.000000 rotate
0.000000 0.000000 m /three glyphshow
grestore
gsave
/o {
gsave
newpath
translate
0.8 setlinewidth
1 setlinejoin
0 setlinecap
0 0 m
-6 0 l

gsave
0.150 setgray
fill
grestore
stroke
grestore
} bind def
36.1375 24.45 o
grestore
gsave
7.200000 21.410938 translate
0.000000 rotate
0.000000 0.000000 m /minus glyphshow
6.703125 0.000000 m /zero glyphshow
11.792969 0.000000 m /period glyphshow
14.335938 0.000000 m /five glyphshow
grestore
gsave
/o {
gsave
newpath
translate
0.8 setlinewidth
1 setlinejoin
0 setlinecap
0 0 m
-6 0 l

gsave
0.150 setgray
fill
grestore
stroke
grestore
} bind def
36.1375 57.066 o
grestore
gsave
13.903125 54.026938 translate
0.000000 rotate
0.000000 0.000000 m /zero glyphshow
5.089844 0.000000 m /period glyphshow
7.632812 0.000000 m /zero glyphshow
grestore
gsave
/o {
gsave
newpath
translate
0.8 setlinewidth
1 setlinejoin
0 setlinecap
0 0 m
-6 0 l

gsave
0.150 setgray
fill
grestore
stroke
grestore
} bind def
36.1375 89.682 o
grestore
gsave
13.903125 86.642938 translate
0.000000 rotate
0.000000 0.000000 m /zero glyphshow
5.089844 0.000000 m /period glyphshow
7.632812 0.000000 m /five glyphshow
grestore
gsave
/o {
gsave
newpath
translate
0.8 setlinewidth
1 setlinejoin
0 setlinecap
0 0 m
-6 0 l

gsave
0.150 setgray
fill
grestore
stroke
grestore
} bind def
36.1375 122.298 o
grestore
gsave
13.903125 119.258938 translate
0.000000 rotate
0.000000 0.000000 m /one glyphshow
5.089844 0.000000 m /period glyphshow
7.632812 0.000000 m /zero glyphshow
grestore
gsave
/o {
gsave
newpath
translate
0.8 setlinewidth
1 setlinejoin
0 setlinecap
0 0 m
-6 0 l

gsave
0.150 setgray
fill
grestore
stroke
grestore
} bind def
36.1375 154.914 o
grestore
gsave
13.903125 151.874937 translate
0.000000 rotate
0.000000 0.000000 m /one glyphshow
5.089844 0.000000 m /period glyphshow
7.632812 0.000000 m /five glyphshow
grestore
0.400 setlinewidth
1 setlinecap
0.650 setgray
gsave
122.8 130.5 36.14 24.45 clipbox
-1 57.066 m
158.8975 57.066 l
stroke
grestore
gsave
122.8 130.5 36.14 24.45 clipbox
43.81 21.1884 m
43.81 158.1756 l
stroke
grestore
1.000 setlinewidth
0 setlinecap
0.000 setgray
gsave
122.8 130.5 36.14 24.45 clipbox
/o {
gsave
newpath
translate
1.0 setlinewidth
1 setlinejoin
0 setlinecap
-1.936492 -1.936492 m
1.936492 -1.936492 l
1.936492 1.936492 l
-1.936492 1.936492 l
cl

gsave
1.000 setgray
fill
grestore
stroke
grestore
} bind def
153.331 132.382 o
137.439 130.579 o
120.676 122.67 o
105.206 115.689 o
89.7215 107.173 o
75.6271 97.36 o
60.1696 91.8762 o
43.7834 86.9595 o
28.6394 90.5748 o
14.319 94.9173 o
-0.170688 106.58 o
-1 107.027 o
grestore
gsave
122.8 130.5 36.14 24.45 clipbox
/o {
gsave
newpath
translate
1.0 setlinewidth
1 setlinejoin
0 setlinecap
-1.936492 -1.936492 m
1.936492 -1.936492 l
1.936492 1.936492 l
-1.936492 1.936492 l
cl

gsave
1.000 setgray
fill
grestore
stroke
grestore
} bind def
-1 106.406 o
11.9929 97.36 o
27.4504 91.8762 o
43.8366 86.9595 o
58.9806 90.5748 o
73.301 94.9173 o
87.7907 106.58 o
103.127 114.846 o
117.535 122.545 o
134.983 129.641 o
149.206 131.799 o
164.144 132.341 o
grestore
0.750 setlinewidth
[0.75 1.237] 0 setdash
gsave
122.8 130.5 36.14 24.45 clipbox
-1 108.017173 m
5.640276 103.539764 l
10.26691 100.633009 l
14.893543 97.973796 l
19.520176 95.617803 l
24.146809 93.611328 l
28.773442 91.99077 l
33.400075 90.782993 l
38.026709 90.006292 l
42.653342 89.671557 l
44.966658 89.671557 l
47.279975 89.783258 l
51.906608 90.339917 l
56.533241 91.333953 l
61.159874 92.750916 l
65.786508 94.56837 l
70.413141 96.754773 l
75.039774 99.268773 l
79.666407 102.059255 l
86.606357 106.630539 l
109.739523 122.432405 l
114.366156 125.226217 l
118.992789 127.791906 l
123.619422 130.10693 l
128.246055 132.160461 l
132.872688 133.952203 l
137.499322 135.49071 l
142.125955 136.79142 l
146.752588 137.874627 l
151.379221 138.763565 l
156.005854 139.482721 l
162.945804 140.296118 l
169.885754 140.858607 l
173.0975 141.050741 l
173.0975 141.050741 l
stroke
grestore
[2.775 1.2] 0 setdash
gsave
122.8 130.5 36.14 24.45 clipbox
-1 115.659611 m
5.640276 112.899837 l
12.580226 110.288168 l
17.206859 108.75394 l
21.833492 107.418389 l
26.460126 106.305659 l
31.086759 105.435599 l
35.713392 104.823509 l
40.340025 104.480012 l
44.966658 104.411017 l
49.593291 104.617706 l
54.219925 105.096533 l
58.846558 105.839231 l
63.473191 106.832826 l
68.099824 108.059724 l
72.726457 109.497886 l
77.35309 111.121167 l
84.29304 113.837346 l
93.546307 117.807944 l
112.052839 125.90791 l
118.992789 128.682958 l
125.932739 131.196637 l
132.872688 133.406903 l
139.812638 135.295824 l
146.752588 136.86652 l
153.692538 138.138575 l
160.632487 139.142814 l
167.572437 139.916258 l
173.0975 140.390833 l
173.0975 140.390833 l
stroke
grestore
1 setlinecap
[] 0 setdash
gsave
122.8 130.5 36.14 24.45 clipbox
-1 114.352452 m
7.953593 110.734004 l
14.893543 108.226601 l
19.520176 106.766311 l
24.146809 105.512329 l
28.773442 104.491497 l
33.400075 103.725451 l
38.026709 103.23025 l
42.653342 103.01618 l
47.279975 103.08766 l
51.906608 103.443215 l
56.533241 104.075488 l
61.159874 104.97129 l
65.786508 106.111738 l
70.413141 107.472534 l
75.039774 109.024441 l
81.979724 111.636538 l
91.23299 115.452332 l
105.112889 121.264693 l
112.052839 123.96041 l
118.992789 126.400819 l
125.932739 128.535102 l
132.872688 130.341144 l
139.812638 131.821895 l
146.752588 132.999597 l
153.692538 133.909202 l
160.632487 134.59208 l
169.885754 135.223177 l
173.0975 135.381515 l
173.0975 135.381515 l
stroke
grestore
1.250 setlinewidth
0 setlinejoin
2 setlinecap
[] 0 setdash
0.150 setgray
gsave
36.1375 24.45 m
36.1375 154.914 l
stroke
grestore
gsave
158.8975 24.45 m
158.8975 154.914 l
stroke
grestore
gsave
36.1375 24.45 m
158.8975 24.45 l
stroke
grestore
gsave
36.1375 154.914 m
158.8975 154.914 l
stroke
grestore

end
showpage
