%!PS-Adobe-3.0 EPSF-3.0
%%Title: ../Figures/DataComp/LiftData-9_0.eps
%%Creator: matplotlib version 2.1.2, http://matplotlib.org/
%%CreationDate: Tue Jun 12 12:22:18 2018
%%Orientation: portrait
%%BoundingBox: 219 311 392 480
%%EndComments
%%BeginProlog
/mpldict 8 dict def
mpldict begin
/m { moveto } bind def
/l { lineto } bind def
/r { rlineto } bind def
/c { curveto } bind def
/cl { closepath } bind def
/box {
m
1 index 0 r
0 exch r
neg 0 r
cl
} bind def
/clipbox {
box
clip
newpath
} bind def
%!PS-Adobe-3.0 Resource-Font
%%Title: DejaVu Sans
%%Copyright: Copyright (c) 2003 by Bitstream, Inc. All Rights Reserved. Copyright (c) 2006 by Tavmjong Bah. All Rights Reserved. DejaVu changes are in public domain 
%%Creator: Converted from TrueType to type 3 by PPR
25 dict begin
/_d{bind def}bind def
/_m{moveto}_d
/_l{lineto}_d
/_cl{closepath eofill}_d
/_c{curveto}_d
/_sc{7 -1 roll{setcachedevice}{pop pop pop pop pop pop}ifelse}_d
/_e{exec}_d
/FontName /DejaVuSans def
/PaintType 0 def
/FontMatrix[.001 0 0 .001 0 0]def
/FontBBox[-1021 -463 1793 1232]def
/FontType 3 def
/Encoding [ /period /zero /one /two /three /five /minus ] def
/FontInfo 10 dict dup begin
/FamilyName (DejaVu Sans) def
/FullName (DejaVu Sans) def
/Notice (Copyright (c) 2003 by Bitstream, Inc. All Rights Reserved. Copyright (c) 2006 by Tavmjong Bah. All Rights Reserved. DejaVu changes are in public domain ) def
/Weight (Book) def
/Version (Version 2.35) def
/ItalicAngle 0.0 def
/isFixedPitch false def
/UnderlinePosition -130 def
/UnderlineThickness 90 def
end readonly def
/CharStrings 8 dict dup begin
/.notdef 0 def
/period{318 0 107 0 210 124 _sc
107 124 _m
210 124 _l
210 0 _l
107 0 _l
107 124 _l
_cl}_d
/zero{636 0 66 -13 570 742 _sc
318 664 _m
267 664 229 639 203 589 _c
177 539 165 464 165 364 _c
165 264 177 189 203 139 _c
229 89 267 64 318 64 _c
369 64 407 89 433 139 _c
458 189 471 264 471 364 _c
471 464 458 539 433 589 _c
407 639 369 664 318 664 _c
318 742 _m
399 742 461 709 505 645 _c
548 580 570 486 570 364 _c
570 241 548 147 505 83 _c
461 19 399 -13 318 -13 _c
236 -13 173 19 130 83 _c
87 147 66 241 66 364 _c
66 486 87 580 130 645 _c
173 709 236 742 318 742 _c
_cl}_d
/one{636 0 110 0 544 729 _sc
124 83 _m
285 83 _l
285 639 _l
110 604 _l
110 694 _l
284 729 _l
383 729 _l
383 83 _l
544 83 _l
544 0 _l
124 0 _l
124 83 _l
_cl}_d
/two{{636 0 73 0 536 742 _sc
192 83 _m
536 83 _l
536 0 _l
73 0 _l
73 83 _l
110 121 161 173 226 239 _c
290 304 331 346 348 365 _c
380 400 402 430 414 455 _c
426 479 433 504 433 528 _c
433 566 419 598 392 622 _c
365 646 330 659 286 659 _c
255 659 222 653 188 643 _c
154 632 117 616 78 594 _c
78 694 _l
118 710 155 722 189 730 _c
223 738 255 742 284 742 _c
}_e{359 742 419 723 464 685 _c
509 647 532 597 532 534 _c
532 504 526 475 515 449 _c
504 422 484 390 454 354 _c
446 344 420 317 376 272 _c
332 227 271 164 192 83 _c
_cl}_e}_d
/three{{636 0 76 -13 556 742 _sc
406 393 _m
453 383 490 362 516 330 _c
542 298 556 258 556 212 _c
556 140 531 84 482 45 _c
432 6 362 -13 271 -13 _c
240 -13 208 -10 176 -4 _c
144 1 110 10 76 22 _c
76 117 _l
103 101 133 89 166 81 _c
198 73 232 69 268 69 _c
330 69 377 81 409 105 _c
441 129 458 165 458 212 _c
458 254 443 288 413 312 _c
383 336 341 349 287 349 _c
}_e{202 349 _l
202 430 _l
291 430 _l
339 430 376 439 402 459 _c
428 478 441 506 441 543 _c
441 580 427 609 401 629 _c
374 649 336 659 287 659 _c
260 659 231 656 200 650 _c
169 644 135 635 98 623 _c
98 711 _l
135 721 170 729 203 734 _c
235 739 266 742 296 742 _c
370 742 429 725 473 691 _c
517 657 539 611 539 553 _c
539 513 527 479 504 451 _c
481 423 448 403 406 393 _c
_cl}_e}_d
/five{{636 0 77 -13 549 729 _sc
108 729 _m
495 729 _l
495 646 _l
198 646 _l
198 467 _l
212 472 227 476 241 478 _c
255 480 270 482 284 482 _c
365 482 429 459 477 415 _c
525 370 549 310 549 234 _c
549 155 524 94 475 51 _c
426 8 357 -13 269 -13 _c
238 -13 207 -10 175 -6 _c
143 -1 111 6 77 17 _c
77 116 _l
106 100 136 88 168 80 _c
199 72 232 69 267 69 _c
}_e{323 69 368 83 401 113 _c
433 143 450 183 450 234 _c
450 284 433 324 401 354 _c
368 384 323 399 267 399 _c
241 399 214 396 188 390 _c
162 384 135 375 108 363 _c
108 729 _l
_cl}_e}_d
/minus{838 0 106 272 732 355 _sc
106 355 _m
732 355 _l
732 272 _l
106 272 _l
106 355 _l
_cl}_d
end readonly def

/BuildGlyph
 {exch begin
 CharStrings exch
 2 copy known not{pop /.notdef}if
 true 3 1 roll get exec
 end}_d

/BuildChar {
 1 index /Encoding get exch get
 1 index /BuildGlyph get exec
}_d

FontName currentdict end definefont pop
end
%%EndProlog
mpldict begin
219.951 311.943 translate
172.097 168.114 0 0 clipbox
gsave
0 0 m
172.0975 0 l
172.0975 168.114 l
0 168.114 l
cl
grestore
gsave
36.1375 24.45 m
158.8975 24.45 l
158.8975 154.914 l
36.1375 154.914 l
cl
grestore
0.800 setlinewidth
1 setlinejoin
0 setlinecap
[] 0 setdash
0.150 setgray
gsave
/o {
gsave
newpath
translate
0.8 setlinewidth
1 setlinejoin
0 setlinecap
0 0 m
0 -6 l

gsave
0.150 setgray
fill
grestore
stroke
grestore
} bind def
43.81 24.45 o
grestore
/DejaVuSans findfont
8.000 scalefont
setfont
gsave
41.263125 8.871875 translate
0.000000 rotate
0.000000 0.000000 m /zero glyphshow
grestore
gsave
/o {
gsave
newpath
translate
0.8 setlinewidth
1 setlinejoin
0 setlinecap
0 0 m
0 -6 l

gsave
0.150 setgray
fill
grestore
stroke
grestore
} bind def
82.1725 24.45 o
grestore
gsave
79.625625 8.871875 translate
0.000000 rotate
0.000000 0.000000 m /one glyphshow
grestore
gsave
/o {
gsave
newpath
translate
0.8 setlinewidth
1 setlinejoin
0 setlinecap
0 0 m
0 -6 l

gsave
0.150 setgray
fill
grestore
stroke
grestore
} bind def
120.535 24.45 o
grestore
gsave
117.988125 8.871875 translate
0.000000 rotate
0.000000 0.000000 m /two glyphshow
grestore
gsave
/o {
gsave
newpath
translate
0.8 setlinewidth
1 setlinejoin
0 setlinecap
0 0 m
0 -6 l

gsave
0.150 setgray
fill
grestore
stroke
grestore
} bind def
158.898 24.45 o
grestore
gsave
156.350625 8.871875 translate
0.000000 rotate
0.000000 0.000000 m /three glyphshow
grestore
gsave
/o {
gsave
newpath
translate
0.8 setlinewidth
1 setlinejoin
0 setlinecap
0 0 m
-6 0 l

gsave
0.150 setgray
fill
grestore
stroke
grestore
} bind def
36.1375 30.3802 o
grestore
gsave
7.200000 27.341119 translate
0.000000 rotate
0.000000 0.000000 m /minus glyphshow
6.703125 0.000000 m /one glyphshow
11.792969 0.000000 m /period glyphshow
14.335938 0.000000 m /zero glyphshow
grestore
gsave
/o {
gsave
newpath
translate
0.8 setlinewidth
1 setlinejoin
0 setlinecap
0 0 m
-6 0 l

gsave
0.150 setgray
fill
grestore
stroke
grestore
} bind def
36.1375 60.0311 o
grestore
gsave
7.200000 56.992028 translate
0.000000 rotate
0.000000 0.000000 m /minus glyphshow
6.703125 0.000000 m /zero glyphshow
11.792969 0.000000 m /period glyphshow
14.335938 0.000000 m /five glyphshow
grestore
gsave
/o {
gsave
newpath
translate
0.8 setlinewidth
1 setlinejoin
0 setlinecap
0 0 m
-6 0 l

gsave
0.150 setgray
fill
grestore
stroke
grestore
} bind def
36.1375 89.682 o
grestore
gsave
13.903125 86.642938 translate
0.000000 rotate
0.000000 0.000000 m /zero glyphshow
5.089844 0.000000 m /period glyphshow
7.632812 0.000000 m /zero glyphshow
grestore
gsave
/o {
gsave
newpath
translate
0.8 setlinewidth
1 setlinejoin
0 setlinecap
0 0 m
-6 0 l

gsave
0.150 setgray
fill
grestore
stroke
grestore
} bind def
36.1375 119.333 o
grestore
gsave
13.903125 116.293847 translate
0.000000 rotate
0.000000 0.000000 m /zero glyphshow
5.089844 0.000000 m /period glyphshow
7.632812 0.000000 m /five glyphshow
grestore
gsave
/o {
gsave
newpath
translate
0.8 setlinewidth
1 setlinejoin
0 setlinecap
0 0 m
-6 0 l

gsave
0.150 setgray
fill
grestore
stroke
grestore
} bind def
36.1375 148.984 o
grestore
gsave
13.903125 145.944756 translate
0.000000 rotate
0.000000 0.000000 m /one glyphshow
5.089844 0.000000 m /period glyphshow
7.632812 0.000000 m /zero glyphshow
grestore
0.400 setlinewidth
1 setlinecap
0.650 setgray
gsave
122.8 130.5 36.14 24.45 clipbox
-1 89.682 m
158.8975 89.682 l
stroke
grestore
gsave
122.8 130.5 36.14 24.45 clipbox
43.81 18.519818 m
43.81 160.844182 l
stroke
grestore
1.000 setlinewidth
0 setlinecap
0.000 setgray
gsave
122.8 130.5 36.14 24.45 clipbox
/o {
gsave
newpath
translate
1.0 setlinewidth
1 setlinejoin
0 setlinecap
-1.936492 -1.936492 m
1.936492 -1.936492 l
1.936492 1.936492 l
-1.936492 1.936492 l
cl

gsave
1.000 setgray
fill
grestore
stroke
grestore
} bind def
173.097 89.0596 o
166.24 89.1093 o
149.979 87.5469 o
134.965 85.494 o
119.009 82.0691 o
102.112 77.8605 o
87.7282 76.8365 o
73.041 78.4102 o
57.8969 83.2187 o
43.3832 89.3992 o
29.0277 96.0698 o
12.6371 101.957 o
-1 103.042 o
grestore
gsave
122.8 130.5 36.14 24.45 clipbox
/o {
gsave
newpath
translate
1.0 setlinewidth
1 setlinejoin
0 setlinecap
-1.936492 -1.936492 m
1.936492 -1.936492 l
1.936492 1.936492 l
-1.936492 1.936492 l
cl

gsave
1.000 setgray
fill
grestore
stroke
grestore
} bind def
-1 102.464 o
-0.108157 102.527 o
14.579 100.954 o
29.7231 96.1453 o
44.2368 89.9648 o
58.5923 83.2942 o
74.9829 77.4071 o
89.8277 76.2254 o
105.932 77.4938 o
121.109 81.36 o
137.852 86.3529 o
149.899 89.4361 o
167.092 89.0868 o
grestore
0.750 setlinewidth
[0.75 1.237] 0 setdash
gsave
122.8 130.5 36.14 24.45 clipbox
-1 103.898136 m
3.32696 103.414677 l
7.953593 102.596809 l
12.580226 101.496503 l
17.206859 100.148762 l
21.833492 98.595412 l
28.773442 95.975987 l
38.026709 92.154381 l
58.846558 83.388013 l
65.786508 80.768588 l
70.413141 79.215238 l
75.039774 77.867497 l
79.666407 76.767191 l
84.29304 75.949323 l
88.919673 75.437819 l
93.546307 75.24232 l
98.17294 75.356583 l
102.799573 75.758717 l
107.426206 76.413145 l
112.052839 77.273916 l
118.992789 78.837105 l
142.125955 84.407298 l
149.065905 85.740587 l
156.005854 86.830159 l
162.945804 87.681648 l
169.885754 88.320529 l
173.0975 88.551805 l
173.0975 88.551805 l
stroke
grestore
[2.775 1.2] 0 setdash
gsave
122.8 130.5 36.14 24.45 clipbox
-1 103.235942 m
3.32696 102.66846 l
7.953593 101.82986 l
12.580226 100.768587 l
17.206859 99.504213 l
21.833492 98.061261 l
28.773442 95.624091 l
38.026709 92.027879 l
56.533241 84.609759 l
63.473191 82.082506 l
70.413141 79.859787 l
75.039774 78.595413 l
79.666407 77.53414 l
84.29304 76.69554 l
88.919673 76.092918 l
93.546307 75.732269 l
98.17294 75.611661 l
102.799573 75.721157 l
107.426206 76.043294 l
112.052839 76.554104 l
118.992789 77.609606 l
125.932739 78.913353 l
156.005854 84.928139 l
162.945804 86.007782 l
169.885754 86.910037 l
173.0975 87.266128 l
173.0975 87.266128 l
stroke
grestore
1 setlinecap
[] 0 setdash
gsave
122.8 130.5 36.14 24.45 clipbox
-1 101.943617 m
3.32696 101.568968 l
7.953593 100.924374 l
12.580226 100.039864 l
17.206859 98.932239 l
21.833492 97.625331 l
28.773442 95.35636 l
35.713392 92.81875 l
58.846558 84.00764 l
65.786508 81.738669 l
70.413141 80.431761 l
75.039774 79.324136 l
79.666407 78.439626 l
84.29304 77.795032 l
88.919673 77.398759 l
93.546307 77.24998 l
98.17294 77.338458 l
102.799573 77.645114 l
107.426206 78.143299 l
114.366156 79.177781 l
123.619422 80.901435 l
142.125955 84.515032 l
151.379221 86.023583 l
158.319171 86.950145 l
165.259121 87.697303 l
173.0975 88.340459 l
173.0975 88.340459 l
stroke
grestore
1.250 setlinewidth
0 setlinejoin
2 setlinecap
[] 0 setdash
0.150 setgray
gsave
36.1375 24.45 m
36.1375 154.914 l
stroke
grestore
gsave
158.8975 24.45 m
158.8975 154.914 l
stroke
grestore
gsave
36.1375 24.45 m
158.8975 24.45 l
stroke
grestore
gsave
36.1375 154.914 m
158.8975 154.914 l
stroke
grestore

end
showpage
