%!PS-Adobe-3.0 EPSF-3.0
%%Title: ../Figures/DataComp/LiftData-2_5.eps
%%Creator: matplotlib version 2.1.2, http://matplotlib.org/
%%CreationDate: Tue Jun 12 12:22:18 2018
%%Orientation: portrait
%%BoundingBox: 219 311 392 480
%%EndComments
%%BeginProlog
/mpldict 8 dict def
mpldict begin
/m { moveto } bind def
/l { lineto } bind def
/r { rlineto } bind def
/c { curveto } bind def
/cl { closepath } bind def
/box {
m
1 index 0 r
0 exch r
neg 0 r
cl
} bind def
/clipbox {
box
clip
newpath
} bind def
%!PS-Adobe-3.0 Resource-Font
%%Title: DejaVu Sans
%%Copyright: Copyright (c) 2003 by Bitstream, Inc. All Rights Reserved. Copyright (c) 2006 by Tavmjong Bah. All Rights Reserved. DejaVu changes are in public domain 
%%Creator: Converted from TrueType to type 3 by PPR
25 dict begin
/_d{bind def}bind def
/_m{moveto}_d
/_l{lineto}_d
/_cl{closepath eofill}_d
/_c{curveto}_d
/_sc{7 -1 roll{setcachedevice}{pop pop pop pop pop pop}ifelse}_d
/_e{exec}_d
/FontName /DejaVuSans def
/PaintType 0 def
/FontMatrix[.001 0 0 .001 0 0]def
/FontBBox[-1021 -463 1793 1232]def
/FontType 3 def
/Encoding [ /period /zero /one /two /three /five /minus ] def
/FontInfo 10 dict dup begin
/FamilyName (DejaVu Sans) def
/FullName (DejaVu Sans) def
/Notice (Copyright (c) 2003 by Bitstream, Inc. All Rights Reserved. Copyright (c) 2006 by Tavmjong Bah. All Rights Reserved. DejaVu changes are in public domain ) def
/Weight (Book) def
/Version (Version 2.35) def
/ItalicAngle 0.0 def
/isFixedPitch false def
/UnderlinePosition -130 def
/UnderlineThickness 90 def
end readonly def
/CharStrings 8 dict dup begin
/.notdef 0 def
/period{318 0 107 0 210 124 _sc
107 124 _m
210 124 _l
210 0 _l
107 0 _l
107 124 _l
_cl}_d
/zero{636 0 66 -13 570 742 _sc
318 664 _m
267 664 229 639 203 589 _c
177 539 165 464 165 364 _c
165 264 177 189 203 139 _c
229 89 267 64 318 64 _c
369 64 407 89 433 139 _c
458 189 471 264 471 364 _c
471 464 458 539 433 589 _c
407 639 369 664 318 664 _c
318 742 _m
399 742 461 709 505 645 _c
548 580 570 486 570 364 _c
570 241 548 147 505 83 _c
461 19 399 -13 318 -13 _c
236 -13 173 19 130 83 _c
87 147 66 241 66 364 _c
66 486 87 580 130 645 _c
173 709 236 742 318 742 _c
_cl}_d
/one{636 0 110 0 544 729 _sc
124 83 _m
285 83 _l
285 639 _l
110 604 _l
110 694 _l
284 729 _l
383 729 _l
383 83 _l
544 83 _l
544 0 _l
124 0 _l
124 83 _l
_cl}_d
/two{{636 0 73 0 536 742 _sc
192 83 _m
536 83 _l
536 0 _l
73 0 _l
73 83 _l
110 121 161 173 226 239 _c
290 304 331 346 348 365 _c
380 400 402 430 414 455 _c
426 479 433 504 433 528 _c
433 566 419 598 392 622 _c
365 646 330 659 286 659 _c
255 659 222 653 188 643 _c
154 632 117 616 78 594 _c
78 694 _l
118 710 155 722 189 730 _c
223 738 255 742 284 742 _c
}_e{359 742 419 723 464 685 _c
509 647 532 597 532 534 _c
532 504 526 475 515 449 _c
504 422 484 390 454 354 _c
446 344 420 317 376 272 _c
332 227 271 164 192 83 _c
_cl}_e}_d
/three{{636 0 76 -13 556 742 _sc
406 393 _m
453 383 490 362 516 330 _c
542 298 556 258 556 212 _c
556 140 531 84 482 45 _c
432 6 362 -13 271 -13 _c
240 -13 208 -10 176 -4 _c
144 1 110 10 76 22 _c
76 117 _l
103 101 133 89 166 81 _c
198 73 232 69 268 69 _c
330 69 377 81 409 105 _c
441 129 458 165 458 212 _c
458 254 443 288 413 312 _c
383 336 341 349 287 349 _c
}_e{202 349 _l
202 430 _l
291 430 _l
339 430 376 439 402 459 _c
428 478 441 506 441 543 _c
441 580 427 609 401 629 _c
374 649 336 659 287 659 _c
260 659 231 656 200 650 _c
169 644 135 635 98 623 _c
98 711 _l
135 721 170 729 203 734 _c
235 739 266 742 296 742 _c
370 742 429 725 473 691 _c
517 657 539 611 539 553 _c
539 513 527 479 504 451 _c
481 423 448 403 406 393 _c
_cl}_e}_d
/five{{636 0 77 -13 549 729 _sc
108 729 _m
495 729 _l
495 646 _l
198 646 _l
198 467 _l
212 472 227 476 241 478 _c
255 480 270 482 284 482 _c
365 482 429 459 477 415 _c
525 370 549 310 549 234 _c
549 155 524 94 475 51 _c
426 8 357 -13 269 -13 _c
238 -13 207 -10 175 -6 _c
143 -1 111 6 77 17 _c
77 116 _l
106 100 136 88 168 80 _c
199 72 232 69 267 69 _c
}_e{323 69 368 83 401 113 _c
433 143 450 183 450 234 _c
450 284 433 324 401 354 _c
368 384 323 399 267 399 _c
241 399 214 396 188 390 _c
162 384 135 375 108 363 _c
108 729 _l
_cl}_e}_d
/minus{838 0 106 272 732 355 _sc
106 355 _m
732 355 _l
732 272 _l
106 272 _l
106 355 _l
_cl}_d
end readonly def

/BuildGlyph
 {exch begin
 CharStrings exch
 2 copy known not{pop /.notdef}if
 true 3 1 roll get exec
 end}_d

/BuildChar {
 1 index /Encoding get exch get
 1 index /BuildGlyph get exec
}_d

FontName currentdict end definefont pop
end
%%EndProlog
mpldict begin
219.951 311.943 translate
172.097 168.114 0 0 clipbox
gsave
0 0 m
172.0975 0 l
172.0975 168.114 l
0 168.114 l
cl
grestore
gsave
36.1375 24.45 m
158.8975 24.45 l
158.8975 154.914 l
36.1375 154.914 l
cl
grestore
0.800 setlinewidth
1 setlinejoin
0 setlinecap
[] 0 setdash
0.150 setgray
gsave
/o {
gsave
newpath
translate
0.8 setlinewidth
1 setlinejoin
0 setlinecap
0 0 m
0 -6 l

gsave
0.150 setgray
fill
grestore
stroke
grestore
} bind def
43.81 24.45 o
grestore
/DejaVuSans findfont
8.000 scalefont
setfont
gsave
41.263125 8.871875 translate
0.000000 rotate
0.000000 0.000000 m /zero glyphshow
grestore
gsave
/o {
gsave
newpath
translate
0.8 setlinewidth
1 setlinejoin
0 setlinecap
0 0 m
0 -6 l

gsave
0.150 setgray
fill
grestore
stroke
grestore
} bind def
82.1725 24.45 o
grestore
gsave
79.625625 8.871875 translate
0.000000 rotate
0.000000 0.000000 m /one glyphshow
grestore
gsave
/o {
gsave
newpath
translate
0.8 setlinewidth
1 setlinejoin
0 setlinecap
0 0 m
0 -6 l

gsave
0.150 setgray
fill
grestore
stroke
grestore
} bind def
120.535 24.45 o
grestore
gsave
117.988125 8.871875 translate
0.000000 rotate
0.000000 0.000000 m /two glyphshow
grestore
gsave
/o {
gsave
newpath
translate
0.8 setlinewidth
1 setlinejoin
0 setlinecap
0 0 m
0 -6 l

gsave
0.150 setgray
fill
grestore
stroke
grestore
} bind def
158.898 24.45 o
grestore
gsave
156.350625 8.871875 translate
0.000000 rotate
0.000000 0.000000 m /three glyphshow
grestore
gsave
/o {
gsave
newpath
translate
0.8 setlinewidth
1 setlinejoin
0 setlinecap
0 0 m
-6 0 l

gsave
0.150 setgray
fill
grestore
stroke
grestore
} bind def
36.1375 30.3802 o
grestore
gsave
7.200000 27.341119 translate
0.000000 rotate
0.000000 0.000000 m /minus glyphshow
6.703125 0.000000 m /one glyphshow
11.792969 0.000000 m /period glyphshow
14.335938 0.000000 m /zero glyphshow
grestore
gsave
/o {
gsave
newpath
translate
0.8 setlinewidth
1 setlinejoin
0 setlinecap
0 0 m
-6 0 l

gsave
0.150 setgray
fill
grestore
stroke
grestore
} bind def
36.1375 60.0311 o
grestore
gsave
7.200000 56.992028 translate
0.000000 rotate
0.000000 0.000000 m /minus glyphshow
6.703125 0.000000 m /zero glyphshow
11.792969 0.000000 m /period glyphshow
14.335938 0.000000 m /five glyphshow
grestore
gsave
/o {
gsave
newpath
translate
0.8 setlinewidth
1 setlinejoin
0 setlinecap
0 0 m
-6 0 l

gsave
0.150 setgray
fill
grestore
stroke
grestore
} bind def
36.1375 89.682 o
grestore
gsave
13.903125 86.642938 translate
0.000000 rotate
0.000000 0.000000 m /zero glyphshow
5.089844 0.000000 m /period glyphshow
7.632812 0.000000 m /zero glyphshow
grestore
gsave
/o {
gsave
newpath
translate
0.8 setlinewidth
1 setlinejoin
0 setlinecap
0 0 m
-6 0 l

gsave
0.150 setgray
fill
grestore
stroke
grestore
} bind def
36.1375 119.333 o
grestore
gsave
13.903125 116.293847 translate
0.000000 rotate
0.000000 0.000000 m /zero glyphshow
5.089844 0.000000 m /period glyphshow
7.632812 0.000000 m /five glyphshow
grestore
gsave
/o {
gsave
newpath
translate
0.8 setlinewidth
1 setlinejoin
0 setlinecap
0 0 m
-6 0 l

gsave
0.150 setgray
fill
grestore
stroke
grestore
} bind def
36.1375 148.984 o
grestore
gsave
13.903125 145.944756 translate
0.000000 rotate
0.000000 0.000000 m /one glyphshow
5.089844 0.000000 m /period glyphshow
7.632812 0.000000 m /zero glyphshow
grestore
0.400 setlinewidth
1 setlinecap
0.650 setgray
gsave
122.8 130.5 36.14 24.45 clipbox
-1 89.682 m
158.8975 89.682 l
stroke
grestore
gsave
122.8 130.5 36.14 24.45 clipbox
43.81 18.519818 m
43.81 160.844182 l
stroke
grestore
1.000 setlinewidth
0 setlinecap
0.000 setgray
gsave
122.8 130.5 36.14 24.45 clipbox
/o {
gsave
newpath
translate
1.0 setlinewidth
1 setlinejoin
0 setlinecap
0 1.936492 m
-1.936492 -1.936492 l
1.936492 -1.936492 l
cl

gsave
1.000 setgray
fill
grestore
stroke
grestore
} bind def
39.5 92.5006 o
34.6823 103.813 o
29.8557 113.489 o
25.0748 116.536 o
20.709 121.17 o
15.9195 122.631 o
11.5369 124.143 o
6.30667 119.259 o
-1 111.91 o
grestore
gsave
122.8 130.5 36.14 24.45 clipbox
/o {
gsave
newpath
translate
1.0 setlinewidth
1 setlinejoin
0 setlinecap
0 1.936492 m
-1.936492 -1.936492 l
1.936492 -1.936492 l
cl

gsave
1.000 setgray
fill
grestore
stroke
grestore
} bind def
48.12 86.8634 o
52.9377 75.5506 o
57.7643 65.8755 o
62.5452 62.8278 o
66.911 58.1939 o
71.7005 56.7328 o
76.0831 55.2207 o
81.3133 60.1054 o
91.2057 70.0542 o
101.243 76.7531 o
110.454 80.9959 o
120.319 85.9293 o
129.765 88.5343 o
139.205 90.039 o
grestore
gsave
122.8 130.5 36.14 24.45 clipbox
/o {
gsave
newpath
translate
1.0 setlinewidth
1 setlinejoin
0 setlinecap
-0 -1.936492 m
1.936492 1.936492 l
-1.936492 1.936492 l
cl

gsave
1.000 setgray
fill
grestore
stroke
grestore
} bind def
82.6781 62.6921 o
72.7094 53.6389 o
63.6996 56.5609 o
59.2627 63.0885 o
53.8624 71.9194 o
48.7179 82.951 o
39.7601 95.5199 o
34.1317 107.268 o
29.7101 116.636 o
24.7031 123.01 o
20.4893 125.674 o
15.7748 125.958 o
10.9498 120.817 o
4.74854 116.828 o
-1 112.546 o
grestore
gsave
122.8 130.5 36.14 24.45 clipbox
/o {
gsave
newpath
translate
1.0 setlinewidth
1 setlinejoin
0 setlinecap
-0 -1.936492 m
1.936492 1.936492 l
-1.936492 1.936492 l
cl

gsave
1.000 setgray
fill
grestore
stroke
grestore
} bind def
4.94188 116.672 o
14.9106 125.725 o
23.9204 122.803 o
28.3573 116.276 o
33.7576 107.445 o
38.9021 96.413 o
47.8599 83.8441 o
53.4883 72.0958 o
57.9099 62.728 o
62.9169 56.3537 o
67.1307 53.6902 o
71.8452 53.4062 o
76.6702 58.5469 o
82.8715 62.5355 o
91.9331 69.2861 o
101.33 77.8278 o
110.378 81.9428 o
121.206 84.547 o
130.248 87.6641 o
140.014 89.0918 o
149.856 89.8542 o
grestore
gsave
122.8 130.5 36.14 24.45 clipbox
/o {
gsave
newpath
translate
1.0 setlinewidth
1 setlinejoin
0 setlinecap
0 -1.936492 m
0.513564 -1.936492 1.006162 -1.732451 1.369306 -1.369306 c
1.732451 -1.006162 1.936492 -0.513564 1.936492 0 c
1.936492 0.513564 1.732451 1.006162 1.369306 1.369306 c
1.006162 1.732451 0.513564 1.936492 0 1.936492 c
-0.513564 1.936492 -1.006162 1.732451 -1.369306 1.369306 c
-1.732451 1.006162 -1.936492 0.513564 -1.936492 0 c
-1.936492 -0.513564 -1.732451 -1.006162 -1.369306 -1.369306 c
-1.006162 -1.732451 -0.513564 -1.936492 0 -1.936492 c
cl

gsave
1.000 setgray
fill
grestore
stroke
grestore
} bind def
28.465 150.169 o
36.1375 114.499 o
43.81 92.1387 o
51.4825 70.8913 o
59.155 36.3583 o
66.8275 47.8674 o
74.5 46.1917 o
82.1725 52.2339 o
89.845 59.5327 o
97.5175 67.5241 o
105.19 73.8146 o
112.862 78.4013 o
120.535 81.7801 o
128.208 83.9354 o
135.88 85.2467 o
143.553 86.8004 o
151.225 87.6366 o
158.898 87.6024 o
grestore
gsave
122.8 130.5 36.14 24.45 clipbox
/o {
gsave
newpath
translate
1.0 setlinewidth
1 setlinejoin
0 setlinecap
0 -1.936492 m
0.513564 -1.936492 1.006162 -1.732451 1.369306 -1.369306 c
1.732451 -1.006162 1.936492 -0.513564 1.936492 0 c
1.936492 0.513564 1.732451 1.006162 1.369306 1.369306 c
1.006162 1.732451 0.513564 1.936492 0 1.936492 c
-0.513564 1.936492 -1.006162 1.732451 -1.369306 1.369306 c
-1.732451 1.006162 -1.936492 0.513564 -1.936492 0 c
-1.936492 -0.513564 -1.732451 -1.006162 -1.369306 -1.369306 c
-1.006162 -1.732451 -0.513564 -1.936492 0 -1.936492 c
cl

gsave
1.000 setgray
fill
grestore
stroke
grestore
} bind def
59.155 29.1954 o
51.4825 64.8647 o
43.81 87.2253 o
36.1375 108.473 o
28.465 143.006 o
20.7925 131.497 o
13.12 133.172 o
5.4475 127.13 o
-1 120.997 o
grestore
0.750 setlinewidth
[0.75 1.237] 0 setdash
gsave
122.8 130.5 36.14 24.45 clipbox
-1 118.207234 m
1.013643 121.13991 l
3.32696 124.305676 l
5.640276 127.102677 l
7.953593 129.361875 l
10.26691 130.925002 l
12.580226 131.660641 l
14.893543 131.480067 l
17.206859 130.350518 l
19.520176 128.303423 l
21.833492 125.435504 l
24.146809 121.901473 l
26.460126 117.898331 l
33.400075 105.179369 l
35.713392 101.267933 l
38.026709 97.660716 l
40.340025 94.336105 l
49.593291 81.703284 l
51.906608 78.096067 l
54.219925 74.184631 l
63.473191 57.462527 l
65.786508 53.928496 l
68.099824 51.060577 l
70.413141 49.013482 l
72.726457 47.883933 l
75.039774 47.703359 l
77.35309 48.438998 l
79.666407 50.002125 l
81.979724 52.261323 l
84.29304 55.058324 l
86.606357 58.22409 l
95.859623 71.535981 l
98.17294 74.462039 l
100.486256 77.095723 l
102.799573 79.414975 l
105.112889 81.416947 l
107.426206 83.113455 l
109.739523 84.526578 l
112.052839 85.684755 l
114.366156 86.619531 l
116.679472 87.363036 l
118.992789 87.946157 l
123.619422 88.741851 l
128.246055 89.194951 l
135.186005 89.514663 l
144.439271 89.647356 l
172.19907 89.681888 l
173.0975 89.681907 l
173.0975 89.681907 l
stroke
grestore
[2.775 1.2] 0 setdash
gsave
122.8 130.5 36.14 24.45 clipbox
-1 116.083468 m
1.013643 117.495106 l
3.32696 118.943656 l
5.640276 120.1722 l
7.953593 121.135055 l
10.26691 121.789344 l
12.580226 122.096643 l
14.893543 122.024551 l
17.206859 121.548091 l
19.520176 120.650853 l
21.833492 119.325831 l
24.146809 117.575905 l
26.460126 115.413954 l
28.773442 112.862616 l
31.086759 109.953716 l
33.400075 106.727431 l
35.713392 103.231234 l
40.340025 95.648175 l
49.593291 79.845306 l
51.906608 76.132766 l
54.219925 72.636569 l
56.533241 69.410284 l
58.846558 66.501384 l
61.159874 63.950046 l
63.473191 61.788095 l
65.786508 60.038169 l
68.099824 58.713147 l
70.413141 57.815909 l
72.726457 57.339449 l
75.039774 57.267357 l
77.35309 57.574656 l
79.666407 58.228945 l
81.979724 59.1918 l
84.29304 60.420344 l
86.606357 61.868894 l
91.23299 65.239073 l
105.112889 76.147784 l
109.739523 79.247449 l
114.366156 81.872861 l
118.992789 84.004262 l
123.619422 85.66885 l
128.246055 86.92283 l
132.872688 87.835889 l
137.499322 88.479482 l
142.125955 88.919187 l
149.065905 89.315074 l
158.319171 89.555691 l
173.0975 89.663187 l
173.0975 89.663187 l
stroke
grestore
1 setlinecap
[] 0 setdash
gsave
122.8 130.5 36.14 24.45 clipbox
-1 116.954889 m
1.013643 118.417777 l
3.32696 119.901971 l
5.640276 121.139943 l
7.953593 122.084439 l
10.26691 122.69267 l
12.580226 122.928103 l
14.893543 122.762018 l
17.206859 122.174726 l
19.520176 121.156374 l
21.833492 119.707296 l
24.146809 117.8379 l
26.460126 115.568136 l
28.773442 112.926618 l
31.086759 109.949492 l
33.400075 106.679181 l
38.026709 99.452407 l
44.966658 87.699512 l
49.593291 79.911593 l
54.219925 72.684819 l
56.533241 69.414508 l
58.846558 66.437382 l
61.159874 63.795864 l
63.473191 61.5261 l
65.786508 59.656704 l
68.099824 58.207626 l
70.413141 57.189274 l
72.726457 56.601982 l
75.039774 56.435897 l
77.35309 56.67133 l
79.666407 57.279561 l
81.979724 58.224057 l
84.29304 59.462029 l
86.606357 60.946223 l
88.919673 62.62682 l
93.546307 66.376431 l
102.799573 74.167099 l
107.426206 77.656634 l
112.052839 80.660217 l
114.366156 81.960124 l
116.679472 83.123925 l
118.992789 84.154878 l
123.619422 85.84389 l
128.246055 87.094526 l
132.872688 87.987573 l
137.499322 88.603643 l
142.125955 89.014791 l
149.065905 89.373785 l
158.319171 89.582027 l
173.0975 89.668612 l
173.0975 89.668612 l
stroke
grestore
1.250 setlinewidth
0 setlinejoin
2 setlinecap
[] 0 setdash
0.150 setgray
gsave
36.1375 24.45 m
36.1375 154.914 l
stroke
grestore
gsave
158.8975 24.45 m
158.8975 154.914 l
stroke
grestore
gsave
36.1375 24.45 m
158.8975 24.45 l
stroke
grestore
gsave
36.1375 154.914 m
158.8975 154.914 l
stroke
grestore

end
showpage
