%!PS-Adobe-3.0 EPSF-3.0
%%Title: ../Figures/DataComp/LiftData-1_5.eps
%%Creator: matplotlib version 2.1.2, http://matplotlib.org/
%%CreationDate: Tue Jun 12 12:22:17 2018
%%Orientation: portrait
%%BoundingBox: 219 311 392 480
%%EndComments
%%BeginProlog
/mpldict 8 dict def
mpldict begin
/m { moveto } bind def
/l { lineto } bind def
/r { rlineto } bind def
/c { curveto } bind def
/cl { closepath } bind def
/box {
m
1 index 0 r
0 exch r
neg 0 r
cl
} bind def
/clipbox {
box
clip
newpath
} bind def
%!PS-Adobe-3.0 Resource-Font
%%Title: DejaVu Sans
%%Copyright: Copyright (c) 2003 by Bitstream, Inc. All Rights Reserved. Copyright (c) 2006 by Tavmjong Bah. All Rights Reserved. DejaVu changes are in public domain 
%%Creator: Converted from TrueType to type 3 by PPR
25 dict begin
/_d{bind def}bind def
/_m{moveto}_d
/_l{lineto}_d
/_cl{closepath eofill}_d
/_c{curveto}_d
/_sc{7 -1 roll{setcachedevice}{pop pop pop pop pop pop}ifelse}_d
/_e{exec}_d
/FontName /DejaVuSans def
/PaintType 0 def
/FontMatrix[.001 0 0 .001 0 0]def
/FontBBox[-1021 -463 1793 1232]def
/FontType 3 def
/Encoding [ /period /zero /one /two /three /five /minus ] def
/FontInfo 10 dict dup begin
/FamilyName (DejaVu Sans) def
/FullName (DejaVu Sans) def
/Notice (Copyright (c) 2003 by Bitstream, Inc. All Rights Reserved. Copyright (c) 2006 by Tavmjong Bah. All Rights Reserved. DejaVu changes are in public domain ) def
/Weight (Book) def
/Version (Version 2.35) def
/ItalicAngle 0.0 def
/isFixedPitch false def
/UnderlinePosition -130 def
/UnderlineThickness 90 def
end readonly def
/CharStrings 8 dict dup begin
/.notdef 0 def
/period{318 0 107 0 210 124 _sc
107 124 _m
210 124 _l
210 0 _l
107 0 _l
107 124 _l
_cl}_d
/zero{636 0 66 -13 570 742 _sc
318 664 _m
267 664 229 639 203 589 _c
177 539 165 464 165 364 _c
165 264 177 189 203 139 _c
229 89 267 64 318 64 _c
369 64 407 89 433 139 _c
458 189 471 264 471 364 _c
471 464 458 539 433 589 _c
407 639 369 664 318 664 _c
318 742 _m
399 742 461 709 505 645 _c
548 580 570 486 570 364 _c
570 241 548 147 505 83 _c
461 19 399 -13 318 -13 _c
236 -13 173 19 130 83 _c
87 147 66 241 66 364 _c
66 486 87 580 130 645 _c
173 709 236 742 318 742 _c
_cl}_d
/one{636 0 110 0 544 729 _sc
124 83 _m
285 83 _l
285 639 _l
110 604 _l
110 694 _l
284 729 _l
383 729 _l
383 83 _l
544 83 _l
544 0 _l
124 0 _l
124 83 _l
_cl}_d
/two{{636 0 73 0 536 742 _sc
192 83 _m
536 83 _l
536 0 _l
73 0 _l
73 83 _l
110 121 161 173 226 239 _c
290 304 331 346 348 365 _c
380 400 402 430 414 455 _c
426 479 433 504 433 528 _c
433 566 419 598 392 622 _c
365 646 330 659 286 659 _c
255 659 222 653 188 643 _c
154 632 117 616 78 594 _c
78 694 _l
118 710 155 722 189 730 _c
223 738 255 742 284 742 _c
}_e{359 742 419 723 464 685 _c
509 647 532 597 532 534 _c
532 504 526 475 515 449 _c
504 422 484 390 454 354 _c
446 344 420 317 376 272 _c
332 227 271 164 192 83 _c
_cl}_e}_d
/three{{636 0 76 -13 556 742 _sc
406 393 _m
453 383 490 362 516 330 _c
542 298 556 258 556 212 _c
556 140 531 84 482 45 _c
432 6 362 -13 271 -13 _c
240 -13 208 -10 176 -4 _c
144 1 110 10 76 22 _c
76 117 _l
103 101 133 89 166 81 _c
198 73 232 69 268 69 _c
330 69 377 81 409 105 _c
441 129 458 165 458 212 _c
458 254 443 288 413 312 _c
383 336 341 349 287 349 _c
}_e{202 349 _l
202 430 _l
291 430 _l
339 430 376 439 402 459 _c
428 478 441 506 441 543 _c
441 580 427 609 401 629 _c
374 649 336 659 287 659 _c
260 659 231 656 200 650 _c
169 644 135 635 98 623 _c
98 711 _l
135 721 170 729 203 734 _c
235 739 266 742 296 742 _c
370 742 429 725 473 691 _c
517 657 539 611 539 553 _c
539 513 527 479 504 451 _c
481 423 448 403 406 393 _c
_cl}_e}_d
/five{{636 0 77 -13 549 729 _sc
108 729 _m
495 729 _l
495 646 _l
198 646 _l
198 467 _l
212 472 227 476 241 478 _c
255 480 270 482 284 482 _c
365 482 429 459 477 415 _c
525 370 549 310 549 234 _c
549 155 524 94 475 51 _c
426 8 357 -13 269 -13 _c
238 -13 207 -10 175 -6 _c
143 -1 111 6 77 17 _c
77 116 _l
106 100 136 88 168 80 _c
199 72 232 69 267 69 _c
}_e{323 69 368 83 401 113 _c
433 143 450 183 450 234 _c
450 284 433 324 401 354 _c
368 384 323 399 267 399 _c
241 399 214 396 188 390 _c
162 384 135 375 108 363 _c
108 729 _l
_cl}_e}_d
/minus{838 0 106 272 732 355 _sc
106 355 _m
732 355 _l
732 272 _l
106 272 _l
106 355 _l
_cl}_d
end readonly def

/BuildGlyph
 {exch begin
 CharStrings exch
 2 copy known not{pop /.notdef}if
 true 3 1 roll get exec
 end}_d

/BuildChar {
 1 index /Encoding get exch get
 1 index /BuildGlyph get exec
}_d

FontName currentdict end definefont pop
end
%%EndProlog
mpldict begin
219.951 311.943 translate
172.097 168.114 0 0 clipbox
gsave
0 0 m
172.0975 0 l
172.0975 168.114 l
0 168.114 l
cl
grestore
gsave
36.1375 24.45 m
158.8975 24.45 l
158.8975 154.914 l
36.1375 154.914 l
cl
grestore
0.800 setlinewidth
1 setlinejoin
0 setlinecap
[] 0 setdash
0.150 setgray
gsave
/o {
gsave
newpath
translate
0.8 setlinewidth
1 setlinejoin
0 setlinecap
0 0 m
0 -6 l

gsave
0.150 setgray
fill
grestore
stroke
grestore
} bind def
43.81 24.45 o
grestore
/DejaVuSans findfont
8.000 scalefont
setfont
gsave
41.263125 8.871875 translate
0.000000 rotate
0.000000 0.000000 m /zero glyphshow
grestore
gsave
/o {
gsave
newpath
translate
0.8 setlinewidth
1 setlinejoin
0 setlinecap
0 0 m
0 -6 l

gsave
0.150 setgray
fill
grestore
stroke
grestore
} bind def
82.1725 24.45 o
grestore
gsave
79.625625 8.871875 translate
0.000000 rotate
0.000000 0.000000 m /one glyphshow
grestore
gsave
/o {
gsave
newpath
translate
0.8 setlinewidth
1 setlinejoin
0 setlinecap
0 0 m
0 -6 l

gsave
0.150 setgray
fill
grestore
stroke
grestore
} bind def
120.535 24.45 o
grestore
gsave
117.988125 8.871875 translate
0.000000 rotate
0.000000 0.000000 m /two glyphshow
grestore
gsave
/o {
gsave
newpath
translate
0.8 setlinewidth
1 setlinejoin
0 setlinecap
0 0 m
0 -6 l

gsave
0.150 setgray
fill
grestore
stroke
grestore
} bind def
158.898 24.45 o
grestore
gsave
156.350625 8.871875 translate
0.000000 rotate
0.000000 0.000000 m /three glyphshow
grestore
gsave
/o {
gsave
newpath
translate
0.8 setlinewidth
1 setlinejoin
0 setlinecap
0 0 m
-6 0 l

gsave
0.150 setgray
fill
grestore
stroke
grestore
} bind def
36.1375 30.3802 o
grestore
gsave
7.200000 27.341119 translate
0.000000 rotate
0.000000 0.000000 m /minus glyphshow
6.703125 0.000000 m /one glyphshow
11.792969 0.000000 m /period glyphshow
14.335938 0.000000 m /zero glyphshow
grestore
gsave
/o {
gsave
newpath
translate
0.8 setlinewidth
1 setlinejoin
0 setlinecap
0 0 m
-6 0 l

gsave
0.150 setgray
fill
grestore
stroke
grestore
} bind def
36.1375 60.0311 o
grestore
gsave
7.200000 56.992028 translate
0.000000 rotate
0.000000 0.000000 m /minus glyphshow
6.703125 0.000000 m /zero glyphshow
11.792969 0.000000 m /period glyphshow
14.335938 0.000000 m /five glyphshow
grestore
gsave
/o {
gsave
newpath
translate
0.8 setlinewidth
1 setlinejoin
0 setlinecap
0 0 m
-6 0 l

gsave
0.150 setgray
fill
grestore
stroke
grestore
} bind def
36.1375 89.682 o
grestore
gsave
13.903125 86.642938 translate
0.000000 rotate
0.000000 0.000000 m /zero glyphshow
5.089844 0.000000 m /period glyphshow
7.632812 0.000000 m /zero glyphshow
grestore
gsave
/o {
gsave
newpath
translate
0.8 setlinewidth
1 setlinejoin
0 setlinecap
0 0 m
-6 0 l

gsave
0.150 setgray
fill
grestore
stroke
grestore
} bind def
36.1375 119.333 o
grestore
gsave
13.903125 116.293847 translate
0.000000 rotate
0.000000 0.000000 m /zero glyphshow
5.089844 0.000000 m /period glyphshow
7.632812 0.000000 m /five glyphshow
grestore
gsave
/o {
gsave
newpath
translate
0.8 setlinewidth
1 setlinejoin
0 setlinecap
0 0 m
-6 0 l

gsave
0.150 setgray
fill
grestore
stroke
grestore
} bind def
36.1375 148.984 o
grestore
gsave
13.903125 145.944756 translate
0.000000 rotate
0.000000 0.000000 m /one glyphshow
5.089844 0.000000 m /period glyphshow
7.632812 0.000000 m /zero glyphshow
grestore
0.400 setlinewidth
1 setlinecap
0.650 setgray
gsave
122.8 130.5 36.14 24.45 clipbox
-1 89.682 m
158.8975 89.682 l
stroke
grestore
gsave
122.8 130.5 36.14 24.45 clipbox
43.81 18.519818 m
43.81 160.844182 l
stroke
grestore
1.000 setlinewidth
0 setlinecap
0.000 setgray
gsave
122.8 130.5 36.14 24.45 clipbox
/o {
gsave
newpath
translate
1.0 setlinewidth
1 setlinejoin
0 setlinecap
-0 -2.738613 m
2.738613 0 l
0 2.738613 l
-2.738613 0 l
cl

gsave
1.000 setgray
fill
grestore
stroke
grestore
} bind def
-1 92.1909 o
-0.969779 92.1916 o
2.05932 93.5594 o
6.0028 94.368 o
8.80997 96.2267 o
13.4884 99.3102 o
17.6091 103.494 o
21.8737 105.013 o
24.47 110.087 o
28.392 113.932 o
36.4618 123.442 o
32.9397 109.868 o
36.8686 93.0296 o
45.0884 89.6808 o
52.2108 57.9089 o
59.4028 61.5402 o
55.8157 65.4771 o
63.2018 69.1927 o
67.1106 72.3193 o
72.4 77.2212 o
74.3938 80.9416 o
78.2911 83.4338 o
81.1898 83.9811 o
86.2286 85.7108 o
91.8249 86.3404 o
96.6455 86.6745 o
101.094 87.728 o
108.804 88.0596 o
116.519 88.7296 o
124.043 89.442 o
132.333 89.8999 o
139.083 90.4439 o
146.411 90.9873 o
157.971 91.2732 o
173.097 91.4461 o
grestore
gsave
122.8 130.5 36.14 24.45 clipbox
/o {
gsave
newpath
translate
1.0 setlinewidth
1 setlinejoin
0 setlinecap
-0 -2.738613 m
2.738613 0 l
0 2.738613 l
-2.738613 0 l
cl

gsave
1.000 setgray
fill
grestore
stroke
grestore
} bind def
173.097 87.556 o
158.41 88.6843 o
146.175 89.4564 o
138.787 89.8182 o
130.694 89.5716 o
122.381 89.9342 o
114.989 90.093 o
107.355 89.6937 o
99.2407 88.2796 o
92.7517 87.2702 o
88.5898 87.1724 o
85.5607 85.8046 o
81.6172 84.996 o
78.81 83.1373 o
74.1316 80.0538 o
70.0109 75.8699 o
65.7463 74.3509 o
63.15 69.2775 o
59.228 65.4319 o
51.1582 55.922 o
54.6803 69.4964 o
50.7514 86.3344 o
42.5316 89.6832 o
35.4092 121.455 o
28.2172 117.824 o
31.8043 113.887 o
24.4182 110.171 o
20.5094 107.045 o
15.22 102.143 o
13.2262 98.4224 o
9.32894 95.9302 o
6.43019 95.3829 o
1.39143 93.6532 o
-1 93.3842 o
grestore
gsave
122.8 130.5 36.14 24.45 clipbox
/o {
gsave
newpath
translate
1.0 setlinewidth
1 setlinejoin
0 setlinecap
0 1.936492 m
-1.936492 -1.936492 l
1.936492 -1.936492 l
cl

gsave
1.000 setgray
fill
grestore
stroke
grestore
} bind def
40.0507 95.7171 o
34.3939 105.641 o
30.128 119.774 o
26.1097 125.767 o
21.7048 127.359 o
16.4196 125.089 o
10.9099 111.069 o
6.59826 106.992 o
0.996683 103.993 o
-1 102.414 o
grestore
gsave
122.8 130.5 36.14 24.45 clipbox
/o {
gsave
newpath
translate
1.0 setlinewidth
1 setlinejoin
0 setlinecap
0 1.936492 m
-1.936492 -1.936492 l
1.936492 -1.936492 l
cl

gsave
1.000 setgray
fill
grestore
stroke
grestore
} bind def
47.5693 83.6469 o
53.2261 73.7233 o
57.492 59.5904 o
61.5103 53.5971 o
65.9152 52.0052 o
71.2004 54.2755 o
76.7101 68.2951 o
81.0217 72.3725 o
86.6233 75.3706 o
91.536 79.2567 o
100.5 84.1487 o
110.817 85.9978 o
120.078 90.6042 o
grestore
gsave
122.8 130.5 36.14 24.45 clipbox
/o {
gsave
newpath
translate
1.0 setlinewidth
1 setlinejoin
0 setlinecap
-0 -1.936492 m
1.936492 1.936492 l
-1.936492 1.936492 l
cl

gsave
1.000 setgray
fill
grestore
stroke
grestore
} bind def
82.7046 70.1103 o
64.3224 47.1207 o
59.2797 52.2608 o
54.7743 69.688 o
50.0217 79.4514 o
39.9284 99.8662 o
34.7635 109.155 o
30.2636 126.868 o
25.632 132.419 o
21.0888 132.047 o
16.189 123.569 o
11.2438 112.715 o
6.33463 109.019 o
0.816379 105.102 o
-1 103.9 o
grestore
gsave
122.8 130.5 36.14 24.45 clipbox
/o {
gsave
newpath
translate
1.0 setlinewidth
1 setlinejoin
0 setlinecap
-0 -1.936492 m
1.936492 1.936492 l
-1.936492 1.936492 l
cl

gsave
1.000 setgray
fill
grestore
stroke
grestore
} bind def
4.91541 109.254 o
23.2976 132.243 o
28.3403 127.103 o
32.8457 109.676 o
37.5983 99.9126 o
47.6916 79.4978 o
52.8565 70.2086 o
57.3564 52.4964 o
61.988 46.9454 o
66.5312 47.3168 o
71.431 55.7953 o
76.3762 66.6489 o
81.2854 70.345 o
86.8036 74.2617 o
91.9081 77.6408 o
96.4027 80.7361 o
101.282 82.8804 o
105.467 85.5962 o
110.835 86.9479 o
115.391 87.9844 o
119.258 89.8457 o
129.563 91.093 o
138.744 91.4874 o
158.21 92.0841 o
173.097 92.0933 o
grestore
gsave
122.8 130.5 36.14 24.45 clipbox
/o {
gsave
newpath
translate
1.0 setlinewidth
1 setlinejoin
0 setlinecap
0 -1.936492 m
0.513564 -1.936492 1.006162 -1.732451 1.369306 -1.369306 c
1.732451 -1.006162 1.936492 -0.513564 1.936492 0 c
1.936492 0.513564 1.732451 1.006162 1.369306 1.369306 c
1.006162 1.732451 0.513564 1.936492 0 1.936492 c
-0.513564 1.936492 -1.006162 1.732451 -1.369306 1.369306 c
-1.732451 1.006162 -1.936492 0.513564 -1.936492 0 c
-1.936492 -0.513564 -1.732451 -1.006162 -1.369306 -1.369306 c
-1.006162 -1.732451 -0.513564 -1.936492 0 -1.936492 c
cl

gsave
1.000 setgray
fill
grestore
stroke
grestore
} bind def
28.465 127.658 o
36.1375 117.555 o
43.81 90.7596 o
51.4825 63.7327 o
59.155 53.7076 o
66.8275 65.6307 o
74.5 70.5643 o
82.1725 77.4227 o
89.845 82.2162 o
97.5175 85.1306 o
105.19 86.5196 o
112.862 87.9014 o
120.535 88.1967 o
128.208 88.7528 o
135.88 89.7369 o
143.553 89.8052 o
151.225 90.0665 o
158.898 90.2255 o
grestore
gsave
122.8 130.5 36.14 24.45 clipbox
/o {
gsave
newpath
translate
1.0 setlinewidth
1 setlinejoin
0 setlinecap
0 -1.936492 m
0.513564 -1.936492 1.006162 -1.732451 1.369306 -1.369306 c
1.732451 -1.006162 1.936492 -0.513564 1.936492 0 c
1.936492 0.513564 1.732451 1.006162 1.369306 1.369306 c
1.006162 1.732451 0.513564 1.936492 0 1.936492 c
-0.513564 1.936492 -1.006162 1.732451 -1.369306 1.369306 c
-1.732451 1.006162 -1.936492 0.513564 -1.936492 0 c
-1.936492 -0.513564 -1.732451 -1.006162 -1.369306 -1.369306 c
-1.006162 -1.732451 -0.513564 -1.936492 0 -1.936492 c
cl

gsave
1.000 setgray
fill
grestore
stroke
grestore
} bind def
59.155 51.7061 o
51.4825 61.8088 o
43.81 88.6044 o
36.1375 115.631 o
28.465 125.656 o
20.7925 113.733 o
13.12 108.8 o
5.4475 101.941 o
-1 97.9131 o
grestore
0.750 setlinewidth
[0.75 1.237] 0 setdash
gsave
122.8 130.5 36.14 24.45 clipbox
-1 108.502286 m
1.013643 113.012849 l
3.32696 118.949836 l
10.26691 138.798949 l
12.580226 144.616635 l
14.893543 149.050999 l
17.206859 151.495342 l
19.520176 151.469709 l
21.833492 148.732238 l
24.146809 143.36864 l
26.460126 135.830367 l
33.400075 108.844167 l
35.713392 101.568737 l
38.026709 96.190222 l
40.340025 92.676036 l
42.653342 90.51542 l
44.966658 88.84858 l
47.279975 86.687964 l
49.593291 83.173778 l
51.906608 77.795263 l
54.219925 70.519833 l
56.533241 61.800289 l
61.159874 43.533633 l
63.473191 35.99536 l
65.786508 30.631762 l
68.099824 27.894291 l
70.413141 27.868658 l
72.726457 30.313001 l
75.039774 34.747365 l
77.35309 40.565051 l
84.29304 60.414164 l
86.606357 66.351151 l
88.919673 71.532983 l
91.23299 75.887616 l
93.546307 79.426881 l
95.859623 82.218251 l
98.17294 84.36001 l
100.486256 85.961887 l
102.799573 87.131546 l
105.112889 87.966345 l
107.426206 88.549261 l
109.739523 88.947781 l
114.366156 89.389903 l
121.306106 89.617925 l
135.186005 89.680085 l
173.0975 89.682 l
173.0975 89.682 l
stroke
grestore
[2.775 1.2] 0 setdash
gsave
122.8 130.5 36.14 24.45 clipbox
-1 105.673425 m
10.26691 116.643912 l
12.580226 118.442736 l
14.893543 119.877421 l
17.206859 120.856718 l
19.520176 121.29836 l
21.833492 121.134236 l
24.146809 120.315014 l
26.460126 118.813855 l
28.773442 116.628902 l
31.086759 113.784391 l
33.400075 110.330329 l
35.713392 106.34081 l
38.026709 101.911166 l
42.653342 92.195426 l
47.279975 82.209849 l
49.593291 77.452834 l
51.906608 73.02319 l
54.219925 69.033671 l
56.533241 65.579609 l
58.846558 62.735098 l
61.159874 60.550145 l
63.473191 59.048986 l
65.786508 58.229764 l
68.099824 58.06564 l
70.413141 58.507282 l
72.726457 59.486579 l
75.039774 60.921264 l
77.35309 62.720088 l
79.666407 64.788121 l
84.29304 69.363146 l
88.919673 73.986276 l
93.546307 78.176283 l
95.859623 80.016054 l
98.17294 81.661199 l
100.486256 83.106623 l
102.799573 84.35563 l
105.112889 85.417975 l
107.426206 86.307973 l
109.739523 87.042789 l
112.052839 87.640983 l
116.679472 88.501933 l
121.306106 89.029421 l
125.932739 89.336643 l
132.872688 89.559442 l
144.439271 89.664409 l
173.0975 89.681952 l
173.0975 89.681952 l
stroke
grestore
1 setlinecap
[] 0 setdash
gsave
122.8 130.5 36.14 24.45 clipbox
-1 105.989854 m
7.953593 115.373029 l
10.26691 117.489138 l
12.580226 119.278734 l
14.893543 120.639319 l
17.206859 121.478675 l
19.520176 121.721574 l
21.833492 121.31536 l
24.146809 120.233694 l
26.460126 118.478006 l
28.773442 116.076531 l
31.086759 113.081179 l
33.400075 109.56288 l
35.713392 105.606223 l
38.026709 101.304313 l
42.653342 92.056059 l
49.593291 78.059687 l
51.906608 73.757777 l
54.219925 69.80112 l
56.533241 66.282821 l
58.846558 63.287469 l
61.159874 60.885994 l
63.473191 59.130306 l
65.786508 58.04864 l
68.099824 57.642426 l
70.413141 57.885325 l
72.726457 58.724681 l
75.039774 60.085266 l
77.35309 61.874862 l
79.666407 63.990971 l
84.29304 68.783137 l
88.919673 73.688271 l
91.23299 75.993011 l
93.546307 78.129426 l
95.859623 80.065502 l
98.17294 81.783964 l
100.486256 83.28013 l
102.799573 84.5594 l
105.112889 85.634666 l
107.426206 86.523859 l
109.739523 87.2478 l
112.052839 87.828413 l
116.679472 88.645049 l
121.306106 89.128564 l
125.932739 89.400003 l
132.872688 89.587863 l
146.752588 89.674263 l
173.0975 89.681977 l
173.0975 89.681977 l
stroke
grestore
gsave
122.8 130.5 36.14 24.45 clipbox
-1 102.473922 m
3.32696 106.728593 l
7.953593 111.449007 l
10.26691 113.653409 l
12.580226 115.611559 l
14.893543 117.212203 l
17.206859 118.349602 l
19.520176 118.931574 l
21.833492 118.886861 l
24.146809 118.17083 l
26.460126 116.768776 l
28.773442 114.696396 l
31.086759 111.997526 l
33.400075 108.739689 l
35.713392 105.008379 l
38.026709 100.901161 l
42.653342 91.980389 l
47.279975 82.841439 l
49.593291 78.462839 l
51.906608 74.355621 l
54.219925 70.624311 l
56.533241 67.366474 l
58.846558 64.667604 l
61.159874 62.595224 l
63.473191 61.19317 l
65.786508 60.477139 l
68.099824 60.432426 l
70.413141 61.014398 l
72.726457 62.151797 l
75.039774 63.752441 l
77.35309 65.710591 l
81.979724 70.256634 l
86.606357 74.965113 l
88.919673 77.176554 l
91.23299 79.218752 l
93.546307 81.058522 l
95.859623 82.678786 l
98.17294 84.076069 l
100.486256 85.257578 l
102.799573 86.238235 l
105.112889 87.037909 l
107.426206 87.679046 l
112.052839 88.577394 l
116.679472 89.103725 l
121.306106 89.394377 l
128.246055 89.590219 l
142.125955 89.675319 l
173.0975 89.681996 l
173.0975 89.681996 l
stroke
grestore
1.250 setlinewidth
0 setlinejoin
2 setlinecap
[] 0 setdash
0.150 setgray
gsave
36.1375 24.45 m
36.1375 154.914 l
stroke
grestore
gsave
158.8975 24.45 m
158.8975 154.914 l
stroke
grestore
gsave
36.1375 24.45 m
158.8975 24.45 l
stroke
grestore
gsave
36.1375 154.914 m
158.8975 154.914 l
stroke
grestore

end
showpage
