%!PS-Adobe-3.0 EPSF-3.0
%%Title: ../Figures/DataComp/LiftData-5_0.eps
%%Creator: matplotlib version 2.1.2, http://matplotlib.org/
%%CreationDate: Tue Jun 12 12:22:17 2018
%%Orientation: portrait
%%BoundingBox: 219 311 392 480
%%EndComments
%%BeginProlog
/mpldict 8 dict def
mpldict begin
/m { moveto } bind def
/l { lineto } bind def
/r { rlineto } bind def
/c { curveto } bind def
/cl { closepath } bind def
/box {
m
1 index 0 r
0 exch r
neg 0 r
cl
} bind def
/clipbox {
box
clip
newpath
} bind def
%!PS-Adobe-3.0 Resource-Font
%%Title: DejaVu Sans
%%Copyright: Copyright (c) 2003 by Bitstream, Inc. All Rights Reserved. Copyright (c) 2006 by Tavmjong Bah. All Rights Reserved. DejaVu changes are in public domain 
%%Creator: Converted from TrueType to type 3 by PPR
25 dict begin
/_d{bind def}bind def
/_m{moveto}_d
/_l{lineto}_d
/_cl{closepath eofill}_d
/_c{curveto}_d
/_sc{7 -1 roll{setcachedevice}{pop pop pop pop pop pop}ifelse}_d
/_e{exec}_d
/FontName /DejaVuSans def
/PaintType 0 def
/FontMatrix[.001 0 0 .001 0 0]def
/FontBBox[-1021 -463 1793 1232]def
/FontType 3 def
/Encoding [ /period /zero /one /two /three /five /minus ] def
/FontInfo 10 dict dup begin
/FamilyName (DejaVu Sans) def
/FullName (DejaVu Sans) def
/Notice (Copyright (c) 2003 by Bitstream, Inc. All Rights Reserved. Copyright (c) 2006 by Tavmjong Bah. All Rights Reserved. DejaVu changes are in public domain ) def
/Weight (Book) def
/Version (Version 2.35) def
/ItalicAngle 0.0 def
/isFixedPitch false def
/UnderlinePosition -130 def
/UnderlineThickness 90 def
end readonly def
/CharStrings 8 dict dup begin
/.notdef 0 def
/period{318 0 107 0 210 124 _sc
107 124 _m
210 124 _l
210 0 _l
107 0 _l
107 124 _l
_cl}_d
/zero{636 0 66 -13 570 742 _sc
318 664 _m
267 664 229 639 203 589 _c
177 539 165 464 165 364 _c
165 264 177 189 203 139 _c
229 89 267 64 318 64 _c
369 64 407 89 433 139 _c
458 189 471 264 471 364 _c
471 464 458 539 433 589 _c
407 639 369 664 318 664 _c
318 742 _m
399 742 461 709 505 645 _c
548 580 570 486 570 364 _c
570 241 548 147 505 83 _c
461 19 399 -13 318 -13 _c
236 -13 173 19 130 83 _c
87 147 66 241 66 364 _c
66 486 87 580 130 645 _c
173 709 236 742 318 742 _c
_cl}_d
/one{636 0 110 0 544 729 _sc
124 83 _m
285 83 _l
285 639 _l
110 604 _l
110 694 _l
284 729 _l
383 729 _l
383 83 _l
544 83 _l
544 0 _l
124 0 _l
124 83 _l
_cl}_d
/two{{636 0 73 0 536 742 _sc
192 83 _m
536 83 _l
536 0 _l
73 0 _l
73 83 _l
110 121 161 173 226 239 _c
290 304 331 346 348 365 _c
380 400 402 430 414 455 _c
426 479 433 504 433 528 _c
433 566 419 598 392 622 _c
365 646 330 659 286 659 _c
255 659 222 653 188 643 _c
154 632 117 616 78 594 _c
78 694 _l
118 710 155 722 189 730 _c
223 738 255 742 284 742 _c
}_e{359 742 419 723 464 685 _c
509 647 532 597 532 534 _c
532 504 526 475 515 449 _c
504 422 484 390 454 354 _c
446 344 420 317 376 272 _c
332 227 271 164 192 83 _c
_cl}_e}_d
/three{{636 0 76 -13 556 742 _sc
406 393 _m
453 383 490 362 516 330 _c
542 298 556 258 556 212 _c
556 140 531 84 482 45 _c
432 6 362 -13 271 -13 _c
240 -13 208 -10 176 -4 _c
144 1 110 10 76 22 _c
76 117 _l
103 101 133 89 166 81 _c
198 73 232 69 268 69 _c
330 69 377 81 409 105 _c
441 129 458 165 458 212 _c
458 254 443 288 413 312 _c
383 336 341 349 287 349 _c
}_e{202 349 _l
202 430 _l
291 430 _l
339 430 376 439 402 459 _c
428 478 441 506 441 543 _c
441 580 427 609 401 629 _c
374 649 336 659 287 659 _c
260 659 231 656 200 650 _c
169 644 135 635 98 623 _c
98 711 _l
135 721 170 729 203 734 _c
235 739 266 742 296 742 _c
370 742 429 725 473 691 _c
517 657 539 611 539 553 _c
539 513 527 479 504 451 _c
481 423 448 403 406 393 _c
_cl}_e}_d
/five{{636 0 77 -13 549 729 _sc
108 729 _m
495 729 _l
495 646 _l
198 646 _l
198 467 _l
212 472 227 476 241 478 _c
255 480 270 482 284 482 _c
365 482 429 459 477 415 _c
525 370 549 310 549 234 _c
549 155 524 94 475 51 _c
426 8 357 -13 269 -13 _c
238 -13 207 -10 175 -6 _c
143 -1 111 6 77 17 _c
77 116 _l
106 100 136 88 168 80 _c
199 72 232 69 267 69 _c
}_e{323 69 368 83 401 113 _c
433 143 450 183 450 234 _c
450 284 433 324 401 354 _c
368 384 323 399 267 399 _c
241 399 214 396 188 390 _c
162 384 135 375 108 363 _c
108 729 _l
_cl}_e}_d
/minus{838 0 106 272 732 355 _sc
106 355 _m
732 355 _l
732 272 _l
106 272 _l
106 355 _l
_cl}_d
end readonly def

/BuildGlyph
 {exch begin
 CharStrings exch
 2 copy known not{pop /.notdef}if
 true 3 1 roll get exec
 end}_d

/BuildChar {
 1 index /Encoding get exch get
 1 index /BuildGlyph get exec
}_d

FontName currentdict end definefont pop
end
%%EndProlog
mpldict begin
219.951 311.943 translate
172.097 168.114 0 0 clipbox
gsave
0 0 m
172.0975 0 l
172.0975 168.114 l
0 168.114 l
cl
grestore
gsave
36.1375 24.45 m
158.8975 24.45 l
158.8975 154.914 l
36.1375 154.914 l
cl
grestore
0.800 setlinewidth
1 setlinejoin
0 setlinecap
[] 0 setdash
0.150 setgray
gsave
/o {
gsave
newpath
translate
0.8 setlinewidth
1 setlinejoin
0 setlinecap
0 0 m
0 -6 l

gsave
0.150 setgray
fill
grestore
stroke
grestore
} bind def
43.81 24.45 o
grestore
/DejaVuSans findfont
8.000 scalefont
setfont
gsave
41.263125 8.871875 translate
0.000000 rotate
0.000000 0.000000 m /zero glyphshow
grestore
gsave
/o {
gsave
newpath
translate
0.8 setlinewidth
1 setlinejoin
0 setlinecap
0 0 m
0 -6 l

gsave
0.150 setgray
fill
grestore
stroke
grestore
} bind def
82.1725 24.45 o
grestore
gsave
79.625625 8.871875 translate
0.000000 rotate
0.000000 0.000000 m /one glyphshow
grestore
gsave
/o {
gsave
newpath
translate
0.8 setlinewidth
1 setlinejoin
0 setlinecap
0 0 m
0 -6 l

gsave
0.150 setgray
fill
grestore
stroke
grestore
} bind def
120.535 24.45 o
grestore
gsave
117.988125 8.871875 translate
0.000000 rotate
0.000000 0.000000 m /two glyphshow
grestore
gsave
/o {
gsave
newpath
translate
0.8 setlinewidth
1 setlinejoin
0 setlinecap
0 0 m
0 -6 l

gsave
0.150 setgray
fill
grestore
stroke
grestore
} bind def
158.898 24.45 o
grestore
gsave
156.350625 8.871875 translate
0.000000 rotate
0.000000 0.000000 m /three glyphshow
grestore
gsave
/o {
gsave
newpath
translate
0.8 setlinewidth
1 setlinejoin
0 setlinecap
0 0 m
-6 0 l

gsave
0.150 setgray
fill
grestore
stroke
grestore
} bind def
36.1375 30.3802 o
grestore
gsave
7.200000 27.341119 translate
0.000000 rotate
0.000000 0.000000 m /minus glyphshow
6.703125 0.000000 m /one glyphshow
11.792969 0.000000 m /period glyphshow
14.335938 0.000000 m /zero glyphshow
grestore
gsave
/o {
gsave
newpath
translate
0.8 setlinewidth
1 setlinejoin
0 setlinecap
0 0 m
-6 0 l

gsave
0.150 setgray
fill
grestore
stroke
grestore
} bind def
36.1375 60.0311 o
grestore
gsave
7.200000 56.992028 translate
0.000000 rotate
0.000000 0.000000 m /minus glyphshow
6.703125 0.000000 m /zero glyphshow
11.792969 0.000000 m /period glyphshow
14.335938 0.000000 m /five glyphshow
grestore
gsave
/o {
gsave
newpath
translate
0.8 setlinewidth
1 setlinejoin
0 setlinecap
0 0 m
-6 0 l

gsave
0.150 setgray
fill
grestore
stroke
grestore
} bind def
36.1375 89.682 o
grestore
gsave
13.903125 86.642938 translate
0.000000 rotate
0.000000 0.000000 m /zero glyphshow
5.089844 0.000000 m /period glyphshow
7.632812 0.000000 m /zero glyphshow
grestore
gsave
/o {
gsave
newpath
translate
0.8 setlinewidth
1 setlinejoin
0 setlinecap
0 0 m
-6 0 l

gsave
0.150 setgray
fill
grestore
stroke
grestore
} bind def
36.1375 119.333 o
grestore
gsave
13.903125 116.293847 translate
0.000000 rotate
0.000000 0.000000 m /zero glyphshow
5.089844 0.000000 m /period glyphshow
7.632812 0.000000 m /five glyphshow
grestore
gsave
/o {
gsave
newpath
translate
0.8 setlinewidth
1 setlinejoin
0 setlinecap
0 0 m
-6 0 l

gsave
0.150 setgray
fill
grestore
stroke
grestore
} bind def
36.1375 148.984 o
grestore
gsave
13.903125 145.944756 translate
0.000000 rotate
0.000000 0.000000 m /one glyphshow
5.089844 0.000000 m /period glyphshow
7.632812 0.000000 m /zero glyphshow
grestore
0.400 setlinewidth
1 setlinecap
0.650 setgray
gsave
122.8 130.5 36.14 24.45 clipbox
-1 89.682 m
158.8975 89.682 l
stroke
grestore
gsave
122.8 130.5 36.14 24.45 clipbox
43.81 18.519818 m
43.81 160.844182 l
stroke
grestore
1.000 setlinewidth
0 setlinecap
0.000 setgray
gsave
122.8 130.5 36.14 24.45 clipbox
/o {
gsave
newpath
translate
1.0 setlinewidth
1 setlinejoin
0 setlinecap
-0 -2.738613 m
2.738613 0 l
0 2.738613 l
-2.738613 0 l
cl

gsave
1.000 setgray
fill
grestore
stroke
grestore
} bind def
-1 119.432 o
0.957553 119.667 o
3.84471 119.579 o
8.05669 118.222 o
14.4629 110.476 o
23.5961 104.419 o
28.522 99.9738 o
40.9422 94.6333 o
43.9531 90.7816 o
53.7213 87.8544 o
61.3363 83.0257 o
68.9529 78.2817 o
76.7025 70.2806 o
83.8789 62.5337 o
88.6454 59.9071 o
92.6765 59.1845 o
96.9248 59.8152 o
100.825 62.4765 o
103.753 64.6311 o
110.415 70.843 o
117.839 76.6312 o
136.493 85.7511 o
152.522 88.1479 o
160.049 89.0718 o
173.097 88.9445 o
grestore
gsave
122.8 130.5 36.14 24.45 clipbox
/o {
gsave
newpath
translate
1.0 setlinewidth
1 setlinejoin
0 setlinecap
-0 -2.738613 m
2.738613 0 l
0 2.738613 l
-2.738613 0 l
cl

gsave
1.000 setgray
fill
grestore
stroke
grestore
} bind def
173.097 87.9544 o
164.798 88.391 o
155.343 87.3842 o
148.392 86.4175 o
136.444 85.9628 o
125.038 83.6042 o
118.224 79.5496 o
110.247 75.1153 o
103.751 67.4229 o
94.6016 62.0592 o
92.2595 60.3693 o
86.6624 59.6975 o
83.7753 59.7846 o
79.5633 61.1419 o
73.1571 68.888 o
64.0239 74.9446 o
59.098 79.3902 o
46.6778 84.7307 o
43.6669 88.5824 o
33.8987 91.5096 o
26.2837 96.3383 o
18.6671 101.082 o
10.9175 109.083 o
3.74114 116.83 o
-1 119.443 o
grestore
gsave
122.8 130.5 36.14 24.45 clipbox
/o {
gsave
newpath
translate
1.0 setlinewidth
1 setlinejoin
0 setlinecap
0 1.936492 m
-1.936492 -1.936492 l
1.936492 -1.936492 l
cl

gsave
1.000 setgray
fill
grestore
stroke
grestore
} bind def
39.5091 93.5213 o
34.5623 95.4652 o
30.2011 99.8599 o
24.9195 100.4 o
19.6537 103.263 o
14.9489 104.926 o
10.5669 106.231 o
5.37193 107.536 o
0.500272 108.612 o
-1 108.567 o
grestore
gsave
122.8 130.5 36.14 24.45 clipbox
/o {
gsave
newpath
translate
1.0 setlinewidth
1 setlinejoin
0 setlinecap
0 1.936492 m
-1.936492 -1.936492 l
1.936492 -1.936492 l
cl

gsave
1.000 setgray
fill
grestore
stroke
grestore
} bind def
48.1109 85.8427 o
53.0577 83.8988 o
57.4189 79.5041 o
62.7005 78.9644 o
67.9663 76.1012 o
72.6711 74.4383 o
77.0531 73.1332 o
82.2481 71.8275 o
87.1197 70.7519 o
91.2675 70.8767 o
97.3652 70.8216 o
101.268 70.8446 o
111.46 74.9232 o
120.91 77.6234 o
130.365 80.9365 o
139.503 85.6542 o
158.639 89.7013 o
grestore
gsave
122.8 130.5 36.14 24.45 clipbox
/o {
gsave
newpath
translate
1.0 setlinewidth
1 setlinejoin
0 setlinecap
-1.936492 -1.936492 m
1.936492 -1.936492 l
1.936492 1.936492 l
-1.936492 1.936492 l
cl

gsave
1.000 setgray
fill
grestore
stroke
grestore
} bind def
173.097 89.1321 o
165.974 89.1066 o
149.57 89.4492 o
135.359 87.1757 o
118.813 80.1625 o
102.425 72.0634 o
87.7466 68.7531 o
73.3698 71.2681 o
57.8901 79.0159 o
43.3428 89.3803 o
28.797 98.9548 o
12.0625 109.368 o
-1 110.557 o
grestore
gsave
122.8 130.5 36.14 24.45 clipbox
/o {
gsave
newpath
translate
1.0 setlinewidth
1 setlinejoin
0 setlinecap
-1.936492 -1.936492 m
1.936492 -1.936492 l
1.936492 1.936492 l
-1.936492 1.936492 l
cl

gsave
1.000 setgray
fill
grestore
stroke
grestore
} bind def
-1 110.414 o
-0.126571 110.611 o
14.2502 108.096 o
29.7299 100.348 o
44.2772 89.9837 o
58.823 80.4092 o
75.5575 69.9959 o
90.7131 68.6164 o
105.236 71.7292 o
121.156 78.8903 o
grestore
gsave
122.8 130.5 36.14 24.45 clipbox
/o {
gsave
newpath
translate
1.0 setlinewidth
1 setlinejoin
0 setlinecap
-0 -1.936492 m
1.936492 1.936492 l
-1.936492 1.936492 l
cl

gsave
1.000 setgray
fill
grestore
stroke
grestore
} bind def
82.1211 70.1807 o
63.552 77.751 o
58.7761 80.9204 o
54.2511 85.1365 o
48.7418 88.0765 o
39.0924 92.0151 o
34.635 94.1884 o
29.8686 98.7877 o
24.195 101.472 o
19.7438 104.565 o
14.553 106.509 o
10.3335 107.789 o
5.06157 109.758 o
-0.139231 110.247 o
-1 110.199 o
grestore
gsave
122.8 130.5 36.14 24.45 clipbox
/o {
gsave
newpath
translate
1.0 setlinewidth
1 setlinejoin
0 setlinecap
-0 -1.936492 m
1.936492 1.936492 l
-1.936492 1.936492 l
cl

gsave
1.000 setgray
fill
grestore
stroke
grestore
} bind def
5.49891 109.183 o
24.068 101.613 o
28.8439 98.4436 o
33.3689 94.2275 o
38.8782 91.2875 o
48.5276 87.3489 o
52.985 85.1756 o
57.7514 80.5763 o
63.425 77.8916 o
67.8762 74.799 o
73.067 72.855 o
77.2865 71.5755 o
82.5584 69.6059 o
87.7592 69.1173 o
91.826 69.3444 o
97.931 70.3106 o
101.843 71.7124 o
107.552 74.1853 o
111.629 75.8678 o
120.591 78.6195 o
130.37 81.7025 o
139.905 84.8879 o
159.693 89.3431 o
grestore
gsave
122.8 130.5 36.14 24.45 clipbox
/o {
gsave
newpath
translate
1.0 setlinewidth
1 setlinejoin
0 setlinecap
0 -1.936492 m
0.513564 -1.936492 1.006162 -1.732451 1.369306 -1.369306 c
1.732451 -1.006162 1.936492 -0.513564 1.936492 0 c
1.936492 0.513564 1.732451 1.006162 1.369306 1.369306 c
1.006162 1.732451 0.513564 1.936492 0 1.936492 c
-0.513564 1.936492 -1.006162 1.732451 -1.369306 1.369306 c
-1.732451 1.006162 -1.936492 0.513564 -1.936492 0 c
-1.936492 -0.513564 -1.732451 -1.006162 -1.369306 -1.369306 c
-1.006162 -1.732451 -0.513564 -1.936492 0 -1.936492 c
cl

gsave
1.000 setgray
fill
grestore
stroke
grestore
} bind def
28.465 106.783 o
36.1375 98.4561 o
43.81 89.0691 o
51.4825 81.0069 o
59.155 72.7164 o
66.8275 66.3145 o
74.5 61.5425 o
82.1725 59.7269 o
89.845 58.4169 o
97.5175 62.1539 o
105.19 65.3431 o
112.862 71.7365 o
120.535 76.5477 o
128.208 80.8756 o
135.88 83.8527 o
143.553 85.1621 o
151.225 86.0749 o
158.898 86.5388 o
grestore
gsave
122.8 130.5 36.14 24.45 clipbox
/o {
gsave
newpath
translate
1.0 setlinewidth
1 setlinejoin
0 setlinecap
0 -1.936492 m
0.513564 -1.936492 1.006162 -1.732451 1.369306 -1.369306 c
1.732451 -1.006162 1.936492 -0.513564 1.936492 0 c
1.936492 0.513564 1.732451 1.006162 1.369306 1.369306 c
1.006162 1.732451 0.513564 1.936492 0 1.936492 c
-0.513564 1.936492 -1.006162 1.732451 -1.369306 1.369306 c
-1.732451 1.006162 -1.936492 0.513564 -1.936492 0 c
-1.936492 -0.513564 -1.732451 -1.006162 -1.369306 -1.369306 c
-1.006162 -1.732451 -0.513564 -1.936492 0 -1.936492 c
cl

gsave
1.000 setgray
fill
grestore
stroke
grestore
} bind def
59.155 72.5809 o
51.4825 80.9079 o
43.81 90.2949 o
36.1375 98.3571 o
28.465 106.648 o
20.7925 113.05 o
13.12 117.822 o
5.4475 119.637 o
-1 120.738 o
grestore
0.750 setlinewidth
[0.75 1.237] 0 setdash
gsave
122.8 130.5 36.14 24.45 clipbox
-1 113.013314 m
1.013643 113.38702 l
3.32696 113.593315 l
5.640276 113.564183 l
7.953593 113.293454 l
10.26691 112.781587 l
12.580226 112.03568 l
14.893543 111.069098 l
17.206859 109.9007 l
19.520176 108.553726 l
24.146809 105.430368 l
28.773442 101.916222 l
38.026709 94.420114 l
58.846558 77.447778 l
63.473191 73.933632 l
68.099824 70.810274 l
70.413141 69.4633 l
72.726457 68.294902 l
75.039774 67.32832 l
77.35309 66.582413 l
79.666407 66.070546 l
81.979724 65.799817 l
84.29304 65.770685 l
86.606357 65.97698 l
88.919673 66.406302 l
91.23299 67.040715 l
93.546307 67.857709 l
95.859623 68.831312 l
100.486256 71.134346 l
107.426206 75.045894 l
114.366156 78.9014 l
118.992789 81.199689 l
123.619422 83.187776 l
128.246055 84.838585 l
132.872688 86.159949 l
137.499322 87.182763 l
142.125955 87.950274 l
146.752588 88.509664 l
153.692538 89.056259 l
160.632487 89.364343 l
172.19907 89.590003 l
173.0975 89.598294 l
173.0975 89.598294 l
stroke
grestore
[2.775 1.2] 0 setdash
gsave
122.8 130.5 36.14 24.45 clipbox
-1 113.505827 m
1.013643 113.633338 l
3.32696 113.60536 l
5.640276 113.397414 l
7.953593 113.00702 l
10.26691 112.434751 l
12.580226 111.684142 l
14.893543 110.761494 l
17.206859 109.675573 l
19.520176 108.43723 l
24.146809 105.554464 l
28.773442 102.224638 l
33.400075 98.564301 l
40.340025 92.695231 l
54.219925 80.799699 l
58.846558 77.139362 l
63.473191 73.809536 l
68.099824 70.92677 l
70.413141 69.688427 l
72.726457 68.602506 l
75.039774 67.679858 l
77.35309 66.929249 l
79.666407 66.35698 l
81.979724 65.966586 l
84.29304 65.75864 l
86.606357 65.730662 l
88.919673 65.87715 l
91.23299 66.189724 l
93.546307 66.657374 l
95.859623 67.266794 l
100.486256 68.848745 l
105.112889 70.799741 l
112.052839 74.105876 l
121.306106 78.551702 l
125.932739 80.57218 l
130.559372 82.377869 l
135.186005 83.941476 l
139.812638 85.257139 l
144.439271 86.335225 l
149.065905 87.197043 l
153.692538 87.870081 l
160.632487 88.5908 l
167.572437 89.050107 l
173.0975 89.282446 l
173.0975 89.282446 l
stroke
grestore
1 setlinecap
[] 0 setdash
gsave
122.8 130.5 36.14 24.45 clipbox
-1 112.590678 m
1.013643 112.791707 l
3.32696 112.849329 l
5.640276 112.726353 l
7.953593 112.418652 l
10.26691 111.925346 l
12.580226 111.248756 l
14.893543 110.394248 l
17.206859 109.369946 l
19.520176 108.186357 l
21.833492 106.855912 l
26.460126 103.810857 l
31.086759 100.354085 l
35.713392 96.606197 l
44.966658 88.680505 l
51.906608 82.757803 l
56.533241 79.009915 l
61.159874 75.553143 l
65.786508 72.508088 l
68.099824 71.177643 l
70.413141 69.994054 l
72.726457 68.969752 l
75.039774 68.115244 l
77.35309 67.438654 l
79.666407 66.945348 l
81.979724 66.637647 l
84.29304 66.514671 l
86.606357 66.572293 l
88.919673 66.80324 l
91.23299 67.197301 l
93.546307 67.741651 l
95.859623 68.421262 l
100.486256 70.118038 l
105.112889 72.142196 l
123.619422 80.777682 l
128.246055 82.575832 l
132.872688 84.128734 l
137.499322 85.429951 l
142.125955 86.490364 l
146.752588 87.332406 l
151.379221 87.984896 l
158.319171 88.675993 l
165.259121 89.1097 l
173.0975 89.392372 l
173.0975 89.392372 l
stroke
grestore
gsave
122.8 130.5 36.14 24.45 clipbox
-1 120.80012 m
1.013643 121.042945 l
3.32696 121.118851 l
5.640276 120.98047 l
7.953593 120.619076 l
10.26691 120.028674 l
12.580226 119.206154 l
14.893543 118.151387 l
17.206859 116.867265 l
19.520176 115.359669 l
21.833492 113.637385 l
24.146809 111.711969 l
26.460126 109.597567 l
31.086759 104.869989 l
35.713392 99.610679 l
42.653342 91.125918 l
49.593291 82.526465 l
54.219925 77.068044 l
58.846558 72.053307 l
61.159874 69.766433 l
63.473191 67.652031 l
65.786508 65.726615 l
68.099824 64.004331 l
70.413141 62.496735 l
72.726457 61.212613 l
75.039774 60.157846 l
77.35309 59.335326 l
79.666407 58.744924 l
81.979724 58.38353 l
84.29304 58.245149 l
86.606357 58.321055 l
88.919673 58.600017 l
91.23299 59.068565 l
93.546307 59.711307 l
95.859623 60.51128 l
98.17294 61.450321 l
102.799573 63.669303 l
107.426206 66.21364 l
125.932739 76.900034 l
130.559372 79.196202 l
135.186005 81.229355 l
139.812638 82.984209 l
144.439271 84.463317 l
149.065905 85.682493 l
153.692538 86.666362 l
158.319171 87.444431 l
162.945804 88.047884 l
169.885754 88.691667 l
173.0975 88.903222 l
173.0975 88.903222 l
stroke
grestore
1.250 setlinewidth
0 setlinejoin
2 setlinecap
[] 0 setdash
0.150 setgray
gsave
36.1375 24.45 m
36.1375 154.914 l
stroke
grestore
gsave
158.8975 24.45 m
158.8975 154.914 l
stroke
grestore
gsave
36.1375 24.45 m
158.8975 24.45 l
stroke
grestore
gsave
36.1375 154.914 m
158.8975 154.914 l
stroke
grestore

end
showpage
