%!PS-Adobe-3.0 EPSF-3.0
%%Title: ../Figures/DataComp/LiftData-1_09.eps
%%Creator: matplotlib version 2.1.2, http://matplotlib.org/
%%CreationDate: Tue Jun 12 12:22:17 2018
%%Orientation: portrait
%%BoundingBox: 219 311 392 480
%%EndComments
%%BeginProlog
/mpldict 8 dict def
mpldict begin
/m { moveto } bind def
/l { lineto } bind def
/r { rlineto } bind def
/c { curveto } bind def
/cl { closepath } bind def
/box {
m
1 index 0 r
0 exch r
neg 0 r
cl
} bind def
/clipbox {
box
clip
newpath
} bind def
%!PS-Adobe-3.0 Resource-Font
%%Title: DejaVu Sans
%%Copyright: Copyright (c) 2003 by Bitstream, Inc. All Rights Reserved. Copyright (c) 2006 by Tavmjong Bah. All Rights Reserved. DejaVu changes are in public domain 
%%Creator: Converted from TrueType to type 3 by PPR
25 dict begin
/_d{bind def}bind def
/_m{moveto}_d
/_l{lineto}_d
/_cl{closepath eofill}_d
/_c{curveto}_d
/_sc{7 -1 roll{setcachedevice}{pop pop pop pop pop pop}ifelse}_d
/_e{exec}_d
/FontName /DejaVuSans def
/PaintType 0 def
/FontMatrix[.001 0 0 .001 0 0]def
/FontBBox[-1021 -463 1793 1232]def
/FontType 3 def
/Encoding [ /period /zero /one /two /three /five /minus ] def
/FontInfo 10 dict dup begin
/FamilyName (DejaVu Sans) def
/FullName (DejaVu Sans) def
/Notice (Copyright (c) 2003 by Bitstream, Inc. All Rights Reserved. Copyright (c) 2006 by Tavmjong Bah. All Rights Reserved. DejaVu changes are in public domain ) def
/Weight (Book) def
/Version (Version 2.35) def
/ItalicAngle 0.0 def
/isFixedPitch false def
/UnderlinePosition -130 def
/UnderlineThickness 90 def
end readonly def
/CharStrings 8 dict dup begin
/.notdef 0 def
/period{318 0 107 0 210 124 _sc
107 124 _m
210 124 _l
210 0 _l
107 0 _l
107 124 _l
_cl}_d
/zero{636 0 66 -13 570 742 _sc
318 664 _m
267 664 229 639 203 589 _c
177 539 165 464 165 364 _c
165 264 177 189 203 139 _c
229 89 267 64 318 64 _c
369 64 407 89 433 139 _c
458 189 471 264 471 364 _c
471 464 458 539 433 589 _c
407 639 369 664 318 664 _c
318 742 _m
399 742 461 709 505 645 _c
548 580 570 486 570 364 _c
570 241 548 147 505 83 _c
461 19 399 -13 318 -13 _c
236 -13 173 19 130 83 _c
87 147 66 241 66 364 _c
66 486 87 580 130 645 _c
173 709 236 742 318 742 _c
_cl}_d
/one{636 0 110 0 544 729 _sc
124 83 _m
285 83 _l
285 639 _l
110 604 _l
110 694 _l
284 729 _l
383 729 _l
383 83 _l
544 83 _l
544 0 _l
124 0 _l
124 83 _l
_cl}_d
/two{{636 0 73 0 536 742 _sc
192 83 _m
536 83 _l
536 0 _l
73 0 _l
73 83 _l
110 121 161 173 226 239 _c
290 304 331 346 348 365 _c
380 400 402 430 414 455 _c
426 479 433 504 433 528 _c
433 566 419 598 392 622 _c
365 646 330 659 286 659 _c
255 659 222 653 188 643 _c
154 632 117 616 78 594 _c
78 694 _l
118 710 155 722 189 730 _c
223 738 255 742 284 742 _c
}_e{359 742 419 723 464 685 _c
509 647 532 597 532 534 _c
532 504 526 475 515 449 _c
504 422 484 390 454 354 _c
446 344 420 317 376 272 _c
332 227 271 164 192 83 _c
_cl}_e}_d
/three{{636 0 76 -13 556 742 _sc
406 393 _m
453 383 490 362 516 330 _c
542 298 556 258 556 212 _c
556 140 531 84 482 45 _c
432 6 362 -13 271 -13 _c
240 -13 208 -10 176 -4 _c
144 1 110 10 76 22 _c
76 117 _l
103 101 133 89 166 81 _c
198 73 232 69 268 69 _c
330 69 377 81 409 105 _c
441 129 458 165 458 212 _c
458 254 443 288 413 312 _c
383 336 341 349 287 349 _c
}_e{202 349 _l
202 430 _l
291 430 _l
339 430 376 439 402 459 _c
428 478 441 506 441 543 _c
441 580 427 609 401 629 _c
374 649 336 659 287 659 _c
260 659 231 656 200 650 _c
169 644 135 635 98 623 _c
98 711 _l
135 721 170 729 203 734 _c
235 739 266 742 296 742 _c
370 742 429 725 473 691 _c
517 657 539 611 539 553 _c
539 513 527 479 504 451 _c
481 423 448 403 406 393 _c
_cl}_e}_d
/five{{636 0 77 -13 549 729 _sc
108 729 _m
495 729 _l
495 646 _l
198 646 _l
198 467 _l
212 472 227 476 241 478 _c
255 480 270 482 284 482 _c
365 482 429 459 477 415 _c
525 370 549 310 549 234 _c
549 155 524 94 475 51 _c
426 8 357 -13 269 -13 _c
238 -13 207 -10 175 -6 _c
143 -1 111 6 77 17 _c
77 116 _l
106 100 136 88 168 80 _c
199 72 232 69 267 69 _c
}_e{323 69 368 83 401 113 _c
433 143 450 183 450 234 _c
450 284 433 324 401 354 _c
368 384 323 399 267 399 _c
241 399 214 396 188 390 _c
162 384 135 375 108 363 _c
108 729 _l
_cl}_e}_d
/minus{838 0 106 272 732 355 _sc
106 355 _m
732 355 _l
732 272 _l
106 272 _l
106 355 _l
_cl}_d
end readonly def

/BuildGlyph
 {exch begin
 CharStrings exch
 2 copy known not{pop /.notdef}if
 true 3 1 roll get exec
 end}_d

/BuildChar {
 1 index /Encoding get exch get
 1 index /BuildGlyph get exec
}_d

FontName currentdict end definefont pop
end
%%EndProlog
mpldict begin
219.951 311.943 translate
172.097 168.114 0 0 clipbox
gsave
0 0 m
172.0975 0 l
172.0975 168.114 l
0 168.114 l
cl
grestore
gsave
36.1375 24.45 m
158.8975 24.45 l
158.8975 154.914 l
36.1375 154.914 l
cl
grestore
0.800 setlinewidth
1 setlinejoin
0 setlinecap
[] 0 setdash
0.150 setgray
gsave
/o {
gsave
newpath
translate
0.8 setlinewidth
1 setlinejoin
0 setlinecap
0 0 m
0 -6 l

gsave
0.150 setgray
fill
grestore
stroke
grestore
} bind def
43.81 24.45 o
grestore
/DejaVuSans findfont
8.000 scalefont
setfont
gsave
41.263125 8.871875 translate
0.000000 rotate
0.000000 0.000000 m /zero glyphshow
grestore
gsave
/o {
gsave
newpath
translate
0.8 setlinewidth
1 setlinejoin
0 setlinecap
0 0 m
0 -6 l

gsave
0.150 setgray
fill
grestore
stroke
grestore
} bind def
82.1725 24.45 o
grestore
gsave
79.625625 8.871875 translate
0.000000 rotate
0.000000 0.000000 m /one glyphshow
grestore
gsave
/o {
gsave
newpath
translate
0.8 setlinewidth
1 setlinejoin
0 setlinecap
0 0 m
0 -6 l

gsave
0.150 setgray
fill
grestore
stroke
grestore
} bind def
120.535 24.45 o
grestore
gsave
117.988125 8.871875 translate
0.000000 rotate
0.000000 0.000000 m /two glyphshow
grestore
gsave
/o {
gsave
newpath
translate
0.8 setlinewidth
1 setlinejoin
0 setlinecap
0 0 m
0 -6 l

gsave
0.150 setgray
fill
grestore
stroke
grestore
} bind def
158.898 24.45 o
grestore
gsave
156.350625 8.871875 translate
0.000000 rotate
0.000000 0.000000 m /three glyphshow
grestore
gsave
/o {
gsave
newpath
translate
0.8 setlinewidth
1 setlinejoin
0 setlinecap
0 0 m
-6 0 l

gsave
0.150 setgray
fill
grestore
stroke
grestore
} bind def
36.1375 30.3802 o
grestore
gsave
7.200000 27.341119 translate
0.000000 rotate
0.000000 0.000000 m /minus glyphshow
6.703125 0.000000 m /one glyphshow
11.792969 0.000000 m /period glyphshow
14.335938 0.000000 m /zero glyphshow
grestore
gsave
/o {
gsave
newpath
translate
0.8 setlinewidth
1 setlinejoin
0 setlinecap
0 0 m
-6 0 l

gsave
0.150 setgray
fill
grestore
stroke
grestore
} bind def
36.1375 60.0311 o
grestore
gsave
7.200000 56.992028 translate
0.000000 rotate
0.000000 0.000000 m /minus glyphshow
6.703125 0.000000 m /zero glyphshow
11.792969 0.000000 m /period glyphshow
14.335938 0.000000 m /five glyphshow
grestore
gsave
/o {
gsave
newpath
translate
0.8 setlinewidth
1 setlinejoin
0 setlinecap
0 0 m
-6 0 l

gsave
0.150 setgray
fill
grestore
stroke
grestore
} bind def
36.1375 89.682 o
grestore
gsave
13.903125 86.642938 translate
0.000000 rotate
0.000000 0.000000 m /zero glyphshow
5.089844 0.000000 m /period glyphshow
7.632812 0.000000 m /zero glyphshow
grestore
gsave
/o {
gsave
newpath
translate
0.8 setlinewidth
1 setlinejoin
0 setlinecap
0 0 m
-6 0 l

gsave
0.150 setgray
fill
grestore
stroke
grestore
} bind def
36.1375 119.333 o
grestore
gsave
13.903125 116.293847 translate
0.000000 rotate
0.000000 0.000000 m /zero glyphshow
5.089844 0.000000 m /period glyphshow
7.632812 0.000000 m /five glyphshow
grestore
gsave
/o {
gsave
newpath
translate
0.8 setlinewidth
1 setlinejoin
0 setlinecap
0 0 m
-6 0 l

gsave
0.150 setgray
fill
grestore
stroke
grestore
} bind def
36.1375 148.984 o
grestore
gsave
13.903125 145.944756 translate
0.000000 rotate
0.000000 0.000000 m /one glyphshow
5.089844 0.000000 m /period glyphshow
7.632812 0.000000 m /zero glyphshow
grestore
0.400 setlinewidth
1 setlinecap
0.650 setgray
gsave
122.8 130.5 36.14 24.45 clipbox
-1 89.682 m
158.8975 89.682 l
stroke
grestore
gsave
122.8 130.5 36.14 24.45 clipbox
43.81 18.519818 m
43.81 160.844182 l
stroke
grestore
1.000 setlinewidth
0 setlinecap
0.000 setgray
gsave
122.8 130.5 36.14 24.45 clipbox
/o {
gsave
newpath
translate
1.0 setlinewidth
1 setlinejoin
0 setlinecap
0 1.936492 m
-1.936492 -1.936492 l
1.936492 -1.936492 l
cl

gsave
1.000 setgray
fill
grestore
stroke
grestore
} bind def
38.2738 98.5814 o
33.9643 118.106 o
29.406 129.6 o
24.0847 131.158 o
18.0863 120.306 o
14.7519 117.705 o
10.1608 106.724 o
5.50458 101.712 o
-0.347923 98.509 o
-1 97.87 o
grestore
gsave
122.8 130.5 36.14 24.45 clipbox
/o {
gsave
newpath
translate
1.0 setlinewidth
1 setlinejoin
0 setlinecap
0 1.936492 m
-1.936492 -1.936492 l
1.936492 -1.936492 l
cl

gsave
1.000 setgray
fill
grestore
stroke
grestore
} bind def
49.3462 80.7826 o
53.6557 61.258 o
58.214 49.7643 o
63.5353 48.2058 o
69.5337 59.0584 o
72.8681 61.6593 o
77.4592 72.6397 o
82.1154 77.6524 o
87.9679 80.855 o
92.0144 84.8205 o
102.609 90.5597 o
120.622 92.2315 o
140.845 93.4257 o
159.349 93.2243 o
173.097 93.2739 o
grestore
gsave
122.8 130.5 36.14 24.45 clipbox
/o {
gsave
newpath
translate
1.0 setlinewidth
1 setlinejoin
0 setlinecap
-0 -1.936492 m
1.936492 1.936492 l
-1.936492 1.936492 l
cl

gsave
1.000 setgray
fill
grestore
stroke
grestore
} bind def
82.5834 74.1448 o
62.9029 45.7146 o
57.8741 45.7176 o
53.3173 57.4652 o
48.9121 77.8152 o
40.4653 95.0249 o
38.7936 101.438 o
34.0794 120.55 o
28.3237 133.663 o
23.796 133.349 o
18.9096 123.448 o
15.1463 116.371 o
9.96553 107.708 o
4.61273 103.966 o
-0.252784 97.5884 o
-1 97.2565 o
grestore
gsave
122.8 130.5 36.14 24.45 clipbox
/o {
gsave
newpath
translate
1.0 setlinewidth
1 setlinejoin
0 setlinecap
-0 -1.936492 m
1.936492 1.936492 l
-1.936492 1.936492 l
cl

gsave
1.000 setgray
fill
grestore
stroke
grestore
} bind def
5.03664 105.219 o
24.7171 133.649 o
29.7459 133.646 o
34.3027 121.899 o
38.7079 101.549 o
47.1547 84.3391 o
48.8264 77.926 o
53.5406 58.8139 o
59.2963 45.7006 o
63.824 46.0153 o
68.7104 55.9163 o
72.4737 62.9928 o
77.6545 71.6556 o
83.0073 75.3981 o
87.8728 81.7756 o
92.5116 83.8362 o
97.755 86.1503 o
102.703 89.4487 o
111.465 91.3798 o
120.829 93.2471 o
130.591 94.3206 o
140.75 94.3781 o
159.155 94.2402 o
173.097 93.6964 o
grestore
0.750 setlinewidth
[0.75 1.237] 0 setdash
gsave
122.8 130.5 36.14 24.45 clipbox
-1 99.271469 m
1.013643 102.896909 l
3.32696 108.416902 l
5.640276 115.427377 l
7.953593 123.905985 l
10.26691 133.582687 l
14.893543 153.770479 l
17.206859 162.02953 l
19.520176 167.187368 l
21.833492 167.917285 l
24.146809 163.38276 l
26.460126 153.594837 l
28.773442 139.624962 l
33.400075 108.027613 l
35.713392 95.678582 l
38.026709 88.264502 l
40.340025 86.125155 l
42.653342 87.997947 l
44.966658 91.366053 l
47.279975 93.238845 l
49.593291 91.099498 l
51.906608 83.685418 l
54.219925 71.336387 l
58.846558 39.739038 l
61.159874 25.769163 l
63.473191 15.98124 l
65.786508 11.446715 l
68.099824 12.176632 l
70.413141 17.33447 l
72.726457 25.593521 l
79.666407 55.458015 l
81.979724 63.936623 l
84.29304 70.947098 l
86.606357 76.467091 l
88.919673 80.632074 l
91.23299 83.657012 l
93.546307 85.778651 l
95.859623 87.219213 l
98.17294 88.167804 l
100.486256 88.774394 l
102.799573 89.151461 l
107.426206 89.513698 l
114.366156 89.656969 l
137.499322 89.681991 l
173.0975 89.682 l
173.0975 89.682 l
stroke
grestore
[2.775 1.2] 0 setdash
gsave
122.8 130.5 36.14 24.45 clipbox
-1 98.966511 m
1.013643 100.782952 l
3.32696 103.118375 l
7.953593 108.339787 l
12.580226 113.721582 l
14.893543 116.171188 l
17.206859 118.266554 l
19.520176 119.856688 l
21.833492 120.798822 l
24.146809 120.970019 l
26.460126 120.278042 l
28.773442 118.670232 l
31.086759 116.139397 l
33.400075 112.726171 l
35.713392 108.517738 l
38.026709 103.643306 l
40.340025 98.266993 l
49.593291 75.720694 l
51.906608 70.846262 l
54.219925 66.637829 l
56.533241 63.224603 l
58.846558 60.693768 l
61.159874 59.085958 l
63.473191 58.393981 l
65.786508 58.565178 l
68.099824 59.507312 l
70.413141 61.097446 l
72.726457 63.192812 l
75.039774 65.642418 l
84.29304 76.245625 l
86.606357 78.581048 l
88.919673 80.667814 l
91.23299 82.485242 l
93.546307 84.030948 l
95.859623 85.316585 l
98.17294 86.363568 l
100.486256 87.199179 l
102.799573 87.853285 l
105.112889 88.355808 l
109.739523 89.015881 l
114.366156 89.367083 l
121.306106 89.590477 l
135.186005 89.676803 l
173.0975 89.682 l
173.0975 89.682 l
stroke
grestore
1 setlinecap
[] 0 setdash
gsave
122.8 130.5 36.14 24.45 clipbox
-1 98.885127 m
1.013643 100.784666 l
3.32696 103.239799 l
7.953593 108.730277 l
12.580226 114.291995 l
14.893543 116.737922 l
17.206859 118.739247 l
19.520176 120.135692 l
21.833492 120.790558 l
24.146809 120.605237 l
26.460126 119.529639 l
28.773442 117.566513 l
31.086759 114.768852 l
33.400075 111.231085 l
35.713392 107.076266 l
38.026709 102.442375 l
42.653342 92.300219 l
47.279975 81.893067 l
49.593291 76.921625 l
51.906608 72.287734 l
54.219925 68.132915 l
56.533241 64.595148 l
58.846558 61.797487 l
61.159874 59.834361 l
63.473191 58.758763 l
65.786508 58.573442 l
68.099824 59.228308 l
70.413141 60.624753 l
72.726457 62.626078 l
75.039774 65.072005 l
79.666407 70.633723 l
84.29304 76.124201 l
86.606357 78.579334 l
88.919673 80.761565 l
91.23299 82.646556 l
93.546307 84.232629 l
95.859623 85.53503 l
98.17294 86.580277 l
100.486256 87.401132 l
102.799573 88.032544 l
105.112889 88.508656 l
109.739523 89.116467 l
114.366156 89.426296 l
121.306106 89.612906 l
135.186005 89.678678 l
173.0975 89.682 l
173.0975 89.682 l
stroke
grestore
1.250 setlinewidth
0 setlinejoin
2 setlinecap
[] 0 setdash
0.150 setgray
gsave
36.1375 24.45 m
36.1375 154.914 l
stroke
grestore
gsave
158.8975 24.45 m
158.8975 154.914 l
stroke
grestore
gsave
36.1375 24.45 m
158.8975 24.45 l
stroke
grestore
gsave
36.1375 154.914 m
158.8975 154.914 l
stroke
grestore

end
showpage
