%!PS-Adobe-3.0 EPSF-3.0
%%Title: ../Figures/DataComp/LiftData-3_0.eps
%%Creator: matplotlib version 2.1.2, http://matplotlib.org/
%%CreationDate: Tue Jun 12 12:22:17 2018
%%Orientation: portrait
%%BoundingBox: 219 311 392 480
%%EndComments
%%BeginProlog
/mpldict 8 dict def
mpldict begin
/m { moveto } bind def
/l { lineto } bind def
/r { rlineto } bind def
/c { curveto } bind def
/cl { closepath } bind def
/box {
m
1 index 0 r
0 exch r
neg 0 r
cl
} bind def
/clipbox {
box
clip
newpath
} bind def
%!PS-Adobe-3.0 Resource-Font
%%Title: DejaVu Sans
%%Copyright: Copyright (c) 2003 by Bitstream, Inc. All Rights Reserved. Copyright (c) 2006 by Tavmjong Bah. All Rights Reserved. DejaVu changes are in public domain 
%%Creator: Converted from TrueType to type 3 by PPR
25 dict begin
/_d{bind def}bind def
/_m{moveto}_d
/_l{lineto}_d
/_cl{closepath eofill}_d
/_c{curveto}_d
/_sc{7 -1 roll{setcachedevice}{pop pop pop pop pop pop}ifelse}_d
/_e{exec}_d
/FontName /DejaVuSans def
/PaintType 0 def
/FontMatrix[.001 0 0 .001 0 0]def
/FontBBox[-1021 -463 1793 1232]def
/FontType 3 def
/Encoding [ /period /zero /one /two /three /five /minus ] def
/FontInfo 10 dict dup begin
/FamilyName (DejaVu Sans) def
/FullName (DejaVu Sans) def
/Notice (Copyright (c) 2003 by Bitstream, Inc. All Rights Reserved. Copyright (c) 2006 by Tavmjong Bah. All Rights Reserved. DejaVu changes are in public domain ) def
/Weight (Book) def
/Version (Version 2.35) def
/ItalicAngle 0.0 def
/isFixedPitch false def
/UnderlinePosition -130 def
/UnderlineThickness 90 def
end readonly def
/CharStrings 8 dict dup begin
/.notdef 0 def
/period{318 0 107 0 210 124 _sc
107 124 _m
210 124 _l
210 0 _l
107 0 _l
107 124 _l
_cl}_d
/zero{636 0 66 -13 570 742 _sc
318 664 _m
267 664 229 639 203 589 _c
177 539 165 464 165 364 _c
165 264 177 189 203 139 _c
229 89 267 64 318 64 _c
369 64 407 89 433 139 _c
458 189 471 264 471 364 _c
471 464 458 539 433 589 _c
407 639 369 664 318 664 _c
318 742 _m
399 742 461 709 505 645 _c
548 580 570 486 570 364 _c
570 241 548 147 505 83 _c
461 19 399 -13 318 -13 _c
236 -13 173 19 130 83 _c
87 147 66 241 66 364 _c
66 486 87 580 130 645 _c
173 709 236 742 318 742 _c
_cl}_d
/one{636 0 110 0 544 729 _sc
124 83 _m
285 83 _l
285 639 _l
110 604 _l
110 694 _l
284 729 _l
383 729 _l
383 83 _l
544 83 _l
544 0 _l
124 0 _l
124 83 _l
_cl}_d
/two{{636 0 73 0 536 742 _sc
192 83 _m
536 83 _l
536 0 _l
73 0 _l
73 83 _l
110 121 161 173 226 239 _c
290 304 331 346 348 365 _c
380 400 402 430 414 455 _c
426 479 433 504 433 528 _c
433 566 419 598 392 622 _c
365 646 330 659 286 659 _c
255 659 222 653 188 643 _c
154 632 117 616 78 594 _c
78 694 _l
118 710 155 722 189 730 _c
223 738 255 742 284 742 _c
}_e{359 742 419 723 464 685 _c
509 647 532 597 532 534 _c
532 504 526 475 515 449 _c
504 422 484 390 454 354 _c
446 344 420 317 376 272 _c
332 227 271 164 192 83 _c
_cl}_e}_d
/three{{636 0 76 -13 556 742 _sc
406 393 _m
453 383 490 362 516 330 _c
542 298 556 258 556 212 _c
556 140 531 84 482 45 _c
432 6 362 -13 271 -13 _c
240 -13 208 -10 176 -4 _c
144 1 110 10 76 22 _c
76 117 _l
103 101 133 89 166 81 _c
198 73 232 69 268 69 _c
330 69 377 81 409 105 _c
441 129 458 165 458 212 _c
458 254 443 288 413 312 _c
383 336 341 349 287 349 _c
}_e{202 349 _l
202 430 _l
291 430 _l
339 430 376 439 402 459 _c
428 478 441 506 441 543 _c
441 580 427 609 401 629 _c
374 649 336 659 287 659 _c
260 659 231 656 200 650 _c
169 644 135 635 98 623 _c
98 711 _l
135 721 170 729 203 734 _c
235 739 266 742 296 742 _c
370 742 429 725 473 691 _c
517 657 539 611 539 553 _c
539 513 527 479 504 451 _c
481 423 448 403 406 393 _c
_cl}_e}_d
/five{{636 0 77 -13 549 729 _sc
108 729 _m
495 729 _l
495 646 _l
198 646 _l
198 467 _l
212 472 227 476 241 478 _c
255 480 270 482 284 482 _c
365 482 429 459 477 415 _c
525 370 549 310 549 234 _c
549 155 524 94 475 51 _c
426 8 357 -13 269 -13 _c
238 -13 207 -10 175 -6 _c
143 -1 111 6 77 17 _c
77 116 _l
106 100 136 88 168 80 _c
199 72 232 69 267 69 _c
}_e{323 69 368 83 401 113 _c
433 143 450 183 450 234 _c
450 284 433 324 401 354 _c
368 384 323 399 267 399 _c
241 399 214 396 188 390 _c
162 384 135 375 108 363 _c
108 729 _l
_cl}_e}_d
/minus{838 0 106 272 732 355 _sc
106 355 _m
732 355 _l
732 272 _l
106 272 _l
106 355 _l
_cl}_d
end readonly def

/BuildGlyph
 {exch begin
 CharStrings exch
 2 copy known not{pop /.notdef}if
 true 3 1 roll get exec
 end}_d

/BuildChar {
 1 index /Encoding get exch get
 1 index /BuildGlyph get exec
}_d

FontName currentdict end definefont pop
end
%%EndProlog
mpldict begin
219.951 311.943 translate
172.097 168.114 0 0 clipbox
gsave
0 0 m
172.0975 0 l
172.0975 168.114 l
0 168.114 l
cl
grestore
gsave
36.1375 24.45 m
158.8975 24.45 l
158.8975 154.914 l
36.1375 154.914 l
cl
grestore
0.800 setlinewidth
1 setlinejoin
0 setlinecap
[] 0 setdash
0.150 setgray
gsave
/o {
gsave
newpath
translate
0.8 setlinewidth
1 setlinejoin
0 setlinecap
0 0 m
0 -6 l

gsave
0.150 setgray
fill
grestore
stroke
grestore
} bind def
43.81 24.45 o
grestore
/DejaVuSans findfont
8.000 scalefont
setfont
gsave
41.263125 8.871875 translate
0.000000 rotate
0.000000 0.000000 m /zero glyphshow
grestore
gsave
/o {
gsave
newpath
translate
0.8 setlinewidth
1 setlinejoin
0 setlinecap
0 0 m
0 -6 l

gsave
0.150 setgray
fill
grestore
stroke
grestore
} bind def
82.1725 24.45 o
grestore
gsave
79.625625 8.871875 translate
0.000000 rotate
0.000000 0.000000 m /one glyphshow
grestore
gsave
/o {
gsave
newpath
translate
0.8 setlinewidth
1 setlinejoin
0 setlinecap
0 0 m
0 -6 l

gsave
0.150 setgray
fill
grestore
stroke
grestore
} bind def
120.535 24.45 o
grestore
gsave
117.988125 8.871875 translate
0.000000 rotate
0.000000 0.000000 m /two glyphshow
grestore
gsave
/o {
gsave
newpath
translate
0.8 setlinewidth
1 setlinejoin
0 setlinecap
0 0 m
0 -6 l

gsave
0.150 setgray
fill
grestore
stroke
grestore
} bind def
158.898 24.45 o
grestore
gsave
156.350625 8.871875 translate
0.000000 rotate
0.000000 0.000000 m /three glyphshow
grestore
gsave
/o {
gsave
newpath
translate
0.8 setlinewidth
1 setlinejoin
0 setlinecap
0 0 m
-6 0 l

gsave
0.150 setgray
fill
grestore
stroke
grestore
} bind def
36.1375 30.3802 o
grestore
gsave
7.200000 27.341119 translate
0.000000 rotate
0.000000 0.000000 m /minus glyphshow
6.703125 0.000000 m /one glyphshow
11.792969 0.000000 m /period glyphshow
14.335938 0.000000 m /zero glyphshow
grestore
gsave
/o {
gsave
newpath
translate
0.8 setlinewidth
1 setlinejoin
0 setlinecap
0 0 m
-6 0 l

gsave
0.150 setgray
fill
grestore
stroke
grestore
} bind def
36.1375 60.0311 o
grestore
gsave
7.200000 56.992028 translate
0.000000 rotate
0.000000 0.000000 m /minus glyphshow
6.703125 0.000000 m /zero glyphshow
11.792969 0.000000 m /period glyphshow
14.335938 0.000000 m /five glyphshow
grestore
gsave
/o {
gsave
newpath
translate
0.8 setlinewidth
1 setlinejoin
0 setlinecap
0 0 m
-6 0 l

gsave
0.150 setgray
fill
grestore
stroke
grestore
} bind def
36.1375 89.682 o
grestore
gsave
13.903125 86.642938 translate
0.000000 rotate
0.000000 0.000000 m /zero glyphshow
5.089844 0.000000 m /period glyphshow
7.632812 0.000000 m /zero glyphshow
grestore
gsave
/o {
gsave
newpath
translate
0.8 setlinewidth
1 setlinejoin
0 setlinecap
0 0 m
-6 0 l

gsave
0.150 setgray
fill
grestore
stroke
grestore
} bind def
36.1375 119.333 o
grestore
gsave
13.903125 116.293847 translate
0.000000 rotate
0.000000 0.000000 m /zero glyphshow
5.089844 0.000000 m /period glyphshow
7.632812 0.000000 m /five glyphshow
grestore
gsave
/o {
gsave
newpath
translate
0.8 setlinewidth
1 setlinejoin
0 setlinecap
0 0 m
-6 0 l

gsave
0.150 setgray
fill
grestore
stroke
grestore
} bind def
36.1375 148.984 o
grestore
gsave
13.903125 145.944756 translate
0.000000 rotate
0.000000 0.000000 m /one glyphshow
5.089844 0.000000 m /period glyphshow
7.632812 0.000000 m /zero glyphshow
grestore
0.400 setlinewidth
1 setlinecap
0.650 setgray
gsave
122.8 130.5 36.14 24.45 clipbox
-1 89.682 m
158.8975 89.682 l
stroke
grestore
gsave
122.8 130.5 36.14 24.45 clipbox
43.81 18.519818 m
43.81 160.844182 l
stroke
grestore
1.000 setlinewidth
0 setlinecap
0.000 setgray
gsave
122.8 130.5 36.14 24.45 clipbox
/o {
gsave
newpath
translate
1.0 setlinewidth
1 setlinejoin
0 setlinecap
-0 -2.738613 m
2.738613 0 l
0 2.738613 l
-2.738613 0 l
cl

gsave
1.000 setgray
fill
grestore
stroke
grestore
} bind def
-1 124.606 o
1.5514 125.625 o
7.05988 121.17 o
10.6906 114.673 o
14.833 118.715 o
17.8773 128.195 o
20.9753 143.326 o
27.4967 89.9195 o
32.1346 89.5001 o
36.3639 90.0151 o
39.6804 88.4468 o
43.1666 87.8135 o
46.6634 86.7554 o
50.4756 88.5447 o
54.972 86.0429 o
59.8285 37.6062 o
60.8168 44.4489 o
63.0384 48.1909 o
66.1595 62.3875 o
70.3898 62.86 o
74.276 53.8135 o
78.4224 49.8666 o
82.2941 49.2338 o
86.2524 52.9355 o
89.5082 61.6505 o
96.985 71.2205 o
101.849 77.2604 o
109.458 81.4763 o
124.975 85.5743 o
140.37 86.825 o
156.152 87.9912 o
173.097 88.6227 o
grestore
gsave
122.8 130.5 36.14 24.45 clipbox
/o {
gsave
newpath
translate
1.0 setlinewidth
1 setlinejoin
0 setlinecap
-0 -2.738613 m
2.738613 0 l
0 2.738613 l
-2.738613 0 l
cl

gsave
1.000 setgray
fill
grestore
stroke
grestore
} bind def
173.097 89.6644 o
160.391 89.267 o
142.847 89.2035 o
128.059 86.8062 o
112.544 82.6233 o
104.79 76.495 o
99.9796 68.2455 o
96.0459 63.5665 o
92.5166 58.1231 o
89.6965 55.1877 o
86.0686 53.7386 o
80.5601 58.1938 o
76.9294 64.691 o
72.787 60.6491 o
69.7427 51.1694 o
66.6447 36.038 o
60.1233 89.4445 o
55.4854 89.8639 o
51.2561 89.3489 o
47.9396 90.9172 o
44.4534 91.5505 o
40.9566 92.6086 o
37.1444 90.8193 o
32.648 93.3211 o
27.7915 141.758 o
26.8032 134.915 o
24.5816 131.173 o
21.4605 116.976 o
17.2302 116.504 o
13.344 125.55 o
9.19763 129.497 o
5.32589 130.13 o
1.36765 126.429 o
-1 120.091 o
grestore
gsave
122.8 130.5 36.14 24.45 clipbox
/o {
gsave
newpath
translate
1.0 setlinewidth
1 setlinejoin
0 setlinecap
0 1.936492 m
-1.936492 -1.936492 l
1.936492 -1.936492 l
cl

gsave
1.000 setgray
fill
grestore
stroke
grestore
} bind def
38.5996 97.045 o
34.2284 105.447 o
29.4431 113.068 o
21.1185 116.077 o
14.6481 117.975 o
10.2672 118.03 o
5.15211 117.733 o
-1 114.789 o
grestore
gsave
122.8 130.5 36.14 24.45 clipbox
/o {
gsave
newpath
translate
1.0 setlinewidth
1 setlinejoin
0 setlinecap
0 1.936492 m
-1.936492 -1.936492 l
1.936492 -1.936492 l
cl

gsave
1.000 setgray
fill
grestore
stroke
grestore
} bind def
49.0204 82.319 o
53.3916 73.917 o
58.1769 66.2963 o
66.5015 63.2867 o
72.9719 61.3886 o
77.3528 61.3335 o
82.4679 61.6308 o
91.195 65.8077 o
101.95 69.8816 o
111.452 78.1681 o
130.503 84.0489 o
140.203 88.1491 o
150.099 87.8361 o
grestore
gsave
122.8 130.5 36.14 24.45 clipbox
/o {
gsave
newpath
translate
1.0 setlinewidth
1 setlinejoin
0 setlinecap
-0 -1.936492 m
1.936492 1.936492 l
-1.936492 1.936492 l
cl

gsave
1.000 setgray
fill
grestore
stroke
grestore
} bind def
81.5305 60.5608 o
72.2786 60.3688 o
63.3929 64.0095 o
57.6728 67.7476 o
53.0439 74.8386 o
49.0461 80.2645 o
38.3751 98.7852 o
34.1355 104.363 o
29.5121 111.958 o
25.1598 114.636 o
20.885 116.985 o
14.7407 119.034 o
9.71211 119.216 o
4.35033 118.617 o
-1 116.125 o
grestore
gsave
122.8 130.5 36.14 24.45 clipbox
/o {
gsave
newpath
translate
1.0 setlinewidth
1 setlinejoin
0 setlinecap
-0 -1.936492 m
1.936492 1.936492 l
-1.936492 1.936492 l
cl

gsave
1.000 setgray
fill
grestore
stroke
grestore
} bind def
6.08946 118.803 o
15.3414 118.995 o
24.2271 115.355 o
29.9472 111.616 o
34.5761 104.525 o
38.5739 99.0995 o
49.2449 80.5788 o
53.4845 75.0012 o
58.1079 67.406 o
62.4602 64.7283 o
66.735 62.3786 o
72.8793 60.3296 o
77.9079 60.1477 o
83.2697 60.7473 o
91.9143 64.773 o
101.798 70.7896 o
111.847 77.1842 o
121.395 82.2428 o
130.836 84.8051 o
140.753 86.4842 o
149.865 88.719 o
159.69 89.3643 o
grestore
gsave
122.8 130.5 36.14 24.45 clipbox
/o {
gsave
newpath
translate
1.0 setlinewidth
1 setlinejoin
0 setlinecap
0 -1.936492 m
0.513564 -1.936492 1.006162 -1.732451 1.369306 -1.369306 c
1.732451 -1.006162 1.936492 -0.513564 1.936492 0 c
1.936492 0.513564 1.732451 1.006162 1.369306 1.369306 c
1.006162 1.732451 0.513564 1.936492 0 1.936492 c
-0.513564 1.936492 -1.006162 1.732451 -1.369306 1.369306 c
-1.732451 1.006162 -1.936492 0.513564 -1.936492 0 c
-1.936492 -0.513564 -1.732451 -1.006162 -1.369306 -1.369306 c
-1.006162 -1.732451 -0.513564 -1.936492 0 -1.936492 c
cl

gsave
1.000 setgray
fill
grestore
stroke
grestore
} bind def
28.465 106.516 o
36.1375 95.7279 o
43.81 86.2444 o
51.4825 77.0755 o
59.155 65.1605 o
66.8275 48.4625 o
74.5 43.7192 o
82.1725 47.5776 o
89.845 55.2068 o
97.5175 66.3956 o
105.19 72.7672 o
112.862 78.0655 o
120.535 81.2327 o
128.208 83.8019 o
135.88 85.6386 o
143.553 86.4063 o
151.225 86.922 o
158.898 87.2755 o
grestore
gsave
122.8 130.5 36.14 24.45 clipbox
/o {
gsave
newpath
translate
1.0 setlinewidth
1 setlinejoin
0 setlinecap
0 -1.936492 m
0.513564 -1.936492 1.006162 -1.732451 1.369306 -1.369306 c
1.732451 -1.006162 1.936492 -0.513564 1.936492 0 c
1.936492 0.513564 1.732451 1.006162 1.369306 1.369306 c
1.006162 1.732451 0.513564 1.936492 0 1.936492 c
-0.513564 1.936492 -1.006162 1.732451 -1.369306 1.369306 c
-1.732451 1.006162 -1.936492 0.513564 -1.936492 0 c
-1.936492 -0.513564 -1.732451 -1.006162 -1.369306 -1.369306 c
-1.006162 -1.732451 -0.513564 -1.936492 0 -1.936492 c
cl

gsave
1.000 setgray
fill
grestore
stroke
grestore
} bind def
59.155 72.8479 o
51.4825 83.6361 o
43.81 93.1196 o
36.1375 102.289 o
28.465 114.204 o
20.7925 130.901 o
13.12 135.645 o
5.4475 131.786 o
-1 125.375 o
grestore
0.750 setlinewidth
[0.75 1.237] 0 setdash
gsave
122.8 130.5 36.14 24.45 clipbox
-1 118.49285 m
1.013643 120.553895 l
3.32696 122.618479 l
5.640276 124.275077 l
7.953593 125.42798 l
10.26691 125.998732 l
12.580226 125.933861 l
14.893543 125.211145 l
17.206859 123.843448 l
19.520176 121.879289 l
21.833492 119.39966 l
24.146809 116.51108 l
28.773442 109.99761 l
33.400075 103.273733 l
38.026709 96.948812 l
42.653342 91.1045 l
49.593291 82.415188 l
54.219925 76.090267 l
63.473191 62.85292 l
65.786508 59.96434 l
68.099824 57.484711 l
70.413141 55.520552 l
72.726457 54.152855 l
75.039774 53.430139 l
77.35309 53.365268 l
79.666407 53.93602 l
81.979724 55.088923 l
84.29304 56.745521 l
86.606357 58.810105 l
88.919673 61.177877 l
93.546307 66.403762 l
98.17294 71.667015 l
100.486256 74.132014 l
102.799573 76.421028 l
105.112889 78.504691 l
107.426206 80.367297 l
109.739523 82.00467 l
112.052839 83.421822 l
114.366156 84.630604 l
116.679472 85.647545 l
118.992789 86.491962 l
121.306106 87.184403 l
125.932739 88.194746 l
130.559372 88.829264 l
135.186005 89.210871 l
142.125955 89.501306 l
153.692538 89.651423 l
173.0975 89.681033 l
173.0975 89.681033 l
stroke
grestore
[2.775 1.2] 0 setdash
gsave
122.8 130.5 36.14 24.45 clipbox
-1 119.655509 m
1.013643 120.820894 l
3.32696 121.925718 l
5.640276 122.756669 l
7.953593 123.27805 l
10.26691 123.459844 l
12.580226 123.279013 l
14.893543 122.720486 l
17.206859 121.777763 l
19.520176 120.45309 l
21.833492 118.757192 l
24.146809 116.708599 l
26.460126 114.332645 l
28.773442 111.660232 l
31.086759 108.726495 l
35.713392 102.22908 l
40.340025 95.160997 l
51.906608 77.13492 l
56.533241 70.637505 l
58.846558 67.703768 l
61.159874 65.031355 l
63.473191 62.655401 l
65.786508 60.606808 l
68.099824 58.91091 l
70.413141 57.586237 l
72.726457 56.643514 l
75.039774 56.084987 l
77.35309 55.904156 l
79.666407 56.08595 l
81.979724 56.607331 l
84.29304 57.438282 l
86.606357 58.543106 l
88.919673 59.881926 l
91.23299 61.412298 l
95.859623 64.874629 l
107.426206 74.060219 l
112.052839 77.331605 l
116.679472 80.172884 l
121.306106 82.543369 l
125.932739 84.451517 l
130.559372 85.938377 l
135.186005 87.062738 l
139.812638 87.889484 l
144.439271 88.481506 l
151.379221 89.049617 l
158.319171 89.364078 l
167.572437 89.563671 l
173.0975 89.618397 l
173.0975 89.618397 l
stroke
grestore
1 setlinecap
[] 0 setdash
gsave
122.8 130.5 36.14 24.45 clipbox
-1 120.506223 m
1.013643 122.089258 l
3.32696 123.622941 l
5.640276 124.810508 l
7.953593 125.598518 l
10.26691 125.944439 l
12.580226 125.819311 l
14.893543 125.209576 l
17.206859 124.117862 l
19.520176 122.562586 l
21.833492 120.576344 l
24.146809 118.203228 l
26.460126 115.49531 l
28.773442 112.508686 l
33.400075 105.92041 l
38.026709 98.831002 l
54.219925 73.44359 l
58.846558 66.855314 l
61.159874 63.86869 l
63.473191 61.160772 l
65.786508 58.787656 l
68.099824 56.801414 l
70.413141 55.246138 l
72.726457 54.154424 l
75.039774 53.544689 l
77.35309 53.419561 l
79.666407 53.765482 l
81.979724 54.553492 l
84.29304 55.741059 l
86.606357 57.274742 l
88.919673 59.093366 l
91.23299 61.131443 l
95.859623 65.602207 l
102.799573 72.410057 l
107.426206 76.494182 l
109.739523 78.316248 l
112.052839 79.97359 l
114.366156 81.461391 l
116.679472 82.780541 l
118.992789 83.936499 l
121.306106 84.938184 l
123.619422 85.796938 l
128.246055 87.13781 l
132.872688 88.06714 l
137.499322 88.687894 l
142.125955 89.088169 l
149.065905 89.422661 l
158.319171 89.604427 l
173.0975 89.672985 l
173.0975 89.672985 l
stroke
grestore
gsave
122.8 130.5 36.14 24.45 clipbox
-1 115.906311 m
1.013643 117.101573 l
3.32696 118.282045 l
5.640276 119.230392 l
7.953593 119.909839 l
10.26691 120.287653 l
12.580226 120.33639 l
14.893543 120.034964 l
17.206859 119.369473 l
19.520176 118.333736 l
21.833492 116.929531 l
24.146809 115.166524 l
26.460126 113.061915 l
28.773442 110.639861 l
31.086759 107.930707 l
33.400075 104.970122 l
38.026709 98.45841 l
44.966658 87.902109 l
49.593291 80.90559 l
54.219925 74.393878 l
56.533241 71.433293 l
58.846558 68.724139 l
61.159874 66.302085 l
63.473191 64.197476 l
65.786508 62.434469 l
68.099824 61.030264 l
70.413141 59.994527 l
72.726457 59.329036 l
75.039774 59.02761 l
77.35309 59.076347 l
79.666407 59.454161 l
81.979724 60.133608 l
84.29304 61.081955 l
86.606357 62.262427 l
88.919673 63.63557 l
93.546307 66.796972 l
107.426206 76.958199 l
112.052839 79.848956 l
116.679472 82.302672 l
121.306106 84.299833 l
125.932739 85.8642 l
130.559372 87.046617 l
135.186005 87.910805 l
139.812638 88.52252 l
144.439271 88.94242 l
151.379221 89.322918 l
160.632487 89.556588 l
173.0975 89.655768 l
173.0975 89.655768 l
stroke
grestore
1.250 setlinewidth
0 setlinejoin
2 setlinecap
[] 0 setdash
0.150 setgray
gsave
36.1375 24.45 m
36.1375 154.914 l
stroke
grestore
gsave
158.8975 24.45 m
158.8975 154.914 l
stroke
grestore
gsave
36.1375 24.45 m
158.8975 24.45 l
stroke
grestore
gsave
36.1375 154.914 m
158.8975 154.914 l
stroke
grestore

end
showpage
