%!PS-Adobe-3.0 EPSF-3.0
%%Title: ../Figures/dragUpdate.eps
%%Creator: matplotlib version 2.1.2, http://matplotlib.org/
%%CreationDate: Tue Jun 12 14:16:38 2018
%%Orientation: portrait
%%BoundingBox: 191 325 420 466
%%EndComments
%%BeginProlog
/mpldict 9 dict def
mpldict begin
/m { moveto } bind def
/l { lineto } bind def
/r { rlineto } bind def
/c { curveto } bind def
/cl { closepath } bind def
/box {
m
1 index 0 r
0 exch r
neg 0 r
cl
} bind def
/clipbox {
box
clip
newpath
} bind def
%!PS-Adobe-3.0 Resource-Font
%%Title: DejaVu Sans
%%Copyright: Copyright (c) 2003 by Bitstream, Inc. All Rights Reserved. Copyright (c) 2006 by Tavmjong Bah. All Rights Reserved. DejaVu changes are in public domain 
%%Creator: Converted from TrueType to type 3 by PPR
25 dict begin
/_d{bind def}bind def
/_m{moveto}_d
/_l{lineto}_d
/_cl{closepath eofill}_d
/_c{curveto}_d
/_sc{7 -1 roll{setcachedevice}{pop pop pop pop pop pop}ifelse}_d
/_e{exec}_d
/FontName /DejaVuSans def
/PaintType 0 def
/FontMatrix[.001 0 0 .001 0 0]def
/FontBBox[-1021 -463 1793 1232]def
/FontType 3 def
/Encoding [ /period /slash /zero /one /two /three /four /five /six /eight ] def
/FontInfo 10 dict dup begin
/FamilyName (DejaVu Sans) def
/FullName (DejaVu Sans) def
/Notice (Copyright (c) 2003 by Bitstream, Inc. All Rights Reserved. Copyright (c) 2006 by Tavmjong Bah. All Rights Reserved. DejaVu changes are in public domain ) def
/Weight (Book) def
/Version (Version 2.35) def
/ItalicAngle 0.0 def
/isFixedPitch false def
/UnderlinePosition -130 def
/UnderlineThickness 90 def
end readonly def
/CharStrings 11 dict dup begin
/.notdef 0 def
/period{318 0 107 0 210 124 _sc
107 124 _m
210 124 _l
210 0 _l
107 0 _l
107 124 _l
_cl}_d
/slash{337 0 0 -92 337 729 _sc
254 729 _m
337 729 _l
83 -92 _l
0 -92 _l
254 729 _l
_cl}_d
/zero{636 0 66 -13 570 742 _sc
318 664 _m
267 664 229 639 203 589 _c
177 539 165 464 165 364 _c
165 264 177 189 203 139 _c
229 89 267 64 318 64 _c
369 64 407 89 433 139 _c
458 189 471 264 471 364 _c
471 464 458 539 433 589 _c
407 639 369 664 318 664 _c
318 742 _m
399 742 461 709 505 645 _c
548 580 570 486 570 364 _c
570 241 548 147 505 83 _c
461 19 399 -13 318 -13 _c
236 -13 173 19 130 83 _c
87 147 66 241 66 364 _c
66 486 87 580 130 645 _c
173 709 236 742 318 742 _c
_cl}_d
/one{636 0 110 0 544 729 _sc
124 83 _m
285 83 _l
285 639 _l
110 604 _l
110 694 _l
284 729 _l
383 729 _l
383 83 _l
544 83 _l
544 0 _l
124 0 _l
124 83 _l
_cl}_d
/two{{636 0 73 0 536 742 _sc
192 83 _m
536 83 _l
536 0 _l
73 0 _l
73 83 _l
110 121 161 173 226 239 _c
290 304 331 346 348 365 _c
380 400 402 430 414 455 _c
426 479 433 504 433 528 _c
433 566 419 598 392 622 _c
365 646 330 659 286 659 _c
255 659 222 653 188 643 _c
154 632 117 616 78 594 _c
78 694 _l
118 710 155 722 189 730 _c
223 738 255 742 284 742 _c
}_e{359 742 419 723 464 685 _c
509 647 532 597 532 534 _c
532 504 526 475 515 449 _c
504 422 484 390 454 354 _c
446 344 420 317 376 272 _c
332 227 271 164 192 83 _c
_cl}_e}_d
/three{{636 0 76 -13 556 742 _sc
406 393 _m
453 383 490 362 516 330 _c
542 298 556 258 556 212 _c
556 140 531 84 482 45 _c
432 6 362 -13 271 -13 _c
240 -13 208 -10 176 -4 _c
144 1 110 10 76 22 _c
76 117 _l
103 101 133 89 166 81 _c
198 73 232 69 268 69 _c
330 69 377 81 409 105 _c
441 129 458 165 458 212 _c
458 254 443 288 413 312 _c
383 336 341 349 287 349 _c
}_e{202 349 _l
202 430 _l
291 430 _l
339 430 376 439 402 459 _c
428 478 441 506 441 543 _c
441 580 427 609 401 629 _c
374 649 336 659 287 659 _c
260 659 231 656 200 650 _c
169 644 135 635 98 623 _c
98 711 _l
135 721 170 729 203 734 _c
235 739 266 742 296 742 _c
370 742 429 725 473 691 _c
517 657 539 611 539 553 _c
539 513 527 479 504 451 _c
481 423 448 403 406 393 _c
_cl}_e}_d
/four{636 0 49 0 580 729 _sc
378 643 _m
129 254 _l
378 254 _l
378 643 _l
352 729 _m
476 729 _l
476 254 _l
580 254 _l
580 172 _l
476 172 _l
476 0 _l
378 0 _l
378 172 _l
49 172 _l
49 267 _l
352 729 _l
_cl}_d
/five{{636 0 77 -13 549 729 _sc
108 729 _m
495 729 _l
495 646 _l
198 646 _l
198 467 _l
212 472 227 476 241 478 _c
255 480 270 482 284 482 _c
365 482 429 459 477 415 _c
525 370 549 310 549 234 _c
549 155 524 94 475 51 _c
426 8 357 -13 269 -13 _c
238 -13 207 -10 175 -6 _c
143 -1 111 6 77 17 _c
77 116 _l
106 100 136 88 168 80 _c
199 72 232 69 267 69 _c
}_e{323 69 368 83 401 113 _c
433 143 450 183 450 234 _c
450 284 433 324 401 354 _c
368 384 323 399 267 399 _c
241 399 214 396 188 390 _c
162 384 135 375 108 363 _c
108 729 _l
_cl}_e}_d
/six{{636 0 70 -13 573 742 _sc
330 404 _m
286 404 251 388 225 358 _c
199 328 186 286 186 234 _c
186 181 199 139 225 109 _c
251 79 286 64 330 64 _c
374 64 409 79 435 109 _c
461 139 474 181 474 234 _c
474 286 461 328 435 358 _c
409 388 374 404 330 404 _c
526 713 _m
526 623 _l
501 635 476 644 451 650 _c
425 656 400 659 376 659 _c
310 659 260 637 226 593 _c
}_e{192 549 172 482 168 394 _c
187 422 211 444 240 459 _c
269 474 301 482 336 482 _c
409 482 467 459 509 415 _c
551 371 573 310 573 234 _c
573 159 550 99 506 54 _c
462 9 403 -13 330 -13 _c
246 -13 181 19 137 83 _c
92 147 70 241 70 364 _c
70 479 97 571 152 639 _c
206 707 280 742 372 742 _c
396 742 421 739 447 735 _c
472 730 498 723 526 713 _c
_cl}_e}_d
/eight{{636 0 68 -13 568 742 _sc
318 346 _m
271 346 234 333 207 308 _c
180 283 167 249 167 205 _c
167 161 180 126 207 101 _c
234 76 271 64 318 64 _c
364 64 401 76 428 102 _c
455 127 469 161 469 205 _c
469 249 455 283 429 308 _c
402 333 365 346 318 346 _c
219 388 _m
177 398 144 418 120 447 _c
96 476 85 511 85 553 _c
85 611 105 657 147 691 _c
188 725 245 742 318 742 _c
}_e{390 742 447 725 489 691 _c
530 657 551 611 551 553 _c
551 511 539 476 515 447 _c
491 418 459 398 417 388 _c
464 377 501 355 528 323 _c
554 291 568 251 568 205 _c
568 134 546 80 503 43 _c
459 5 398 -13 318 -13 _c
237 -13 175 5 132 43 _c
89 80 68 134 68 205 _c
68 251 81 291 108 323 _c
134 355 171 377 219 388 _c
183 544 _m
183 506 194 476 218 455 _c
}_e{242 434 275 424 318 424 _c
360 424 393 434 417 455 _c
441 476 453 506 453 544 _c
453 582 441 611 417 632 _c
393 653 360 664 318 664 _c
275 664 242 653 218 632 _c
194 611 183 582 183 544 _c
_cl}_e}_d
end readonly def

/BuildGlyph
 {exch begin
 CharStrings exch
 2 copy known not{pop /.notdef}if
 true 3 1 roll get exec
 end}_d

/BuildChar {
 1 index /Encoding get exch get
 1 index /BuildGlyph get exec
}_d

FontName currentdict end definefont pop
%!PS-Adobe-3.0 Resource-Font
%%Title: DejaVu Sans Oblique
%%Copyright: Copyright (c) 2003 by Bitstream, Inc. All Rights Reserved. Copyright (c) 2006 by Tavmjong Bah. All Rights Reserved. DejaVu changes are in public domain 
%%Creator: Converted from TrueType to type 3 by PPR
25 dict begin
/_d{bind def}bind def
/_m{moveto}_d
/_l{lineto}_d
/_cl{closepath eofill}_d
/_c{curveto}_d
/_sc{7 -1 roll{setcachedevice}{pop pop pop pop pop pop}ifelse}_d
/_e{exec}_d
/FontName /DejaVuSans-Oblique def
/PaintType 0 def
/FontMatrix[.001 0 0 .001 0 0]def
/FontBBox[-1016 -350 1659 1068]def
/FontType 3 def
/Encoding [ /D /x /y ] def
/FontInfo 10 dict dup begin
/FamilyName (DejaVu Sans) def
/FullName (DejaVu Sans Oblique) def
/Notice (Copyright (c) 2003 by Bitstream, Inc. All Rights Reserved. Copyright (c) 2006 by Tavmjong Bah. All Rights Reserved. DejaVu changes are in public domain ) def
/Weight (Oblique) def
/Version (Version 2.35) def
/ItalicAngle -11.0 def
/isFixedPitch false def
/UnderlinePosition -130 def
/UnderlineThickness 90 def
end readonly def
/CharStrings 4 dict dup begin
/.notdef 0 def
/D{770 0 27 0 722 729 _sc
169 729 _m
381 729 _l
493 729 578 705 636 657 _c
693 609 722 539 722 445 _c
722 383 711 323 689 265 _c
667 207 637 159 599 120 _c
560 80 511 50 451 30 _c
391 10 321 0 240 0 _c
27 0 _l
169 729 _l
252 648 _m
142 81 _l
271 81 _l
381 81 467 112 527 176 _c
587 239 618 329 618 445 _c
618 515 598 566 559 599 _c
520 631 459 648 376 648 _c
252 648 _l
_cl}_d
/x{592 0 -25 0 600 547 _sc
600 547 _m
349 279 _l
503 0 _l
400 0 _l
284 217 _l
83 0 _l
-25 0 _l
243 288 _l
100 547 _l
203 547 _l
308 349 _l
491 547 _l
600 547 _l
_cl}_d
/y{592 0 -24 -207 603 547 _sc
248 -50 _m
206 -120 172 -163 146 -181 _c
120 -198 86 -207 46 -207 _c
-24 -207 _l
-9 -132 _l
42 -132 _l
67 -132 88 -125 106 -111 _c
123 -97 143 -71 165 -31 _c
193 20 _l
72 547 _l
167 547 _l
258 128 _l
509 547 _l
603 547 _l
248 -50 _l
_cl}_d
end readonly def

/BuildGlyph
 {exch begin
 CharStrings exch
 2 copy known not{pop /.notdef}if
 true 3 1 roll get exec
 end}_d

/BuildChar {
 1 index /Encoding get exch get
 1 index /BuildGlyph get exec
}_d

FontName currentdict end definefont pop
end
%%EndProlog
mpldict begin
191.723 325.535 translate
228.554 140.93 0 0 clipbox
gsave
0 0 m
228.55375 0 l
228.55375 140.93 l
0 140.93 l
cl
grestore
gsave
36.79375 38.45 m
215.35375 38.45 l
215.35375 127.73 l
36.79375 127.73 l
cl
grestore
0.800 setlinewidth
1 setlinejoin
0 setlinecap
[] 0 setdash
0.150 setgray
gsave
/o {
gsave
newpath
translate
0.8 setlinewidth
1 setlinejoin
0 setlinecap
0 0 m
0 -6 l

gsave
0.150 setgray
fill
grestore
stroke
grestore
} bind def
36.7938 38.45 o
grestore
/DejaVuSans findfont
8.000 scalefont
setfont
gsave
34.246875 22.871875 translate
0.000000 rotate
0.000000 0.000000 m /zero glyphshow
grestore
gsave
/o {
gsave
newpath
translate
0.8 setlinewidth
1 setlinejoin
0 setlinecap
0 0 m
0 -6 l

gsave
0.150 setgray
fill
grestore
stroke
grestore
} bind def
66.5538 38.45 o
grestore
gsave
64.006875 22.871875 translate
0.000000 rotate
0.000000 0.000000 m /one glyphshow
grestore
gsave
/o {
gsave
newpath
translate
0.8 setlinewidth
1 setlinejoin
0 setlinecap
0 0 m
0 -6 l

gsave
0.150 setgray
fill
grestore
stroke
grestore
} bind def
96.3137 38.45 o
grestore
gsave
93.766875 22.871875 translate
0.000000 rotate
0.000000 0.000000 m /two glyphshow
grestore
gsave
/o {
gsave
newpath
translate
0.8 setlinewidth
1 setlinejoin
0 setlinecap
0 0 m
0 -6 l

gsave
0.150 setgray
fill
grestore
stroke
grestore
} bind def
126.074 38.45 o
grestore
gsave
123.526875 22.871875 translate
0.000000 rotate
0.000000 0.000000 m /three glyphshow
grestore
gsave
/o {
gsave
newpath
translate
0.8 setlinewidth
1 setlinejoin
0 setlinecap
0 0 m
0 -6 l

gsave
0.150 setgray
fill
grestore
stroke
grestore
} bind def
155.834 38.45 o
grestore
gsave
153.286875 22.871875 translate
0.000000 rotate
0.000000 0.000000 m /four glyphshow
grestore
gsave
/o {
gsave
newpath
translate
0.8 setlinewidth
1 setlinejoin
0 setlinecap
0 0 m
0 -6 l

gsave
0.150 setgray
fill
grestore
stroke
grestore
} bind def
185.594 38.45 o
grestore
gsave
183.046875 22.871875 translate
0.000000 rotate
0.000000 0.000000 m /five glyphshow
grestore
gsave
/o {
gsave
newpath
translate
0.8 setlinewidth
1 setlinejoin
0 setlinecap
0 0 m
0 -6 l

gsave
0.150 setgray
fill
grestore
stroke
grestore
} bind def
215.354 38.45 o
grestore
gsave
212.806875 22.871875 translate
0.000000 rotate
0.000000 0.000000 m /six glyphshow
grestore
gsave
115.073750 9.278125 translate
0.000000 rotate
/DejaVuSans-Oblique findfont
10.0 scalefont
setfont
0.000000 0.703125 moveto
/x glyphshow

/DejaVuSans findfont
7.0 scalefont
setfont
5.917969 -0.937500 moveto
/zero glyphshow

/DejaVuSans findfont
10.0 scalefont
setfont
10.645020 0.703125 moveto
/slash glyphshow

/DejaVuSans-Oblique findfont
10.0 scalefont
setfont
14.014160 0.703125 moveto
/D glyphshow


grestore
gsave
/o {
gsave
newpath
translate
0.8 setlinewidth
1 setlinejoin
0 setlinecap
0 0 m
-6 0 l

gsave
0.150 setgray
fill
grestore
stroke
grestore
} bind def
36.7938 38.45 o
grestore
gsave
22.200000 35.410937 translate
0.000000 rotate
0.000000 0.000000 m /zero glyphshow
grestore
gsave
/o {
gsave
newpath
translate
0.8 setlinewidth
1 setlinejoin
0 setlinecap
0 0 m
-6 0 l

gsave
0.150 setgray
fill
grestore
stroke
grestore
} bind def
36.7938 68.21 o
grestore
gsave
22.200000 65.170937 translate
0.000000 rotate
0.000000 0.000000 m /one glyphshow
grestore
gsave
/o {
gsave
newpath
translate
0.8 setlinewidth
1 setlinejoin
0 setlinecap
0 0 m
-6 0 l

gsave
0.150 setgray
fill
grestore
stroke
grestore
} bind def
36.7938 97.97 o
grestore
gsave
22.200000 94.930937 translate
0.000000 rotate
0.000000 0.000000 m /two glyphshow
grestore
gsave
/o {
gsave
newpath
translate
0.8 setlinewidth
1 setlinejoin
0 setlinecap
0 0 m
-6 0 l

gsave
0.150 setgray
fill
grestore
stroke
grestore
} bind def
36.7938 127.73 o
grestore
gsave
22.200000 124.690937 translate
0.000000 rotate
0.000000 0.000000 m /three glyphshow
grestore
gsave
15.200000 72.090000 translate
90.000000 rotate
/DejaVuSans-Oblique findfont
10.0 scalefont
setfont
0.000000 0.703125 moveto
/y glyphshow

/DejaVuSans findfont
7.0 scalefont
setfont
5.917969 -0.937500 moveto
/zero glyphshow

/DejaVuSans findfont
10.0 scalefont
setfont
10.645020 0.703125 moveto
/slash glyphshow

/DejaVuSans-Oblique findfont
10.0 scalefont
setfont
14.014160 0.703125 moveto
/D glyphshow


grestore
gsave
178.6 89.28 36.79 38.45 clipbox
51.67375 38.45 m
51.67375 42.394908 50.10497 46.182278 47.315499 48.971749 c
44.526028 51.76122 40.738658 53.33 36.79375 53.33 c
36.79375 38.45 l
51.67375 38.45 l
cl
0.586 setgray
fill
grestore
1.500 setlinewidth
0.000 setgray
gsave
178.6 89.28 36.79 38.45 clipbox
66.55375 44.729584 m
66.594591 44.710033 l
66.702699 44.656874 l
66.851648 44.583189 l
66.896395 44.560985 l
67.000597 44.507837 l
67.149546 44.43143 l
67.187446 44.411937 l
67.298495 44.353187 l
67.447444 44.273918 l
67.468131 44.262888 l
67.596393 44.1925 l
67.738829 44.11384 l
67.745342 44.110135 l
67.894291 44.025309 l
67.999977 43.964791 l
68.043239 43.939252 l
68.192188 43.85109 l
68.25171 43.815743 l
68.341137 43.760947 l
68.490086 43.669259 l
68.494249 43.666694 l
68.639035 43.574583 l
68.728145 43.517646 l
68.787984 43.478126 l
68.936933 43.379442 l
68.953281 43.368598 l
69.085882 43.27759 l
69.170158 43.219549 l
69.234831 43.173419 l
69.37868 43.070501 l
69.38378 43.066718 l
69.532729 42.956156 l
69.579368 42.921452 l
69.681678 42.842434 l
69.772143 42.772404 l
69.830627 42.725354 l
69.95717 42.623356 l
69.979576 42.604562 l
70.128525 42.479466 l
70.134664 42.474307 l
70.277474 42.34925 l
70.304838 42.325259 l
70.426423 42.214012 l
70.467701 42.17621 l
70.575372 42.073144 l
70.623382 42.027162 l
70.724321 41.925933 l
70.771993 41.878114 l
70.87327 41.771538 l
70.913634 41.729065 l
71.022218 41.608958 l
71.048393 41.580017 l
71.171167 41.436995 l
71.176345 41.430968 l
71.297688 41.28192 l
71.320116 41.25275 l
71.41241 41.132871 l
71.469065 41.054706 l
71.520522 40.983823 l
71.618014 40.840695 l
71.622055 40.834775 l
71.717331 40.685726 l
71.766963 40.602327 l
71.806125 40.536678 l
71.888583 40.387629 l
71.915912 40.33409 l
71.964807 40.238581 l
72.03473 40.089533 l
72.064861 40.018959 l
72.098481 39.940484 l
72.156083 39.791436 l
72.207427 39.642387 l
72.21381 39.621352 l
72.252816 39.493339 l
72.292072 39.34429 l
72.325205 39.195242 l
72.352258 39.046194 l
72.362759 38.971716 l
72.373328 38.897145 l
72.388405 38.748097 l
72.397444 38.599048 l
72.400455 38.45 l
stroke
grestore
gsave
178.6 89.28 36.79 38.45 clipbox
66.55375 48.236736 m
70.128525 47.357926 l
73.298082 46.349566 l
75.937534 45.285292 l
78.171768 44.14329 l
79.661258 43.180153 l
80.879102 42.17621 l
81.813465 41.132871 l
82.432435 40.089533 l
82.72219 39.195242 l
82.797275 38.45 l
82.797275 38.45 l
stroke
grestore
gsave
178.6 89.28 36.79 38.45 clipbox
87.05292 47.103876 m
89.938735 46.012884 l
92.470867 44.827849 l
94.438069 43.666694 l
95.896693 42.557068 l
96.939336 41.497977 l
97.607931 40.536678 l
98.000539 39.642387 l
98.178044 38.748097 l
98.18986 38.45 l
98.18986 38.45 l
stroke
grestore
gsave
178.6 89.28 36.79 38.45 clipbox
66.55375 53.72623 m
66.702699 53.728353 l
66.851648 53.730297 l
67.000597 53.732062 l
67.149546 53.73365 l
67.298495 53.73506 l
67.447444 53.736295 l
67.596393 53.737355 l
67.745342 53.73824 l
67.894291 53.738953 l
68.043239 53.739493 l
68.192188 53.739861 l
68.341137 53.740058 l
68.490086 53.740086 l
68.639035 53.739944 l
68.787984 53.739634 l
68.936933 53.739156 l
69.085882 53.738512 l
69.234831 53.737701 l
69.38378 53.736725 l
69.532729 53.735584 l
69.681678 53.73428 l
69.830627 53.732812 l
69.979576 53.731181 l
70.128525 53.729389 l
70.277474 53.727435 l
70.426423 53.725321 l
70.575372 53.723047 l
70.724321 53.720614 l
70.87327 53.718022 l
71.022218 53.715272 l
71.171167 53.712365 l
71.320116 53.709301 l
71.469065 53.706081 l
71.618014 53.702705 l
71.766963 53.699174 l
71.915912 53.695489 l
72.064861 53.69165 l
72.21381 53.687657 l
72.362759 53.683512 l
72.511708 53.679215 l
72.660657 53.674766 l
72.809606 53.670166 l
72.958555 53.665415 l
73.107504 53.660514 l
73.256453 53.655463 l
73.328938 53.652938 l
73.405402 53.650258 l
73.554351 53.644899 l
73.7033 53.639391 l
73.852248 53.633735 l
74.001197 53.627931 l
74.150146 53.62198 l
74.299095 53.615882 l
74.448044 53.609637 l
74.596993 53.603247 l
74.745942 53.596711 l
74.894891 53.590029 l
75.04384 53.583203 l
75.192789 53.576233 l
75.341738 53.569119 l
75.490687 53.561861 l
75.639636 53.554461 l
75.788585 53.546918 l
75.937534 53.539232 l
76.086483 53.531405 l
76.235432 53.523436 l
76.384381 53.515327 l
76.53333 53.507076 l
76.590038 53.50389 l
76.682279 53.498671 l
76.831227 53.490117 l
76.980176 53.481422 l
77.129125 53.472587 l
77.278074 53.463612 l
77.427023 53.454498 l
77.575972 53.445245 l
77.724921 53.435854 l
77.87387 53.426324 l
78.022819 53.416657 l
78.171768 53.406851 l
78.320717 53.396909 l
78.469666 53.386829 l
78.618615 53.376613 l
78.767564 53.366261 l
78.916513 53.355772 l
78.929609 53.354841 l
79.065462 53.345116 l
79.214411 53.33432 l
79.36336 53.323388 l
79.512309 53.31232 l
79.661258 53.301117 l
79.810206 53.289779 l
79.959155 53.278306 l
80.108104 53.266699 l
80.257053 53.254957 l
80.406002 53.243081 l
80.554951 53.231072 l
80.7039 53.218929 l
80.852849 53.206652 l
80.863203 53.205793 l
81.001798 53.1942 l
81.150747 53.18161 l
81.299696 53.168887 l
81.448645 53.15603 l
81.597594 53.143041 l
81.746543 53.129919 l
81.895492 53.116665 l
82.043431 53.103369 l
stroke
grestore
gsave
178.6 89.28 36.79 38.45 clipbox
110.501183 47.241001 m
110.642639 47.180626 l
110.791588 47.116612 l
110.842067 47.094808 l
110.940537 47.0515 l
111.089486 46.985593 l
111.178978 46.94576 l
111.238435 46.918803 l
111.387384 46.850908 l
111.5055 46.796711 l
111.536333 46.782295 l
111.685282 46.71231 l
111.821898 46.647663 l
111.83423 46.641714 l
111.983179 46.56953 l
112.128433 46.498614 l
112.132128 46.496774 l
112.281077 46.422276 l
112.425361 46.349566 l
112.430026 46.347167 l
112.578975 46.270229 l
112.712933 46.200518 l
112.727924 46.192556 l
112.876873 46.113044 l
112.991397 46.051469 l
113.025822 46.032571 l
113.174771 45.950345 l
113.261 45.902421 l
113.32372 45.866814 l
113.472669 45.781719 l
113.521985 45.753372 l
113.621618 45.694847 l
113.770567 45.60672 l
113.774595 45.604324 l
113.919516 45.51619 l
114.018956 45.455275 l
114.068465 45.424253 l
114.217414 45.330321 l
114.255384 45.306227 l
114.366363 45.234154 l
114.484047 45.157179 l
114.515312 45.136238 l
114.664261 45.035855 l
114.705134 45.00813 l
114.813209 44.933021 l
114.918855 44.859082 l
114.962158 44.828013 l
115.111107 44.720433 l
115.125418 44.710033 l
115.260056 44.609671 l
115.324919 44.560985 l
115.409005 44.496203 l
115.517634 44.411937 l
115.557954 44.379813 l
115.703716 44.262888 l
115.706903 44.260261 l
115.855852 44.136703 l
115.883229 44.11384 l
116.004801 44.009417 l
116.056408 43.964791 l
116.15375 43.878151 l
116.223402 43.815743 l
116.302699 43.742554 l
116.384349 43.666694 l
116.451648 43.602231 l
116.53938 43.517646 l
116.600597 43.456743 l
116.688626 43.368598 l
116.749546 43.305593 l
116.832211 43.219549 l
116.898495 43.14822 l
116.970259 43.070501 l
117.047444 42.983989 l
117.102889 42.921452 l
117.196393 42.812179 l
117.230216 42.772404 l
117.345342 42.631965 l
117.352356 42.623356 l
117.469327 42.474307 l
117.494291 42.441227 l
117.581281 42.325259 l
117.643239 42.239223 l
117.688349 42.17621 l
117.790627 42.027162 l
117.792188 42.024786 l
117.888034 41.878114 l
117.941137 41.793029 l
117.980831 41.729065 l
118.069035 41.580017 l
118.090086 41.542647 l
118.152647 41.430968 l
118.231878 41.28192 l
118.239035 41.26771 l
118.306585 41.132871 l
118.377047 40.983823 l
118.387984 40.959256 l
118.443111 40.834775 l
118.504992 40.685726 l
118.536933 40.603357 l
118.562658 40.536678 l
118.616128 40.387629 l
118.665546 40.238581 l
118.685882 40.171838 l
118.710837 40.089533 l
118.752055 39.940484 l
118.789295 39.791436 l
118.822573 39.642387 l
118.834831 39.580119 l
118.851837 39.493339 l
118.877132 39.34429 l
118.898518 39.195242 l
118.916004 39.046194 l
118.929596 38.897145 l
118.939301 38.748097 l
118.945123 38.599048 l
118.947063 38.45 l
stroke
grestore
gsave
178.6 89.28 36.79 38.45 clipbox
66.55375 56.36454 m
72.21381 56.791414 l
78.618615 57.047598 l
85.619215 57.101737 l
93.066663 56.935557 l
100.51411 56.549533 l
105.868301 56.118584 l
105.868301 56.118584 l
stroke
grestore
gsave
178.6 89.28 36.79 38.45 clipbox
132.423528 46.242499 m
132.461616 46.200518 l
132.538134 46.114355 l
132.594095 46.051469 l
132.687083 45.944674 l
132.723959 45.902421 l
132.836032 45.77112 l
132.85122 45.753372 l
132.97594 45.604324 l
132.984981 45.59327 l
133.09818 45.455275 l
133.13393 45.410656 l
133.217863 45.306227 l
133.282879 45.223368 l
133.334991 45.157179 l
133.431828 45.031127 l
133.44956 45.00813 l
133.561684 44.859082 l
133.580777 44.833052 l
133.671371 44.710033 l
133.729726 44.628689 l
133.7785 44.560985 l
133.878675 44.418155 l
133.883056 44.411937 l
133.98531 44.262888 l
134.027624 44.199461 l
134.085014 44.11384 l
134.176573 43.973255 l
134.182112 43.964791 l
134.276929 43.815743 l
134.325522 43.737019 l
134.369159 43.666694 l
134.458844 43.517646 l
134.474471 43.490858 l
134.546187 43.368598 l
134.62342 43.232538 l
134.630835 43.219549 l
134.713204 43.070501 l
134.772369 42.959663 l
134.792889 42.921452 l
134.870193 42.772404 l
134.921318 42.670149 l
134.944862 42.623356 l
135.017116 42.474307 l
135.070267 42.360284 l
135.086701 42.325259 l
135.153913 42.17621 l
135.218341 42.027162 l
135.219215 42.025051 l
135.280504 41.878114 l
135.339902 41.729065 l
135.368164 41.654741 l
135.396784 41.580017 l
135.451141 41.430968 l
135.502751 41.28192 l
135.517113 41.238154 l
135.551924 41.132871 l
135.598477 40.983823 l
135.642302 40.834775 l
135.666062 40.748653 l
135.68356 40.685726 l
135.722296 40.536678 l
135.758314 40.387629 l
135.791624 40.238581 l
135.815011 40.124724 l
135.822299 40.089533 l
135.850467 39.940484 l
135.875929 39.791436 l
135.898691 39.642387 l
135.918761 39.493339 l
135.936143 39.34429 l
135.950843 39.195242 l
135.962864 39.046194 l
135.96396 39.028723 l
135.972285 38.897145 l
135.97902 38.748097 l
135.98306 38.599048 l
135.984406 38.45 l
stroke
grestore
gsave
178.6 89.28 36.79 38.45 clipbox
66.55375 59.162801 m
72.568947 60.06202 l
79.081318 60.807262 l
86.512909 61.431678 l
94.705101 61.893432 l
103.046242 62.143962 l
110.254139 62.148698 l
115.557954 61.945873 l
119.728525 61.571575 l
123.154351 61.051714 l
126.431227 60.332261 l
130.006002 59.305687 l
142.656527 55.335081 l
142.656527 55.335081 l
stroke
grestore
gsave
178.6 89.28 36.79 38.45 clipbox
171.305283 49.90921 m
177.520717 48.472645 l
182.287083 47.157339 l
186.159756 45.877577 l
189.287684 44.620345 l
191.521918 43.514015 l
193.309306 42.394557 l
194.500897 41.412726 l
195.273356 40.536678 l
195.78309 39.642387 l
196.014237 38.748097 l
196.029641 38.45 l
196.029641 38.45 l
stroke
grestore
gsave
178.6 89.28 36.79 38.45 clipbox
66.55375 62.34228 m
72.276312 63.639182 l
78.618615 64.852392 l
85.921974 66.023957 l
93.960357 67.092586 l
102.599396 68.018979 l
110.195792 68.62059 l
115.855852 68.859632 l
120.175372 68.83221 l
123.899095 68.594863 l
127.622819 68.132662 l
132.836032 67.223626 l
138.645041 66.268455 l
142.815612 65.815482 l
147.581978 65.527762 l
154.43363 65.36267 l
184.075861 65.058191 l
184.075861 65.058191 l
stroke
grestore
gsave
178.6 89.28 36.79 38.45 clipbox
213.262448 64.221153 m
213.268465 64.220918 l
213.417414 64.215104 l
213.566363 64.209276 l
213.715312 64.203432 l
213.864261 64.197575 l
214.013209 64.191702 l
214.162158 64.185815 l
214.311107 64.179913 l
214.460056 64.173996 l
214.609005 64.168065 l
214.757954 64.162119 l
214.906903 64.156159 l
215.055852 64.150184 l
215.204801 64.144194 l
215.35375 64.13819 l
stroke
grestore
gsave
178.6 89.28 36.79 38.45 clipbox
66.55375 66.354062 m
71.915912 68.046391 l
78.320717 69.823126 l
85.470267 71.563737 l
93.215612 73.221952 l
101.556753 74.784151 l
109.302098 76.015353 l
115.111107 76.728501 l
119.579576 77.063797 l
123.3033 77.131328 l
127.027023 76.972412 l
131.79339 76.517247 l
138.198194 75.928783 l
142.368765 75.787077 l
147.147203 75.861152 l
147.75994 75.884327 l
147.75994 75.884327 l
stroke
grestore
gsave
178.6 89.28 36.79 38.45 clipbox
176.88939 77.832084 m
196.586182 79.039155 l
215.35375 80.001791 l
215.35375 80.001791 l
stroke
grestore
gsave
178.6 89.28 36.79 38.45 clipbox
66.55375 72.790395 m
71.915912 75.175313 l
77.87387 77.564772 l
84.576573 79.996882 l
92.172969 82.493034 l
100.067264 84.841965 l
107.514711 86.831969 l
113.621618 88.239519 l
118.090086 89.054866 l
121.81381 89.515567 l
125.239636 89.709742 l
128.665462 89.678518 l
134.62342 89.3434 l
138.942939 89.219574 l
142.815612 89.337921 l
147.135131 89.70181 l
152.94414 90.42978 l
164.413209 92.137976 l
184.968164 95.157646 l
196.562107 96.740833 l
196.562107 96.740833 l
stroke
grestore
1.250 setlinewidth
0 setlinejoin
2 setlinecap
[] 0 setdash
0.150 setgray
gsave
36.79375 38.45 m
36.79375 127.73 l
stroke
grestore
gsave
215.35375 38.45 m
215.35375 127.73 l
stroke
grestore
gsave
36.79375 38.45 m
215.35375 38.45 l
stroke
grestore
gsave
36.79375 127.73 m
215.35375 127.73 l
stroke
grestore
0.000 setgray
gsave
63.716163 49.685635 translate
350.415974 rotate
0.000000 0.000000 m /zero glyphshow
5.089844 0.000000 m /period glyphshow
7.632812 0.000000 m /zero glyphshow
12.722656 0.000000 m /zero glyphshow
grestore
gsave
87.318578 50.728842 translate
348.563981 rotate
0.000000 0.000000 m /zero glyphshow
5.089844 0.000000 m /period glyphshow
7.632812 0.000000 m /two glyphshow
12.722656 0.000000 m /zero glyphshow
grestore
gsave
111.075923 54.511618 translate
340.751609 rotate
0.000000 0.000000 m /zero glyphshow
5.089844 0.000000 m /period glyphshow
7.632812 0.000000 m /four glyphshow
12.722656 0.000000 m /zero glyphshow
grestore
gsave
147.800317 51.999807 translate
349.587514 rotate
0.000000 0.000000 m /zero glyphshow
5.089844 0.000000 m /period glyphshow
7.632812 0.000000 m /six glyphshow
12.722656 0.000000 m /zero glyphshow
grestore
gsave
189.695901 62.777632 translate
358.297964 rotate
0.000000 0.000000 m /zero glyphshow
5.089844 0.000000 m /period glyphshow
7.632812 0.000000 m /eight glyphshow
12.722656 0.000000 m /zero glyphshow
grestore
gsave
153.597326 73.963823 translate
4.163221 rotate
0.000000 0.000000 m /one glyphshow
5.089844 0.000000 m /period glyphshow
7.632812 0.000000 m /zero glyphshow
12.722656 0.000000 m /zero glyphshow
grestore
gsave
202.480252 95.265065 translate
7.435865 rotate
0.000000 0.000000 m /one glyphshow
5.089844 0.000000 m /period glyphshow
7.632812 0.000000 m /two glyphshow
12.722656 0.000000 m /zero glyphshow
grestore

end
showpage
