<?xml version="1.0" encoding="UTF-8" standalone="no"?>
<!-- Created with Inkscape (http://www.inkscape.org/) -->

<svg
   xmlns:dc="http://purl.org/dc/elements/1.1/"
   xmlns:cc="http://creativecommons.org/ns#"
   xmlns:rdf="http://www.w3.org/1999/02/22-rdf-syntax-ns#"
   xmlns:svg="http://www.w3.org/2000/svg"
   xmlns="http://www.w3.org/2000/svg"
   xmlns:sodipodi="http://sodipodi.sourceforge.net/DTD/sodipodi-0.dtd"
   xmlns:inkscape="http://www.inkscape.org/namespaces/inkscape"
   width="210mm"
   height="297mm"
   viewBox="0 0 744.09448819 1052.3622047"
   id="svg2"
   version="1.1"
   inkscape:version="0.91 r13725"
   sodipodi:docname="GapFlowSwitching.svg">
  <defs
     id="defs4" />
  <sodipodi:namedview
     id="base"
     pagecolor="#ffffff"
     bordercolor="#666666"
     borderopacity="1.0"
     inkscape:pageopacity="0.0"
     inkscape:pageshadow="2"
     inkscape:zoom="1.19"
     inkscape:cx="292.78905"
     inkscape:cy="632.28615"
     inkscape:document-units="px"
     inkscape:current-layer="layer1"
     showgrid="false"
     inkscape:window-width="1600"
     inkscape:window-height="837"
     inkscape:window-x="1352"
     inkscape:window-y="-8"
     inkscape:window-maximized="1" />
  <metadata
     id="metadata7">
    <rdf:RDF>
      <cc:Work
         rdf:about="">
        <dc:format>image/svg+xml</dc:format>
        <dc:type
           rdf:resource="http://purl.org/dc/dcmitype/StillImage" />
        <dc:title />
      </cc:Work>
    </rdf:RDF>
  </metadata>
  <g
     inkscape:label="Layer 1"
     inkscape:groupmode="layer"
     id="layer1">
    <circle
       style="fill:#55a968;fill-opacity:1;fill-rule:evenodd;stroke:#2a5433;stroke-width:1;stroke-linecap:butt;stroke-linejoin:miter;stroke-miterlimit:4;stroke-dasharray:none;stroke-opacity:1"
       id="path3336"
       cx="112.5"
       cy="114.86221"
       r="36.038273" />
    <circle
       style="fill:#55a968;fill-opacity:1;fill-rule:evenodd;stroke:#2a5433;stroke-width:1;stroke-linecap:butt;stroke-linejoin:miter;stroke-miterlimit:4;stroke-dasharray:none;stroke-opacity:1"
       id="path3336-0"
       cx="337.5"
       cy="99.862206"
       r="36.038273" />
    <path
       style="fill:none;fill-rule:evenodd;stroke:#4c72b1;stroke-width:2.5;stroke-linecap:butt;stroke-linejoin:miter;stroke-miterlimit:4;stroke-dasharray:none;stroke-opacity:1;fill-opacity:1"
       d="m 64.149472,96.221211 c 0,0 14.514245,-11.664935 22.976357,-15.259828 9.92056,-4.214474 20.808401,-7.447894 31.576351,-6.967625 16.65741,0.742949 31.13828,13.096444 47.69332,15.084384 39.61971,4.757562 81.24678,3.502184 119.44194,-8.051417 13.34832,-4.037715 22.8673,-17.058643 36.30334,-20.794099 9.89226,-2.750223 20.69279,-2.518595 30.79479,-0.682804 10.39818,1.889614 19.18091,9.206798 29.42373,11.810135 5.58242,1.41884 17.16343,2.001457 17.16343,2.001457"
       id="path4153"
       inkscape:connector-curvature="0"
       sodipodi:nodetypes="caaaaaaac" />
    <path
       style="fill:none;fill-rule:evenodd;stroke:#4c72b1;stroke-width:2.5;stroke-linecap:butt;stroke-linejoin:miter;stroke-miterlimit:4;stroke-dasharray:none;stroke-opacity:1;fill-opacity:1"
       d="m 69.464322,138.51466 c 0,0 12.020039,10.52185 19.237533,13.63294 9.188328,3.96062 19.492785,7.02551 29.433535,5.88831 16.22951,-1.85662 28.77429,-16.33403 44.6413,-20.21755 39.91388,-9.7691 82.2517,-11.30587 123.09085,-6.7543 9.05904,1.00964 17.47213,5.22013 26.30446,7.47301 8.80928,2.24701 17.50921,6.0454 26.60052,6.02359 7.07524,-0.017 13.98428,-2.49773 20.67892,-4.78708 8.66563,-2.96336 16.23401,-8.69943 24.95641,-11.49126 5.08626,-1.62799 15.73895,-2.99478 15.73895,-2.99478"
       id="path4153-0"
       inkscape:connector-curvature="0"
       sodipodi:nodetypes="caaaaaaaac" />
    <circle
       style="fill:#55a968;fill-opacity:1;fill-rule:evenodd;stroke:#2a5433;stroke-width:1;stroke-linecap:butt;stroke-linejoin:miter;stroke-miterlimit:4;stroke-dasharray:none;stroke-opacity:1"
       id="path3336-2"
       cx="112.5"
       cy="289.86221"
       r="36.038273" />
    <circle
       style="fill:#55a968;fill-opacity:1;fill-rule:evenodd;stroke:#2a5433;stroke-width:1;stroke-linecap:butt;stroke-linejoin:miter;stroke-miterlimit:4;stroke-dasharray:none;stroke-opacity:1"
       id="path3336-0-5"
       cx="328.40408"
       cy="254.8622"
       r="36.038273" />
    <path
       style="fill:none;fill-rule:evenodd;stroke:#4c72b1;stroke-width:2.5;stroke-linecap:butt;stroke-linejoin:miter;stroke-miterlimit:4;stroke-dasharray:none;stroke-opacity:1;fill-opacity:1"
       d="m 57.15412,311.11218 c 0,0 15.919285,11.11275 24.951819,14.34722 12.547282,4.49307 26.286101,8.78598 39.433531,6.6026 13.59297,-2.25738 23.10968,-15.90996 36.37498,-19.63774 17.94143,-5.04185 36.02513,-9.74926 54.52284,-11.11799 39.61958,-2.93164 79.30642,7.64915 119.01358,6.36569 22.63151,-0.73152 46.20707,-7.32313 67.45715,-8.00119"
       id="path4153-0-7"
       inkscape:connector-curvature="0"
       sodipodi:nodetypes="caasaac" />
    <path
       style="fill:none;fill-rule:evenodd;stroke:#4c72b1;stroke-width:2.5;stroke-linecap:butt;stroke-linejoin:miter;stroke-miterlimit:4;stroke-dasharray:none;stroke-opacity:1;fill-opacity:1"
       d="m 58.41662,253.04326 c 0,0 14.961298,-2.50519 22.409635,-3.93372 10.943487,-2.09887 21.585525,-6.96655 32.727395,-6.81205 16.07159,0.22286 30.888,9.94107 46.917,11.13125 38.28809,2.84297 79.14948,4.5867 114.76743,-9.74585 10.7548,-4.3277 16.85716,-16.32713 27.03357,-21.88009 7.70058,-4.20197 16.22566,-7.94081 24.99286,-8.2435 8.22142,-0.28386 16.39856,2.75103 23.91435,6.09547 8.07323,3.59249 13.77221,11.63573 22.06038,14.69992 7.8404,2.89865 24.89547,3.01352 24.89547,3.01352"
       id="path4206"
       inkscape:connector-curvature="0"
       sodipodi:nodetypes="caaaaaaaac" />
    <path
       style="fill:none;fill-rule:evenodd;stroke:#4c72b1;stroke-width:2.5;stroke-linecap:butt;stroke-linejoin:miter;stroke-miterlimit:4;stroke-dasharray:none;stroke-opacity:1;fill-opacity:1"
       d="m 57.578696,271.51428 c 0,0 13.213148,-4.38593 19.460953,-7.41041 8.814812,-4.26713 15.63657,-13.09218 25.232031,-15.05087 10.52912,-2.14926 21.99463,0.28404 31.94488,4.34292 9.59027,3.91203 15.27116,14.81027 24.93227,18.54393 40.43577,15.62695 87.48757,1.75997 129.42626,12.73262 7.3533,1.92388 13.43353,7.63598 20.87848,9.16735 11.2644,2.317 23.55056,3.24134 34.49957,-0.27638 10.44097,-3.35449 16.74207,-14.8044 26.89598,-18.94741 8.48592,-3.46243 27.13938,-4.40993 27.13938,-4.40993"
       id="path4208"
       inkscape:connector-curvature="0"
       sodipodi:nodetypes="caaaaaaaac" />
    <path
       style="fill:#4c72b1;fill-opacity:1;fill-rule:evenodd;stroke:#4c72b1;stroke-width:0.83677763px;stroke-linecap:butt;stroke-linejoin:miter;stroke-opacity:1"
       d="m 164.63807,89.086114 -10.86789,-7.545753 -2.35387,8.029885 z"
       id="path4144"
       inkscape:connector-curvature="0"
       sodipodi:nodetypes="cccc" />
    <path
       style="fill:#4c72b1;fill-opacity:1;fill-rule:evenodd;stroke:#4c72b1;stroke-width:0.83677763px;stroke-linecap:butt;stroke-linejoin:miter;stroke-opacity:1"
       d="m 280.44547,82.605937 -13.08931,-1.928551 1.46074,8.239297 z"
       id="path4144-8"
       inkscape:connector-curvature="0"
       sodipodi:nodetypes="cccc" />
    <path
       style="fill:#4c72b1;fill-opacity:1;fill-rule:evenodd;stroke:#4c72b1;stroke-width:0.83677763px;stroke-linecap:butt;stroke-linejoin:miter;stroke-opacity:1"
       d="m 197.85999,130.945 -13.05987,-2.11877 1.34072,8.25968 z"
       id="path4144-1"
       inkscape:connector-curvature="0"
       sodipodi:nodetypes="cccc" />
    <path
       style="fill:#4c72b1;fill-opacity:1;fill-rule:evenodd;stroke:#4c72b1;stroke-width:0.83677763px;stroke-linecap:butt;stroke-linejoin:miter;stroke-opacity:1"
       d="m 293.50499,132.52449 -11.59393,-6.37419 -1.50572,8.23119 z"
       id="path4144-5"
       inkscape:connector-curvature="0"
       sodipodi:nodetypes="cccc" />
    <path
       style="fill:#4c72b1;fill-opacity:1;fill-rule:evenodd;stroke:#4c72b1;stroke-width:0.83677763px;stroke-linecap:butt;stroke-linejoin:miter;stroke-opacity:1"
       d="m 174.1461,254.36908 -12.2407,-5.02146 -0.56472,8.34872 z"
       id="path4144-7"
       inkscape:connector-curvature="0"
       sodipodi:nodetypes="cccc" />
    <path
       style="fill:#4c72b1;fill-opacity:1;fill-rule:evenodd;stroke:#4c72b1;stroke-width:0.83677763px;stroke-linecap:butt;stroke-linejoin:miter;stroke-opacity:1"
       d="m 274.8176,243.56784 -13.22679,-0.31906 2.45393,7.99988 z"
       id="path4144-6"
       inkscape:connector-curvature="0"
       sodipodi:nodetypes="cccc" />
    <path
       style="fill:#4c72b1;fill-opacity:1;fill-rule:evenodd;stroke:#4c72b1;stroke-width:0.83677763px;stroke-linecap:butt;stroke-linejoin:miter;stroke-opacity:1"
       d="m 179.94783,277.44473 -11.47546,-6.58507 -1.65595,8.20228 z"
       id="path4144-58"
       inkscape:connector-curvature="0"
       sodipodi:nodetypes="cccc" />
    <path
       style="fill:#4c72b1;fill-opacity:1;fill-rule:evenodd;stroke:#4c72b1;stroke-width:0.83677763px;stroke-linecap:butt;stroke-linejoin:miter;stroke-opacity:1"
       d="m 285.47397,283.84164 -11.89267,-5.79775 -1.10011,8.29516 z"
       id="path4144-4"
       inkscape:connector-curvature="0"
       sodipodi:nodetypes="cccc" />
    <path
       style="fill:#4c72b1;fill-opacity:1;fill-rule:evenodd;stroke:#4c72b1;stroke-width:0.83677763px;stroke-linecap:butt;stroke-linejoin:miter;stroke-opacity:1"
       d="m 172.27783,307.79058 -13.19201,-1.01022 2.03228,8.11725 z"
       id="path4144-43"
       inkscape:connector-curvature="0"
       sodipodi:nodetypes="cccc" />
    <path
       style="fill:#4c72b1;fill-opacity:1;fill-rule:evenodd;stroke:#4c72b1;stroke-width:0.83677763px;stroke-linecap:butt;stroke-linejoin:miter;stroke-opacity:1"
       d="m 353.24715,305.10125 -13.0221,-2.33972 1.20059,8.28121 z"
       id="path4144-83"
       inkscape:connector-curvature="0"
       sodipodi:nodetypes="cccc" />
    <path
       id="path4144-8-8"
       style="fill:#c54e52;fill-opacity:1;fill-rule:evenodd;stroke:#c54e52;stroke-width:3.5;stroke-linecap:butt;stroke-linejoin:miter;stroke-opacity:1;stroke-miterlimit:4;stroke-dasharray:none"
       d="m 338.01144,12.012488 -4.18781,12.550359 8.36778,0.0026 z m 0.58425,88.336812 -0.55113,-76.607823" />
    <path
       inkscape:connector-curvature="0"
       id="path4144-8-8-4"
       style="fill:#c54e52;fill-opacity:1;fill-rule:evenodd;stroke:#c54e52;stroke-width:3.5;stroke-linecap:butt;stroke-linejoin:miter;stroke-miterlimit:4;stroke-dasharray:none;stroke-opacity:1"
       d="m 326.96935,341.69684 -4.18781,-12.55036 8.36777,-0.003 z m 0.58425,-88.33681 -0.55113,76.60782" />
    <circle
       style="fill:#55a968;fill-opacity:1;fill-rule:evenodd;stroke:#2a5433;stroke-width:1.02632117;stroke-linecap:butt;stroke-linejoin:miter;stroke-miterlimit:4;stroke-dasharray:none;stroke-opacity:1"
       id="path3336-2-2"
       cx="114.6843"
       cy="546.04364"
       r="36.986839" />
    <circle
       style="fill:#55a968;fill-opacity:1;fill-rule:evenodd;stroke:#2a5433;stroke-width:1.02632117;stroke-linecap:butt;stroke-linejoin:miter;stroke-miterlimit:4;stroke-dasharray:none;stroke-opacity:1"
       id="path3336-0-5-6"
       cx="414.6843"
       cy="471.04367"
       r="36.986839" />
    <path
       sodipodi:type="spiral"
       style="fill:none;fill-rule:evenodd;stroke:#4c72b1;stroke-width:2.55734421;stroke-linecap:butt;stroke-linejoin:miter;stroke-opacity:1;stroke-miterlimit:4;stroke-dasharray:none"
       id="path3386-1"
       sodipodi:cx="202.29919"
       sodipodi:cy="589.96399"
       sodipodi:expansion="1.5"
       sodipodi:revolution="2.4000001"
       sodipodi:radius="37.680344"
       sodipodi:argument="-18.935551"
       sodipodi:t0="0.30000001"
       d="m 200.62095,584.00426 c 3.82697,-2.58825 8.88582,-0.38895 10.99758,3.33542 3.2805,5.7856 -0.004,12.93391 -5.61767,15.76951 -7.9763,4.02894 -17.48153,-0.49849 -21.08782,-8.24929 -4.82939,-10.37956 1.08016,-22.47801 11.18961,-26.90085 12.97928,-5.67838 27.88565,1.73898 33.16939,14.40944 6.57306,15.76225 -2.46768,33.67497 -17.88656,39.86237 -12.78461,5.1303 -27.63145,1.79956 -37.55543,-7.58254"
       transform="matrix(1.054185,-0.2914512,0.37652473,0.80243746,-250.27757,139.18233)" />
    <path
       sodipodi:type="spiral"
       style="fill:none;fill-rule:evenodd;stroke:#4c72b1;stroke-width:2.55734421;stroke-linecap:butt;stroke-linejoin:miter;stroke-opacity:1;stroke-miterlimit:4;stroke-dasharray:none"
       id="path3386-1-4"
       sodipodi:cx="202.29919"
       sodipodi:cy="589.96399"
       sodipodi:expansion="1.5"
       sodipodi:revolution="2.4000001"
       sodipodi:radius="37.680344"
       sodipodi:argument="-18.935551"
       sodipodi:t0="0.30000001"
       d="m 200.62095,584.00426 c 3.82697,-2.58825 8.88582,-0.38895 10.99758,3.33542 3.2805,5.7856 -0.004,12.93391 -5.61767,15.76951 -7.9763,4.02894 -17.48153,-0.49849 -21.08782,-8.24929 -4.82939,-10.37956 1.08016,-22.47801 11.18961,-26.90085 12.97928,-5.67838 27.88565,1.73898 33.16939,14.40944 6.57306,15.76225 -2.46768,33.67497 -17.88656,39.86237 -12.78461,5.1303 -27.63145,1.79956 -37.55543,-7.58254"
       transform="matrix(1.054185,0.2914512,0.37652473,-0.80243746,-157.41857,947.47984)" />
    <path
       sodipodi:type="spiral"
       style="fill:none;fill-rule:evenodd;stroke:#4c72b1;stroke-width:2.55734421;stroke-linecap:butt;stroke-linejoin:miter;stroke-opacity:1;stroke-miterlimit:4;stroke-dasharray:none"
       id="path3386-1-3"
       sodipodi:cx="202.29919"
       sodipodi:cy="589.96399"
       sodipodi:expansion="1.5"
       sodipodi:revolution="2.4000001"
       sodipodi:radius="37.680344"
       sodipodi:argument="-18.935551"
       sodipodi:t0="0.30000001"
       d="m 200.62095,584.00426 c 3.82697,-2.58825 8.88582,-0.38895 10.99758,3.33542 3.2805,5.7856 -0.004,12.93391 -5.61767,15.76951 -7.9763,4.02894 -17.48153,-0.49849 -21.08782,-8.24929 -4.82939,-10.37956 1.08016,-22.47801 11.18961,-26.90085 12.97928,-5.67838 27.88565,1.73898 33.16939,14.40944 6.57306,15.76225 -2.46768,33.67497 -17.88656,39.86237 -12.78461,5.1303 -27.63145,1.79956 -37.55543,-7.58254"
       transform="matrix(1.054185,-0.2914512,0.37652473,0.80243746,-57.790014,147.26962)" />
    <path
       sodipodi:type="spiral"
       style="fill:none;fill-rule:evenodd;stroke:#4c72b1;stroke-width:2.55734421;stroke-linecap:butt;stroke-linejoin:miter;stroke-opacity:1;stroke-miterlimit:4;stroke-dasharray:none"
       id="path3386-1-7"
       sodipodi:cx="202.29919"
       sodipodi:cy="589.96399"
       sodipodi:expansion="1.5"
       sodipodi:revolution="2.4000001"
       sodipodi:radius="37.680344"
       sodipodi:argument="-18.935551"
       sodipodi:t0="0.30000001"
       d="m 200.62095,584.00426 c 3.82697,-2.58825 8.88582,-0.38895 10.99758,3.33542 3.2805,5.7856 -0.004,12.93391 -5.61767,15.76951 -7.9763,4.02894 -17.48153,-0.49849 -21.08782,-8.24929 -4.82939,-10.37956 1.08016,-22.47801 11.18961,-26.90085 12.97928,-5.67838 27.88565,1.73898 33.16939,14.40944 6.57306,15.76225 -2.46768,33.67497 -17.88656,39.86237 -12.78461,5.1303 -27.63145,1.79956 -37.55543,-7.58254"
       transform="matrix(1.054185,-0.2914512,0.37652473,0.80243746,47.162202,56.767345)" />
    <path
       sodipodi:type="spiral"
       style="fill:none;fill-rule:evenodd;stroke:#4c72b1;stroke-width:2.55734421;stroke-linecap:butt;stroke-linejoin:miter;stroke-opacity:1;stroke-miterlimit:4;stroke-dasharray:none"
       id="path3386-1-2"
       sodipodi:cx="202.29919"
       sodipodi:cy="589.96399"
       sodipodi:expansion="1.5"
       sodipodi:revolution="2.4000001"
       sodipodi:radius="37.680344"
       sodipodi:argument="-18.935551"
       sodipodi:t0="0.30000001"
       d="m 200.62095,584.00426 c 3.82697,-2.58825 8.88582,-0.38895 10.99758,3.33542 3.2805,5.7856 -0.004,12.93391 -5.61767,15.76951 -7.9763,4.02894 -17.48153,-0.49849 -21.08782,-8.24929 -4.82939,-10.37956 1.08016,-22.47801 11.18961,-26.90085 12.97928,-5.67838 27.88565,1.73898 33.16939,14.40944 6.57306,15.76225 -2.46768,33.67497 -17.88656,39.86237 -12.78461,5.1303 -27.63145,1.79956 -37.55543,-7.58254"
       transform="matrix(1.054185,0.2914512,0.37652473,-0.80243746,41.838539,958.12716)" />
    <path
       style="fill:#4c72b1;fill-opacity:1;fill-rule:evenodd;stroke:#4c72b1;stroke-width:0.62826091px;stroke-linecap:butt;stroke-linejoin:miter;stroke-opacity:1"
       d="m 214.57721,569.91384 -9.17514,3.85687 4.13243,4.71585 z"
       id="path4144-83-6"
       inkscape:connector-curvature="0"
       sodipodi:nodetypes="cccc" />
    <path
       style="fill:#4c72b1;fill-opacity:1;fill-rule:evenodd;stroke:#4c72b1;stroke-width:0.62826091px;stroke-linecap:butt;stroke-linejoin:miter;stroke-opacity:1"
       d="m 406.04887,578.84559 -9.17514,3.85687 4.13243,4.71585 z"
       id="path4144-83-6-3"
       inkscape:connector-curvature="0"
       sodipodi:nodetypes="cccc" />
    <path
       style="fill:#4c72b1;fill-opacity:1;fill-rule:evenodd;stroke:#4c72b1;stroke-width:0.62826091px;stroke-linecap:butt;stroke-linejoin:miter;stroke-opacity:1"
       d="m 509.98588,489.60675 -9.17514,3.85687 4.13243,4.71585 z"
       id="path4144-83-6-5"
       inkscape:connector-curvature="0"
       sodipodi:nodetypes="cccc" />
    <path
       style="fill:#4c72b1;fill-opacity:1;fill-rule:evenodd;stroke:#4c72b1;stroke-width:0.62826091px;stroke-linecap:butt;stroke-linejoin:miter;stroke-opacity:1"
       d="m 508.939,531.79781 -2.82259,-9.54419 -5.14241,3.58774 z"
       id="path4144-83-6-1"
       inkscape:connector-curvature="0"
       sodipodi:nodetypes="cccc" />
    <path
       style="fill:#4c72b1;fill-opacity:1;fill-rule:evenodd;stroke:#4c72b1;stroke-width:0.62826091px;stroke-linecap:butt;stroke-linejoin:miter;stroke-opacity:1"
       d="m 305.57276,515.36089 -4.70777,-8.76901 -4.30366,4.56013 z"
       id="path4144-83-6-81"
       inkscape:connector-curvature="0"
       sodipodi:nodetypes="cccc" />
    <path
       inkscape:connector-curvature="0"
       id="path4144-8-8-4-8"
       style="fill:#c54e52;fill-opacity:1;fill-rule:evenodd;stroke:#c54e52;stroke-width:3.5;stroke-linecap:butt;stroke-linejoin:miter;stroke-miterlimit:4;stroke-dasharray:none;stroke-opacity:1"
       d="m 431.46984,543.44503 -5.45051,-9.29463 5.79979,-2.01372 z m -17.52646,-72.64637 15.16856,63.01138" />
  </g>
</svg>
