%!PS-Adobe-3.0 EPSF-3.0
%%Title: ../Figures/liftUpdate.eps
%%Creator: matplotlib version 2.1.2, http://matplotlib.org/
%%CreationDate: Tue Jun 12 14:16:38 2018
%%Orientation: portrait
%%BoundingBox: 191 325 420 466
%%EndComments
%%BeginProlog
/mpldict 9 dict def
mpldict begin
/m { moveto } bind def
/l { lineto } bind def
/r { rlineto } bind def
/c { curveto } bind def
/cl { closepath } bind def
/box {
m
1 index 0 r
0 exch r
neg 0 r
cl
} bind def
/clipbox {
box
clip
newpath
} bind def
%!PS-Adobe-3.0 Resource-Font
%%Title: DejaVu Sans
%%Copyright: Copyright (c) 2003 by Bitstream, Inc. All Rights Reserved. Copyright (c) 2006 by Tavmjong Bah. All Rights Reserved. DejaVu changes are in public domain 
%%Creator: Converted from TrueType to type 3 by PPR
25 dict begin
/_d{bind def}bind def
/_m{moveto}_d
/_l{lineto}_d
/_cl{closepath eofill}_d
/_c{curveto}_d
/_sc{7 -1 roll{setcachedevice}{pop pop pop pop pop pop}ifelse}_d
/_e{exec}_d
/FontName /DejaVuSans def
/PaintType 0 def
/FontMatrix[.001 0 0 .001 0 0]def
/FontBBox[-1021 -463 1793 1232]def
/FontType 3 def
/Encoding [ /hyphen /period /slash /zero /one /two /three /four /five /six ] def
/FontInfo 10 dict dup begin
/FamilyName (DejaVu Sans) def
/FullName (DejaVu Sans) def
/Notice (Copyright (c) 2003 by Bitstream, Inc. All Rights Reserved. Copyright (c) 2006 by Tavmjong Bah. All Rights Reserved. DejaVu changes are in public domain ) def
/Weight (Book) def
/Version (Version 2.35) def
/ItalicAngle 0.0 def
/isFixedPitch false def
/UnderlinePosition -130 def
/UnderlineThickness 90 def
end readonly def
/CharStrings 11 dict dup begin
/.notdef 0 def
/hyphen{361 0 49 234 312 314 _sc
49 314 _m
312 314 _l
312 234 _l
49 234 _l
49 314 _l
_cl}_d
/period{318 0 107 0 210 124 _sc
107 124 _m
210 124 _l
210 0 _l
107 0 _l
107 124 _l
_cl}_d
/slash{337 0 0 -92 337 729 _sc
254 729 _m
337 729 _l
83 -92 _l
0 -92 _l
254 729 _l
_cl}_d
/zero{636 0 66 -13 570 742 _sc
318 664 _m
267 664 229 639 203 589 _c
177 539 165 464 165 364 _c
165 264 177 189 203 139 _c
229 89 267 64 318 64 _c
369 64 407 89 433 139 _c
458 189 471 264 471 364 _c
471 464 458 539 433 589 _c
407 639 369 664 318 664 _c
318 742 _m
399 742 461 709 505 645 _c
548 580 570 486 570 364 _c
570 241 548 147 505 83 _c
461 19 399 -13 318 -13 _c
236 -13 173 19 130 83 _c
87 147 66 241 66 364 _c
66 486 87 580 130 645 _c
173 709 236 742 318 742 _c
_cl}_d
/one{636 0 110 0 544 729 _sc
124 83 _m
285 83 _l
285 639 _l
110 604 _l
110 694 _l
284 729 _l
383 729 _l
383 83 _l
544 83 _l
544 0 _l
124 0 _l
124 83 _l
_cl}_d
/two{{636 0 73 0 536 742 _sc
192 83 _m
536 83 _l
536 0 _l
73 0 _l
73 83 _l
110 121 161 173 226 239 _c
290 304 331 346 348 365 _c
380 400 402 430 414 455 _c
426 479 433 504 433 528 _c
433 566 419 598 392 622 _c
365 646 330 659 286 659 _c
255 659 222 653 188 643 _c
154 632 117 616 78 594 _c
78 694 _l
118 710 155 722 189 730 _c
223 738 255 742 284 742 _c
}_e{359 742 419 723 464 685 _c
509 647 532 597 532 534 _c
532 504 526 475 515 449 _c
504 422 484 390 454 354 _c
446 344 420 317 376 272 _c
332 227 271 164 192 83 _c
_cl}_e}_d
/three{{636 0 76 -13 556 742 _sc
406 393 _m
453 383 490 362 516 330 _c
542 298 556 258 556 212 _c
556 140 531 84 482 45 _c
432 6 362 -13 271 -13 _c
240 -13 208 -10 176 -4 _c
144 1 110 10 76 22 _c
76 117 _l
103 101 133 89 166 81 _c
198 73 232 69 268 69 _c
330 69 377 81 409 105 _c
441 129 458 165 458 212 _c
458 254 443 288 413 312 _c
383 336 341 349 287 349 _c
}_e{202 349 _l
202 430 _l
291 430 _l
339 430 376 439 402 459 _c
428 478 441 506 441 543 _c
441 580 427 609 401 629 _c
374 649 336 659 287 659 _c
260 659 231 656 200 650 _c
169 644 135 635 98 623 _c
98 711 _l
135 721 170 729 203 734 _c
235 739 266 742 296 742 _c
370 742 429 725 473 691 _c
517 657 539 611 539 553 _c
539 513 527 479 504 451 _c
481 423 448 403 406 393 _c
_cl}_e}_d
/four{636 0 49 0 580 729 _sc
378 643 _m
129 254 _l
378 254 _l
378 643 _l
352 729 _m
476 729 _l
476 254 _l
580 254 _l
580 172 _l
476 172 _l
476 0 _l
378 0 _l
378 172 _l
49 172 _l
49 267 _l
352 729 _l
_cl}_d
/five{{636 0 77 -13 549 729 _sc
108 729 _m
495 729 _l
495 646 _l
198 646 _l
198 467 _l
212 472 227 476 241 478 _c
255 480 270 482 284 482 _c
365 482 429 459 477 415 _c
525 370 549 310 549 234 _c
549 155 524 94 475 51 _c
426 8 357 -13 269 -13 _c
238 -13 207 -10 175 -6 _c
143 -1 111 6 77 17 _c
77 116 _l
106 100 136 88 168 80 _c
199 72 232 69 267 69 _c
}_e{323 69 368 83 401 113 _c
433 143 450 183 450 234 _c
450 284 433 324 401 354 _c
368 384 323 399 267 399 _c
241 399 214 396 188 390 _c
162 384 135 375 108 363 _c
108 729 _l
_cl}_e}_d
/six{{636 0 70 -13 573 742 _sc
330 404 _m
286 404 251 388 225 358 _c
199 328 186 286 186 234 _c
186 181 199 139 225 109 _c
251 79 286 64 330 64 _c
374 64 409 79 435 109 _c
461 139 474 181 474 234 _c
474 286 461 328 435 358 _c
409 388 374 404 330 404 _c
526 713 _m
526 623 _l
501 635 476 644 451 650 _c
425 656 400 659 376 659 _c
310 659 260 637 226 593 _c
}_e{192 549 172 482 168 394 _c
187 422 211 444 240 459 _c
269 474 301 482 336 482 _c
409 482 467 459 509 415 _c
551 371 573 310 573 234 _c
573 159 550 99 506 54 _c
462 9 403 -13 330 -13 _c
246 -13 181 19 137 83 _c
92 147 70 241 70 364 _c
70 479 97 571 152 639 _c
206 707 280 742 372 742 _c
396 742 421 739 447 735 _c
472 730 498 723 526 713 _c
_cl}_e}_d
end readonly def

/BuildGlyph
 {exch begin
 CharStrings exch
 2 copy known not{pop /.notdef}if
 true 3 1 roll get exec
 end}_d

/BuildChar {
 1 index /Encoding get exch get
 1 index /BuildGlyph get exec
}_d

FontName currentdict end definefont pop
%!PS-Adobe-3.0 Resource-Font
%%Title: DejaVu Sans Oblique
%%Copyright: Copyright (c) 2003 by Bitstream, Inc. All Rights Reserved. Copyright (c) 2006 by Tavmjong Bah. All Rights Reserved. DejaVu changes are in public domain 
%%Creator: Converted from TrueType to type 3 by PPR
25 dict begin
/_d{bind def}bind def
/_m{moveto}_d
/_l{lineto}_d
/_cl{closepath eofill}_d
/_c{curveto}_d
/_sc{7 -1 roll{setcachedevice}{pop pop pop pop pop pop}ifelse}_d
/_e{exec}_d
/FontName /DejaVuSans-Oblique def
/PaintType 0 def
/FontMatrix[.001 0 0 .001 0 0]def
/FontBBox[-1016 -350 1659 1068]def
/FontType 3 def
/Encoding [ /D /x /y ] def
/FontInfo 10 dict dup begin
/FamilyName (DejaVu Sans) def
/FullName (DejaVu Sans Oblique) def
/Notice (Copyright (c) 2003 by Bitstream, Inc. All Rights Reserved. Copyright (c) 2006 by Tavmjong Bah. All Rights Reserved. DejaVu changes are in public domain ) def
/Weight (Oblique) def
/Version (Version 2.35) def
/ItalicAngle -11.0 def
/isFixedPitch false def
/UnderlinePosition -130 def
/UnderlineThickness 90 def
end readonly def
/CharStrings 4 dict dup begin
/.notdef 0 def
/D{770 0 27 0 722 729 _sc
169 729 _m
381 729 _l
493 729 578 705 636 657 _c
693 609 722 539 722 445 _c
722 383 711 323 689 265 _c
667 207 637 159 599 120 _c
560 80 511 50 451 30 _c
391 10 321 0 240 0 _c
27 0 _l
169 729 _l
252 648 _m
142 81 _l
271 81 _l
381 81 467 112 527 176 _c
587 239 618 329 618 445 _c
618 515 598 566 559 599 _c
520 631 459 648 376 648 _c
252 648 _l
_cl}_d
/x{592 0 -25 0 600 547 _sc
600 547 _m
349 279 _l
503 0 _l
400 0 _l
284 217 _l
83 0 _l
-25 0 _l
243 288 _l
100 547 _l
203 547 _l
308 349 _l
491 547 _l
600 547 _l
_cl}_d
/y{592 0 -24 -207 603 547 _sc
248 -50 _m
206 -120 172 -163 146 -181 _c
120 -198 86 -207 46 -207 _c
-24 -207 _l
-9 -132 _l
42 -132 _l
67 -132 88 -125 106 -111 _c
123 -97 143 -71 165 -31 _c
193 20 _l
72 547 _l
167 547 _l
258 128 _l
509 547 _l
603 547 _l
248 -50 _l
_cl}_d
end readonly def

/BuildGlyph
 {exch begin
 CharStrings exch
 2 copy known not{pop /.notdef}if
 true 3 1 roll get exec
 end}_d

/BuildChar {
 1 index /Encoding get exch get
 1 index /BuildGlyph get exec
}_d

FontName currentdict end definefont pop
end
%%EndProlog
mpldict begin
191.723 325.535 translate
228.554 140.93 0 0 clipbox
gsave
0 0 m
228.55375 0 l
228.55375 140.93 l
0 140.93 l
cl
grestore
gsave
36.79375 38.45 m
215.35375 38.45 l
215.35375 127.73 l
36.79375 127.73 l
cl
grestore
0.800 setlinewidth
1 setlinejoin
0 setlinecap
[] 0 setdash
0.150 setgray
gsave
/o {
gsave
newpath
translate
0.8 setlinewidth
1 setlinejoin
0 setlinecap
0 0 m
0 -6 l

gsave
0.150 setgray
fill
grestore
stroke
grestore
} bind def
36.7938 38.45 o
grestore
/DejaVuSans findfont
8.000 scalefont
setfont
gsave
34.246875 22.871875 translate
0.000000 rotate
0.000000 0.000000 m /zero glyphshow
grestore
gsave
/o {
gsave
newpath
translate
0.8 setlinewidth
1 setlinejoin
0 setlinecap
0 0 m
0 -6 l

gsave
0.150 setgray
fill
grestore
stroke
grestore
} bind def
66.5538 38.45 o
grestore
gsave
64.006875 22.871875 translate
0.000000 rotate
0.000000 0.000000 m /one glyphshow
grestore
gsave
/o {
gsave
newpath
translate
0.8 setlinewidth
1 setlinejoin
0 setlinecap
0 0 m
0 -6 l

gsave
0.150 setgray
fill
grestore
stroke
grestore
} bind def
96.3137 38.45 o
grestore
gsave
93.766875 22.871875 translate
0.000000 rotate
0.000000 0.000000 m /two glyphshow
grestore
gsave
/o {
gsave
newpath
translate
0.8 setlinewidth
1 setlinejoin
0 setlinecap
0 0 m
0 -6 l

gsave
0.150 setgray
fill
grestore
stroke
grestore
} bind def
126.074 38.45 o
grestore
gsave
123.526875 22.871875 translate
0.000000 rotate
0.000000 0.000000 m /three glyphshow
grestore
gsave
/o {
gsave
newpath
translate
0.8 setlinewidth
1 setlinejoin
0 setlinecap
0 0 m
0 -6 l

gsave
0.150 setgray
fill
grestore
stroke
grestore
} bind def
155.834 38.45 o
grestore
gsave
153.286875 22.871875 translate
0.000000 rotate
0.000000 0.000000 m /four glyphshow
grestore
gsave
/o {
gsave
newpath
translate
0.8 setlinewidth
1 setlinejoin
0 setlinecap
0 0 m
0 -6 l

gsave
0.150 setgray
fill
grestore
stroke
grestore
} bind def
185.594 38.45 o
grestore
gsave
183.046875 22.871875 translate
0.000000 rotate
0.000000 0.000000 m /five glyphshow
grestore
gsave
/o {
gsave
newpath
translate
0.8 setlinewidth
1 setlinejoin
0 setlinecap
0 0 m
0 -6 l

gsave
0.150 setgray
fill
grestore
stroke
grestore
} bind def
215.354 38.45 o
grestore
gsave
212.806875 22.871875 translate
0.000000 rotate
0.000000 0.000000 m /six glyphshow
grestore
gsave
115.073750 9.278125 translate
0.000000 rotate
/DejaVuSans-Oblique findfont
10.0 scalefont
setfont
0.000000 0.703125 moveto
/x glyphshow

/DejaVuSans findfont
7.0 scalefont
setfont
5.917969 -0.937500 moveto
/zero glyphshow

/DejaVuSans findfont
10.0 scalefont
setfont
10.645020 0.703125 moveto
/slash glyphshow

/DejaVuSans-Oblique findfont
10.0 scalefont
setfont
14.014160 0.703125 moveto
/D glyphshow


grestore
gsave
/o {
gsave
newpath
translate
0.8 setlinewidth
1 setlinejoin
0 setlinecap
0 0 m
-6 0 l

gsave
0.150 setgray
fill
grestore
stroke
grestore
} bind def
36.7938 38.45 o
grestore
gsave
22.200000 35.410937 translate
0.000000 rotate
0.000000 0.000000 m /zero glyphshow
grestore
gsave
/o {
gsave
newpath
translate
0.8 setlinewidth
1 setlinejoin
0 setlinecap
0 0 m
-6 0 l

gsave
0.150 setgray
fill
grestore
stroke
grestore
} bind def
36.7938 68.21 o
grestore
gsave
22.200000 65.170937 translate
0.000000 rotate
0.000000 0.000000 m /one glyphshow
grestore
gsave
/o {
gsave
newpath
translate
0.8 setlinewidth
1 setlinejoin
0 setlinecap
0 0 m
-6 0 l

gsave
0.150 setgray
fill
grestore
stroke
grestore
} bind def
36.7938 97.97 o
grestore
gsave
22.200000 94.930937 translate
0.000000 rotate
0.000000 0.000000 m /two glyphshow
grestore
gsave
/o {
gsave
newpath
translate
0.8 setlinewidth
1 setlinejoin
0 setlinecap
0 0 m
-6 0 l

gsave
0.150 setgray
fill
grestore
stroke
grestore
} bind def
36.7938 127.73 o
grestore
gsave
22.200000 124.690937 translate
0.000000 rotate
0.000000 0.000000 m /three glyphshow
grestore
gsave
15.200000 72.090000 translate
90.000000 rotate
/DejaVuSans-Oblique findfont
10.0 scalefont
setfont
0.000000 0.703125 moveto
/y glyphshow

/DejaVuSans findfont
7.0 scalefont
setfont
5.917969 -0.937500 moveto
/zero glyphshow

/DejaVuSans findfont
10.0 scalefont
setfont
10.645020 0.703125 moveto
/slash glyphshow

/DejaVuSans-Oblique findfont
10.0 scalefont
setfont
14.014160 0.703125 moveto
/D glyphshow


grestore
gsave
178.6 89.28 36.79 38.45 clipbox
51.67375 38.45 m
51.67375 42.394908 50.10497 46.182278 47.315499 48.971749 c
44.526028 51.76122 40.738658 53.33 36.79375 53.33 c
36.79375 38.45 l
51.67375 38.45 l
cl
0.586 setgray
fill
grestore
1.500 setlinewidth
0.000 setgray
gsave
178.6 89.28 36.79 38.45 clipbox
66.55375 58.360756 m
72.660657 60.420539 l
80.108104 62.706249 l
84.860064 64.065356 l
84.860064 64.065356 l
stroke
grestore
gsave
178.6 89.28 36.79 38.45 clipbox
117.625183 72.831507 m
125.686483 75.079915 l
129.112309 75.794675 l
132.091288 76.191047 l
134.921318 76.347511 l
137.900297 76.288604 l
141.177173 75.989286 l
144.602999 75.443507 l
147.730927 74.734231 l
150.560957 73.872029 l
152.795191 72.959283 l
154.301241 72.134942 l
155.481025 71.240651 l
156.256029 70.346361 l
156.628344 69.601119 l
156.775337 68.855876 l
156.714399 68.110634 l
156.386683 67.216344 l
155.77417 66.29038 l
154.810445 65.278715 l
153.390987 64.149825 l
151.6036 63.004806 l
149.071468 61.65889 l
145.94354 60.258622 l
142.517714 58.950803 l
138.79399 57.75346 l
135.219215 56.827749 l
131.79339 56.162396 l
128.218615 55.694248 l
123.899095 55.363097 l
103.939936 54.125548 l
93.215612 53.037857 l
81.299696 51.616859 l
69.234831 49.95563 l
66.55375 49.548504 l
66.55375 49.548504 l
stroke
grestore
gsave
178.6 89.28 36.79 38.45 clipbox
66.55375 62.688909 m
72.660657 65.100326 l
79.773325 67.663489 l
87.704501 70.286941 l
97.237233 73.202925 l
112.281077 77.530397 l
123.154351 80.507924 l
127.47387 81.456735 l
131.048645 82.018958 l
134.62342 82.3551 l
138.645041 82.506555 l
144.007203 82.471967 l
151.6036 82.188776 l
159.696085 81.67404 l
166.647444 81.011943 l
172.456453 80.237716 l
177.222819 79.385687 l
181.095492 78.477633 l
184.074471 77.571239 l
186.457654 76.625639 l
188.096092 75.767815 l
189.287684 74.931121 l
190.143898 74.072571 l
190.628224 73.298397 l
190.85627 72.582087 l
190.883016 71.836845 l
190.709156 71.091603 l
190.251506 70.197312 l
189.436633 69.198115 l
188.39399 68.256641 l
186.712479 67.067295 l
184.372369 65.736317 l
181.840236 64.524768 l
178.116513 62.995288 l
173.499095 61.35724 l
167.839035 59.59832 l
160.838435 57.671978 l
152.050447 55.509708 l
142.964561 53.495063 l
136.261858 52.221566 l
131.346543 51.508844 l
126.431227 51.025141 l
119.430627 50.588815 l
103.692136 49.628631 l
95.548104 49.010605 l
95.548104 49.010605 l
stroke
grestore
gsave
178.6 89.28 36.79 38.45 clipbox
215.35375 61.966717 m
206.565762 59.95751 l
196.735131 57.935809 l
185.117113 55.777831 l
172.307504 53.621892 l
170.037206 53.259899 l
170.037206 53.259899 l
stroke
grestore
gsave
178.6 89.28 36.79 38.45 clipbox
136.415067 48.38421 m
130.154951 47.736501 l
123.750146 47.305584 l
106.472068 46.499336 l
87.919944 45.455275 l
71.171167 44.308454 l
66.55375 43.945315 l
66.55375 43.945315 l
stroke
grestore
gsave
178.6 89.28 36.79 38.45 clipbox
66.55375 66.390836 m
72.362759 69.014642 l
78.916513 71.729592 l
86.36396 74.571528 l
94.85405 77.569363 l
104.83363 80.850403 l
115.557954 84.148043 l
121.962759 85.909543 l
126.349084 86.890735 l
130.154951 87.518037 l
132.6944 87.816253 l
132.6944 87.816253 l
stroke
grestore
gsave
178.6 89.28 36.79 38.45 clipbox
166.657785 89.239745 m
177.818615 89.368068 l
188.245041 89.26849 l
198.075672 88.954555 l
207.161558 88.445192 l
215.35375 87.768093 l
215.35375 87.768093 l
stroke
grestore
gsave
178.6 89.28 36.79 38.45 clipbox
215.35375 52.463618 m
193.756152 50.183584 l
169.775372 47.877597 l
136.261858 44.909393 l
131.945994 44.598227 l
131.945994 44.598227 l
stroke
grestore
gsave
178.6 89.28 36.79 38.45 clipbox
97.97211 43.343724 m
74.894891 42.396535 l
66.55375 41.983879 l
66.55375 41.983879 l
stroke
grestore
gsave
178.6 89.28 36.79 38.45 clipbox
66.55375 70.40566 m
72.227969 73.327329 l
78.320717 76.21493 l
85.336768 79.289265 l
92.917714 82.373171 l
101.854651 85.756349 l
110.791588 88.901226 l
117.643239 91.093737 l
122.434778 92.405526 l
126.282279 93.241422 l
130.154951 93.848952 l
134.62342 94.309979 l
159.051047 96.462747 l
175.882279 98.019902 l
179.630852 98.326479 l
179.630852 98.326479 l
stroke
grestore
gsave
178.6 89.28 36.79 38.45 clipbox
213.561997 100.383914 m
213.566363 100.3841 l
213.715312 100.3904 l
213.864261 100.396676 l
214.013209 100.40293 l
214.162158 100.40916 l
214.311107 100.415367 l
214.460056 100.42155 l
214.609005 100.427711 l
214.757954 100.433848 l
214.906903 100.439963 l
215.055852 100.446054 l
215.204801 100.452122 l
215.254575 100.45414 l
215.35375 100.458171 l
stroke
grestore
gsave
178.6 89.28 36.79 38.45 clipbox
196.735904 44.274707 m
153.539936 42.37561 l
126.580176 41.335787 l
108.408405 41.02864 l
74.150146 40.36892 l
66.55375 40.183302 l
66.55375 40.183302 l
stroke
grestore
gsave
178.6 89.28 36.79 38.45 clipbox
66.55375 75.831196 m
72.064861 79.148054 l
77.724921 82.294636 l
84.129726 85.603028 l
91.428224 89.110265 l
92.897373 89.787288 l
92.897373 89.787288 l
stroke
grestore
gsave
178.6 89.28 36.79 38.45 clipbox
124.519724 101.71142 m
127.920717 102.345959 l
131.79339 102.827355 l
148.475672 104.572027 l
157.561558 105.997229 l
180.052849 109.574256 l
194.947744 111.695059 l
211.03423 113.760005 l
215.35375 114.27823 l
215.35375 114.27823 l
stroke
grestore
1.250 setlinewidth
0 setlinejoin
2 setlinecap
[] 0 setdash
0.150 setgray
gsave
36.79375 38.45 m
36.79375 127.73 l
stroke
grestore
gsave
215.35375 38.45 m
215.35375 127.73 l
stroke
grestore
gsave
36.79375 38.45 m
215.35375 38.45 l
stroke
grestore
gsave
36.79375 127.73 m
215.35375 127.73 l
stroke
grestore
0.000 setgray
gsave
91.838954 63.552018 translate
15.193266 rotate
0.000000 0.000000 m /hyphen glyphshow
2.886719 0.000000 m /zero glyphshow
7.976562 0.000000 m /period glyphshow
10.519531 0.000000 m /five glyphshow
15.609375 0.000000 m /zero glyphshow
grestore
gsave
68.533335 44.284662 translate
5.772077 rotate
0.000000 0.000000 m /hyphen glyphshow
2.886719 0.000000 m /zero glyphshow
7.976562 0.000000 m /period glyphshow
10.519531 0.000000 m /four glyphshow
15.609375 0.000000 m /zero glyphshow
grestore
gsave
143.328169 46.992394 translate
8.593594 rotate
0.000000 0.000000 m /hyphen glyphshow
2.886719 0.000000 m /zero glyphshow
7.976562 0.000000 m /period glyphshow
10.519531 0.000000 m /three glyphshow
15.609375 0.000000 m /zero glyphshow
grestore
gsave
139.403822 86.084370 translate
2.281871 rotate
0.000000 0.000000 m /hyphen glyphshow
2.886719 0.000000 m /zero glyphshow
7.976562 0.000000 m /period glyphshow
10.519531 0.000000 m /three glyphshow
15.609375 0.000000 m /zero glyphshow
grestore
gsave
104.685218 41.344508 translate
1.982904 rotate
0.000000 0.000000 m /hyphen glyphshow
2.886719 0.000000 m /zero glyphshow
7.976562 0.000000 m /period glyphshow
10.519531 0.000000 m /two glyphshow
15.609375 0.000000 m /zero glyphshow
grestore
gsave
186.384882 96.665886 translate
3.585866 rotate
0.000000 0.000000 m /hyphen glyphshow
2.886719 0.000000 m /zero glyphshow
7.976562 0.000000 m /period glyphshow
10.519531 0.000000 m /two glyphshow
15.609375 0.000000 m /zero glyphshow
grestore
gsave
203.478071 42.368126 translate
2.845326 rotate
0.000000 0.000000 m /hyphen glyphshow
2.886719 0.000000 m /zero glyphshow
7.976562 0.000000 m /period glyphshow
10.519531 0.000000 m /one glyphshow
15.609375 0.000000 m /zero glyphshow
grestore
gsave
99.647942 90.528906 translate
21.853522 rotate
0.000000 0.000000 m /hyphen glyphshow
2.886719 0.000000 m /zero glyphshow
7.976562 0.000000 m /period glyphshow
10.519531 0.000000 m /one glyphshow
15.609375 0.000000 m /zero glyphshow
grestore

end
showpage
