%!PS-Adobe-3.0 EPSF-3.0
%%Title: ../Figures/pwDragUpdate.eps
%%Creator: matplotlib version 2.1.2, http://matplotlib.org/
%%CreationDate: Tue Jun 12 14:16:55 2018
%%Orientation: portrait
%%BoundingBox: 191 325 420 466
%%EndComments
%%BeginProlog
/mpldict 9 dict def
mpldict begin
/m { moveto } bind def
/l { lineto } bind def
/r { rlineto } bind def
/c { curveto } bind def
/cl { closepath } bind def
/box {
m
1 index 0 r
0 exch r
neg 0 r
cl
} bind def
/clipbox {
box
clip
newpath
} bind def
%!PS-Adobe-3.0 Resource-Font
%%Title: DejaVu Sans
%%Copyright: Copyright (c) 2003 by Bitstream, Inc. All Rights Reserved. Copyright (c) 2006 by Tavmjong Bah. All Rights Reserved. DejaVu changes are in public domain 
%%Creator: Converted from TrueType to type 3 by PPR
25 dict begin
/_d{bind def}bind def
/_m{moveto}_d
/_l{lineto}_d
/_cl{closepath eofill}_d
/_c{curveto}_d
/_sc{7 -1 roll{setcachedevice}{pop pop pop pop pop pop}ifelse}_d
/_e{exec}_d
/FontName /DejaVuSans def
/PaintType 0 def
/FontMatrix[.001 0 0 .001 0 0]def
/FontBBox[-1021 -463 1793 1232]def
/FontType 3 def
/Encoding [ /period /slash /zero /one /two /three /four /five /six /eight ] def
/FontInfo 10 dict dup begin
/FamilyName (DejaVu Sans) def
/FullName (DejaVu Sans) def
/Notice (Copyright (c) 2003 by Bitstream, Inc. All Rights Reserved. Copyright (c) 2006 by Tavmjong Bah. All Rights Reserved. DejaVu changes are in public domain ) def
/Weight (Book) def
/Version (Version 2.35) def
/ItalicAngle 0.0 def
/isFixedPitch false def
/UnderlinePosition -130 def
/UnderlineThickness 90 def
end readonly def
/CharStrings 11 dict dup begin
/.notdef 0 def
/period{318 0 107 0 210 124 _sc
107 124 _m
210 124 _l
210 0 _l
107 0 _l
107 124 _l
_cl}_d
/slash{337 0 0 -92 337 729 _sc
254 729 _m
337 729 _l
83 -92 _l
0 -92 _l
254 729 _l
_cl}_d
/zero{636 0 66 -13 570 742 _sc
318 664 _m
267 664 229 639 203 589 _c
177 539 165 464 165 364 _c
165 264 177 189 203 139 _c
229 89 267 64 318 64 _c
369 64 407 89 433 139 _c
458 189 471 264 471 364 _c
471 464 458 539 433 589 _c
407 639 369 664 318 664 _c
318 742 _m
399 742 461 709 505 645 _c
548 580 570 486 570 364 _c
570 241 548 147 505 83 _c
461 19 399 -13 318 -13 _c
236 -13 173 19 130 83 _c
87 147 66 241 66 364 _c
66 486 87 580 130 645 _c
173 709 236 742 318 742 _c
_cl}_d
/one{636 0 110 0 544 729 _sc
124 83 _m
285 83 _l
285 639 _l
110 604 _l
110 694 _l
284 729 _l
383 729 _l
383 83 _l
544 83 _l
544 0 _l
124 0 _l
124 83 _l
_cl}_d
/two{{636 0 73 0 536 742 _sc
192 83 _m
536 83 _l
536 0 _l
73 0 _l
73 83 _l
110 121 161 173 226 239 _c
290 304 331 346 348 365 _c
380 400 402 430 414 455 _c
426 479 433 504 433 528 _c
433 566 419 598 392 622 _c
365 646 330 659 286 659 _c
255 659 222 653 188 643 _c
154 632 117 616 78 594 _c
78 694 _l
118 710 155 722 189 730 _c
223 738 255 742 284 742 _c
}_e{359 742 419 723 464 685 _c
509 647 532 597 532 534 _c
532 504 526 475 515 449 _c
504 422 484 390 454 354 _c
446 344 420 317 376 272 _c
332 227 271 164 192 83 _c
_cl}_e}_d
/three{{636 0 76 -13 556 742 _sc
406 393 _m
453 383 490 362 516 330 _c
542 298 556 258 556 212 _c
556 140 531 84 482 45 _c
432 6 362 -13 271 -13 _c
240 -13 208 -10 176 -4 _c
144 1 110 10 76 22 _c
76 117 _l
103 101 133 89 166 81 _c
198 73 232 69 268 69 _c
330 69 377 81 409 105 _c
441 129 458 165 458 212 _c
458 254 443 288 413 312 _c
383 336 341 349 287 349 _c
}_e{202 349 _l
202 430 _l
291 430 _l
339 430 376 439 402 459 _c
428 478 441 506 441 543 _c
441 580 427 609 401 629 _c
374 649 336 659 287 659 _c
260 659 231 656 200 650 _c
169 644 135 635 98 623 _c
98 711 _l
135 721 170 729 203 734 _c
235 739 266 742 296 742 _c
370 742 429 725 473 691 _c
517 657 539 611 539 553 _c
539 513 527 479 504 451 _c
481 423 448 403 406 393 _c
_cl}_e}_d
/four{636 0 49 0 580 729 _sc
378 643 _m
129 254 _l
378 254 _l
378 643 _l
352 729 _m
476 729 _l
476 254 _l
580 254 _l
580 172 _l
476 172 _l
476 0 _l
378 0 _l
378 172 _l
49 172 _l
49 267 _l
352 729 _l
_cl}_d
/five{{636 0 77 -13 549 729 _sc
108 729 _m
495 729 _l
495 646 _l
198 646 _l
198 467 _l
212 472 227 476 241 478 _c
255 480 270 482 284 482 _c
365 482 429 459 477 415 _c
525 370 549 310 549 234 _c
549 155 524 94 475 51 _c
426 8 357 -13 269 -13 _c
238 -13 207 -10 175 -6 _c
143 -1 111 6 77 17 _c
77 116 _l
106 100 136 88 168 80 _c
199 72 232 69 267 69 _c
}_e{323 69 368 83 401 113 _c
433 143 450 183 450 234 _c
450 284 433 324 401 354 _c
368 384 323 399 267 399 _c
241 399 214 396 188 390 _c
162 384 135 375 108 363 _c
108 729 _l
_cl}_e}_d
/six{{636 0 70 -13 573 742 _sc
330 404 _m
286 404 251 388 225 358 _c
199 328 186 286 186 234 _c
186 181 199 139 225 109 _c
251 79 286 64 330 64 _c
374 64 409 79 435 109 _c
461 139 474 181 474 234 _c
474 286 461 328 435 358 _c
409 388 374 404 330 404 _c
526 713 _m
526 623 _l
501 635 476 644 451 650 _c
425 656 400 659 376 659 _c
310 659 260 637 226 593 _c
}_e{192 549 172 482 168 394 _c
187 422 211 444 240 459 _c
269 474 301 482 336 482 _c
409 482 467 459 509 415 _c
551 371 573 310 573 234 _c
573 159 550 99 506 54 _c
462 9 403 -13 330 -13 _c
246 -13 181 19 137 83 _c
92 147 70 241 70 364 _c
70 479 97 571 152 639 _c
206 707 280 742 372 742 _c
396 742 421 739 447 735 _c
472 730 498 723 526 713 _c
_cl}_e}_d
/eight{{636 0 68 -13 568 742 _sc
318 346 _m
271 346 234 333 207 308 _c
180 283 167 249 167 205 _c
167 161 180 126 207 101 _c
234 76 271 64 318 64 _c
364 64 401 76 428 102 _c
455 127 469 161 469 205 _c
469 249 455 283 429 308 _c
402 333 365 346 318 346 _c
219 388 _m
177 398 144 418 120 447 _c
96 476 85 511 85 553 _c
85 611 105 657 147 691 _c
188 725 245 742 318 742 _c
}_e{390 742 447 725 489 691 _c
530 657 551 611 551 553 _c
551 511 539 476 515 447 _c
491 418 459 398 417 388 _c
464 377 501 355 528 323 _c
554 291 568 251 568 205 _c
568 134 546 80 503 43 _c
459 5 398 -13 318 -13 _c
237 -13 175 5 132 43 _c
89 80 68 134 68 205 _c
68 251 81 291 108 323 _c
134 355 171 377 219 388 _c
183 544 _m
183 506 194 476 218 455 _c
}_e{242 434 275 424 318 424 _c
360 424 393 434 417 455 _c
441 476 453 506 453 544 _c
453 582 441 611 417 632 _c
393 653 360 664 318 664 _c
275 664 242 653 218 632 _c
194 611 183 582 183 544 _c
_cl}_e}_d
end readonly def

/BuildGlyph
 {exch begin
 CharStrings exch
 2 copy known not{pop /.notdef}if
 true 3 1 roll get exec
 end}_d

/BuildChar {
 1 index /Encoding get exch get
 1 index /BuildGlyph get exec
}_d

FontName currentdict end definefont pop
%!PS-Adobe-3.0 Resource-Font
%%Title: DejaVu Sans Oblique
%%Copyright: Copyright (c) 2003 by Bitstream, Inc. All Rights Reserved. Copyright (c) 2006 by Tavmjong Bah. All Rights Reserved. DejaVu changes are in public domain 
%%Creator: Converted from TrueType to type 3 by PPR
25 dict begin
/_d{bind def}bind def
/_m{moveto}_d
/_l{lineto}_d
/_cl{closepath eofill}_d
/_c{curveto}_d
/_sc{7 -1 roll{setcachedevice}{pop pop pop pop pop pop}ifelse}_d
/_e{exec}_d
/FontName /DejaVuSans-Oblique def
/PaintType 0 def
/FontMatrix[.001 0 0 .001 0 0]def
/FontBBox[-1016 -350 1659 1068]def
/FontType 3 def
/Encoding [ /D /x /y ] def
/FontInfo 10 dict dup begin
/FamilyName (DejaVu Sans) def
/FullName (DejaVu Sans Oblique) def
/Notice (Copyright (c) 2003 by Bitstream, Inc. All Rights Reserved. Copyright (c) 2006 by Tavmjong Bah. All Rights Reserved. DejaVu changes are in public domain ) def
/Weight (Oblique) def
/Version (Version 2.35) def
/ItalicAngle -11.0 def
/isFixedPitch false def
/UnderlinePosition -130 def
/UnderlineThickness 90 def
end readonly def
/CharStrings 4 dict dup begin
/.notdef 0 def
/D{770 0 27 0 722 729 _sc
169 729 _m
381 729 _l
493 729 578 705 636 657 _c
693 609 722 539 722 445 _c
722 383 711 323 689 265 _c
667 207 637 159 599 120 _c
560 80 511 50 451 30 _c
391 10 321 0 240 0 _c
27 0 _l
169 729 _l
252 648 _m
142 81 _l
271 81 _l
381 81 467 112 527 176 _c
587 239 618 329 618 445 _c
618 515 598 566 559 599 _c
520 631 459 648 376 648 _c
252 648 _l
_cl}_d
/x{592 0 -25 0 600 547 _sc
600 547 _m
349 279 _l
503 0 _l
400 0 _l
284 217 _l
83 0 _l
-25 0 _l
243 288 _l
100 547 _l
203 547 _l
308 349 _l
491 547 _l
600 547 _l
_cl}_d
/y{592 0 -24 -207 603 547 _sc
248 -50 _m
206 -120 172 -163 146 -181 _c
120 -198 86 -207 46 -207 _c
-24 -207 _l
-9 -132 _l
42 -132 _l
67 -132 88 -125 106 -111 _c
123 -97 143 -71 165 -31 _c
193 20 _l
72 547 _l
167 547 _l
258 128 _l
509 547 _l
603 547 _l
248 -50 _l
_cl}_d
end readonly def

/BuildGlyph
 {exch begin
 CharStrings exch
 2 copy known not{pop /.notdef}if
 true 3 1 roll get exec
 end}_d

/BuildChar {
 1 index /Encoding get exch get
 1 index /BuildGlyph get exec
}_d

FontName currentdict end definefont pop
end
%%EndProlog
mpldict begin
191.723 325.535 translate
228.554 140.93 0 0 clipbox
gsave
0 0 m
228.55375 0 l
228.55375 140.93 l
0 140.93 l
cl
grestore
gsave
36.79375 38.45 m
215.35375 38.45 l
215.35375 127.73 l
36.79375 127.73 l
cl
grestore
0.800 setlinewidth
1 setlinejoin
0 setlinecap
[] 0 setdash
0.150 setgray
gsave
/o {
gsave
newpath
translate
0.8 setlinewidth
1 setlinejoin
0 setlinecap
0 0 m
0 -6 l

gsave
0.150 setgray
fill
grestore
stroke
grestore
} bind def
36.7938 38.45 o
grestore
/DejaVuSans findfont
8.000 scalefont
setfont
gsave
34.246875 22.871875 translate
0.000000 rotate
0.000000 0.000000 m /zero glyphshow
grestore
gsave
/o {
gsave
newpath
translate
0.8 setlinewidth
1 setlinejoin
0 setlinecap
0 0 m
0 -6 l

gsave
0.150 setgray
fill
grestore
stroke
grestore
} bind def
66.5538 38.45 o
grestore
gsave
64.006875 22.871875 translate
0.000000 rotate
0.000000 0.000000 m /one glyphshow
grestore
gsave
/o {
gsave
newpath
translate
0.8 setlinewidth
1 setlinejoin
0 setlinecap
0 0 m
0 -6 l

gsave
0.150 setgray
fill
grestore
stroke
grestore
} bind def
96.3137 38.45 o
grestore
gsave
93.766875 22.871875 translate
0.000000 rotate
0.000000 0.000000 m /two glyphshow
grestore
gsave
/o {
gsave
newpath
translate
0.8 setlinewidth
1 setlinejoin
0 setlinecap
0 0 m
0 -6 l

gsave
0.150 setgray
fill
grestore
stroke
grestore
} bind def
126.074 38.45 o
grestore
gsave
123.526875 22.871875 translate
0.000000 rotate
0.000000 0.000000 m /three glyphshow
grestore
gsave
/o {
gsave
newpath
translate
0.8 setlinewidth
1 setlinejoin
0 setlinecap
0 0 m
0 -6 l

gsave
0.150 setgray
fill
grestore
stroke
grestore
} bind def
155.834 38.45 o
grestore
gsave
153.286875 22.871875 translate
0.000000 rotate
0.000000 0.000000 m /four glyphshow
grestore
gsave
/o {
gsave
newpath
translate
0.8 setlinewidth
1 setlinejoin
0 setlinecap
0 0 m
0 -6 l

gsave
0.150 setgray
fill
grestore
stroke
grestore
} bind def
185.594 38.45 o
grestore
gsave
183.046875 22.871875 translate
0.000000 rotate
0.000000 0.000000 m /five glyphshow
grestore
gsave
/o {
gsave
newpath
translate
0.8 setlinewidth
1 setlinejoin
0 setlinecap
0 0 m
0 -6 l

gsave
0.150 setgray
fill
grestore
stroke
grestore
} bind def
215.354 38.45 o
grestore
gsave
212.806875 22.871875 translate
0.000000 rotate
0.000000 0.000000 m /six glyphshow
grestore
gsave
115.073750 9.278125 translate
0.000000 rotate
/DejaVuSans-Oblique findfont
10.0 scalefont
setfont
0.000000 0.703125 moveto
/x glyphshow

/DejaVuSans findfont
7.0 scalefont
setfont
5.917969 -0.937500 moveto
/zero glyphshow

/DejaVuSans findfont
10.0 scalefont
setfont
10.645020 0.703125 moveto
/slash glyphshow

/DejaVuSans-Oblique findfont
10.0 scalefont
setfont
14.014160 0.703125 moveto
/D glyphshow


grestore
gsave
/o {
gsave
newpath
translate
0.8 setlinewidth
1 setlinejoin
0 setlinecap
0 0 m
-6 0 l

gsave
0.150 setgray
fill
grestore
stroke
grestore
} bind def
36.7938 38.45 o
grestore
gsave
22.200000 35.410937 translate
0.000000 rotate
0.000000 0.000000 m /zero glyphshow
grestore
gsave
/o {
gsave
newpath
translate
0.8 setlinewidth
1 setlinejoin
0 setlinecap
0 0 m
-6 0 l

gsave
0.150 setgray
fill
grestore
stroke
grestore
} bind def
36.7938 68.21 o
grestore
gsave
22.200000 65.170937 translate
0.000000 rotate
0.000000 0.000000 m /one glyphshow
grestore
gsave
/o {
gsave
newpath
translate
0.8 setlinewidth
1 setlinejoin
0 setlinecap
0 0 m
-6 0 l

gsave
0.150 setgray
fill
grestore
stroke
grestore
} bind def
36.7938 97.97 o
grestore
gsave
22.200000 94.930937 translate
0.000000 rotate
0.000000 0.000000 m /two glyphshow
grestore
gsave
/o {
gsave
newpath
translate
0.8 setlinewidth
1 setlinejoin
0 setlinecap
0 0 m
-6 0 l

gsave
0.150 setgray
fill
grestore
stroke
grestore
} bind def
36.7938 127.73 o
grestore
gsave
22.200000 124.690937 translate
0.000000 rotate
0.000000 0.000000 m /three glyphshow
grestore
gsave
15.200000 72.090000 translate
90.000000 rotate
/DejaVuSans-Oblique findfont
10.0 scalefont
setfont
0.000000 0.703125 moveto
/y glyphshow

/DejaVuSans findfont
7.0 scalefont
setfont
5.917969 -0.937500 moveto
/zero glyphshow

/DejaVuSans findfont
10.0 scalefont
setfont
10.645020 0.703125 moveto
/slash glyphshow

/DejaVuSans-Oblique findfont
10.0 scalefont
setfont
14.014160 0.703125 moveto
/D glyphshow


grestore
gsave
178.6 89.28 36.79 38.45 clipbox
51.67375 38.45 m
51.67375 42.394908 50.10497 46.182278 47.315499 48.971749 c
44.526028 51.76122 40.738658 53.33 36.79375 53.33 c
36.79375 38.45 l
51.67375 38.45 l
cl
0.586 setgray
fill
grestore
1.500 setlinewidth
0.000 setgray
gsave
178.6 89.28 36.79 38.45 clipbox
66.55375 45.254193 m
66.702699 45.192109 l
66.786077 45.157179 l
66.851648 45.129018 l
67.000597 45.064777 l
67.131009 45.00813 l
67.149546 44.999871 l
67.298495 44.933374 l
67.447444 44.866355 l
67.46358 44.859082 l
67.596393 44.797636 l
67.745342 44.728244 l
67.784323 44.710033 l
67.894291 44.657273 l
68.043239 44.585392 l
68.093654 44.560985 l
68.192188 44.511961 l
68.341137 44.437467 l
68.392025 44.411937 l
68.490086 44.361343 l
68.639035 44.284101 l
68.679835 44.262888 l
68.787984 44.20502 l
68.936933 44.124886 l
68.957432 44.11384 l
69.085882 44.04255 l
69.225177 43.964791 l
69.234831 43.959236 l
69.38378 43.873439 l
69.483455 43.815743 l
69.532729 43.78632 l
69.681678 43.697136 l
69.732381 43.666694 l
69.830627 43.605792 l
69.972198 43.517646 l
69.979576 43.512899 l
70.128525 43.416978 l
70.203378 43.368598 l
70.277474 43.319059 l
70.425782 43.219549 l
70.426423 43.219104 l
70.575372 43.11557 l
70.640008 43.070501 l
70.724321 43.009561 l
70.845886 42.921452 l
70.87327 42.900856 l
71.022218 42.788652 l
71.04376 42.772404 l
71.171167 42.672557 l
71.233822 42.623356 l
71.320116 42.552853 l
71.416095 42.474307 l
71.469065 42.429144 l
71.590746 42.325259 l
71.618014 42.300968 l
71.757923 42.17621 l
71.766963 42.167786 l
71.915912 42.028895 l
71.91777 42.027162 l
72.064861 41.883528 l
72.070404 41.878114 l
72.21381 41.731183 l
72.215878 41.729065 l
72.354331 41.580017 l
72.362759 41.570461 l
72.485848 41.430968 l
72.511708 41.400023 l
72.610483 41.28192 l
72.660657 41.218401 l
72.728292 41.132871 l
72.809606 41.023672 l
72.83932 40.983823 l
72.94369 40.834775 l
72.958555 40.812096 l
73.04155 40.685726 l
73.107504 40.577864 l
73.132743 40.536678 l
73.217505 40.387629 l
73.256453 40.313373 l
73.295789 40.238581 l
73.367658 40.089533 l
73.405402 40.003502 l
73.433139 39.940484 l
73.492336 39.791436 l
73.545106 39.642387 l
73.554351 39.612738 l
73.59173 39.493339 l
73.632068 39.34429 l
73.666117 39.195242 l
73.693917 39.046194 l
73.7033 38.981444 l
73.715576 38.897145 l
73.731066 38.748097 l
73.740353 38.599048 l
73.743447 38.45 l
stroke
grestore
gsave
178.6 89.28 36.79 38.45 clipbox
66.55375 48.520043 m
70.346383 47.691002 l
73.7033 46.73436 l
76.53333 45.715353 l
78.916513 44.639597 l
80.876982 43.517646 l
82.342339 42.427546 l
83.384981 41.382802 l
84.072467 40.387629 l
84.445855 39.493339 l
84.594406 38.599048 l
84.597501 38.45 l
84.597501 38.45 l
stroke
grestore
gsave
178.6 89.28 36.79 38.45 clipbox
91.920042 46.134371 m
92.02402 46.092901 l
92.127586 46.051469 l
92.172969 46.032933 l
92.321918 45.971998 l
92.470867 45.910809 l
92.491266 45.902421 l
92.619816 45.848429 l
92.768765 45.785643 l
92.845143 45.753372 l
92.917714 45.722039 l
93.066663 45.657588 l
93.189333 45.604324 l
93.215612 45.592659 l
93.364561 45.52647 l
93.51351 45.460012 l
93.524118 45.455275 l
93.662459 45.392099 l
93.811408 45.323822 l
93.849743 45.306227 l
93.960357 45.25427 l
94.109306 45.184091 l
94.166327 45.157179 l
94.258255 45.112753 l
94.407203 45.040586 l
94.474061 45.00813 l
94.556152 44.967302 l
94.705101 44.893052 l
94.773116 44.859082 l
94.85405 44.817644 l
95.002999 44.741211 l
95.06365 44.710033 l
95.151948 44.663478 l
95.300897 44.584754 l
95.345809 44.560985 l
95.449846 44.504474 l
95.598795 44.423344 l
95.619722 44.411937 l
95.747744 44.340268 l
95.885546 44.262888 l
95.896693 44.256455 l
96.045642 44.170455 l
96.143448 44.11384 l
96.194591 44.083392 l
96.34354 43.99459 l
96.393452 43.964791 l
96.492489 43.903935 l
96.635665 43.815743 l
96.641438 43.81208 l
96.790387 43.717543 l
96.870335 43.666694 l
96.939336 43.621452 l
97.088285 43.523612 l
97.097363 43.517646 l
97.237233 43.422808 l
97.317038 43.368598 l
97.386182 43.320088 l
97.529253 43.219549 l
97.535131 43.215278 l
97.68408 43.107037 l
97.734291 43.070501 l
97.833029 42.996145 l
97.932087 42.921452 l
97.981978 42.882476 l
98.122719 42.772404 l
98.130927 42.765745 l
98.279876 42.64487 l
98.306368 42.623356 l
98.428825 42.520065 l
98.483033 42.474307 l
98.577774 42.391131 l
98.652762 42.325259 l
98.726723 42.257587 l
98.815626 42.17621 l
98.875672 42.118871 l
98.971687 42.027162 l
99.024621 41.974326 l
99.121003 41.878114 l
99.17357 41.823175 l
99.263625 41.729065 l
99.322519 41.664498 l
99.399597 41.580017 l
99.471468 41.497193 l
99.528958 41.430968 l
99.620417 41.319931 l
99.651742 41.28192 l
99.767982 41.132871 l
99.769366 41.130992 l
99.877823 40.983823 l
99.918315 40.925394 l
99.981177 40.834775 l
100.067264 40.702313 l
100.078056 40.685726 l
100.168628 40.536678 l
100.216212 40.452358 l
100.252794 40.387629 l
100.33063 40.238581 l
100.365161 40.166561 l
100.402159 40.089533 l
100.467403 39.940484 l
100.51411 39.822298 l
100.526332 39.791436 l
100.579088 39.642387 l
100.625548 39.493339 l
100.663059 39.35426 l
100.665755 39.34429 l
100.699836 39.195242 l
100.727687 39.046194 l
100.749328 38.897145 l
100.764775 38.748097 l
100.774039 38.599048 l
100.777126 38.45 l
stroke
grestore
gsave
178.6 89.28 36.79 38.45 clipbox
66.55375 53.806329 m
72.064861 53.825327 l
78.022819 53.617915 l
84.278675 53.17221 l
90.534531 52.502689 l
96.641438 51.625918 l
102.301498 50.593375 l
106.849639 49.580561 l
106.849639 49.580561 l
stroke
grestore
gsave
178.6 89.28 36.79 38.45 clipbox
66.55375 56.374427 m
72.362759 56.845578 l
78.916513 57.145724 l
86.066062 57.246716 l
93.811408 57.131622 l
102.05654 56.782955 l
110.49369 56.201692 l
113.664261 55.925651 l
113.664261 55.925651 l
stroke
grestore
gsave
178.6 89.28 36.79 38.45 clipbox
66.55375 59.107281 m
72.362759 60.0003 l
79.065462 60.798504 l
86.661858 61.47079 l
89.654403 61.679473 l
89.654403 61.679473 l
stroke
grestore
gsave
178.6 89.28 36.79 38.45 clipbox
114.173295 57.8837 m
114.217414 55.30227 l
123.601197 54.589898 l
132.687083 53.684424 l
141.326122 52.60654 l
149.369366 51.378736 l
156.437402 50.075776 l
162.625822 48.703505 l
167.690086 47.351743 l
171.72741 46.051469 l
174.988585 44.768608 l
177.371768 43.60696 l
179.159155 42.505016 l
180.350747 41.548673 l
181.244441 40.555732 l
181.698266 39.791436 l
181.972837 38.897145 l
182.007122 38.45 l
182.007122 38.45 l
stroke
grestore
gsave
178.6 89.28 36.79 38.45 clipbox
66.55375 62.219301 m
72.362759 63.542975 l
78.916513 64.802481 l
86.512909 66.025637 l
94.85405 67.14232 l
104.386783 68.191104 l
114.068465 69.058081 l
114.217414 63.448957 l
126.431227 63.885268 l
139.836633 64.139356 l
154.43363 64.189636 l
169.924321 64.017881 l
186.159756 63.61333 l
194.215212 63.332014 l
194.215212 63.332014 l
stroke
grestore
gsave
178.6 89.28 36.79 38.45 clipbox
66.55375 66.152758 m
72.362759 67.973544 l
78.469666 69.656113 l
85.619215 71.393716 l
93.51351 73.085996 l
102.599396 74.802657 l
113.025822 76.532705 l
114.068465 76.693698 l
114.071226 76.606394 l
114.217414 71.502424 l
126.580176 72.936591 l
140.28348 74.298359 l
155.625221 75.59571 l
172.605402 76.805833 l
175.459441 76.989153 l
175.459441 76.989153 l
stroke
grestore
gsave
178.6 89.28 36.79 38.45 clipbox
204.612383 78.584179 m
204.629426 78.58498 l
204.778375 78.591963 l
204.927324 78.598934 l
205.076273 78.605895 l
205.225221 78.612844 l
205.37417 78.619782 l
205.523119 78.626709 l
205.672068 78.633624 l
205.821017 78.640529 l
205.969966 78.647422 l
206.118915 78.654304 l
206.267864 78.661175 l
206.416813 78.668035 l
206.565762 78.674884 l
206.714711 78.681722 l
206.86366 78.688549 l
206.96253 78.693072 l
207.012609 78.695368 l
207.161558 78.702182 l
207.310507 78.708985 l
207.459456 78.715777 l
207.608405 78.722558 l
207.757354 78.729328 l
207.906303 78.736088 l
208.055252 78.742836 l
208.2042 78.749573 l
208.353149 78.756299 l
208.502098 78.763015 l
208.651047 78.769719 l
208.799996 78.776413 l
208.948945 78.783096 l
209.097894 78.789768 l
209.246843 78.796429 l
209.395792 78.80308 l
209.544741 78.80972 l
209.69369 78.816349 l
209.842639 78.822967 l
209.991588 78.829574 l
210.140537 78.836171 l
210.275087 78.84212 l
210.289486 78.842758 l
210.438435 78.849342 l
210.587384 78.855916 l
210.736333 78.862479 l
210.885282 78.869031 l
211.03423 78.875572 l
211.183179 78.882103 l
211.332128 78.888623 l
211.481077 78.895133 l
211.630026 78.901632 l
211.778975 78.908121 l
211.927924 78.914598 l
212.076873 78.921066 l
212.225822 78.927523 l
212.374771 78.933969 l
212.52372 78.940405 l
212.672669 78.94683 l
212.821618 78.953245 l
212.970567 78.95965 l
213.119516 78.966044 l
213.268465 78.972428 l
213.417414 78.978801 l
213.566363 78.985164 l
213.707145 78.991169 l
213.715312 78.991518 l
213.864261 78.997868 l
214.013209 79.004208 l
214.162158 79.010538 l
214.311107 79.016857 l
214.460056 79.023166 l
214.609005 79.029465 l
214.757954 79.035753 l
214.906903 79.042031 l
215.055852 79.048299 l
215.204801 79.054557 l
215.35375 79.060804 l
stroke
grestore
gsave
178.6 89.28 36.79 38.45 clipbox
66.55375 72.473391 m
71.766963 74.778764 l
78.022819 77.271067 l
84.725522 79.683062 l
92.470867 82.209924 l
100.960957 84.725856 l
110.344741 87.260238 l
114.068465 88.205485 l
114.217414 82.607836 l
125.239636 84.913388 l
138.198194 87.381384 l
151.901498 89.760151 l
166.945342 92.148874 l
183.627624 94.57387 l
197.748114 96.472422 l
197.748114 96.472422 l
stroke
grestore
1.250 setlinewidth
0 setlinejoin
2 setlinecap
[] 0 setdash
0.150 setgray
gsave
36.79375 38.45 m
36.79375 127.73 l
stroke
grestore
gsave
215.35375 38.45 m
215.35375 127.73 l
stroke
grestore
gsave
36.79375 38.45 m
215.35375 38.45 l
stroke
grestore
gsave
36.79375 127.73 m
215.35375 127.73 l
stroke
grestore
0.000 setgray
gsave
68.707770 49.345037 translate
349.519368 rotate
0.000000 0.000000 m /zero glyphshow
5.089844 0.000000 m /period glyphshow
7.632812 0.000000 m /zero glyphshow
12.722656 0.000000 m /zero glyphshow
grestore
gsave
109.882631 48.837146 translate
283.527624 rotate
0.000000 0.000000 m /zero glyphshow
5.089844 0.000000 m /period glyphshow
7.632812 0.000000 m /two glyphshow
12.722656 0.000000 m /zero glyphshow
grestore
gsave
111.958218 51.077815 translate
270.320365 rotate
0.000000 0.000000 m /zero glyphshow
5.089844 0.000000 m /period glyphshow
7.632812 0.000000 m /four glyphshow
12.722656 0.000000 m /zero glyphshow
grestore
gsave
95.389148 59.879090 translate
1.609017 rotate
0.000000 0.000000 m /zero glyphshow
5.089844 0.000000 m /period glyphshow
7.632812 0.000000 m /six glyphshow
12.722656 0.000000 m /zero glyphshow
grestore
gsave
199.786440 60.937930 translate
357.118102 rotate
0.000000 0.000000 m /zero glyphshow
5.089844 0.000000 m /period glyphshow
7.632812 0.000000 m /eight glyphshow
12.722656 0.000000 m /zero glyphshow
grestore
gsave
181.256888 75.143367 translate
3.234830 rotate
0.000000 0.000000 m /one glyphshow
5.089844 0.000000 m /period glyphshow
7.632812 0.000000 m /zero glyphshow
12.722656 0.000000 m /zero glyphshow
grestore
gsave
203.663280 94.977734 translate
7.288387 rotate
0.000000 0.000000 m /one glyphshow
5.089844 0.000000 m /period glyphshow
7.632812 0.000000 m /two glyphshow
12.722656 0.000000 m /zero glyphshow
grestore

end
showpage
