%!PS-Adobe-3.0 EPSF-3.0
%%Title: ../Figures/pwLiftUpdate.eps
%%Creator: matplotlib version 2.1.2, http://matplotlib.org/
%%CreationDate: Tue Jun 12 14:16:55 2018
%%Orientation: portrait
%%BoundingBox: 191 325 420 466
%%EndComments
%%BeginProlog
/mpldict 9 dict def
mpldict begin
/m { moveto } bind def
/l { lineto } bind def
/r { rlineto } bind def
/c { curveto } bind def
/cl { closepath } bind def
/box {
m
1 index 0 r
0 exch r
neg 0 r
cl
} bind def
/clipbox {
box
clip
newpath
} bind def
%!PS-Adobe-3.0 Resource-Font
%%Title: DejaVu Sans
%%Copyright: Copyright (c) 2003 by Bitstream, Inc. All Rights Reserved. Copyright (c) 2006 by Tavmjong Bah. All Rights Reserved. DejaVu changes are in public domain 
%%Creator: Converted from TrueType to type 3 by PPR
25 dict begin
/_d{bind def}bind def
/_m{moveto}_d
/_l{lineto}_d
/_cl{closepath eofill}_d
/_c{curveto}_d
/_sc{7 -1 roll{setcachedevice}{pop pop pop pop pop pop}ifelse}_d
/_e{exec}_d
/FontName /DejaVuSans def
/PaintType 0 def
/FontMatrix[.001 0 0 .001 0 0]def
/FontBBox[-1021 -463 1793 1232]def
/FontType 3 def
/Encoding [ /hyphen /period /slash /zero /one /two /three /four /five /six ] def
/FontInfo 10 dict dup begin
/FamilyName (DejaVu Sans) def
/FullName (DejaVu Sans) def
/Notice (Copyright (c) 2003 by Bitstream, Inc. All Rights Reserved. Copyright (c) 2006 by Tavmjong Bah. All Rights Reserved. DejaVu changes are in public domain ) def
/Weight (Book) def
/Version (Version 2.35) def
/ItalicAngle 0.0 def
/isFixedPitch false def
/UnderlinePosition -130 def
/UnderlineThickness 90 def
end readonly def
/CharStrings 11 dict dup begin
/.notdef 0 def
/hyphen{361 0 49 234 312 314 _sc
49 314 _m
312 314 _l
312 234 _l
49 234 _l
49 314 _l
_cl}_d
/period{318 0 107 0 210 124 _sc
107 124 _m
210 124 _l
210 0 _l
107 0 _l
107 124 _l
_cl}_d
/slash{337 0 0 -92 337 729 _sc
254 729 _m
337 729 _l
83 -92 _l
0 -92 _l
254 729 _l
_cl}_d
/zero{636 0 66 -13 570 742 _sc
318 664 _m
267 664 229 639 203 589 _c
177 539 165 464 165 364 _c
165 264 177 189 203 139 _c
229 89 267 64 318 64 _c
369 64 407 89 433 139 _c
458 189 471 264 471 364 _c
471 464 458 539 433 589 _c
407 639 369 664 318 664 _c
318 742 _m
399 742 461 709 505 645 _c
548 580 570 486 570 364 _c
570 241 548 147 505 83 _c
461 19 399 -13 318 -13 _c
236 -13 173 19 130 83 _c
87 147 66 241 66 364 _c
66 486 87 580 130 645 _c
173 709 236 742 318 742 _c
_cl}_d
/one{636 0 110 0 544 729 _sc
124 83 _m
285 83 _l
285 639 _l
110 604 _l
110 694 _l
284 729 _l
383 729 _l
383 83 _l
544 83 _l
544 0 _l
124 0 _l
124 83 _l
_cl}_d
/two{{636 0 73 0 536 742 _sc
192 83 _m
536 83 _l
536 0 _l
73 0 _l
73 83 _l
110 121 161 173 226 239 _c
290 304 331 346 348 365 _c
380 400 402 430 414 455 _c
426 479 433 504 433 528 _c
433 566 419 598 392 622 _c
365 646 330 659 286 659 _c
255 659 222 653 188 643 _c
154 632 117 616 78 594 _c
78 694 _l
118 710 155 722 189 730 _c
223 738 255 742 284 742 _c
}_e{359 742 419 723 464 685 _c
509 647 532 597 532 534 _c
532 504 526 475 515 449 _c
504 422 484 390 454 354 _c
446 344 420 317 376 272 _c
332 227 271 164 192 83 _c
_cl}_e}_d
/three{{636 0 76 -13 556 742 _sc
406 393 _m
453 383 490 362 516 330 _c
542 298 556 258 556 212 _c
556 140 531 84 482 45 _c
432 6 362 -13 271 -13 _c
240 -13 208 -10 176 -4 _c
144 1 110 10 76 22 _c
76 117 _l
103 101 133 89 166 81 _c
198 73 232 69 268 69 _c
330 69 377 81 409 105 _c
441 129 458 165 458 212 _c
458 254 443 288 413 312 _c
383 336 341 349 287 349 _c
}_e{202 349 _l
202 430 _l
291 430 _l
339 430 376 439 402 459 _c
428 478 441 506 441 543 _c
441 580 427 609 401 629 _c
374 649 336 659 287 659 _c
260 659 231 656 200 650 _c
169 644 135 635 98 623 _c
98 711 _l
135 721 170 729 203 734 _c
235 739 266 742 296 742 _c
370 742 429 725 473 691 _c
517 657 539 611 539 553 _c
539 513 527 479 504 451 _c
481 423 448 403 406 393 _c
_cl}_e}_d
/four{636 0 49 0 580 729 _sc
378 643 _m
129 254 _l
378 254 _l
378 643 _l
352 729 _m
476 729 _l
476 254 _l
580 254 _l
580 172 _l
476 172 _l
476 0 _l
378 0 _l
378 172 _l
49 172 _l
49 267 _l
352 729 _l
_cl}_d
/five{{636 0 77 -13 549 729 _sc
108 729 _m
495 729 _l
495 646 _l
198 646 _l
198 467 _l
212 472 227 476 241 478 _c
255 480 270 482 284 482 _c
365 482 429 459 477 415 _c
525 370 549 310 549 234 _c
549 155 524 94 475 51 _c
426 8 357 -13 269 -13 _c
238 -13 207 -10 175 -6 _c
143 -1 111 6 77 17 _c
77 116 _l
106 100 136 88 168 80 _c
199 72 232 69 267 69 _c
}_e{323 69 368 83 401 113 _c
433 143 450 183 450 234 _c
450 284 433 324 401 354 _c
368 384 323 399 267 399 _c
241 399 214 396 188 390 _c
162 384 135 375 108 363 _c
108 729 _l
_cl}_e}_d
/six{{636 0 70 -13 573 742 _sc
330 404 _m
286 404 251 388 225 358 _c
199 328 186 286 186 234 _c
186 181 199 139 225 109 _c
251 79 286 64 330 64 _c
374 64 409 79 435 109 _c
461 139 474 181 474 234 _c
474 286 461 328 435 358 _c
409 388 374 404 330 404 _c
526 713 _m
526 623 _l
501 635 476 644 451 650 _c
425 656 400 659 376 659 _c
310 659 260 637 226 593 _c
}_e{192 549 172 482 168 394 _c
187 422 211 444 240 459 _c
269 474 301 482 336 482 _c
409 482 467 459 509 415 _c
551 371 573 310 573 234 _c
573 159 550 99 506 54 _c
462 9 403 -13 330 -13 _c
246 -13 181 19 137 83 _c
92 147 70 241 70 364 _c
70 479 97 571 152 639 _c
206 707 280 742 372 742 _c
396 742 421 739 447 735 _c
472 730 498 723 526 713 _c
_cl}_e}_d
end readonly def

/BuildGlyph
 {exch begin
 CharStrings exch
 2 copy known not{pop /.notdef}if
 true 3 1 roll get exec
 end}_d

/BuildChar {
 1 index /Encoding get exch get
 1 index /BuildGlyph get exec
}_d

FontName currentdict end definefont pop
%!PS-Adobe-3.0 Resource-Font
%%Title: DejaVu Sans Oblique
%%Copyright: Copyright (c) 2003 by Bitstream, Inc. All Rights Reserved. Copyright (c) 2006 by Tavmjong Bah. All Rights Reserved. DejaVu changes are in public domain 
%%Creator: Converted from TrueType to type 3 by PPR
25 dict begin
/_d{bind def}bind def
/_m{moveto}_d
/_l{lineto}_d
/_cl{closepath eofill}_d
/_c{curveto}_d
/_sc{7 -1 roll{setcachedevice}{pop pop pop pop pop pop}ifelse}_d
/_e{exec}_d
/FontName /DejaVuSans-Oblique def
/PaintType 0 def
/FontMatrix[.001 0 0 .001 0 0]def
/FontBBox[-1016 -350 1659 1068]def
/FontType 3 def
/Encoding [ /D /x /y ] def
/FontInfo 10 dict dup begin
/FamilyName (DejaVu Sans) def
/FullName (DejaVu Sans Oblique) def
/Notice (Copyright (c) 2003 by Bitstream, Inc. All Rights Reserved. Copyright (c) 2006 by Tavmjong Bah. All Rights Reserved. DejaVu changes are in public domain ) def
/Weight (Oblique) def
/Version (Version 2.35) def
/ItalicAngle -11.0 def
/isFixedPitch false def
/UnderlinePosition -130 def
/UnderlineThickness 90 def
end readonly def
/CharStrings 4 dict dup begin
/.notdef 0 def
/D{770 0 27 0 722 729 _sc
169 729 _m
381 729 _l
493 729 578 705 636 657 _c
693 609 722 539 722 445 _c
722 383 711 323 689 265 _c
667 207 637 159 599 120 _c
560 80 511 50 451 30 _c
391 10 321 0 240 0 _c
27 0 _l
169 729 _l
252 648 _m
142 81 _l
271 81 _l
381 81 467 112 527 176 _c
587 239 618 329 618 445 _c
618 515 598 566 559 599 _c
520 631 459 648 376 648 _c
252 648 _l
_cl}_d
/x{592 0 -25 0 600 547 _sc
600 547 _m
349 279 _l
503 0 _l
400 0 _l
284 217 _l
83 0 _l
-25 0 _l
243 288 _l
100 547 _l
203 547 _l
308 349 _l
491 547 _l
600 547 _l
_cl}_d
/y{592 0 -24 -207 603 547 _sc
248 -50 _m
206 -120 172 -163 146 -181 _c
120 -198 86 -207 46 -207 _c
-24 -207 _l
-9 -132 _l
42 -132 _l
67 -132 88 -125 106 -111 _c
123 -97 143 -71 165 -31 _c
193 20 _l
72 547 _l
167 547 _l
258 128 _l
509 547 _l
603 547 _l
248 -50 _l
_cl}_d
end readonly def

/BuildGlyph
 {exch begin
 CharStrings exch
 2 copy known not{pop /.notdef}if
 true 3 1 roll get exec
 end}_d

/BuildChar {
 1 index /Encoding get exch get
 1 index /BuildGlyph get exec
}_d

FontName currentdict end definefont pop
end
%%EndProlog
mpldict begin
191.723 325.535 translate
228.554 140.93 0 0 clipbox
gsave
0 0 m
228.55375 0 l
228.55375 140.93 l
0 140.93 l
cl
grestore
gsave
36.79375 38.45 m
215.35375 38.45 l
215.35375 127.73 l
36.79375 127.73 l
cl
grestore
0.800 setlinewidth
1 setlinejoin
0 setlinecap
[] 0 setdash
0.150 setgray
gsave
/o {
gsave
newpath
translate
0.8 setlinewidth
1 setlinejoin
0 setlinecap
0 0 m
0 -6 l

gsave
0.150 setgray
fill
grestore
stroke
grestore
} bind def
36.7938 38.45 o
grestore
/DejaVuSans findfont
8.000 scalefont
setfont
gsave
34.246875 22.871875 translate
0.000000 rotate
0.000000 0.000000 m /zero glyphshow
grestore
gsave
/o {
gsave
newpath
translate
0.8 setlinewidth
1 setlinejoin
0 setlinecap
0 0 m
0 -6 l

gsave
0.150 setgray
fill
grestore
stroke
grestore
} bind def
66.5538 38.45 o
grestore
gsave
64.006875 22.871875 translate
0.000000 rotate
0.000000 0.000000 m /one glyphshow
grestore
gsave
/o {
gsave
newpath
translate
0.8 setlinewidth
1 setlinejoin
0 setlinecap
0 0 m
0 -6 l

gsave
0.150 setgray
fill
grestore
stroke
grestore
} bind def
96.3137 38.45 o
grestore
gsave
93.766875 22.871875 translate
0.000000 rotate
0.000000 0.000000 m /two glyphshow
grestore
gsave
/o {
gsave
newpath
translate
0.8 setlinewidth
1 setlinejoin
0 setlinecap
0 0 m
0 -6 l

gsave
0.150 setgray
fill
grestore
stroke
grestore
} bind def
126.074 38.45 o
grestore
gsave
123.526875 22.871875 translate
0.000000 rotate
0.000000 0.000000 m /three glyphshow
grestore
gsave
/o {
gsave
newpath
translate
0.8 setlinewidth
1 setlinejoin
0 setlinecap
0 0 m
0 -6 l

gsave
0.150 setgray
fill
grestore
stroke
grestore
} bind def
155.834 38.45 o
grestore
gsave
153.286875 22.871875 translate
0.000000 rotate
0.000000 0.000000 m /four glyphshow
grestore
gsave
/o {
gsave
newpath
translate
0.8 setlinewidth
1 setlinejoin
0 setlinecap
0 0 m
0 -6 l

gsave
0.150 setgray
fill
grestore
stroke
grestore
} bind def
185.594 38.45 o
grestore
gsave
183.046875 22.871875 translate
0.000000 rotate
0.000000 0.000000 m /five glyphshow
grestore
gsave
/o {
gsave
newpath
translate
0.8 setlinewidth
1 setlinejoin
0 setlinecap
0 0 m
0 -6 l

gsave
0.150 setgray
fill
grestore
stroke
grestore
} bind def
215.354 38.45 o
grestore
gsave
212.806875 22.871875 translate
0.000000 rotate
0.000000 0.000000 m /six glyphshow
grestore
gsave
115.073750 9.278125 translate
0.000000 rotate
/DejaVuSans-Oblique findfont
10.0 scalefont
setfont
0.000000 0.703125 moveto
/x glyphshow

/DejaVuSans findfont
7.0 scalefont
setfont
5.917969 -0.937500 moveto
/zero glyphshow

/DejaVuSans findfont
10.0 scalefont
setfont
10.645020 0.703125 moveto
/slash glyphshow

/DejaVuSans-Oblique findfont
10.0 scalefont
setfont
14.014160 0.703125 moveto
/D glyphshow


grestore
gsave
/o {
gsave
newpath
translate
0.8 setlinewidth
1 setlinejoin
0 setlinecap
0 0 m
-6 0 l

gsave
0.150 setgray
fill
grestore
stroke
grestore
} bind def
36.7938 38.45 o
grestore
gsave
22.200000 35.410937 translate
0.000000 rotate
0.000000 0.000000 m /zero glyphshow
grestore
gsave
/o {
gsave
newpath
translate
0.8 setlinewidth
1 setlinejoin
0 setlinecap
0 0 m
-6 0 l

gsave
0.150 setgray
fill
grestore
stroke
grestore
} bind def
36.7938 68.21 o
grestore
gsave
22.200000 65.170937 translate
0.000000 rotate
0.000000 0.000000 m /one glyphshow
grestore
gsave
/o {
gsave
newpath
translate
0.8 setlinewidth
1 setlinejoin
0 setlinecap
0 0 m
-6 0 l

gsave
0.150 setgray
fill
grestore
stroke
grestore
} bind def
36.7938 97.97 o
grestore
gsave
22.200000 94.930937 translate
0.000000 rotate
0.000000 0.000000 m /two glyphshow
grestore
gsave
/o {
gsave
newpath
translate
0.8 setlinewidth
1 setlinejoin
0 setlinecap
0 0 m
-6 0 l

gsave
0.150 setgray
fill
grestore
stroke
grestore
} bind def
36.7938 127.73 o
grestore
gsave
22.200000 124.690937 translate
0.000000 rotate
0.000000 0.000000 m /three glyphshow
grestore
gsave
15.200000 72.090000 translate
90.000000 rotate
/DejaVuSans-Oblique findfont
10.0 scalefont
setfont
0.000000 0.703125 moveto
/y glyphshow

/DejaVuSans findfont
7.0 scalefont
setfont
5.917969 -0.937500 moveto
/zero glyphshow

/DejaVuSans findfont
10.0 scalefont
setfont
10.645020 0.703125 moveto
/slash glyphshow

/DejaVuSans-Oblique findfont
10.0 scalefont
setfont
14.014160 0.703125 moveto
/D glyphshow


grestore
gsave
178.6 89.28 36.79 38.45 clipbox
51.67375 38.45 m
51.67375 42.394908 50.10497 46.182278 47.315499 48.971749 c
44.526028 51.76122 40.738658 53.33 36.79375 53.33 c
36.79375 38.45 l
51.67375 38.45 l
cl
0.586 setgray
fill
grestore
1.500 setlinewidth
0.000 setgray
gsave
178.6 89.28 36.79 38.45 clipbox
124.094453 68.373178 m
124.196993 68.307633 l
124.271175 68.259683 l
124.345942 68.208882 l
124.488923 68.110634 l
124.494891 68.106312 l
124.64384 67.99757 l
124.692618 67.961586 l
124.792789 67.883428 l
124.882706 67.812538 l
124.941738 67.763146 l
125.059656 67.663489 l
125.090687 67.63555 l
125.223904 67.514441 l
125.239636 67.499137 l
125.375854 67.365392 l
125.388585 67.351951 l
125.515879 67.216344 l
125.537534 67.191394 l
125.64432 67.067295 l
125.686483 67.013947 l
125.761495 66.918247 l
125.835432 66.814726 l
125.867692 66.769199 l
125.963216 66.62015 l
125.984381 66.583301 l
126.048353 66.471102 l
126.12329 66.322053 l
126.13333 66.299184 l
126.188353 66.173005 l
126.243688 66.023957 l
126.282279 65.89858 l
126.28952 65.874908 l
126.326109 65.72586 l
126.353582 65.576811 l
126.372128 65.427763 l
126.381923 65.278715 l
126.383133 65.129666 l
126.375912 64.980618 l
126.360402 64.831569 l
126.336739 64.682521 l
126.305044 64.533472 l
126.282279 64.448026 l
126.265473 64.384424 l
126.218162 64.235376 l
126.163158 64.086327 l
126.13333 64.015518 l
126.100627 63.937279 l
126.030664 63.78823 l
125.984381 63.699275 l
125.953348 63.639182 l
125.8688 63.490134 l
125.835432 63.436136 l
125.777115 63.341085 l
125.686483 63.204428 l
125.678323 63.192037 l
125.572614 63.042988 l
125.537534 62.996774 l
125.46 62.89394 l
125.388585 62.805065 l
125.340551 62.744891 l
125.239636 62.62586 l
125.214351 62.595843 l
125.090687 62.457183 l
125.081481 62.446795 l
124.942013 62.297746 l
124.941738 62.297467 l
124.796026 62.148698 l
124.792789 62.145552 l
124.64384 61.999925 l
124.643559 61.999649 l
124.494891 61.860216 l
124.484698 61.850601 l
124.345942 61.725532 l
124.319489 61.701553 l
124.196993 61.595266 l
124.147981 61.552504 l
124.048044 61.468906 l
123.970222 61.403456 l
123.899095 61.346016 l
123.786251 61.254407 l
123.750146 61.226222 l
123.601197 61.10936 l
123.596121 61.105359 l
123.452248 60.99618 l
123.399971 60.956311 l
123.3033 60.885247 l
123.197725 60.807262 l
123.154351 60.776343 l
123.005402 60.669682 l
122.989456 60.658214 l
122.856453 60.565815 l
122.775281 60.509165 l
122.707504 60.463427 l
122.558555 60.362467 l
122.555101 60.360117 l
122.409606 60.264295 l
122.329137 60.211068 l
122.260657 60.167192 l
122.111708 60.071365 l
122.097239 60.06202 l
121.962759 59.977825 l
121.859594 59.912972 l
121.81381 59.885048 l
121.664861 59.793861 l
121.616144 59.763923 l
121.515912 59.704121 l
121.366963 59.614915 l
121.366896 59.614875 l
121.218014 59.52794 l
121.212944 59.524968 l
stroke
grestore
gsave
178.6 89.28 36.79 38.45 clipbox
66.55375 57.913133 m
72.660657 59.947799 l
80.445253 62.297746 l
89.789786 64.850551 l
100.365161 67.476799 l
111.089486 69.922511 l
114.069673 70.644457 l
114.217414 76.045151 l
120.324321 75.857605 l
125.984381 75.460786 l
130.899696 74.899591 l
135.070267 74.211893 l
138.645041 73.397639 l
141.326122 72.574439 l
143.475516 71.687796 l
145.050757 70.793506 l
146.144911 69.899215 l
146.743889 69.153973 l
147.091951 68.408731 l
147.212755 67.663489 l
147.124822 66.918247 l
146.764581 66.023957 l
146.092489 65.067715 l
145.117633 64.086327 l
143.560357 62.891376 l
141.475071 61.616174 l
138.942939 60.32603 l
135.517113 58.839856 l
131.197594 57.226615 l
125.835432 55.484288 l
119.877474 53.778077 l
114.217414 52.321277 l
114.068465 55.285468 l
113.919516 55.27113 l
104.498366 54.327539 l
104.498366 54.327539 l
stroke
grestore
gsave
178.6 89.28 36.79 38.45 clipbox
70.760252 50.275896 m
70.724321 50.27074 l
70.575372 50.249214 l
70.426423 50.227532 l
70.407897 50.224825 l
70.277474 50.206359 l
70.128525 50.185136 l
69.979576 50.163763 l
69.830627 50.142237 l
69.681678 50.120555 l
69.532729 50.098713 l
69.38378 50.076706 l
69.377509 50.075776 l
69.234831 50.055292 l
69.085882 50.033758 l
68.936933 50.012067 l
68.787984 49.990216 l
68.639035 49.9682 l
68.490086 49.946016 l
68.361512 49.926728 l
68.341137 49.923769 l
68.192188 49.902061 l
68.043239 49.880192 l
67.894291 49.858158 l
67.745342 49.835955 l
67.596393 49.813578 l
67.447444 49.791022 l
67.359873 49.777679 l
67.298495 49.768634 l
67.149546 49.746572 l
67.000597 49.72434 l
66.851648 49.701934 l
66.702699 49.679349 l
66.55375 49.65658 l
stroke
grestore
gsave
178.6 89.28 36.79 38.45 clipbox
66.55375 62.293362 m
72.809606 64.725634 l
79.959155 67.258294 l
88.104886 69.899215 l
97.101988 72.582087 l
107.514711 75.447433 l
114.070524 77.202588 l
114.217414 80.108557 l
122.111708 80.525883 l
130.006002 80.718665 l
137.602399 80.685639 l
144.900897 80.433983 l
151.6036 79.98324 l
157.561558 79.364867 l
162.625822 78.627588 l
166.945342 77.783229 l
170.520116 76.857931 l
173.201197 75.945981 l
175.286483 75.008817 l
176.627023 74.207619 l
177.697856 73.327329 l
178.406302 72.433038 l
178.734458 71.687796 l
178.8441 70.942554 l
178.750258 70.197312 l
178.386316 69.303022 l
177.764694 68.408731 l
176.732736 67.365392 l
175.286483 66.252481 l
173.350146 65.052848 l
170.818014 63.747997 l
167.502965 62.297746 l
163.072669 60.635404 l
160.114117 59.64311 l
160.114117 59.64311 l
stroke
grestore
gsave
178.6 89.28 36.79 38.45 clipbox
127.179756 51.56104 m
116.15375 49.523764 l
114.217414 49.189043 l
114.068465 50.411593 l
93.066663 48.809365 l
76.831227 47.355151 l
66.55375 46.280138 l
66.55375 46.280138 l
stroke
grestore
gsave
178.6 89.28 36.79 38.45 clipbox
215.35375 65.158663 m
210.289486 63.565345 l
203.884681 61.776429 l
196.288285 59.88472 l
190.143464 58.490486 l
190.143464 58.490486 l
stroke
grestore
gsave
178.6 89.28 36.79 38.45 clipbox
156.764158 52.265643 m
142.666663 50.10723 l
127.920717 48.071162 l
114.217414 46.361248 l
114.068465 46.896887 l
90.087684 45.579426 l
72.21381 44.391656 l
66.55375 43.956463 l
66.55375 43.956463 l
stroke
grestore
gsave
178.6 89.28 36.79 38.45 clipbox
66.55375 65.976792 m
72.511708 68.627104 l
79.214411 71.356006 l
86.873362 74.221619 l
95.151948 77.082055 l
104.535732 80.088501 l
114.074927 83.015476 l
114.217414 84.310466 l
120.228968 85.028479 l
120.228968 85.028479 l
stroke
grestore
gsave
178.6 89.28 36.79 38.45 clipbox
154.132412 87.375103 m
163.966363 87.563909 l
173.796993 87.53091 l
183.180777 87.276919 l
191.819816 86.825722 l
199.71411 86.196096 l
206.714711 85.419136 l
212.672669 84.54233 l
215.35375 84.062239 l
215.35375 84.062239 l
stroke
grestore
gsave
178.6 89.28 36.79 38.45 clipbox
187.297238 50.383702 m
166.051648 48.186717 l
143.709306 46.096527 l
121.218014 44.213346 l
114.217414 43.673615 l
114.068465 43.887934 l
84.725522 42.822399 l
66.55375 41.988926 l
66.55375 41.988926 l
stroke
grestore
gsave
178.6 89.28 36.79 38.45 clipbox
66.55375 69.953563 m
72.21381 72.827889 l
78.767564 75.881941 l
85.768164 78.890955 l
93.662459 82.036086 l
102.450447 85.289978 l
111.983179 88.581865 l
114.217414 89.225771 l
123.750146 90.881248 l
134.027624 92.431316 l
144.751948 93.825309 l
156.369966 95.11053 l
168.58378 96.238167 l
170.396094 96.387399 l
170.396094 96.387399 l
stroke
grestore
gsave
178.6 89.28 36.79 38.45 clipbox
204.329276 98.404185 m
204.331528 98.404272 l
204.480477 98.410053 l
204.629426 98.415807 l
204.778375 98.421535 l
204.927324 98.427237 l
205.076273 98.432914 l
205.225221 98.438564 l
205.37417 98.444188 l
205.523119 98.449786 l
205.672068 98.455358 l
205.821017 98.460904 l
205.969966 98.466425 l
206.118915 98.471919 l
206.267864 98.477388 l
206.416813 98.48283 l
206.565762 98.488247 l
206.714711 98.493638 l
206.86366 98.499003 l
207.012609 98.504343 l
207.161558 98.509656 l
207.310507 98.514944 l
207.354903 98.516511 l
207.459456 98.520209 l
207.608405 98.525449 l
207.757354 98.530663 l
207.906303 98.535851 l
208.055252 98.541014 l
208.2042 98.546151 l
208.353149 98.551261 l
208.502098 98.556347 l
208.651047 98.561406 l
208.799996 98.566439 l
208.948945 98.571447 l
209.097894 98.576429 l
209.246843 98.581385 l
209.395792 98.586315 l
209.544741 98.59122 l
209.69369 98.596099 l
209.842639 98.600952 l
209.991588 98.60578 l
210.140537 98.610581 l
210.289486 98.615358 l
210.438435 98.620108 l
210.587384 98.624833 l
210.736333 98.629532 l
210.885282 98.634206 l
211.03423 98.638854 l
211.183179 98.643476 l
211.332128 98.648073 l
211.481077 98.652644 l
211.630026 98.657189 l
211.778975 98.661709 l
211.906593 98.665559 l
211.927924 98.666204 l
212.076873 98.670675 l
212.225822 98.67512 l
212.374771 98.67954 l
212.52372 98.683934 l
212.672669 98.688303 l
212.821618 98.692645 l
212.970567 98.696963 l
213.119516 98.701254 l
213.268465 98.70552 l
213.417414 98.709761 l
213.566363 98.713975 l
213.715312 98.718164 l
213.864261 98.722328 l
214.013209 98.726466 l
214.162158 98.730579 l
214.311107 98.734665 l
214.460056 98.738727 l
214.609005 98.742763 l
214.757954 98.746773 l
214.906903 98.750758 l
215.055852 98.754717 l
215.204801 98.75865 l
215.35375 98.762559 l
stroke
grestore
gsave
178.6 89.28 36.79 38.45 clipbox
193.313374 44.512905 m
154.880477 42.701644 l
118.834831 41.221801 l
112.578975 41.094602 l
73.554351 40.354548 l
66.55375 40.18531 l
66.55375 40.18531 l
stroke
grestore
gsave
178.6 89.28 36.79 38.45 clipbox
66.55375 75.31596 m
71.989118 78.544023 l
77.427023 81.532644 l
83.682879 84.733025 l
91.130327 88.275617 l
99.106005 91.809332 l
107.216813 95.178071 l
114.068465 97.875134 l
114.217414 96.189427 l
123.750146 98.504776 l
134.660115 100.901285 l
145.347744 103.02867 l
157.26366 105.182509 l
170.669065 107.371294 l
184.819215 109.451141 l
196.400227 110.999902 l
196.400227 110.999902 l
stroke
grestore
1.250 setlinewidth
0 setlinejoin
2 setlinecap
[] 0 setdash
0.150 setgray
gsave
36.79375 38.45 m
36.79375 127.73 l
stroke
grestore
gsave
215.35375 38.45 m
215.35375 127.73 l
stroke
grestore
gsave
36.79375 38.45 m
215.35375 38.45 l
stroke
grestore
gsave
36.79375 127.73 m
215.35375 127.73 l
stroke
grestore
0.000 setgray
gsave
114.215339 54.538973 translate
78.466270 rotate
0.000000 0.000000 m /hyphen glyphshow
2.886719 0.000000 m /zero glyphshow
7.976562 0.000000 m /period glyphshow
10.519531 0.000000 m /six glyphshow
15.609375 0.000000 m /zero glyphshow
grestore
gsave
77.597596 49.004045 translate
7.041845 rotate
0.000000 0.000000 m /hyphen glyphshow
2.886719 0.000000 m /zero glyphshow
7.976562 0.000000 m /period glyphshow
10.519531 0.000000 m /five glyphshow
15.609375 0.000000 m /zero glyphshow
grestore
gsave
134.257146 50.485803 translate
14.082958 rotate
0.000000 0.000000 m /hyphen glyphshow
2.886719 0.000000 m /zero glyphshow
7.976562 0.000000 m /period glyphshow
10.519531 0.000000 m /four glyphshow
15.609375 0.000000 m /zero glyphshow
grestore
gsave
163.741740 51.033623 translate
10.879447 rotate
0.000000 0.000000 m /hyphen glyphshow
2.886719 0.000000 m /zero glyphshow
7.976562 0.000000 m /period glyphshow
10.519531 0.000000 m /three glyphshow
15.609375 0.000000 m /zero glyphshow
grestore
gsave
126.979142 83.604760 translate
4.079228 rotate
0.000000 0.000000 m /hyphen glyphshow
2.886719 0.000000 m /zero glyphshow
7.976562 0.000000 m /period glyphshow
10.519531 0.000000 m /three glyphshow
15.609375 0.000000 m /zero glyphshow
grestore
gsave
194.163449 48.854253 translate
6.909002 rotate
0.000000 0.000000 m /hyphen glyphshow
2.886719 0.000000 m /zero glyphshow
7.976562 0.000000 m /period glyphshow
10.519531 0.000000 m /two glyphshow
15.609375 0.000000 m /zero glyphshow
grestore
gsave
177.146408 94.739783 translate
3.512444 rotate
0.000000 0.000000 m /hyphen glyphshow
2.886719 0.000000 m /zero glyphshow
7.976562 0.000000 m /period glyphshow
10.519531 0.000000 m /two glyphshow
15.609375 0.000000 m /zero glyphshow
grestore
gsave
200.063481 42.626528 translate
3.080658 rotate
0.000000 0.000000 m /hyphen glyphshow
2.886719 0.000000 m /zero glyphshow
7.976562 0.000000 m /period glyphshow
10.519531 0.000000 m /one glyphshow
15.609375 0.000000 m /zero glyphshow
grestore
gsave
203.252415 109.597345 translate
6.960338 rotate
0.000000 0.000000 m /hyphen glyphshow
2.886719 0.000000 m /zero glyphshow
7.976562 0.000000 m /period glyphshow
10.519531 0.000000 m /one glyphshow
15.609375 0.000000 m /zero glyphshow
grestore

end
showpage
