%!PS-Adobe-3.0 EPSF-3.0
%%Title: ../Figures/repulsion-values-3d.eps
%%Creator: matplotlib version 2.1.2, http://matplotlib.org/
%%CreationDate: Fri May 25 11:02:26 2018
%%Orientation: portrait
%%BoundingBox: 197 324 414 467
%%EndComments
%%BeginProlog
/mpldict 8 dict def
mpldict begin
/m { moveto } bind def
/l { lineto } bind def
/r { rlineto } bind def
/c { curveto } bind def
/cl { closepath } bind def
/box {
m
1 index 0 r
0 exch r
neg 0 r
cl
} bind def
/clipbox {
box
clip
newpath
} bind def
%!PS-Adobe-3.0 Resource-Font
%%Title: DejaVu Sans
%%Copyright: Copyright (c) 2003 by Bitstream, Inc. All Rights Reserved. Copyright (c) 2006 by Tavmjong Bah. All Rights Reserved. DejaVu changes are in public domain 
%%Creator: Converted from TrueType to type 3 by PPR
25 dict begin
/_d{bind def}bind def
/_m{moveto}_d
/_l{lineto}_d
/_cl{closepath eofill}_d
/_c{curveto}_d
/_sc{7 -1 roll{setcachedevice}{pop pop pop pop pop pop}ifelse}_d
/_e{exec}_d
/FontName /DejaVuSans def
/PaintType 0 def
/FontMatrix[.001 0 0 .001 0 0]def
/FontBBox[-1021 -463 1793 1232]def
/FontType 3 def
/Encoding [ /period /zero /one /two /five /seven /minus ] def
/FontInfo 10 dict dup begin
/FamilyName (DejaVu Sans) def
/FullName (DejaVu Sans) def
/Notice (Copyright (c) 2003 by Bitstream, Inc. All Rights Reserved. Copyright (c) 2006 by Tavmjong Bah. All Rights Reserved. DejaVu changes are in public domain ) def
/Weight (Book) def
/Version (Version 2.35) def
/ItalicAngle 0.0 def
/isFixedPitch false def
/UnderlinePosition -130 def
/UnderlineThickness 90 def
end readonly def
/CharStrings 8 dict dup begin
/.notdef 0 def
/period{318 0 107 0 210 124 _sc
107 124 _m
210 124 _l
210 0 _l
107 0 _l
107 124 _l
_cl}_d
/zero{636 0 66 -13 570 742 _sc
318 664 _m
267 664 229 639 203 589 _c
177 539 165 464 165 364 _c
165 264 177 189 203 139 _c
229 89 267 64 318 64 _c
369 64 407 89 433 139 _c
458 189 471 264 471 364 _c
471 464 458 539 433 589 _c
407 639 369 664 318 664 _c
318 742 _m
399 742 461 709 505 645 _c
548 580 570 486 570 364 _c
570 241 548 147 505 83 _c
461 19 399 -13 318 -13 _c
236 -13 173 19 130 83 _c
87 147 66 241 66 364 _c
66 486 87 580 130 645 _c
173 709 236 742 318 742 _c
_cl}_d
/one{636 0 110 0 544 729 _sc
124 83 _m
285 83 _l
285 639 _l
110 604 _l
110 694 _l
284 729 _l
383 729 _l
383 83 _l
544 83 _l
544 0 _l
124 0 _l
124 83 _l
_cl}_d
/two{{636 0 73 0 536 742 _sc
192 83 _m
536 83 _l
536 0 _l
73 0 _l
73 83 _l
110 121 161 173 226 239 _c
290 304 331 346 348 365 _c
380 400 402 430 414 455 _c
426 479 433 504 433 528 _c
433 566 419 598 392 622 _c
365 646 330 659 286 659 _c
255 659 222 653 188 643 _c
154 632 117 616 78 594 _c
78 694 _l
118 710 155 722 189 730 _c
223 738 255 742 284 742 _c
}_e{359 742 419 723 464 685 _c
509 647 532 597 532 534 _c
532 504 526 475 515 449 _c
504 422 484 390 454 354 _c
446 344 420 317 376 272 _c
332 227 271 164 192 83 _c
_cl}_e}_d
/five{{636 0 77 -13 549 729 _sc
108 729 _m
495 729 _l
495 646 _l
198 646 _l
198 467 _l
212 472 227 476 241 478 _c
255 480 270 482 284 482 _c
365 482 429 459 477 415 _c
525 370 549 310 549 234 _c
549 155 524 94 475 51 _c
426 8 357 -13 269 -13 _c
238 -13 207 -10 175 -6 _c
143 -1 111 6 77 17 _c
77 116 _l
106 100 136 88 168 80 _c
199 72 232 69 267 69 _c
}_e{323 69 368 83 401 113 _c
433 143 450 183 450 234 _c
450 284 433 324 401 354 _c
368 384 323 399 267 399 _c
241 399 214 396 188 390 _c
162 384 135 375 108 363 _c
108 729 _l
_cl}_e}_d
/seven{636 0 82 0 551 729 _sc
82 729 _m
551 729 _l
551 687 _l
286 0 _l
183 0 _l
432 646 _l
82 646 _l
82 729 _l
_cl}_d
/minus{838 0 106 272 732 355 _sc
106 355 _m
732 355 _l
732 272 _l
106 272 _l
106 355 _l
_cl}_d
end readonly def

/BuildGlyph
 {exch begin
 CharStrings exch
 2 copy known not{pop /.notdef}if
 true 3 1 roll get exec
 end}_d

/BuildChar {
 1 index /Encoding get exch get
 1 index /BuildGlyph get exec
}_d

FontName currentdict end definefont pop
end
%%EndProlog
mpldict begin
197.709 324.354 translate
216.581 143.292 0 0 clipbox
gsave
0 0 m
216.58125 0 l
216.58125 143.291875 l
0 143.291875 l
cl
grestore
gsave
38.48125 23.871875 m
205.88125 23.871875 l
205.88125 132.591875 l
38.48125 132.591875 l
cl
grestore
0.800 setlinewidth
1 setlinejoin
0 setlinecap
[] 0 setdash
0.000 setgray
gsave
/o {
gsave
newpath
translate
0.8 setlinewidth
1 setlinejoin
0 setlinecap
0 0 m
0 -3.5 l

gsave
0.000 setgray
fill
grestore
stroke
grestore
} bind def
46.0903 23.8719 o
grestore
/DejaVuSans findfont
10.000 scalefont
setfont
gsave
42.910653 9.278125 translate
0.000000 rotate
0.000000 0.000000 m /zero glyphshow
grestore
gsave
/o {
gsave
newpath
translate
0.8 setlinewidth
1 setlinejoin
0 setlinecap
0 0 m
0 -3.5 l

gsave
0.000 setgray
fill
grestore
stroke
grestore
} bind def
107.042 23.8719 o
grestore
gsave
100.683034 9.278125 translate
0.000000 rotate
0.000000 0.000000 m /five glyphshow
6.362305 0.000000 m /zero glyphshow
grestore
gsave
/o {
gsave
newpath
translate
0.8 setlinewidth
1 setlinejoin
0 setlinecap
0 0 m
0 -3.5 l

gsave
0.000 setgray
fill
grestore
stroke
grestore
} bind def
167.994 23.8719 o
grestore
gsave
158.455415 9.278125 translate
0.000000 rotate
0.000000 0.000000 m /one glyphshow
6.362305 0.000000 m /zero glyphshow
12.724609 0.000000 m /zero glyphshow
grestore
gsave
/o {
gsave
newpath
translate
0.8 setlinewidth
1 setlinejoin
0 setlinecap
0 0 m
-3.5 0 l

gsave
0.000 setgray
fill
grestore
stroke
grestore
} bind def
38.4813 28.4152 o
grestore
gsave
7.200000 24.618297 translate
0.000000 rotate
0.000000 0.000000 m /minus glyphshow
8.378906 0.000000 m /seven glyphshow
14.741211 0.000000 m /period glyphshow
17.919922 0.000000 m /five glyphshow
grestore
gsave
/o {
gsave
newpath
translate
0.8 setlinewidth
1 setlinejoin
0 setlinecap
0 0 m
-3.5 0 l

gsave
0.000 setgray
fill
grestore
stroke
grestore
} bind def
38.4813 55.4435 o
grestore
gsave
7.200000 51.646600 translate
0.000000 rotate
0.000000 0.000000 m /minus glyphshow
8.378906 0.000000 m /five glyphshow
14.741211 0.000000 m /period glyphshow
17.919922 0.000000 m /zero glyphshow
grestore
gsave
/o {
gsave
newpath
translate
0.8 setlinewidth
1 setlinejoin
0 setlinecap
0 0 m
-3.5 0 l

gsave
0.000 setgray
fill
grestore
stroke
grestore
} bind def
38.4813 82.4718 o
grestore
gsave
7.200000 78.674902 translate
0.000000 rotate
0.000000 0.000000 m /minus glyphshow
8.378906 0.000000 m /two glyphshow
14.741211 0.000000 m /period glyphshow
17.919922 0.000000 m /five glyphshow
grestore
gsave
/o {
gsave
newpath
translate
0.8 setlinewidth
1 setlinejoin
0 setlinecap
0 0 m
-3.5 0 l

gsave
0.000 setgray
fill
grestore
stroke
grestore
} bind def
38.4813 109.5 o
grestore
gsave
15.575000 105.703204 translate
0.000000 rotate
0.000000 0.000000 m /zero glyphshow
6.362305 0.000000 m /period glyphshow
9.541016 0.000000 m /zero glyphshow
grestore
2 setlinecap
0.122 0.467 0.706 setrgbcolor
gsave
167.4 108.7 38.48 23.87 clipbox
46.090341 109.250102 m
47.612159 109.304656 l
48.220886 109.122373 l
48.829614 108.611218 l
49.133977 115.150967 l
49.438341 111.872117 l
49.742705 109.906404 l
50.047068 86.839842 l
50.351432 105.722827 l
50.655795 107.648312 l
50.960159 107.966598 l
51.568886 106.831968 l
51.87325 105.863681 l
52.177614 104.160992 l
52.481977 100.507414 l
52.786341 91.269714 l
53.395068 43.56929 l
53.699432 87.655552 l
54.003795 104.294811 l
54.308159 107.804852 l
54.612523 109.392576 l
54.916886 109.831677 l
56.438705 109.836462 l
56.743068 109.92241 l
57.047432 110.146544 l
57.351795 111.533641 l
57.656159 108.673263 l
57.960523 109.279001 l
58.264886 110.137111 l
58.56925 102.941711 l
58.873614 108.276601 l
59.177977 108.716802 l
59.786705 108.904046 l
61.004159 108.798746 l
62.221614 108.525057 l
62.830341 108.250156 l
63.134705 107.977172 l
63.439068 104.521931 l
63.743432 108.572145 l
64.047795 109.682558 l
64.352159 109.361322 l
65.873977 109.205799 l
66.178341 109.035911 l
66.482705 108.631231 l
66.787068 119.011749 l
67.091432 113.432805 l
67.395795 111.618768 l
68.004523 97.598181 l
68.308886 106.493249 l
68.61325 107.769343 l
68.917614 107.876634 l
69.221977 107.862518 l
69.526341 107.975902 l
70.135068 107.008209 l
70.439432 106.139968 l
70.743795 104.746741 l
71.048159 102.011727 l
71.352523 94.824686 l
71.656886 72.150939 l
71.96125 28.813693 l
72.265614 77.239035 l
72.569977 101.258982 l
72.874341 107.221676 l
73.178705 109.279847 l
73.483068 109.829237 l
75.004886 109.828007 l
75.30925 109.906373 l
75.613614 110.105889 l
75.917977 111.198516 l
76.222341 108.602553 l
76.831068 110.101698 l
77.135432 98.4629 l
77.439795 108.192231 l
77.744159 108.691059 l
78.352886 108.898645 l
79.570341 108.795437 l
80.787795 108.519991 l
81.396523 108.244984 l
81.700886 107.977347 l
82.00525 105.12819 l
82.309614 107.96887 l
82.613977 109.687407 l
82.918341 109.362525 l
84.440159 109.217434 l
84.744523 109.057715 l
85.048886 108.675527 l
85.35325 114.73255 l
85.657614 113.700194 l
85.961977 111.674735 l
86.266341 106.767787 l
86.570705 96.039188 l
86.875068 106.359702 l
87.179432 107.750744 l
87.788159 107.946282 l
88.396886 106.65307 l
88.70125 105.491108 l
89.005614 103.358337 l
89.309977 98.927196 l
89.614341 84.521623 l
89.918705 51.011389 l
90.223068 64.904909 l
90.527432 98.15635 l
90.831795 105.597201 l
91.136159 108.312694 l
91.440523 109.477532 l
91.744886 109.832245 l
93.266705 109.837681 l
93.571068 109.926008 l
93.875432 110.158958 l
94.179795 111.767927 l
94.484159 108.747472 l
94.788523 109.291736 l
95.092886 110.174561 l
95.39725 104.190346 l
95.701614 108.312677 l
96.005977 108.724174 l
96.614705 108.90315 l
97.832159 108.794797 l
99.049614 108.516881 l
99.658341 108.236063 l
99.962705 107.947829 l
100.267068 103.268374 l
100.571432 108.753529 l
100.875795 109.679482 l
101.180159 109.361256 l
102.397614 109.280796 l
103.006341 109.025356 l
103.310705 108.604776 l
103.615068 122.255948 l
103.919432 113.216693 l
104.223795 111.568505 l
104.832523 98.985438 l
105.136886 106.605364 l
105.44125 107.803337 l
106.354341 107.954361 l
106.658705 107.770174 l
107.267432 106.574322 l
107.571795 105.459444 l
107.876159 103.534459 l
108.180523 99.300511 l
108.484886 86.090815 l
108.78925 47.206356 l
109.093614 53.523661 l
109.397977 94.108351 l
109.702341 105.69195 l
110.006705 108.716847 l
110.311068 109.803401 l
112.441614 110.00962 l
112.745977 110.501854 l
113.050341 111.317094 l
113.354705 109.189044 l
113.659068 109.873522 l
113.963432 97.503698 l
114.267795 107.690874 l
114.572159 108.584688 l
114.876523 108.810255 l
115.48525 108.899185 l
117.007068 108.706356 l
117.920159 108.446507 l
118.528886 108.0969 l
118.83325 107.323122 l
119.137614 66.353009 l
119.441977 109.612881 l
120.050705 109.357733 l
121.268159 109.249303 l
121.572523 109.129006 l
122.18125 108.446936 l
122.485614 116.857206 l
122.789977 112.053217 l
123.094341 110.464846 l
123.398705 79.030601 l
123.703068 105.065265 l
124.007432 107.475583 l
124.311795 107.954146 l
124.616159 107.885116 l
124.920523 107.653004 l
125.52925 106.072956 l
125.833614 104.423454 l
126.137977 101.208233 l
126.442341 93.683662 l
126.746705 65.250597 l
127.051068 50.906416 l
127.355432 87.347648 l
127.659795 103.415664 l
127.964159 107.490954 l
128.268523 109.078715 l
128.572886 109.812862 l
130.399068 109.883771 l
130.703432 110.039016 l
131.007795 110.634983 l
131.312159 108.558794 l
131.920886 109.909218 l
132.22525 86.118154 l
132.529614 107.880598 l
132.833977 108.622222 l
133.138341 108.825922 l
133.747068 108.901877 l
135.268886 108.707566 l
136.181977 108.446988 l
136.790705 108.091547 l
137.095068 107.101007 l
137.399432 95.890402 l
137.703795 109.691024 l
138.008159 109.363124 l
139.529977 109.239179 l
139.834341 109.10979 l
140.443068 108.608346 l
140.747432 115.810875 l
141.051795 111.964466 l
141.356159 110.095661 l
141.660523 83.654798 l
141.964886 105.384259 l
142.26925 107.531809 l
142.573614 107.944796 l
142.877977 107.941141 l
143.182341 107.72981 l
143.486705 107.924652 l
144.095432 106.895595 l
144.399795 105.968881 l
144.704159 104.441479 l
145.008523 101.611961 l
145.312886 93.302108 l
145.921614 37.491877 l
146.225977 83.60566 l
146.530341 102.578173 l
146.834705 107.723846 l
147.139068 109.693495 l
147.443432 109.831846 l
148.660886 109.799792 l
149.269614 109.939054 l
149.573977 110.208216 l
149.878341 112.967599 l
150.182705 108.941337 l
150.791432 110.265233 l
151.095795 106.079731 l
151.400159 108.391466 l
151.704523 108.746718 l
152.31325 108.90021 l
153.530705 108.782825 l
154.748159 108.491844 l
155.356886 108.192147 l
155.66125 107.848724 l
155.965614 96.467024 l
156.269977 109.156313 l
156.574341 109.669229 l
156.878705 109.36097 l
158.096159 109.276065 l
158.704886 108.98962 l
159.00925 108.520777 l
159.313614 127.650057 l
159.617977 112.755054 l
159.922341 111.397607 l
160.226705 96.959657 l
160.835432 106.931945 l
161.139795 107.878394 l
161.444159 107.777491 l
161.748523 107.879059 l
162.35725 106.478777 l
162.661614 105.19928 l
162.965977 102.780225 l
163.270341 97.534821 l
163.574705 79.957054 l
163.879068 49.34764 l
164.792159 106.278463 l
165.096523 108.561761 l
165.400886 109.730215 l
165.70525 109.832691 l
166.922705 109.804959 l
167.531432 109.958919 l
167.835795 110.271 l
168.140159 116.043996 l
168.444523 108.977246 l
169.05325 110.232455 l
169.357614 106.596883 l
169.661977 108.454702 l
169.966341 108.768328 l
170.575068 108.903998 l
172.096886 108.73133 l
173.314341 108.366462 l
173.618705 108.189412 l
173.923068 107.819924 l
174.227432 88.996688 l
174.531795 109.245817 l
174.836159 109.661946 l
175.140523 109.359611 l
176.357977 109.267979 l
176.662341 109.173804 l
176.966705 108.960871 l
177.271068 108.470821 l
177.575432 126.561949 l
177.879795 112.581115 l
178.184159 111.274816 l
178.488523 90.545077 l
178.792886 102.570643 l
179.09725 107.039968 l
179.401614 107.892527 l
180.010341 107.694916 l
180.314705 107.995649 l
180.619068 107.674112 l
180.923432 107.148563 l
181.227795 106.387691 l
181.532159 105.150895 l
181.836523 102.966881 l
182.140886 97.716954 l
182.44525 80.826366 l
182.749614 39.568937 l
183.358341 97.72255 l
183.662705 106.575592 l
183.967068 109.137146 l
184.271432 109.822681 l
186.097614 109.890553 l
186.401977 110.061463 l
186.706341 110.814608 l
187.010705 108.33024 l
187.619432 110.002123 l
187.923795 92.871156 l
188.228159 108.029746 l
188.532523 108.652486 l
189.14125 108.8953 l
190.358705 108.801265 l
191.576159 108.533138 l
192.184886 108.269382 l
192.48925 108.028996 l
193.097977 105.338505 l
193.402341 109.693151 l
193.706705 109.363227 l
195.228523 109.231697 l
195.532886 109.089347 l
195.83725 108.751582 l
196.141614 109.9786 l
196.445977 114.575506 l
197.054705 108.979869 l
197.359068 90.179427 l
197.663432 105.941279 l
197.967795 107.661168 l
198.272159 107.931822 l
198.272159 107.931822 l
stroke
grestore
0 setlinejoin
[] 0 setdash
0.000 setgray
gsave
38.48125 23.871875 m
38.48125 132.591875 l
stroke
grestore
gsave
205.88125 23.871875 m
205.88125 132.591875 l
stroke
grestore
gsave
38.48125 23.871875 m
205.88125 23.871875 l
stroke
grestore
gsave
38.48125 132.591875 m
205.88125 132.591875 l
stroke
grestore

end
showpage
