%!PS-Adobe-3.0 EPSF-3.0
%%Title: /media/hdd/GDrive/GaryPhDwork/rho-dot-field-zoom2.eps
%%Creator: matplotlib version 2.1.2, http://matplotlib.org/
%%CreationDate: Tue Apr 17 10:19:24 2018
%%Orientation: portrait
%%BoundingBox: 185 315 426 476
%%EndComments
%%BeginProlog
/mpldict 9 dict def
mpldict begin
/m { moveto } bind def
/l { lineto } bind def
/r { rlineto } bind def
/c { curveto } bind def
/cl { closepath } bind def
/box {
m
1 index 0 r
0 exch r
neg 0 r
cl
} bind def
/clipbox {
box
clip
newpath
} bind def
%!PS-Adobe-3.0 Resource-Font
%%Title: DejaVu Sans
%%Copyright: Copyright (c) 2003 by Bitstream, Inc. All Rights Reserved. Copyright (c) 2006 by Tavmjong Bah. All Rights Reserved. DejaVu changes are in public domain 
%%Creator: Converted from TrueType to type 3 by PPR
25 dict begin
/_d{bind def}bind def
/_m{moveto}_d
/_l{lineto}_d
/_cl{closepath eofill}_d
/_c{curveto}_d
/_sc{7 -1 roll{setcachedevice}{pop pop pop pop pop pop}ifelse}_d
/_e{exec}_d
/FontName /DejaVuSans def
/PaintType 0 def
/FontMatrix[.001 0 0 .001 0 0]def
/FontBBox[-1021 -463 1793 1232]def
/FontType 3 def
/Encoding [ /parenleft /parenright /period /slash /zero /one /two /five /seven /uni0307 /Sigma /minus ] def
/FontInfo 10 dict dup begin
/FamilyName (DejaVu Sans) def
/FullName (DejaVu Sans) def
/Notice (Copyright (c) 2003 by Bitstream, Inc. All Rights Reserved. Copyright (c) 2006 by Tavmjong Bah. All Rights Reserved. DejaVu changes are in public domain ) def
/Weight (Book) def
/Version (Version 2.35) def
/ItalicAngle 0.0 def
/isFixedPitch false def
/UnderlinePosition -130 def
/UnderlineThickness 90 def
end readonly def
/CharStrings 13 dict dup begin
/.notdef 0 def
/parenleft{390 0 86 -131 310 759 _sc
310 759 _m
266 683 234 609 213 536 _c
191 463 181 389 181 314 _c
181 238 191 164 213 91 _c
234 17 266 -56 310 -131 _c
232 -131 _l
183 -54 146 20 122 94 _c
98 168 86 241 86 314 _c
86 386 98 459 122 533 _c
146 607 182 682 232 759 _c
310 759 _l
_cl}_d
/parenright{390 0 80 -131 304 759 _sc
80 759 _m
158 759 _l
206 682 243 607 267 533 _c
291 459 304 386 304 314 _c
304 241 291 168 267 94 _c
243 20 206 -54 158 -131 _c
80 -131 _l
123 -56 155 17 177 91 _c
198 164 209 238 209 314 _c
209 389 198 463 177 536 _c
155 609 123 683 80 759 _c
_cl}_d
/period{318 0 107 0 210 124 _sc
107 124 _m
210 124 _l
210 0 _l
107 0 _l
107 124 _l
_cl}_d
/slash{337 0 0 -92 337 729 _sc
254 729 _m
337 729 _l
83 -92 _l
0 -92 _l
254 729 _l
_cl}_d
/zero{636 0 66 -13 570 742 _sc
318 664 _m
267 664 229 639 203 589 _c
177 539 165 464 165 364 _c
165 264 177 189 203 139 _c
229 89 267 64 318 64 _c
369 64 407 89 433 139 _c
458 189 471 264 471 364 _c
471 464 458 539 433 589 _c
407 639 369 664 318 664 _c
318 742 _m
399 742 461 709 505 645 _c
548 580 570 486 570 364 _c
570 241 548 147 505 83 _c
461 19 399 -13 318 -13 _c
236 -13 173 19 130 83 _c
87 147 66 241 66 364 _c
66 486 87 580 130 645 _c
173 709 236 742 318 742 _c
_cl}_d
/one{636 0 110 0 544 729 _sc
124 83 _m
285 83 _l
285 639 _l
110 604 _l
110 694 _l
284 729 _l
383 729 _l
383 83 _l
544 83 _l
544 0 _l
124 0 _l
124 83 _l
_cl}_d
/two{{636 0 73 0 536 742 _sc
192 83 _m
536 83 _l
536 0 _l
73 0 _l
73 83 _l
110 121 161 173 226 239 _c
290 304 331 346 348 365 _c
380 400 402 430 414 455 _c
426 479 433 504 433 528 _c
433 566 419 598 392 622 _c
365 646 330 659 286 659 _c
255 659 222 653 188 643 _c
154 632 117 616 78 594 _c
78 694 _l
118 710 155 722 189 730 _c
223 738 255 742 284 742 _c
}_e{359 742 419 723 464 685 _c
509 647 532 597 532 534 _c
532 504 526 475 515 449 _c
504 422 484 390 454 354 _c
446 344 420 317 376 272 _c
332 227 271 164 192 83 _c
_cl}_e}_d
/five{{636 0 77 -13 549 729 _sc
108 729 _m
495 729 _l
495 646 _l
198 646 _l
198 467 _l
212 472 227 476 241 478 _c
255 480 270 482 284 482 _c
365 482 429 459 477 415 _c
525 370 549 310 549 234 _c
549 155 524 94 475 51 _c
426 8 357 -13 269 -13 _c
238 -13 207 -10 175 -6 _c
143 -1 111 6 77 17 _c
77 116 _l
106 100 136 88 168 80 _c
199 72 232 69 267 69 _c
}_e{323 69 368 83 401 113 _c
433 143 450 183 450 234 _c
450 284 433 324 401 354 _c
368 384 323 399 267 399 _c
241 399 214 396 188 390 _c
162 384 135 375 108 363 _c
108 729 _l
_cl}_e}_d
/seven{636 0 82 0 551 729 _sc
82 729 _m
551 729 _l
551 687 _l
286 0 _l
183 0 _l
432 646 _l
82 646 _l
82 729 _l
_cl}_d
/uni0307{0 0 -295 560 -205 760 _sc
-295 760 _m
-205 760 _l
-205 646 _l
-295 646 _l
-295 760 _l
-249 560 _m
-249 560 _l
_cl}_d
/Sigma{632 0 98 0 568 729 _sc
211 83 _m
568 83 _l
568 0 _l
98 0 _l
98 83 _l
332 388 _l
98 646 _l
98 729 _l
559 729 _l
559 646 _l
211 646 _l
445 390 _l
211 83 _l
_cl}_d
/minus{838 0 106 272 732 355 _sc
106 355 _m
732 355 _l
732 272 _l
106 272 _l
106 355 _l
_cl}_d
end readonly def

/BuildGlyph
 {exch begin
 CharStrings exch
 2 copy known not{pop /.notdef}if
 true 3 1 roll get exec
 end}_d

/BuildChar {
 1 index /Encoding get exch get
 1 index /BuildGlyph get exec
}_d

FontName currentdict end definefont pop
%!PS-Adobe-3.0 Resource-Font
%%Title: DejaVu Sans Oblique
%%Copyright: Copyright (c) 2003 by Bitstream, Inc. All Rights Reserved. Copyright (c) 2006 by Tavmjong Bah. All Rights Reserved. DejaVu changes are in public domain 
%%Creator: Converted from TrueType to type 3 by PPR
25 dict begin
/_d{bind def}bind def
/_m{moveto}_d
/_l{lineto}_d
/_cl{closepath eofill}_d
/_c{curveto}_d
/_sc{7 -1 roll{setcachedevice}{pop pop pop pop pop pop}ifelse}_d
/_e{exec}_d
/FontName /DejaVuSans-Oblique def
/PaintType 0 def
/FontMatrix[.001 0 0 .001 0 0]def
/FontBBox[-1016 -350 1659 1068]def
/FontType 3 def
/Encoding [ /d /s /y /rho ] def
/FontInfo 10 dict dup begin
/FamilyName (DejaVu Sans) def
/FullName (DejaVu Sans Oblique) def
/Notice (Copyright (c) 2003 by Bitstream, Inc. All Rights Reserved. Copyright (c) 2006 by Tavmjong Bah. All Rights Reserved. DejaVu changes are in public domain ) def
/Weight (Oblique) def
/Version (Version 2.35) def
/ItalicAngle -11.0 def
/isFixedPitch false def
/UnderlinePosition -130 def
/UnderlineThickness 90 def
end readonly def
/CharStrings 5 dict dup begin
/.notdef 0 def
/d{{635 0 46 -13 639 760 _sc
418 82 _m
394 50 365 27 332 11 _c
299 -5 263 -13 223 -13 _c
168 -13 125 5 93 42 _c
61 79 46 130 46 195 _c
46 249 55 300 75 349 _c
94 398 122 442 158 481 _c
182 507 209 526 239 540 _c
269 553 301 560 335 560 _c
370 560 401 551 428 534 _c
454 517 475 493 490 462 _c
549 760 _l
639 760 _l
491 0 _l
401 0 _l
418 82 _l
139 211 _m
}_e{139 163 149 126 171 100 _c
192 74 222 61 260 61 _c
288 61 314 67 338 81 _c
362 95 383 115 401 141 _c
420 168 435 200 446 236 _c
457 272 463 307 463 342 _c
463 387 452 422 431 448 _c
409 473 380 486 343 486 _c
314 486 287 479 263 466 _c
239 452 218 433 201 408 _c
182 381 167 350 156 314 _c
144 278 139 243 139 211 _c
_cl}_e}_d
/s{{521 0 11 -13 500 560 _sc
500 531 _m
483 446 _l
459 458 433 468 407 475 _c
381 481 354 485 326 485 _c
278 485 241 477 214 461 _c
187 445 174 423 174 395 _c
174 363 205 338 269 321 _c
273 319 277 318 279 318 _c
308 309 _l
368 292 408 274 428 256 _c
448 238 458 213 458 182 _c
458 124 435 77 389 41 _c
343 5 282 -13 208 -13 _c
179 -13 149 -10 117 -5 _c
}_e{85 0 49 8 11 20 _c
29 113 _l
61 95 94 82 126 74 _c
158 65 188 61 218 61 _c
262 61 297 70 325 89 _c
352 108 366 132 366 161 _c
366 192 330 217 258 237 _c
249 239 _l
218 247 _l
172 259 138 274 117 294 _c
96 314 86 339 86 370 _c
86 428 107 475 151 509 _c
195 543 254 560 330 560 _c
360 560 389 557 417 552 _c
445 547 472 540 500 531 _c
_cl}_e}_d
/y{592 0 -24 -207 603 547 _sc
248 -50 _m
206 -120 172 -163 146 -181 _c
120 -198 86 -207 46 -207 _c
-24 -207 _l
-9 -132 _l
42 -132 _l
67 -132 88 -125 106 -111 _c
123 -97 143 -71 165 -31 _c
193 20 _l
72 547 _l
167 547 _l
258 128 _l
509 547 _l
603 547 _l
248 -50 _l
_cl}_d
/rho{{635 0 16 -207 599 560 _sc
188 449 _m
214 482 254 513 310 543 _c
331 554 371 560 431 560 _c
497 560 545 533 577 481 _c
608 428 615 359 599 273 _c
582 187 548 117 496 65 _c
444 13 385 -13 319 -13 _c
279 -13 246 -5 220 10 _c
194 25 175 49 163 82 _c
106 -207 _l
16 -207 _l
109 268 _l
123 343 150 403 188 449 _c
506 273 _m
518 339 515 391 495 429 _c
475 466 441 485 394 485 _c
}_e{346 485 305 466 271 429 _c
236 391 212 339 200 273 _c
187 207 190 155 210 117 _c
230 79 263 61 311 61 _c
359 61 400 79 435 117 _c
469 155 492 207 506 273 _c
_cl}_e}_d
end readonly def

/BuildGlyph
 {exch begin
 CharStrings exch
 2 copy known not{pop /.notdef}if
 true 3 1 roll get exec
 end}_d

/BuildChar {
 1 index /Encoding get exch get
 1 index /BuildGlyph get exec
}_d

FontName currentdict end definefont pop
end
%%EndProlog
mpldict begin
185.627 315.979 translate
240.745 160.042 0 0 clipbox
gsave
0 0 m
240.745313 0 l
240.745313 160.041875 l
0 160.041875 l
cl
grestore
gsave
57.23125 38.121875 m
224.63125 38.121875 l
224.63125 146.841875 l
57.23125 146.841875 l
cl
grestore
0.800 setlinewidth
1 setlinejoin
0 setlinecap
[] 0 setdash
0.150 setgray
gsave
/o {
gsave
newpath
translate
0.8 setlinewidth
1 setlinejoin
0 setlinecap
0 0 m
0 -6 l

gsave
0.150 setgray
fill
grestore
stroke
grestore
} bind def
57.2312 38.1219 o
grestore
/DejaVuSans findfont
8.000 scalefont
setfont
gsave
44.965625 22.543750 translate
0.000000 rotate
0.000000 0.000000 m /minus glyphshow
6.703125 0.000000 m /one glyphshow
11.792969 0.000000 m /period glyphshow
14.335938 0.000000 m /zero glyphshow
19.425781 0.000000 m /zero glyphshow
grestore
gsave
/o {
gsave
newpath
translate
0.8 setlinewidth
1 setlinejoin
0 setlinecap
0 0 m
0 -6 l

gsave
0.150 setgray
fill
grestore
stroke
grestore
} bind def
90.7112 38.1219 o
grestore
gsave
78.445625 22.543750 translate
0.000000 rotate
0.000000 0.000000 m /minus glyphshow
6.703125 0.000000 m /zero glyphshow
11.792969 0.000000 m /period glyphshow
14.335938 0.000000 m /seven glyphshow
19.425781 0.000000 m /five glyphshow
grestore
gsave
/o {
gsave
newpath
translate
0.8 setlinewidth
1 setlinejoin
0 setlinecap
0 0 m
0 -6 l

gsave
0.150 setgray
fill
grestore
stroke
grestore
} bind def
124.191 38.1219 o
grestore
gsave
111.925625 22.543750 translate
0.000000 rotate
0.000000 0.000000 m /minus glyphshow
6.703125 0.000000 m /zero glyphshow
11.792969 0.000000 m /period glyphshow
14.335938 0.000000 m /five glyphshow
19.425781 0.000000 m /zero glyphshow
grestore
gsave
/o {
gsave
newpath
translate
0.8 setlinewidth
1 setlinejoin
0 setlinecap
0 0 m
0 -6 l

gsave
0.150 setgray
fill
grestore
stroke
grestore
} bind def
157.671 38.1219 o
grestore
gsave
145.405625 22.543750 translate
0.000000 rotate
0.000000 0.000000 m /minus glyphshow
6.703125 0.000000 m /zero glyphshow
11.792969 0.000000 m /period glyphshow
14.335938 0.000000 m /two glyphshow
19.425781 0.000000 m /five glyphshow
grestore
gsave
/o {
gsave
newpath
translate
0.8 setlinewidth
1 setlinejoin
0 setlinecap
0 0 m
0 -6 l

gsave
0.150 setgray
fill
grestore
stroke
grestore
} bind def
191.151 38.1219 o
grestore
gsave
182.237188 22.543750 translate
0.000000 rotate
0.000000 0.000000 m /zero glyphshow
5.089844 0.000000 m /period glyphshow
7.632812 0.000000 m /zero glyphshow
12.722656 0.000000 m /zero glyphshow
grestore
gsave
/o {
gsave
newpath
translate
0.8 setlinewidth
1 setlinejoin
0 setlinecap
0 0 m
0 -6 l

gsave
0.150 setgray
fill
grestore
stroke
grestore
} bind def
224.631 38.1219 o
grestore
gsave
215.717188 22.543750 translate
0.000000 rotate
0.000000 0.000000 m /zero glyphshow
5.089844 0.000000 m /period glyphshow
7.632812 0.000000 m /two glyphshow
12.722656 0.000000 m /five glyphshow
grestore
gsave
135.431250 10.200000 translate
0.000000 rotate
/DejaVuSans-Oblique findfont
10.0 scalefont
setfont
0.000000 0.531250 moveto
/y glyphshow

/DejaVuSans findfont
7.0 scalefont
setfont
5.917969 -1.109375 moveto
/zero glyphshow


grestore
gsave
/o {
gsave
newpath
translate
0.8 setlinewidth
1 setlinejoin
0 setlinecap
0 0 m
-6 0 l

gsave
0.150 setgray
fill
grestore
stroke
grestore
} bind def
57.2312 43.9462 o
grestore
gsave
23.200000 40.907098 translate
0.000000 rotate
0.000000 0.000000 m /minus glyphshow
6.703125 0.000000 m /one glyphshow
11.792969 0.000000 m /period glyphshow
14.335938 0.000000 m /seven glyphshow
19.425781 0.000000 m /five glyphshow
grestore
gsave
/o {
gsave
newpath
translate
0.8 setlinewidth
1 setlinejoin
0 setlinecap
0 0 m
-6 0 l

gsave
0.150 setgray
fill
grestore
stroke
grestore
} bind def
57.2312 92.4819 o
grestore
gsave
23.200000 89.442813 translate
0.000000 rotate
0.000000 0.000000 m /minus glyphshow
6.703125 0.000000 m /one glyphshow
11.792969 0.000000 m /period glyphshow
14.335938 0.000000 m /five glyphshow
19.425781 0.000000 m /zero glyphshow
grestore
gsave
/o {
gsave
newpath
translate
0.8 setlinewidth
1 setlinejoin
0 setlinecap
0 0 m
-6 0 l

gsave
0.150 setgray
fill
grestore
stroke
grestore
} bind def
57.2312 141.018 o
grestore
gsave
23.200000 137.978527 translate
0.000000 rotate
0.000000 0.000000 m /minus glyphshow
6.703125 0.000000 m /one glyphshow
11.792969 0.000000 m /period glyphshow
14.335938 0.000000 m /two glyphshow
19.425781 0.000000 m /five glyphshow
grestore
gsave
16.200000 71.981875 translate
90.000000 rotate
/DejaVuSans findfont
10.0 scalefont
setfont
0.000000 0.156250 moveto
/parenleft glyphshow

3.901367 0.156250 moveto
/Sigma glyphshow

16.759766 1.406250 moveto
/uni0307 glyphshow

/DejaVuSans-Oblique findfont
10.0 scalefont
setfont
10.219727 0.156250 moveto
/rho glyphshow

16.567383 0.156250 moveto
/d glyphshow

22.915039 0.156250 moveto
/s glyphshow

/DejaVuSans findfont
10.0 scalefont
setfont
28.125000 0.156250 moveto
/parenright glyphshow

32.026367 0.156250 moveto
/slash glyphshow

/DejaVuSans-Oblique findfont
10.0 scalefont
setfont
35.395508 0.156250 moveto
/s glyphshow


grestore
1 setlinecap
0.122 0.467 0.706 setrgbcolor
gsave
167.4 108.7 57.23 38.12 clipbox
56.96341 93.875154 m
57.76693 84.962962 l
58.57045 89.531998 l
59.37397 112.146008 l
60.17749 118.837579 l
60.98101 110.021695 l
61.78453 115.593651 l
62.58805 108.924552 l
63.39157 105.105568 l
64.19509 108.167158 l
64.99861 99.681557 l
65.80213 106.913546 l
66.60565 98.806739 l
67.40917 94.660306 l
68.21269 98.744163 l
69.01621 90.221522 l
69.81973 94.696996 l
70.62325 90.886975 l
71.42677 83.397574 l
72.23029 90.796056 l
73.03381 82.523635 l
73.83733 75.673216 l
74.64085 83.261181 l
75.44437 75.828574 l
76.24789 111.611162 l
77.05141 103.775541 l
77.85493 97.602409 l
78.65845 105.44098 l
79.46197 97.267065 l
80.26549 94.543503 l
81.06901 97.724205 l
81.87253 90.163733 l
82.67605 86.12418 l
83.47957 93.114433 l
84.28309 84.554911 l
85.08661 77.56292 l
85.89013 86.988089 l
87.49717 72.352529 l
88.30069 72.214663 l
89.10421 76.324348 l
90.71125 60.924443 l
91.51477 98.458123 l
92.31829 92.341469 l
93.12181 90.158749 l
93.92533 94.46205 l
94.72885 88.128329 l
96.33589 79.989507 l
97.13941 86.424252 l
97.94293 80.123009 l
98.74645 71.938083 l
99.54997 70.646139 l
100.35349 71.428515 l
101.15701 72.523734 l
102.76405 59.665857 l
103.56757 57.130528 l
104.37109 52.465852 l
105.17461 87.299719 l
105.97813 83.783965 l
106.78165 76.632575 l
107.58517 80.798496 l
108.38869 81.235347 l
109.19221 78.721058 l
109.99573 70.342864 l
110.79925 67.36386 l
111.60277 65.366993 l
112.40629 56.013998 l
113.20981 60.928716 l
114.01333 57.248607 l
114.81685 48.13633 l
115.62037 49.823875 l
116.42389 77.718368 l
117.22741 83.10899 l
118.03093 68.741941 l
119.63797 75.526016 l
120.44149 58.740445 l
121.24501 60.306684 l
122.04853 52.200912 l
122.85205 50.550611 l
123.65557 52.173237 l
124.45909 52.813918 l
125.26261 51.654119 l
126.06613 49.182754 l
126.86965 82.32671 l
127.67317 79.112015 l
129.28021 71.984176 l
130.88725 66.14238 l
131.69077 63.38208 l
132.49429 59.94405 l
133.29781 55.291966 l
134.10133 51.957935 l
134.90485 50.282733 l
135.70837 47.745245 l
136.51189 77.191283 l
137.31541 73.037283 l
138.11893 69.914352 l
138.92245 69.75261 l
139.72597 67.325592 l
140.52949 62.811428 l
141.33301 61.00213 l
143.74357 50.172287 l
144.54709 79.149072 l
145.35061 75.449306 l
146.15413 73.465688 l
146.95765 69.356785 l
147.76117 67.186681 l
149.36821 59.334859 l
150.97525 51.895315 l
151.77877 79.339305 l
154.18933 68.423021 l
155.79637 60.614983 l
157.40341 51.814772 l
158.20693 78.23703 l
160.61749 66.828274 l
163.02805 52.139508 l
163.83157 78.029421 l
164.63509 74.259244 l
166.24213 64.69559 l
167.84917 53.801985 l
168.65269 79.019825 l
170.25973 69.250731 l
171.86677 57.564988 l
172.67029 50.912753 l
173.47381 75.941026 l
174.27733 70.545924 l
175.88437 57.478852 l
176.68789 49.928577 l
177.49141 74.517271 l
179.09845 60.606451 l
179.90197 52.372152 l
180.70549 75.671781 l
181.50901 68.340949 l
183.11605 50.462029 l
183.91957 73.179784 l
184.72309 64.364061 l
185.52661 54.124968 l
186.33013 75.002507 l
187.13365 65.345818 l
187.93717 53.847551 l
188.74069 73.582756 l
189.54421 62.132331 l
190.34773 79.187678 l
191.15125 67.399587 l
191.95477 52.767607 l
192.75829 69.610506 l
193.56181 53.31359 l
194.36533 68.120743 l
195.16885 79.470723 l
195.97237 61.586939 l
196.77589 71.18587 l
197.57941 78.08304 l
198.38293 53.049702 l
199.18645 55.785945 l
199.98997 54.355386 l
200.79349 78.412656 l
201.59701 66.986663 l
202.40053 74.913544 l
203.20405 69.434738 l
204.00757 67.58278 l
204.81109 66.373032 l
206.41813 92.490351 l
207.22165 95.618731 l
208.02517 73.840968 l
208.82869 93.524415 l
209.63221 89.827027 l
210.43573 107.001847 l
211.23925 114.041807 l
212.04277 82.368367 l
212.84629 81.969494 l
213.64981 108.722909 l
214.45333 108.32612 l
215.25685 93.621098 l
216.06037 115.455768 l
216.86389 102.30189 l
217.66741 93.684083 l
218.47093 106.273562 l
219.27445 95.552067 l
220.07797 105.703384 l
220.88149 86.158267 l
221.68501 107.937508 l
222.48853 113.249491 l
223.29205 100.63041 l
224.09557 105.23413 l
224.89909 116.369542 l
224.89909 116.369542 l
stroke
grestore
1.250 setlinewidth
0 setlinejoin
2 setlinecap
[] 0 setdash
0.150 setgray
gsave
57.23125 38.121875 m
57.23125 146.841875 l
stroke
grestore
gsave
224.63125 38.121875 m
224.63125 146.841875 l
stroke
grestore
gsave
57.23125 38.121875 m
224.63125 38.121875 l
stroke
grestore
gsave
57.23125 146.841875 m
224.63125 146.841875 l
stroke
grestore

end
showpage
