%!PS-Adobe-3.0 EPSF-3.0
%%Title: ../Figures/LiftComparison/LiftRegression-1_5.eps
%%Creator: matplotlib version 2.1.2, http://matplotlib.org/
%%CreationDate: Tue Jun 12 15:37:25 2018
%%Orientation: portrait
%%BoundingBox: 223 315 388 476
%%EndComments
%%BeginProlog
/mpldict 8 dict def
mpldict begin
/m { moveto } bind def
/l { lineto } bind def
/r { rlineto } bind def
/c { curveto } bind def
/cl { closepath } bind def
/box {
m
1 index 0 r
0 exch r
neg 0 r
cl
} bind def
/clipbox {
box
clip
newpath
} bind def
%!PS-Adobe-3.0 Resource-Font
%%Title: DejaVu Sans
%%Copyright: Copyright (c) 2003 by Bitstream, Inc. All Rights Reserved. Copyright (c) 2006 by Tavmjong Bah. All Rights Reserved. DejaVu changes are in public domain 
%%Creator: Converted from TrueType to type 3 by PPR
25 dict begin
/_d{bind def}bind def
/_m{moveto}_d
/_l{lineto}_d
/_cl{closepath eofill}_d
/_c{curveto}_d
/_sc{7 -1 roll{setcachedevice}{pop pop pop pop pop pop}ifelse}_d
/_e{exec}_d
/FontName /DejaVuSans def
/PaintType 0 def
/FontMatrix[.001 0 0 .001 0 0]def
/FontBBox[-1021 -463 1793 1232]def
/FontType 3 def
/Encoding [ /zero /one /two /minus ] def
/FontInfo 10 dict dup begin
/FamilyName (DejaVu Sans) def
/FullName (DejaVu Sans) def
/Notice (Copyright (c) 2003 by Bitstream, Inc. All Rights Reserved. Copyright (c) 2006 by Tavmjong Bah. All Rights Reserved. DejaVu changes are in public domain ) def
/Weight (Book) def
/Version (Version 2.35) def
/ItalicAngle 0.0 def
/isFixedPitch false def
/UnderlinePosition -130 def
/UnderlineThickness 90 def
end readonly def
/CharStrings 5 dict dup begin
/.notdef 0 def
/zero{636 0 66 -13 570 742 _sc
318 664 _m
267 664 229 639 203 589 _c
177 539 165 464 165 364 _c
165 264 177 189 203 139 _c
229 89 267 64 318 64 _c
369 64 407 89 433 139 _c
458 189 471 264 471 364 _c
471 464 458 539 433 589 _c
407 639 369 664 318 664 _c
318 742 _m
399 742 461 709 505 645 _c
548 580 570 486 570 364 _c
570 241 548 147 505 83 _c
461 19 399 -13 318 -13 _c
236 -13 173 19 130 83 _c
87 147 66 241 66 364 _c
66 486 87 580 130 645 _c
173 709 236 742 318 742 _c
_cl}_d
/one{636 0 110 0 544 729 _sc
124 83 _m
285 83 _l
285 639 _l
110 604 _l
110 694 _l
284 729 _l
383 729 _l
383 83 _l
544 83 _l
544 0 _l
124 0 _l
124 83 _l
_cl}_d
/two{{636 0 73 0 536 742 _sc
192 83 _m
536 83 _l
536 0 _l
73 0 _l
73 83 _l
110 121 161 173 226 239 _c
290 304 331 346 348 365 _c
380 400 402 430 414 455 _c
426 479 433 504 433 528 _c
433 566 419 598 392 622 _c
365 646 330 659 286 659 _c
255 659 222 653 188 643 _c
154 632 117 616 78 594 _c
78 694 _l
118 710 155 722 189 730 _c
223 738 255 742 284 742 _c
}_e{359 742 419 723 464 685 _c
509 647 532 597 532 534 _c
532 504 526 475 515 449 _c
504 422 484 390 454 354 _c
446 344 420 317 376 272 _c
332 227 271 164 192 83 _c
_cl}_e}_d
/minus{838 0 106 272 732 355 _sc
106 355 _m
732 355 _l
732 272 _l
106 272 _l
106 355 _l
_cl}_d
end readonly def

/BuildGlyph
 {exch begin
 CharStrings exch
 2 copy known not{pop /.notdef}if
 true 3 1 roll get exec
 end}_d

/BuildChar {
 1 index /Encoding get exch get
 1 index /BuildGlyph get exec
}_d

FontName currentdict end definefont pop
end
%%EndProlog
mpldict begin
223.772 315.795 translate
164.457 160.41 0 0 clipbox
gsave
0 0 m
164.456875 0 l
164.456875 160.41 l
0 160.41 l
cl
grestore
gsave
28.496875 24.45 m
151.256875 24.45 l
151.256875 147.21 l
28.496875 147.21 l
cl
grestore
0.800 setlinewidth
1 setlinejoin
0 setlinecap
[] 0 setdash
0.150 setgray
gsave
/o {
gsave
newpath
translate
0.8 setlinewidth
1 setlinejoin
0 setlinecap
0 0 m
0 -6 l

gsave
0.150 setgray
fill
grestore
stroke
grestore
} bind def
28.4969 24.45 o
grestore
/DejaVuSans findfont
8.000 scalefont
setfont
gsave
22.598438 8.871875 translate
0.000000 rotate
0.000000 0.000000 m /minus glyphshow
6.703125 0.000000 m /two glyphshow
grestore
gsave
/o {
gsave
newpath
translate
0.8 setlinewidth
1 setlinejoin
0 setlinecap
0 0 m
0 -6 l

gsave
0.150 setgray
fill
grestore
stroke
grestore
} bind def
59.1869 24.45 o
grestore
gsave
53.288438 8.871875 translate
0.000000 rotate
0.000000 0.000000 m /minus glyphshow
6.703125 0.000000 m /one glyphshow
grestore
gsave
/o {
gsave
newpath
translate
0.8 setlinewidth
1 setlinejoin
0 setlinecap
0 0 m
0 -6 l

gsave
0.150 setgray
fill
grestore
stroke
grestore
} bind def
89.8769 24.45 o
grestore
gsave
87.330000 8.871875 translate
0.000000 rotate
0.000000 0.000000 m /zero glyphshow
grestore
gsave
/o {
gsave
newpath
translate
0.8 setlinewidth
1 setlinejoin
0 setlinecap
0 0 m
0 -6 l

gsave
0.150 setgray
fill
grestore
stroke
grestore
} bind def
120.567 24.45 o
grestore
gsave
118.020000 8.871875 translate
0.000000 rotate
0.000000 0.000000 m /one glyphshow
grestore
gsave
/o {
gsave
newpath
translate
0.8 setlinewidth
1 setlinejoin
0 setlinecap
0 0 m
0 -6 l

gsave
0.150 setgray
fill
grestore
stroke
grestore
} bind def
151.257 24.45 o
grestore
gsave
148.710000 8.871875 translate
0.000000 rotate
0.000000 0.000000 m /two glyphshow
grestore
gsave
/o {
gsave
newpath
translate
0.8 setlinewidth
1 setlinejoin
0 setlinecap
0 0 m
-6 0 l

gsave
0.150 setgray
fill
grestore
stroke
grestore
} bind def
28.4969 24.45 o
grestore
gsave
7.200000 21.410938 translate
0.000000 rotate
0.000000 0.000000 m /minus glyphshow
6.703125 0.000000 m /two glyphshow
grestore
gsave
/o {
gsave
newpath
translate
0.8 setlinewidth
1 setlinejoin
0 setlinecap
0 0 m
-6 0 l

gsave
0.150 setgray
fill
grestore
stroke
grestore
} bind def
28.4969 55.14 o
grestore
gsave
7.200000 52.100938 translate
0.000000 rotate
0.000000 0.000000 m /minus glyphshow
6.703125 0.000000 m /one glyphshow
grestore
gsave
/o {
gsave
newpath
translate
0.8 setlinewidth
1 setlinejoin
0 setlinecap
0 0 m
-6 0 l

gsave
0.150 setgray
fill
grestore
stroke
grestore
} bind def
28.4969 85.83 o
grestore
gsave
13.903125 82.790938 translate
0.000000 rotate
0.000000 0.000000 m /zero glyphshow
grestore
gsave
/o {
gsave
newpath
translate
0.8 setlinewidth
1 setlinejoin
0 setlinecap
0 0 m
-6 0 l

gsave
0.150 setgray
fill
grestore
stroke
grestore
} bind def
28.4969 116.52 o
grestore
gsave
13.903125 113.480938 translate
0.000000 rotate
0.000000 0.000000 m /one glyphshow
grestore
gsave
/o {
gsave
newpath
translate
0.8 setlinewidth
1 setlinejoin
0 setlinecap
0 0 m
-6 0 l

gsave
0.150 setgray
fill
grestore
stroke
grestore
} bind def
28.4969 147.21 o
grestore
gsave
13.903125 144.170938 translate
0.000000 rotate
0.000000 0.000000 m /two glyphshow
grestore
0.400 setlinewidth
1 setlinecap
0.650 setgray
gsave
122.8 122.8 28.5 24.45 clipbox
28.496875 85.83 m
151.256875 85.83 l
stroke
grestore
gsave
122.8 122.8 28.5 24.45 clipbox
89.876875 24.45 m
89.876875 147.21 l
stroke
grestore
gsave
122.8 122.8 28.5 24.45 clipbox
28.496875 85.83 m
151.256875 85.83 l
stroke
grestore
gsave
122.8 122.8 28.5 24.45 clipbox
89.876875 24.45 m
89.876875 147.21 l
stroke
grestore
gsave
122.8 122.8 28.5 24.45 clipbox
28.496875 85.83 m
151.256875 85.83 l
stroke
grestore
gsave
122.8 122.8 28.5 24.45 clipbox
89.876875 24.45 m
89.876875 147.21 l
stroke
grestore
gsave
122.8 122.8 28.5 24.45 clipbox
28.496875 85.83 m
151.256875 85.83 l
stroke
grestore
gsave
122.8 122.8 28.5 24.45 clipbox
89.876875 24.45 m
89.876875 147.21 l
stroke
grestore
1.000 setlinewidth
0 setlinecap
0.000 setgray
gsave
122.8 122.8 28.5 24.45 clipbox
/o {
gsave
newpath
translate
1.0 setlinewidth
1 setlinejoin
0 setlinecap
-0 -2.738613 m
2.738613 0 l
0 2.738613 l
-2.738613 0 l
cl

gsave
1.000 setgray
fill
grestore
stroke
grestore
} bind def
88.9315 87.0991 o
89.0804 87.117 o
87.9972 86.3464 o
86.1458 85.9467 o
86.0219 85.7595 o
85.7095 85.8871 o
83.5401 85.6995 o
82.5728 85.6173 o
81.6896 85.824 o
80.9153 86.5558 o
83.628 87.0782 o
85.7826 87.1288 o
86.2193 87.8366 o
86.4204 88.2551 o
85.972 89.217 o
83.8255 90.8128 o
73.5338 92.9781 o
55.4317 93.7642 o
49.776 96.3898 o
51.8221 98.38 o
63.7485 103.302 o
165.457 97.5046 o
165.457 94.9504 o
45.413 87.5624 o
69.3183 85.8294 o
124.052 69.3867 o
165.457 69.9706 o
165.457 75.0416 o
156.721 75.2264 o
145.373 76.8444 o
118.607 79.3813 o
107.11 81.3067 o
93.885 82.5964 o
91.128 82.8796 o
92.7208 83.7748 o
95.4116 84.1006 o
100.343 84.2735 o
100.45 84.8188 o
96.1696 84.9904 o
97.3691 85.3371 o
94.7415 85.7058 o
93.7367 85.9428 o
93.6884 86.2243 o
94.492 86.5055 o
93.6969 86.6535 o
88.8878 86.7754 o
grestore
gsave
122.8 122.8 28.5 24.45 clipbox
/o {
gsave
newpath
translate
1.0 setlinewidth
1 setlinejoin
0 setlinecap
0 1.936492 m
-1.936492 -1.936492 l
1.936492 -1.936492 l
cl

gsave
1.000 setgray
fill
grestore
stroke
grestore
} bind def
62.5902 94.089 o
48.2592 101.403 o
55.591 104.505 o
55.2467 105.329 o
38.0855 104.154 o
50.8252 96.8982 o
63.4212 94.7881 o
70.2275 93.2365 o
72.9368 91.2253 o
77.453 88.6936 o
82.0529 87.7366 o
grestore
gsave
122.8 122.8 28.5 24.45 clipbox
/o {
gsave
newpath
translate
1.0 setlinewidth
1 setlinejoin
0 setlinecap
-0 -1.936492 m
1.936492 1.936492 l
-1.936492 1.936492 l
cl

gsave
1.000 setgray
fill
grestore
stroke
grestore
} bind def
131.971 63.8036 o
132.953 66.4637 o
123.575 75.4827 o
106.157 80.5355 o
73.3565 91.1005 o
57.3498 95.9079 o
47.1833 105.074 o
49.4344 107.947 o
51.0222 107.755 o
41.1575 103.367 o
48.9798 97.7501 o
65.1942 95.8373 o
68.2183 93.8103 o
70.9642 92.0616 o
77.8991 90.4597 o
79.6302 89.35 o
76.987 87.9445 o
79.1419 87.245 o
82.9993 86.7085 o
85.3861 85.7453 o
89.9078 85.0998 o
89.993 84.8956 o
88.6686 84.5869 o
88.7744 84.5747 o
89.9471 84.8422 o
grestore
gsave
122.8 122.8 28.5 24.45 clipbox
/o {
gsave
newpath
translate
1.0 setlinewidth
1 setlinejoin
0 setlinecap
0 -1.936492 m
0.513564 -1.936492 1.006162 -1.732451 1.369306 -1.369306 c
1.732451 -1.006162 1.936492 -0.513564 1.936492 0 c
1.936492 0.513564 1.732451 1.006162 1.369306 1.369306 c
1.006162 1.732451 0.513564 1.936492 0 1.936492 c
-0.513564 1.936492 -1.006162 1.732451 -1.369306 1.369306 c
-1.732451 1.006162 -1.936492 0.513564 -1.936492 0 c
-1.936492 -0.513564 -1.732451 -1.006162 -1.369306 -1.369306 c
-1.006162 -1.732451 -0.513564 -1.936492 0 -1.936492 c
cl

gsave
1.000 setgray
fill
grestore
stroke
grestore
} bind def
6.60005 100.255 o
86.8354 86.3877 o
136.782 72.4007 o
150.357 67.2124 o
144.925 73.3829 o
119.214 75.9362 o
97.5419 79.4855 o
92.7959 81.9663 o
94.8137 83.4746 o
95.9028 84.1934 o
93.8895 84.9085 o
92.0526 85.0613 o
94.5339 85.3491 o
93.8806 85.8584 o
93.3813 85.8938 o
99.3735 86.029 o
grestore
1.250 setlinewidth
0 setlinejoin
2 setlinecap
[] 0 setdash
0.150 setgray
gsave
28.496875 24.45 m
28.496875 147.21 l
stroke
grestore
gsave
151.256875 24.45 m
151.256875 147.21 l
stroke
grestore
gsave
28.496875 24.45 m
151.256875 24.45 l
stroke
grestore
gsave
28.496875 147.21 m
151.256875 147.21 l
stroke
grestore
0.800 setlinewidth
1 setlinejoin
1 setlinecap
[] 0 setdash
0.000 1.000 0.000 setrgbcolor
gsave
122.8 122.8 28.5 24.45 clipbox
28.496875 91.458887 m
151.256875 80.201113 l
stroke
grestore
0.000 0.800 1.000 setrgbcolor
gsave
122.8 122.8 28.5 24.45 clipbox
28.496875 109.43505 m
151.256875 62.22495 l
stroke
grestore
0.000 0.000 1.000 setrgbcolor
gsave
122.8 122.8 28.5 24.45 clipbox
28.496875 111.200014 m
151.256875 60.459986 l
stroke
grestore
0.000 setgray
gsave
122.8 122.8 28.5 24.45 clipbox
28.496875 100.363736 m
151.256875 71.296264 l
stroke
grestore

end
showpage
