%!PS-Adobe-3.0 EPSF-3.0
%%Title: ../Figures/LiftComparison/LiftRegression-5_0.eps
%%Creator: matplotlib version 2.1.2, http://matplotlib.org/
%%CreationDate: Tue Jun 12 15:37:26 2018
%%Orientation: portrait
%%BoundingBox: 223 315 388 476
%%EndComments
%%BeginProlog
/mpldict 8 dict def
mpldict begin
/m { moveto } bind def
/l { lineto } bind def
/r { rlineto } bind def
/c { curveto } bind def
/cl { closepath } bind def
/box {
m
1 index 0 r
0 exch r
neg 0 r
cl
} bind def
/clipbox {
box
clip
newpath
} bind def
%!PS-Adobe-3.0 Resource-Font
%%Title: DejaVu Sans
%%Copyright: Copyright (c) 2003 by Bitstream, Inc. All Rights Reserved. Copyright (c) 2006 by Tavmjong Bah. All Rights Reserved. DejaVu changes are in public domain 
%%Creator: Converted from TrueType to type 3 by PPR
25 dict begin
/_d{bind def}bind def
/_m{moveto}_d
/_l{lineto}_d
/_cl{closepath eofill}_d
/_c{curveto}_d
/_sc{7 -1 roll{setcachedevice}{pop pop pop pop pop pop}ifelse}_d
/_e{exec}_d
/FontName /DejaVuSans def
/PaintType 0 def
/FontMatrix[.001 0 0 .001 0 0]def
/FontBBox[-1021 -463 1793 1232]def
/FontType 3 def
/Encoding [ /zero /one /two /minus ] def
/FontInfo 10 dict dup begin
/FamilyName (DejaVu Sans) def
/FullName (DejaVu Sans) def
/Notice (Copyright (c) 2003 by Bitstream, Inc. All Rights Reserved. Copyright (c) 2006 by Tavmjong Bah. All Rights Reserved. DejaVu changes are in public domain ) def
/Weight (Book) def
/Version (Version 2.35) def
/ItalicAngle 0.0 def
/isFixedPitch false def
/UnderlinePosition -130 def
/UnderlineThickness 90 def
end readonly def
/CharStrings 5 dict dup begin
/.notdef 0 def
/zero{636 0 66 -13 570 742 _sc
318 664 _m
267 664 229 639 203 589 _c
177 539 165 464 165 364 _c
165 264 177 189 203 139 _c
229 89 267 64 318 64 _c
369 64 407 89 433 139 _c
458 189 471 264 471 364 _c
471 464 458 539 433 589 _c
407 639 369 664 318 664 _c
318 742 _m
399 742 461 709 505 645 _c
548 580 570 486 570 364 _c
570 241 548 147 505 83 _c
461 19 399 -13 318 -13 _c
236 -13 173 19 130 83 _c
87 147 66 241 66 364 _c
66 486 87 580 130 645 _c
173 709 236 742 318 742 _c
_cl}_d
/one{636 0 110 0 544 729 _sc
124 83 _m
285 83 _l
285 639 _l
110 604 _l
110 694 _l
284 729 _l
383 729 _l
383 83 _l
544 83 _l
544 0 _l
124 0 _l
124 83 _l
_cl}_d
/two{{636 0 73 0 536 742 _sc
192 83 _m
536 83 _l
536 0 _l
73 0 _l
73 83 _l
110 121 161 173 226 239 _c
290 304 331 346 348 365 _c
380 400 402 430 414 455 _c
426 479 433 504 433 528 _c
433 566 419 598 392 622 _c
365 646 330 659 286 659 _c
255 659 222 653 188 643 _c
154 632 117 616 78 594 _c
78 694 _l
118 710 155 722 189 730 _c
223 738 255 742 284 742 _c
}_e{359 742 419 723 464 685 _c
509 647 532 597 532 534 _c
532 504 526 475 515 449 _c
504 422 484 390 454 354 _c
446 344 420 317 376 272 _c
332 227 271 164 192 83 _c
_cl}_e}_d
/minus{838 0 106 272 732 355 _sc
106 355 _m
732 355 _l
732 272 _l
106 272 _l
106 355 _l
_cl}_d
end readonly def

/BuildGlyph
 {exch begin
 CharStrings exch
 2 copy known not{pop /.notdef}if
 true 3 1 roll get exec
 end}_d

/BuildChar {
 1 index /Encoding get exch get
 1 index /BuildGlyph get exec
}_d

FontName currentdict end definefont pop
end
%%EndProlog
mpldict begin
223.772 315.795 translate
164.457 160.41 0 0 clipbox
gsave
0 0 m
164.456875 0 l
164.456875 160.41 l
0 160.41 l
cl
grestore
gsave
28.496875 24.45 m
151.256875 24.45 l
151.256875 147.21 l
28.496875 147.21 l
cl
grestore
0.800 setlinewidth
1 setlinejoin
0 setlinecap
[] 0 setdash
0.150 setgray
gsave
/o {
gsave
newpath
translate
0.8 setlinewidth
1 setlinejoin
0 setlinecap
0 0 m
0 -6 l

gsave
0.150 setgray
fill
grestore
stroke
grestore
} bind def
28.4969 24.45 o
grestore
/DejaVuSans findfont
8.000 scalefont
setfont
gsave
22.598438 8.871875 translate
0.000000 rotate
0.000000 0.000000 m /minus glyphshow
6.703125 0.000000 m /two glyphshow
grestore
gsave
/o {
gsave
newpath
translate
0.8 setlinewidth
1 setlinejoin
0 setlinecap
0 0 m
0 -6 l

gsave
0.150 setgray
fill
grestore
stroke
grestore
} bind def
59.1869 24.45 o
grestore
gsave
53.288438 8.871875 translate
0.000000 rotate
0.000000 0.000000 m /minus glyphshow
6.703125 0.000000 m /one glyphshow
grestore
gsave
/o {
gsave
newpath
translate
0.8 setlinewidth
1 setlinejoin
0 setlinecap
0 0 m
0 -6 l

gsave
0.150 setgray
fill
grestore
stroke
grestore
} bind def
89.8769 24.45 o
grestore
gsave
87.330000 8.871875 translate
0.000000 rotate
0.000000 0.000000 m /zero glyphshow
grestore
gsave
/o {
gsave
newpath
translate
0.8 setlinewidth
1 setlinejoin
0 setlinecap
0 0 m
0 -6 l

gsave
0.150 setgray
fill
grestore
stroke
grestore
} bind def
120.567 24.45 o
grestore
gsave
118.020000 8.871875 translate
0.000000 rotate
0.000000 0.000000 m /one glyphshow
grestore
gsave
/o {
gsave
newpath
translate
0.8 setlinewidth
1 setlinejoin
0 setlinecap
0 0 m
0 -6 l

gsave
0.150 setgray
fill
grestore
stroke
grestore
} bind def
151.257 24.45 o
grestore
gsave
148.710000 8.871875 translate
0.000000 rotate
0.000000 0.000000 m /two glyphshow
grestore
gsave
/o {
gsave
newpath
translate
0.8 setlinewidth
1 setlinejoin
0 setlinecap
0 0 m
-6 0 l

gsave
0.150 setgray
fill
grestore
stroke
grestore
} bind def
28.4969 24.45 o
grestore
gsave
7.200000 21.410938 translate
0.000000 rotate
0.000000 0.000000 m /minus glyphshow
6.703125 0.000000 m /two glyphshow
grestore
gsave
/o {
gsave
newpath
translate
0.8 setlinewidth
1 setlinejoin
0 setlinecap
0 0 m
-6 0 l

gsave
0.150 setgray
fill
grestore
stroke
grestore
} bind def
28.4969 55.14 o
grestore
gsave
7.200000 52.100938 translate
0.000000 rotate
0.000000 0.000000 m /minus glyphshow
6.703125 0.000000 m /one glyphshow
grestore
gsave
/o {
gsave
newpath
translate
0.8 setlinewidth
1 setlinejoin
0 setlinecap
0 0 m
-6 0 l

gsave
0.150 setgray
fill
grestore
stroke
grestore
} bind def
28.4969 85.83 o
grestore
gsave
13.903125 82.790938 translate
0.000000 rotate
0.000000 0.000000 m /zero glyphshow
grestore
gsave
/o {
gsave
newpath
translate
0.8 setlinewidth
1 setlinejoin
0 setlinecap
0 0 m
-6 0 l

gsave
0.150 setgray
fill
grestore
stroke
grestore
} bind def
28.4969 116.52 o
grestore
gsave
13.903125 113.480938 translate
0.000000 rotate
0.000000 0.000000 m /one glyphshow
grestore
gsave
/o {
gsave
newpath
translate
0.8 setlinewidth
1 setlinejoin
0 setlinecap
0 0 m
-6 0 l

gsave
0.150 setgray
fill
grestore
stroke
grestore
} bind def
28.4969 147.21 o
grestore
gsave
13.903125 144.170938 translate
0.000000 rotate
0.000000 0.000000 m /two glyphshow
grestore
0.400 setlinewidth
1 setlinecap
0.650 setgray
gsave
122.8 122.8 28.5 24.45 clipbox
28.496875 85.83 m
151.256875 85.83 l
stroke
grestore
gsave
122.8 122.8 28.5 24.45 clipbox
89.876875 24.45 m
89.876875 147.21 l
stroke
grestore
gsave
122.8 122.8 28.5 24.45 clipbox
28.496875 85.83 m
151.256875 85.83 l
stroke
grestore
gsave
122.8 122.8 28.5 24.45 clipbox
89.876875 24.45 m
89.876875 147.21 l
stroke
grestore
gsave
122.8 122.8 28.5 24.45 clipbox
28.496875 85.83 m
151.256875 85.83 l
stroke
grestore
gsave
122.8 122.8 28.5 24.45 clipbox
89.876875 24.45 m
89.876875 147.21 l
stroke
grestore
gsave
122.8 122.8 28.5 24.45 clipbox
28.496875 85.83 m
151.256875 85.83 l
stroke
grestore
gsave
122.8 122.8 28.5 24.45 clipbox
89.876875 24.45 m
89.876875 147.21 l
stroke
grestore
gsave
122.8 122.8 28.5 24.45 clipbox
28.496875 85.83 m
151.256875 85.83 l
stroke
grestore
gsave
122.8 122.8 28.5 24.45 clipbox
89.876875 24.45 m
89.876875 147.21 l
stroke
grestore
1.000 setlinewidth
0 setlinecap
0.000 setgray
gsave
122.8 122.8 28.5 24.45 clipbox
/o {
gsave
newpath
translate
1.0 setlinewidth
1 setlinejoin
0 setlinecap
-0 -2.738613 m
2.738613 0 l
0 2.738613 l
-2.738613 0 l
cl

gsave
1.000 setgray
fill
grestore
stroke
grestore
} bind def
90.0214 86.7653 o
89.9625 86.4981 o
89.9318 87.0192 o
89.9143 87.5195 o
89.1673 87.7548 o
86.1029 88.9754 o
84.4573 91.0738 o
82.2066 93.3686 o
77.6778 97.3496 o
69.3593 100.125 o
70.2807 101 o
73.5884 101.348 o
72.5396 101.303 o
71.2562 100.6 o
70.6849 96.5914 o
76.7471 93.4569 o
79.3977 91.1562 o
82.6937 88.3924 o
85.0725 86.399 o
93.5806 84.8842 o
97.3972 82.3852 o
101.539 79.9301 o
106.358 75.7893 o
108.628 71.7802 o
111.208 70.4208 o
107.96 70.0469 o
105.699 70.3733 o
118.782 71.7506 o
118.745 72.8656 o
102.694 76.0804 o
101.519 79.0759 o
91.9519 83.7957 o
89.0786 85.0361 o
88.5788 85.5142 o
88.3512 85.418 o
grestore
gsave
122.8 122.8 28.5 24.45 clipbox
/o {
gsave
newpath
translate
1.0 setlinewidth
1 setlinejoin
0 setlinecap
0 1.936492 m
-1.936492 -1.936492 l
1.936492 -1.936492 l
cl

gsave
1.000 setgray
fill
grestore
stroke
grestore
} bind def
82.211 88.8229 o
90.1687 91.0973 o
90.1073 91.3766 o
82.7182 92.8584 o
82.2061 93.7189 o
75.8608 94.3944 o
73.5615 95.0701 o
80.3754 95.6268 o
79.5647 95.5621 o
78.3163 95.5906 o
78.1892 95.5788 o
80.6117 93.468 o
88.0811 92.0706 o
89.6232 90.356 o
83.3469 87.9145 o
grestore
gsave
122.8 122.8 28.5 24.45 clipbox
/o {
gsave
newpath
translate
1.0 setlinewidth
1 setlinejoin
0 setlinecap
-1.936492 -1.936492 m
1.936492 -1.936492 l
1.936492 1.936492 l
-1.936492 1.936492 l
cl

gsave
1.000 setgray
fill
grestore
stroke
grestore
} bind def
91.6195 85.5322 o
89.5214 85.7095 o
90.835 84.5329 o
97.5384 80.9035 o
103.572 76.712 o
104.945 74.9988 o
103.333 76.3004 o
100.449 80.3101 o
90.942 85.6738 o
79.5058 90.6289 o
74.8659 96.018 o
74.4929 96.7319 o
75.0702 95.121 o
grestore
gsave
122.8 122.8 28.5 24.45 clipbox
/o {
gsave
newpath
translate
1.0 setlinewidth
1 setlinejoin
0 setlinecap
-0 -1.936492 m
1.936492 1.936492 l
-1.936492 1.936492 l
cl

gsave
1.000 setgray
fill
grestore
stroke
grestore
} bind def
96.342 79.6554 o
94.3352 81.2957 o
94.6861 83.4776 o
93.58 84.9991 o
85.6373 87.0374 o
86.1879 88.1622 o
85.8946 90.5424 o
83.8101 91.9318 o
82.7622 93.5323 o
81.3958 94.5383 o
81.9308 95.2005 o
80.7435 96.2198 o
79.3663 96.4727 o
79.0402 96.3552 o
78.9159 95.8551 o
78.0182 95.1297 o
78.06 93.8499 o
80.4375 92.9791 o
84.4158 91.5551 o
89.0914 89.9596 o
95.9232 88.311 o
grestore
gsave
122.8 122.8 28.5 24.45 clipbox
/o {
gsave
newpath
translate
1.0 setlinewidth
1 setlinejoin
0 setlinecap
0 -1.936492 m
0.513564 -1.936492 1.006162 -1.732451 1.369306 -1.369306 c
1.732451 -1.006162 1.936492 -0.513564 1.936492 0 c
1.936492 0.513564 1.732451 1.006162 1.369306 1.369306 c
1.006162 1.732451 0.513564 1.936492 0 1.936492 c
-0.513564 1.936492 -1.006162 1.732451 -1.369306 1.369306 c
-1.732451 1.006162 -1.936492 0.513564 -1.936492 0 c
-1.936492 -0.513564 -1.732451 -1.006162 -1.369306 -1.369306 c
-1.006162 -1.732451 -0.513564 -1.936492 0 -1.936492 c
cl

gsave
1.000 setgray
fill
grestore
stroke
grestore
} bind def
78.2812 90.3708 o
89.8808 85.5128 o
96.7852 81.3405 o
99.042 77.0499 o
102.87 73.7368 o
104.718 71.2672 o
103.511 70.3276 o
104.279 69.6496 o
105.397 71.5836 o
103.051 73.2341 o
99.4382 76.5428 o
94.0267 79.0327 o
90.3844 81.2725 o
93.2202 82.8132 o
90.9064 83.4909 o
81.5524 83.9633 o
grestore
1.250 setlinewidth
0 setlinejoin
2 setlinecap
[] 0 setdash
0.150 setgray
gsave
28.496875 24.45 m
28.496875 147.21 l
stroke
grestore
gsave
151.256875 24.45 m
151.256875 147.21 l
stroke
grestore
gsave
28.496875 24.45 m
151.256875 24.45 l
stroke
grestore
gsave
28.496875 147.21 m
151.256875 147.21 l
stroke
grestore
0.800 setlinewidth
1 setlinejoin
1 setlinecap
[] 0 setdash
0.000 1.000 0.000 setrgbcolor
gsave
122.8 122.8 28.5 24.45 clipbox
28.496875 127.003569 m
151.256875 44.656431 l
stroke
grestore
0.000 0.800 1.000 setrgbcolor
gsave
122.8 122.8 28.5 24.45 clipbox
28.496875 131.66551 m
151.256875 39.99449 l
stroke
grestore
1.000 0.000 0.000 setrgbcolor
gsave
122.8 122.8 28.5 24.45 clipbox
28.496875 126.049247 m
151.256875 45.610753 l
stroke
grestore
0.000 0.000 1.000 setrgbcolor
gsave
122.8 122.8 28.5 24.45 clipbox
28.496875 138.948509 m
151.256875 32.711491 l
stroke
grestore
0.000 setgray
gsave
122.8 122.8 28.5 24.45 clipbox
28.496875 140.961333 m
151.256875 30.698667 l
stroke
grestore

end
showpage
