%!PS-Adobe-3.0 EPSF-3.0
%%Title: ../Figures/LiftComparison/LiftRegression-2_5.eps
%%Creator: matplotlib version 2.1.2, http://matplotlib.org/
%%CreationDate: Tue Jun 12 15:37:28 2018
%%Orientation: portrait
%%BoundingBox: 223 315 388 476
%%EndComments
%%BeginProlog
/mpldict 8 dict def
mpldict begin
/m { moveto } bind def
/l { lineto } bind def
/r { rlineto } bind def
/c { curveto } bind def
/cl { closepath } bind def
/box {
m
1 index 0 r
0 exch r
neg 0 r
cl
} bind def
/clipbox {
box
clip
newpath
} bind def
%!PS-Adobe-3.0 Resource-Font
%%Title: DejaVu Sans
%%Copyright: Copyright (c) 2003 by Bitstream, Inc. All Rights Reserved. Copyright (c) 2006 by Tavmjong Bah. All Rights Reserved. DejaVu changes are in public domain 
%%Creator: Converted from TrueType to type 3 by PPR
25 dict begin
/_d{bind def}bind def
/_m{moveto}_d
/_l{lineto}_d
/_cl{closepath eofill}_d
/_c{curveto}_d
/_sc{7 -1 roll{setcachedevice}{pop pop pop pop pop pop}ifelse}_d
/_e{exec}_d
/FontName /DejaVuSans def
/PaintType 0 def
/FontMatrix[.001 0 0 .001 0 0]def
/FontBBox[-1021 -463 1793 1232]def
/FontType 3 def
/Encoding [ /zero /one /two /minus ] def
/FontInfo 10 dict dup begin
/FamilyName (DejaVu Sans) def
/FullName (DejaVu Sans) def
/Notice (Copyright (c) 2003 by Bitstream, Inc. All Rights Reserved. Copyright (c) 2006 by Tavmjong Bah. All Rights Reserved. DejaVu changes are in public domain ) def
/Weight (Book) def
/Version (Version 2.35) def
/ItalicAngle 0.0 def
/isFixedPitch false def
/UnderlinePosition -130 def
/UnderlineThickness 90 def
end readonly def
/CharStrings 5 dict dup begin
/.notdef 0 def
/zero{636 0 66 -13 570 742 _sc
318 664 _m
267 664 229 639 203 589 _c
177 539 165 464 165 364 _c
165 264 177 189 203 139 _c
229 89 267 64 318 64 _c
369 64 407 89 433 139 _c
458 189 471 264 471 364 _c
471 464 458 539 433 589 _c
407 639 369 664 318 664 _c
318 742 _m
399 742 461 709 505 645 _c
548 580 570 486 570 364 _c
570 241 548 147 505 83 _c
461 19 399 -13 318 -13 _c
236 -13 173 19 130 83 _c
87 147 66 241 66 364 _c
66 486 87 580 130 645 _c
173 709 236 742 318 742 _c
_cl}_d
/one{636 0 110 0 544 729 _sc
124 83 _m
285 83 _l
285 639 _l
110 604 _l
110 694 _l
284 729 _l
383 729 _l
383 83 _l
544 83 _l
544 0 _l
124 0 _l
124 83 _l
_cl}_d
/two{{636 0 73 0 536 742 _sc
192 83 _m
536 83 _l
536 0 _l
73 0 _l
73 83 _l
110 121 161 173 226 239 _c
290 304 331 346 348 365 _c
380 400 402 430 414 455 _c
426 479 433 504 433 528 _c
433 566 419 598 392 622 _c
365 646 330 659 286 659 _c
255 659 222 653 188 643 _c
154 632 117 616 78 594 _c
78 694 _l
118 710 155 722 189 730 _c
223 738 255 742 284 742 _c
}_e{359 742 419 723 464 685 _c
509 647 532 597 532 534 _c
532 504 526 475 515 449 _c
504 422 484 390 454 354 _c
446 344 420 317 376 272 _c
332 227 271 164 192 83 _c
_cl}_e}_d
/minus{838 0 106 272 732 355 _sc
106 355 _m
732 355 _l
732 272 _l
106 272 _l
106 355 _l
_cl}_d
end readonly def

/BuildGlyph
 {exch begin
 CharStrings exch
 2 copy known not{pop /.notdef}if
 true 3 1 roll get exec
 end}_d

/BuildChar {
 1 index /Encoding get exch get
 1 index /BuildGlyph get exec
}_d

FontName currentdict end definefont pop
end
%%EndProlog
mpldict begin
223.772 315.795 translate
164.457 160.41 0 0 clipbox
gsave
0 0 m
164.456875 0 l
164.456875 160.41 l
0 160.41 l
cl
grestore
gsave
28.496875 24.45 m
151.256875 24.45 l
151.256875 147.21 l
28.496875 147.21 l
cl
grestore
0.800 setlinewidth
1 setlinejoin
0 setlinecap
[] 0 setdash
0.150 setgray
gsave
/o {
gsave
newpath
translate
0.8 setlinewidth
1 setlinejoin
0 setlinecap
0 0 m
0 -6 l

gsave
0.150 setgray
fill
grestore
stroke
grestore
} bind def
28.4969 24.45 o
grestore
/DejaVuSans findfont
8.000 scalefont
setfont
gsave
22.598438 8.871875 translate
0.000000 rotate
0.000000 0.000000 m /minus glyphshow
6.703125 0.000000 m /two glyphshow
grestore
gsave
/o {
gsave
newpath
translate
0.8 setlinewidth
1 setlinejoin
0 setlinecap
0 0 m
0 -6 l

gsave
0.150 setgray
fill
grestore
stroke
grestore
} bind def
59.1869 24.45 o
grestore
gsave
53.288438 8.871875 translate
0.000000 rotate
0.000000 0.000000 m /minus glyphshow
6.703125 0.000000 m /one glyphshow
grestore
gsave
/o {
gsave
newpath
translate
0.8 setlinewidth
1 setlinejoin
0 setlinecap
0 0 m
0 -6 l

gsave
0.150 setgray
fill
grestore
stroke
grestore
} bind def
89.8769 24.45 o
grestore
gsave
87.330000 8.871875 translate
0.000000 rotate
0.000000 0.000000 m /zero glyphshow
grestore
gsave
/o {
gsave
newpath
translate
0.8 setlinewidth
1 setlinejoin
0 setlinecap
0 0 m
0 -6 l

gsave
0.150 setgray
fill
grestore
stroke
grestore
} bind def
120.567 24.45 o
grestore
gsave
118.020000 8.871875 translate
0.000000 rotate
0.000000 0.000000 m /one glyphshow
grestore
gsave
/o {
gsave
newpath
translate
0.8 setlinewidth
1 setlinejoin
0 setlinecap
0 0 m
0 -6 l

gsave
0.150 setgray
fill
grestore
stroke
grestore
} bind def
151.257 24.45 o
grestore
gsave
148.710000 8.871875 translate
0.000000 rotate
0.000000 0.000000 m /two glyphshow
grestore
gsave
/o {
gsave
newpath
translate
0.8 setlinewidth
1 setlinejoin
0 setlinecap
0 0 m
-6 0 l

gsave
0.150 setgray
fill
grestore
stroke
grestore
} bind def
28.4969 24.45 o
grestore
gsave
7.200000 21.410938 translate
0.000000 rotate
0.000000 0.000000 m /minus glyphshow
6.703125 0.000000 m /two glyphshow
grestore
gsave
/o {
gsave
newpath
translate
0.8 setlinewidth
1 setlinejoin
0 setlinecap
0 0 m
-6 0 l

gsave
0.150 setgray
fill
grestore
stroke
grestore
} bind def
28.4969 55.14 o
grestore
gsave
7.200000 52.100938 translate
0.000000 rotate
0.000000 0.000000 m /minus glyphshow
6.703125 0.000000 m /one glyphshow
grestore
gsave
/o {
gsave
newpath
translate
0.8 setlinewidth
1 setlinejoin
0 setlinecap
0 0 m
-6 0 l

gsave
0.150 setgray
fill
grestore
stroke
grestore
} bind def
28.4969 85.83 o
grestore
gsave
13.903125 82.790938 translate
0.000000 rotate
0.000000 0.000000 m /zero glyphshow
grestore
gsave
/o {
gsave
newpath
translate
0.8 setlinewidth
1 setlinejoin
0 setlinecap
0 0 m
-6 0 l

gsave
0.150 setgray
fill
grestore
stroke
grestore
} bind def
28.4969 116.52 o
grestore
gsave
13.903125 113.480938 translate
0.000000 rotate
0.000000 0.000000 m /one glyphshow
grestore
gsave
/o {
gsave
newpath
translate
0.8 setlinewidth
1 setlinejoin
0 setlinecap
0 0 m
-6 0 l

gsave
0.150 setgray
fill
grestore
stroke
grestore
} bind def
28.4969 147.21 o
grestore
gsave
13.903125 144.170938 translate
0.000000 rotate
0.000000 0.000000 m /two glyphshow
grestore
0.400 setlinewidth
1 setlinecap
0.650 setgray
gsave
122.8 122.8 28.5 24.45 clipbox
28.496875 85.83 m
151.256875 85.83 l
stroke
grestore
gsave
122.8 122.8 28.5 24.45 clipbox
89.876875 24.45 m
89.876875 147.21 l
stroke
grestore
gsave
122.8 122.8 28.5 24.45 clipbox
28.496875 85.83 m
151.256875 85.83 l
stroke
grestore
gsave
122.8 122.8 28.5 24.45 clipbox
89.876875 24.45 m
89.876875 147.21 l
stroke
grestore
gsave
122.8 122.8 28.5 24.45 clipbox
28.496875 85.83 m
151.256875 85.83 l
stroke
grestore
gsave
122.8 122.8 28.5 24.45 clipbox
89.876875 24.45 m
89.876875 147.21 l
stroke
grestore
1.000 setlinewidth
0 setlinecap
0.000 setgray
gsave
122.8 122.8 28.5 24.45 clipbox
/o {
gsave
newpath
translate
1.0 setlinewidth
1 setlinejoin
0 setlinecap
0 1.936492 m
-1.936492 -1.936492 l
1.936492 -1.936492 l
cl

gsave
1.000 setgray
fill
grestore
stroke
grestore
} bind def
63.9439 93.1433 o
58.6571 98.1504 o
59.7436 99.7276 o
60.3552 102.126 o
66.2481 102.882 o
73.452 103.664 o
73.843 101.137 o
80.3299 95.9878 o
82.7388 92.521 o
83.0205 90.3252 o
85.1391 87.7721 o
86.3627 86.4239 o
grestore
gsave
122.8 122.8 28.5 24.45 clipbox
/o {
gsave
newpath
translate
1.0 setlinewidth
1 setlinejoin
0 setlinecap
-0 -1.936492 m
1.936492 1.936492 l
-1.936492 1.936492 l
cl

gsave
1.000 setgray
fill
grestore
stroke
grestore
} bind def
105.913 67.1769 o
124.081 68.6891 o
123.819 72.0673 o
113.634 76.6375 o
101.693 82.3466 o
75.2399 88.8512 o
64.0976 94.9312 o
59.6249 99.7793 o
57.8154 103.078 o
61.3531 104.457 o
66.562 104.604 o
69.2424 101.943 o
73.0916 99.8789 o
80.5045 96.3853 o
83.2483 91.9648 o
82.9415 89.8352 o
84.209 88.4875 o
85.7657 86.8743 o
87.631 86.1354 o
grestore
gsave
122.8 122.8 28.5 24.45 clipbox
/o {
gsave
newpath
translate
1.0 setlinewidth
1 setlinejoin
0 setlinecap
0 -1.936492 m
0.513564 -1.936492 1.006162 -1.732451 1.369306 -1.369306 c
1.732451 -1.006162 1.936492 -0.513564 1.936492 0 c
1.936492 0.513564 1.732451 1.006162 1.369306 1.369306 c
1.006162 1.732451 0.513564 1.936492 0 1.936492 c
-0.513564 1.936492 -1.006162 1.732451 -1.369306 1.369306 c
-1.732451 1.006162 -1.936492 0.513564 -1.936492 0 c
-1.936492 -0.513564 -1.732451 -1.006162 -1.369306 -1.369306 c
-1.006162 -1.732451 -0.513564 -1.936492 0 -1.936492 c
cl

gsave
1.000 setgray
fill
grestore
stroke
grestore
} bind def
97.911 98.6735 o
89.4623 87.1014 o
89.3278 76.1054 o
119.001 58.2338 o
132.458 64.19 o
118.953 63.3228 o
111.294 66.4498 o
105.176 70.2271 o
101.748 74.3628 o
97.9182 77.6183 o
96.8434 79.992 o
96.6081 81.7406 o
93.9971 82.856 o
90.812 83.5346 o
93.9993 84.3387 o
100.317 84.7715 o
grestore
1.250 setlinewidth
0 setlinejoin
2 setlinecap
[] 0 setdash
0.150 setgray
gsave
28.496875 24.45 m
28.496875 147.21 l
stroke
grestore
gsave
151.256875 24.45 m
151.256875 147.21 l
stroke
grestore
gsave
28.496875 24.45 m
151.256875 24.45 l
stroke
grestore
gsave
28.496875 147.21 m
151.256875 147.21 l
stroke
grestore
0.800 setlinewidth
1 setlinejoin
1 setlinecap
[] 0 setdash
0.000 0.800 1.000 setrgbcolor
gsave
122.8 122.8 28.5 24.45 clipbox
28.496875 119.557505 m
151.256875 52.102495 l
stroke
grestore
0.000 0.000 1.000 setrgbcolor
gsave
122.8 122.8 28.5 24.45 clipbox
28.496875 119.359433 m
151.256875 52.300567 l
stroke
grestore
0.000 setgray
gsave
122.8 122.8 28.5 24.45 clipbox
28.496875 127.907254 m
151.256875 43.752746 l
stroke
grestore

end
showpage
