%!PS-Adobe-3.0 EPSF-3.0
%%Title: ../Figures/LiftComparison/LiftRegression-3_0.eps
%%Creator: matplotlib version 2.1.2, http://matplotlib.org/
%%CreationDate: Tue Jun 12 15:37:26 2018
%%Orientation: portrait
%%BoundingBox: 223 315 388 476
%%EndComments
%%BeginProlog
/mpldict 8 dict def
mpldict begin
/m { moveto } bind def
/l { lineto } bind def
/r { rlineto } bind def
/c { curveto } bind def
/cl { closepath } bind def
/box {
m
1 index 0 r
0 exch r
neg 0 r
cl
} bind def
/clipbox {
box
clip
newpath
} bind def
%!PS-Adobe-3.0 Resource-Font
%%Title: DejaVu Sans
%%Copyright: Copyright (c) 2003 by Bitstream, Inc. All Rights Reserved. Copyright (c) 2006 by Tavmjong Bah. All Rights Reserved. DejaVu changes are in public domain 
%%Creator: Converted from TrueType to type 3 by PPR
25 dict begin
/_d{bind def}bind def
/_m{moveto}_d
/_l{lineto}_d
/_cl{closepath eofill}_d
/_c{curveto}_d
/_sc{7 -1 roll{setcachedevice}{pop pop pop pop pop pop}ifelse}_d
/_e{exec}_d
/FontName /DejaVuSans def
/PaintType 0 def
/FontMatrix[.001 0 0 .001 0 0]def
/FontBBox[-1021 -463 1793 1232]def
/FontType 3 def
/Encoding [ /zero /one /two /minus ] def
/FontInfo 10 dict dup begin
/FamilyName (DejaVu Sans) def
/FullName (DejaVu Sans) def
/Notice (Copyright (c) 2003 by Bitstream, Inc. All Rights Reserved. Copyright (c) 2006 by Tavmjong Bah. All Rights Reserved. DejaVu changes are in public domain ) def
/Weight (Book) def
/Version (Version 2.35) def
/ItalicAngle 0.0 def
/isFixedPitch false def
/UnderlinePosition -130 def
/UnderlineThickness 90 def
end readonly def
/CharStrings 5 dict dup begin
/.notdef 0 def
/zero{636 0 66 -13 570 742 _sc
318 664 _m
267 664 229 639 203 589 _c
177 539 165 464 165 364 _c
165 264 177 189 203 139 _c
229 89 267 64 318 64 _c
369 64 407 89 433 139 _c
458 189 471 264 471 364 _c
471 464 458 539 433 589 _c
407 639 369 664 318 664 _c
318 742 _m
399 742 461 709 505 645 _c
548 580 570 486 570 364 _c
570 241 548 147 505 83 _c
461 19 399 -13 318 -13 _c
236 -13 173 19 130 83 _c
87 147 66 241 66 364 _c
66 486 87 580 130 645 _c
173 709 236 742 318 742 _c
_cl}_d
/one{636 0 110 0 544 729 _sc
124 83 _m
285 83 _l
285 639 _l
110 604 _l
110 694 _l
284 729 _l
383 729 _l
383 83 _l
544 83 _l
544 0 _l
124 0 _l
124 83 _l
_cl}_d
/two{{636 0 73 0 536 742 _sc
192 83 _m
536 83 _l
536 0 _l
73 0 _l
73 83 _l
110 121 161 173 226 239 _c
290 304 331 346 348 365 _c
380 400 402 430 414 455 _c
426 479 433 504 433 528 _c
433 566 419 598 392 622 _c
365 646 330 659 286 659 _c
255 659 222 653 188 643 _c
154 632 117 616 78 594 _c
78 694 _l
118 710 155 722 189 730 _c
223 738 255 742 284 742 _c
}_e{359 742 419 723 464 685 _c
509 647 532 597 532 534 _c
532 504 526 475 515 449 _c
504 422 484 390 454 354 _c
446 344 420 317 376 272 _c
332 227 271 164 192 83 _c
_cl}_e}_d
/minus{838 0 106 272 732 355 _sc
106 355 _m
732 355 _l
732 272 _l
106 272 _l
106 355 _l
_cl}_d
end readonly def

/BuildGlyph
 {exch begin
 CharStrings exch
 2 copy known not{pop /.notdef}if
 true 3 1 roll get exec
 end}_d

/BuildChar {
 1 index /Encoding get exch get
 1 index /BuildGlyph get exec
}_d

FontName currentdict end definefont pop
end
%%EndProlog
mpldict begin
223.772 315.795 translate
164.457 160.41 0 0 clipbox
gsave
0 0 m
164.456875 0 l
164.456875 160.41 l
0 160.41 l
cl
grestore
gsave
28.496875 24.45 m
151.256875 24.45 l
151.256875 147.21 l
28.496875 147.21 l
cl
grestore
0.800 setlinewidth
1 setlinejoin
0 setlinecap
[] 0 setdash
0.150 setgray
gsave
/o {
gsave
newpath
translate
0.8 setlinewidth
1 setlinejoin
0 setlinecap
0 0 m
0 -6 l

gsave
0.150 setgray
fill
grestore
stroke
grestore
} bind def
28.4969 24.45 o
grestore
/DejaVuSans findfont
8.000 scalefont
setfont
gsave
22.598438 8.871875 translate
0.000000 rotate
0.000000 0.000000 m /minus glyphshow
6.703125 0.000000 m /two glyphshow
grestore
gsave
/o {
gsave
newpath
translate
0.8 setlinewidth
1 setlinejoin
0 setlinecap
0 0 m
0 -6 l

gsave
0.150 setgray
fill
grestore
stroke
grestore
} bind def
59.1869 24.45 o
grestore
gsave
53.288438 8.871875 translate
0.000000 rotate
0.000000 0.000000 m /minus glyphshow
6.703125 0.000000 m /one glyphshow
grestore
gsave
/o {
gsave
newpath
translate
0.8 setlinewidth
1 setlinejoin
0 setlinecap
0 0 m
0 -6 l

gsave
0.150 setgray
fill
grestore
stroke
grestore
} bind def
89.8769 24.45 o
grestore
gsave
87.330000 8.871875 translate
0.000000 rotate
0.000000 0.000000 m /zero glyphshow
grestore
gsave
/o {
gsave
newpath
translate
0.8 setlinewidth
1 setlinejoin
0 setlinecap
0 0 m
0 -6 l

gsave
0.150 setgray
fill
grestore
stroke
grestore
} bind def
120.567 24.45 o
grestore
gsave
118.020000 8.871875 translate
0.000000 rotate
0.000000 0.000000 m /one glyphshow
grestore
gsave
/o {
gsave
newpath
translate
0.8 setlinewidth
1 setlinejoin
0 setlinecap
0 0 m
0 -6 l

gsave
0.150 setgray
fill
grestore
stroke
grestore
} bind def
151.257 24.45 o
grestore
gsave
148.710000 8.871875 translate
0.000000 rotate
0.000000 0.000000 m /two glyphshow
grestore
gsave
/o {
gsave
newpath
translate
0.8 setlinewidth
1 setlinejoin
0 setlinecap
0 0 m
-6 0 l

gsave
0.150 setgray
fill
grestore
stroke
grestore
} bind def
28.4969 24.45 o
grestore
gsave
7.200000 21.410938 translate
0.000000 rotate
0.000000 0.000000 m /minus glyphshow
6.703125 0.000000 m /two glyphshow
grestore
gsave
/o {
gsave
newpath
translate
0.8 setlinewidth
1 setlinejoin
0 setlinecap
0 0 m
-6 0 l

gsave
0.150 setgray
fill
grestore
stroke
grestore
} bind def
28.4969 55.14 o
grestore
gsave
7.200000 52.100938 translate
0.000000 rotate
0.000000 0.000000 m /minus glyphshow
6.703125 0.000000 m /one glyphshow
grestore
gsave
/o {
gsave
newpath
translate
0.8 setlinewidth
1 setlinejoin
0 setlinecap
0 0 m
-6 0 l

gsave
0.150 setgray
fill
grestore
stroke
grestore
} bind def
28.4969 85.83 o
grestore
gsave
13.903125 82.790938 translate
0.000000 rotate
0.000000 0.000000 m /zero glyphshow
grestore
gsave
/o {
gsave
newpath
translate
0.8 setlinewidth
1 setlinejoin
0 setlinecap
0 0 m
-6 0 l

gsave
0.150 setgray
fill
grestore
stroke
grestore
} bind def
28.4969 116.52 o
grestore
gsave
13.903125 113.480938 translate
0.000000 rotate
0.000000 0.000000 m /one glyphshow
grestore
gsave
/o {
gsave
newpath
translate
0.8 setlinewidth
1 setlinejoin
0 setlinecap
0 0 m
-6 0 l

gsave
0.150 setgray
fill
grestore
stroke
grestore
} bind def
28.4969 147.21 o
grestore
gsave
13.903125 144.170938 translate
0.000000 rotate
0.000000 0.000000 m /two glyphshow
grestore
0.400 setlinewidth
1 setlinecap
0.650 setgray
gsave
122.8 122.8 28.5 24.45 clipbox
28.496875 85.83 m
151.256875 85.83 l
stroke
grestore
gsave
122.8 122.8 28.5 24.45 clipbox
89.876875 24.45 m
89.876875 147.21 l
stroke
grestore
gsave
122.8 122.8 28.5 24.45 clipbox
28.496875 85.83 m
151.256875 85.83 l
stroke
grestore
gsave
122.8 122.8 28.5 24.45 clipbox
89.876875 24.45 m
89.876875 147.21 l
stroke
grestore
gsave
122.8 122.8 28.5 24.45 clipbox
28.496875 85.83 m
151.256875 85.83 l
stroke
grestore
gsave
122.8 122.8 28.5 24.45 clipbox
89.876875 24.45 m
89.876875 147.21 l
stroke
grestore
gsave
122.8 122.8 28.5 24.45 clipbox
28.496875 85.83 m
151.256875 85.83 l
stroke
grestore
gsave
122.8 122.8 28.5 24.45 clipbox
89.876875 24.45 m
89.876875 147.21 l
stroke
grestore
1.000 setlinewidth
0 setlinecap
0.000 setgray
gsave
122.8 122.8 28.5 24.45 clipbox
/o {
gsave
newpath
translate
1.0 setlinewidth
1 setlinejoin
0 setlinecap
-0 -2.738613 m
2.738613 0 l
0 2.738613 l
-2.738613 0 l
cl

gsave
1.000 setgray
fill
grestore
stroke
grestore
} bind def
90.9864 85.6751 o
88.8546 85.839 o
88.2307 86.0448 o
87.5333 86.0776 o
86.3218 87.3183 o
84.2264 89.483 o
80.1346 92.6546 o
77.4639 96.9239 o
74.9389 99.3454 o
71.1461 102.162 o
70.3322 103.682 o
70.5535 104.432 o
71.5159 102.126 o
69.6294 98.7634 o
59.5235 100.855 o
41.6317 105.761 o
34.6644 113.592 o
67.9026 85.9529 o
85.9734 85.7359 o
89.0494 86.0024 o
88.2557 85.1907 o
89.9072 84.863 o
90.8611 84.3154 o
90.8253 85.2414 o
111.964 83.9467 o
149.2 58.8796 o
153.001 62.4209 o
143.016 64.3575 o
123.844 71.7045 o
112.114 71.949 o
110.276 67.2673 o
115.848 65.2246 o
113.364 64.8972 o
106.437 66.8128 o
101.932 71.3231 o
98.4764 76.2758 o
97.2864 79.4015 o
95.1126 81.5834 o
92.8172 83.7042 o
92.6189 84.3514 o
91.6886 84.955 o
89.715 85.5457 o
grestore
gsave
122.8 122.8 28.5 24.45 clipbox
/o {
gsave
newpath
translate
1.0 setlinewidth
1 setlinejoin
0 setlinecap
0 1.936492 m
-1.936492 -1.936492 l
1.936492 -1.936492 l
cl

gsave
1.000 setgray
fill
grestore
stroke
grestore
} bind def
83.159 93.9888 o
76.3215 97.9326 o
66.756 99.4901 o
69.2473 100.472 o
77.2393 100.501 o
80.8146 100.347 o
76.2459 98.1855 o
77.768 96.0771 o
83.531 91.7887 o
84.2733 88.7452 o
80.2354 86.6233 o
grestore
gsave
122.8 122.8 28.5 24.45 clipbox
/o {
gsave
newpath
translate
1.0 setlinewidth
1 setlinejoin
0 setlinecap
-0 -1.936492 m
1.936492 1.936492 l
-1.936492 1.936492 l
cl

gsave
1.000 setgray
fill
grestore
stroke
grestore
} bind def
108.931 70.6598 o
110.484 72.5439 o
105.598 74.4785 o
103.811 78.1482 o
100.889 80.9562 o
79.1871 90.5411 o
77.7708 93.4276 o
75.4094 97.3583 o
68.2902 98.7441 o
65.7374 99.9601 o
69.4844 101.021 o
72.078 101.115 o
74.7538 100.804 o
78.7281 98.7209 o
80.2506 95.6073 o
84.1801 92.2979 o
84.5489 89.6799 o
86.2478 88.3539 o
89.1703 87.4849 o
87.9913 86.3284 o
grestore
gsave
122.8 122.8 28.5 24.45 clipbox
/o {
gsave
newpath
translate
1.0 setlinewidth
1 setlinejoin
0 setlinecap
0 -1.936492 m
0.513564 -1.936492 1.006162 -1.732451 1.369306 -1.369306 c
1.732451 -1.006162 1.936492 -0.513564 1.936492 0 c
1.936492 0.513564 1.732451 1.006162 1.369306 1.369306 c
1.006162 1.732451 0.513564 1.936492 0 1.936492 c
-0.513564 1.936492 -1.006162 1.732451 -1.369306 1.369306 c
-1.732451 1.006162 -1.936492 0.513564 -1.936492 0 c
-1.936492 -0.513564 -1.732451 -1.006162 -1.369306 -1.369306 c
-1.006162 -1.732451 -0.513564 -1.936492 0 -1.936492 c
cl

gsave
1.000 setgray
fill
grestore
stroke
grestore
} bind def
93.6667 88.9589 o
96.6627 84.051 o
102.604 79.3059 o
103.057 73.1396 o
101.832 64.498 o
106.219 62.0432 o
107.138 64.04 o
104.678 67.9883 o
101.615 73.7788 o
97.0525 77.0762 o
94.1135 79.8182 o
92.7038 81.4573 o
89.5668 82.7869 o
91.9467 83.7375 o
93.4407 84.1348 o
88.8486 84.4016 o
grestore
1.250 setlinewidth
0 setlinejoin
2 setlinecap
[] 0 setdash
0.150 setgray
gsave
28.496875 24.45 m
28.496875 147.21 l
stroke
grestore
gsave
151.256875 24.45 m
151.256875 147.21 l
stroke
grestore
gsave
28.496875 24.45 m
151.256875 24.45 l
stroke
grestore
gsave
28.496875 147.21 m
151.256875 147.21 l
stroke
grestore
0.800 setlinewidth
1 setlinejoin
1 setlinecap
[] 0 setdash
0.000 1.000 0.000 setrgbcolor
gsave
122.8 122.8 28.5 24.45 clipbox
28.496875 116.848813 m
151.256875 54.811187 l
stroke
grestore
0.000 0.800 1.000 setrgbcolor
gsave
122.8 122.8 28.5 24.45 clipbox
28.496875 133.841592 m
151.256875 37.818408 l
stroke
grestore
0.000 0.000 1.000 setrgbcolor
gsave
122.8 122.8 28.5 24.45 clipbox
28.496875 129.657072 m
151.256875 42.002928 l
stroke
grestore
0.000 setgray
gsave
122.8 122.8 28.5 24.45 clipbox
28.496875 156.203455 m
151.256875 15.456545 l
stroke
grestore

end
showpage
